0.01 0.5612484997867447 
0.02 0.5612484997867447 
0.03 0.5612484997867447 
0.04 0.5612484997867447 
0.05 0.5612484997867447 
0.06000000000000001 0.5612484997867447 
0.07000000000000001 0.5612484997867447 
0.08 0.5612484997867447 
0.09 0.5612484997867447 
0.09999999999999999 0.5612484997867447 
0.11 0.5612484997867447 
0.12 0.5612484997867447 
0.13 0.5612484997867447 
0.14 0.5612484997867447 
0.15 0.5612484997867447 
0.16 0.5612484997867447 
0.17 0.5612484997867447 
0.18 0.5612484997867447 
0.19 0.5612484997867447 
0.2 0.5612484997867447 
0.2100000000000001 0.5612484997867447 
0.2200000000000001 0.5612484997867447 
0.2300000000000001 0.5612484997867447 
0.2400000000000001 0.5612484997867447 
0.2500000000000001 0.5612484997867447 
0.2600000000000001 0.5612484997867447 
0.2700000000000001 0.5612484997867447 
0.2800000000000001 0.5612484997867447 
0.2900000000000001 0.5612484997867447 
0.3000000000000001 0.5612484997867447 
0.3100000000000001 0.5612484997867447 
0.3200000000000001 0.5612484997867447 
0.3300000000000001 0.5612484997867447 
0.3400000000000001 0.5612484997867447 
0.3500000000000001 0.5612484997867447 
0.3600000000000002 0.5612484997867447 
0.3700000000000002 0.5612484997867447 
0.3800000000000002 0.5612484997867447 
0.3900000000000002 0.5612484997867447 
0.4000000000000002 0.5612484997867447 
0.4100000000000002 0.5612484997867447 
0.4200000000000002 0.5612484997867447 
0.4300000000000002 0.5612484997867447 
0.4400000000000002 0.5612484997867447 
0.4500000000000002 0.5612484997867447 
0.4600000000000002 0.5612484997867447 
0.4700000000000003 0.5612484997867447 
0.4800000000000003 0.5612484997867447 
0.4900000000000003 0.5612484997867447 
0.5000000000000002 0.5612484997867447 
0.5100000000000002 0.5612484997867447 
0.5200000000000002 0.5612484997867447 
0.5300000000000003 0.5612484997867447 
0.5400000000000003 0.5612484997867447 
0.5500000000000003 0.5612484997867447 
0.5600000000000003 0.5612484997867447 
0.5700000000000003 0.5612484997867447 
0.5800000000000003 0.5612484997867447 
0.5900000000000003 0.5612484997867447 
0.6000000000000003 0.5612484997867447 
0.6100000000000003 0.5612484997867447 
0.6200000000000003 0.5612484997867447 
0.6300000000000003 0.5612484997867447 
0.6400000000000004 0.5612484997867447 
0.6500000000000004 0.5612484997867447 
0.6600000000000004 0.5612484997867447 
0.6700000000000004 0.5612484997867447 
0.6800000000000004 0.5612484997867447 
0.6900000000000004 0.5612484997867447 
0.7000000000000004 0.5612484997867447 
0.7100000000000004 0.5612484997867447 
0.7200000000000004 0.5612484997867447 
0.7300000000000004 0.5612484997867447 
0.7400000000000004 0.5612484997867447 
0.7500000000000004 0.5612484997867447 
0.7600000000000005 0.5612484997867447 
0.7700000000000005 0.5612484997867447 
0.7800000000000005 0.5612484997867447 
0.7900000000000005 0.5612484997867447 
0.8000000000000005 0.5612484997867447 
0.8100000000000005 0.5612484997867447 
0.8200000000000005 0.5612484997867447 
0.8300000000000005 0.5612484997867447 
0.8400000000000005 0.5612484997867447 
0.8500000000000005 0.5612484997867447 
0.8600000000000005 0.5612484997867447 
0.8700000000000006 0.5612484997867447 
0.8800000000000006 0.5612484997867447 
0.8900000000000006 0.5612484997867447 
0.9000000000000006 0.5612484997867447 
0.9100000000000006 0.5612484997867447 
0.9200000000000006 0.5612484997867447 
0.9300000000000006 0.5612484997867447 
0.9400000000000006 0.5612484997867447 
0.9500000000000006 0.5612484997867447 
0.9600000000000006 0.5612484997867447 
0.9700000000000006 0.5612484997867447 
0.9800000000000007 0.5612484997867447 
0.9900000000000007 0.5612484997867447 
1.000000000000001 0.5612484997867447 
1.010000000000001 0.5612484997867447 
1.020000000000001 0.5612484997867447 
1.030000000000001 0.5612484997867447 
1.040000000000001 0.5612484997867447 
1.050000000000001 0.5612484997867447 
1.060000000000001 0.5612484997867447 
1.070000000000001 0.5612484997867447 
1.080000000000001 0.5612484997867447 
1.090000000000001 0.5612484997867447 
1.100000000000001 0.5612484997867447 
1.110000000000001 0.5612484997867447 
1.120000000000001 0.5612484997867447 
1.130000000000001 0.5612484997867447 
1.140000000000001 0.5612484997867447 
1.150000000000001 0.5612484997867447 
1.160000000000001 0.5612484997867447 
1.170000000000001 0.5612484997867447 
1.180000000000001 0.5612484997867447 
1.190000000000001 0.5612484997867447 
1.200000000000001 0.5612484997867447 
1.210000000000001 0.5612484997867447 
1.220000000000001 0.5612484997867447 
1.230000000000001 0.5612484997867447 
1.240000000000001 0.5612484997867447 
1.250000000000001 0.5612484997867447 
1.260000000000001 0.5612484997867447 
1.270000000000001 0.5612484997867447 
1.280000000000001 0.5612484997867447 
1.290000000000001 0.5612484997867447 
1.300000000000001 0.5612484997867447 
1.310000000000001 0.5612484997867447 
1.320000000000001 0.5612484997867447 
1.330000000000001 0.5612484997867447 
1.340000000000001 0.5612484997867447 
1.350000000000001 0.5612484997867447 
1.360000000000001 0.5612484997867447 
1.370000000000001 0.5612484997867447 
1.380000000000001 0.5612484997867447 
1.390000000000001 0.5612484997867447 
1.400000000000001 0.5612484997867447 
1.410000000000001 0.5612484997867447 
1.420000000000001 0.5612484997867447 
1.430000000000001 0.5612484997867447 
1.440000000000001 0.5612484997867447 
1.450000000000001 0.5612484997867447 
1.460000000000001 0.5612484997867447 
1.470000000000001 0.5612484997867447 
1.480000000000001 0.5612484997867447 
1.490000000000001 0.5612484997867447 
1.500000000000001 0.5612484997867447 
1.510000000000001 0.5612484997867447 
1.520000000000001 0.5612484997867447 
1.530000000000001 0.5612484997867447 
1.540000000000001 0.5612484997867447 
1.550000000000001 0.5612484997867447 
1.560000000000001 0.5612484997867447 
1.570000000000001 0.5612484997867447 
1.580000000000001 0.5612484997867447 
1.590000000000001 0.5612484997867447 
1.600000000000001 0.5612484997867447 
1.610000000000001 0.5612484997867447 
1.620000000000001 0.5612484997867447 
1.630000000000001 0.5612484997867447 
1.640000000000001 0.5612484997867447 
1.650000000000001 0.5612484997867447 
1.660000000000001 0.5612484997867447 
1.670000000000001 0.5612484997867447 
1.680000000000001 0.5612484997867447 
1.690000000000001 0.5612484997867447 
1.700000000000001 0.5612484997867447 
1.710000000000001 0.5612484997867447 
1.720000000000001 0.5612484997867447 
1.730000000000001 0.5612484997867447 
1.740000000000001 0.5612484997867447 
1.750000000000001 0.5612484997867447 
1.760000000000001 0.5612484997867447 
1.770000000000001 0.5612484997867447 
1.780000000000001 0.5612484997867447 
1.790000000000001 0.5612484997867447 
1.800000000000001 0.5612484997867447 
1.810000000000001 0.5612484997867447 
1.820000000000001 0.5612484997867447 
1.830000000000001 0.5612484997867447 
1.840000000000001 0.5612484997867447 
1.850000000000001 0.5612484997867447 
1.860000000000001 0.5612484997867447 
1.870000000000001 0.5612484997867447 
1.880000000000001 0.5612484997867447 
1.890000000000002 0.5612484997867447 
1.900000000000002 0.5612484997867447 
1.910000000000002 0.5612484997867447 
1.920000000000002 0.5612484997867447 
1.930000000000002 0.5612484997867447 
1.940000000000002 0.5612484997867447 
1.950000000000002 0.5612484997867447 
1.960000000000002 0.5612484997867447 
1.970000000000002 0.5612484997867447 
1.980000000000002 0.5612484997867447 
1.990000000000002 0.5612484997867447 
2.000000000000001 0.5612484997867447 
2.010000000000001 0.5612484997867447 
2.020000000000001 0.5612484997867447 
2.030000000000001 0.5612484997867447 
2.040000000000001 0.5612484997867447 
2.05 0.5612484997867447 
2.06 0.5612484997867447 
2.07 0.5612484997867447 
2.08 0.5612484997867447 
2.089999999999999 0.5612484997867447 
2.099999999999999 0.5612484997867447 
2.109999999999999 0.5612484997867447 
2.119999999999999 0.5612484997867447 
2.129999999999999 0.5612484997867447 
2.139999999999998 0.5612484997867447 
2.149999999999998 0.5612484997867447 
2.159999999999998 0.5612484997867447 
2.169999999999998 0.5612484997867447 
2.179999999999998 0.5612484997867447 
2.189999999999997 0.5612484997867447 
2.199999999999997 0.5612484997867447 
2.209999999999997 0.5612484997867447 
2.219999999999997 0.5612484997867447 
2.229999999999996 0.5612484997867447 
2.239999999999996 0.5612484997867447 
2.249999999999996 0.5612484997867447 
2.259999999999996 0.5612484997867447 
2.269999999999996 0.5612484997867447 
2.279999999999995 0.5612484997867447 
2.289999999999995 0.5603916745313217 
2.299999999999995 0.556122099489607 
2.309999999999995 0.5519017493033251 
2.319999999999995 0.5502433304826183 
2.329999999999994 0.5502433304826183 
2.339999999999994 0.5502433304826183 
2.349999999999994 0.5502433304826183 
2.359999999999994 0.5502433304826183 
2.369999999999993 0.5502433304826183 
2.379999999999993 0.5502433304826183 
2.389999999999993 0.5502433304826183 
2.399999999999993 0.5502433304826183 
2.409999999999993 0.5502433304826183 
2.419999999999992 0.5502433304826183 
2.429999999999992 0.5502433304826183 
2.439999999999992 0.5502433304826183 
2.449999999999992 0.5502433304826183 
2.459999999999992 0.5502433304826183 
2.469999999999991 0.5502433304826183 
2.479999999999991 0.5502433304826183 
2.489999999999991 0.5502433304826183 
2.499999999999991 0.5502433304826183 
2.509999999999991 0.5502433304826183 
2.51999999999999 0.5502433304826183 
2.52999999999999 0.5502433304826183 
2.53999999999999 0.5502433304826183 
2.54999999999999 0.5502433304826183 
2.559999999999989 0.5502433304826183 
2.569999999999989 0.5502433304826183 
2.579999999999989 0.5502433304826183 
2.589999999999989 0.5502433304826183 
2.599999999999989 0.5496697499712677 
2.609999999999988 0.5474398785668883 
2.619999999999988 0.5473018483849688 
2.629999999999988 0.5473018483849688 
2.639999999999988 0.5473018483849688 
2.649999999999988 0.5473018483849688 
2.659999999999987 0.5473018483849688 
2.669999999999987 0.5473018483849688 
2.679999999999987 0.5473018483849688 
2.689999999999987 0.5473018483849688 
2.699999999999986 0.5473018483849688 
2.709999999999986 0.5473018483849688 
2.719999999999986 0.5473018483849688 
2.729999999999986 0.5473018483849688 
2.739999999999986 0.5473018483849688 
2.749999999999985 0.5473018483849688 
2.759999999999985 0.5473018483849688 
2.769999999999985 0.5389017156374489 
2.779999999999985 0.5335519584546122 
2.789999999999985 0.5335519584546122 
2.799999999999984 0.5335519584546122 
2.809999999999984 0.5335519584546122 
2.819999999999984 0.5335519584546122 
2.829999999999984 0.5335519584546122 
2.839999999999983 0.5335519584546122 
2.849999999999983 0.5335519584546122 
2.859999999999983 0.5335519584546122 
2.869999999999983 0.5335519584546122 
2.879999999999983 0.5335519584546122 
2.889999999999982 0.5335519584546122 
2.899999999999982 0.5335519584546122 
2.909999999999982 0.5335519584546122 
2.919999999999982 0.5335519584546122 
2.929999999999982 0.5335519584546122 
2.939999999999981 0.5335519584546122 
2.949999999999981 0.5335519584546122 
2.959999999999981 0.5335519584546122 
2.969999999999981 0.5335519584546122 
2.97999999999998 0.5335519584546122 
2.98999999999998 0.5335519584546122 
2.99999999999998 0.5335519584546122 
3.00999999999998 0.5335519584546122 
3.01999999999998 0.5335519584546122 
3.029999999999979 0.5335519584546122 
3.039999999999979 0.5335519584546122 
3.049999999999979 0.5335519584546122 
3.059999999999979 0.5335519584546122 
3.069999999999979 0.5335519584546122 
3.079999999999978 0.5335519584546122 
3.089999999999978 0.5335519584546122 
3.099999999999978 0.5335519584546122 
3.109999999999978 0.5335519584546122 
3.119999999999978 0.5335519584546122 
3.129999999999977 0.5335519584546122 
3.139999999999977 0.5335519584546122 
3.149999999999977 0.5335519584546122 
3.159999999999977 0.5335519584546122 
3.169999999999976 0.5335519584546122 
3.179999999999976 0.5335519584546122 
3.189999999999976 0.5335519584546122 
3.199999999999976 0.5335519584546122 
3.209999999999976 0.5335519584546122 
3.219999999999975 0.5335519584546122 
3.229999999999975 0.5335519584546122 
3.239999999999975 0.5335519584546122 
3.249999999999975 0.5335519584546122 
3.259999999999975 0.5335519584546122 
3.269999999999974 0.5335519584546122 
3.279999999999974 0.5335519584546122 
3.289999999999974 0.5335519584546122 
3.299999999999974 0.52039943549333 
3.309999999999973 0.4819277209049361 
3.319999999999973 0.4532039801299916 
3.329999999999973 0.4478144331609217 
3.339999999999973 0.4478144331609217 
3.349999999999973 0.4478144331609217 
3.359999999999972 0.4478144331609217 
3.369999999999972 0.4478144331609217 
3.379999999999972 0.4478144331609217 
3.389999999999972 0.4478144331609217 
3.399999999999972 0.4478144331609217 
3.409999999999971 0.4478144331609217 
3.419999999999971 0.4478144331609217 
3.429999999999971 0.4478144331609217 
3.439999999999971 0.4478144331609217 
3.44999999999997 0.4478144331609217 
3.45999999999997 0.4478144331609217 
3.46999999999997 0.4478144331609217 
3.47999999999997 0.4478144331609217 
3.48999999999997 0.4478144331609217 
3.499999999999969 0.4478144331609217 
3.509999999999969 0.4478144331609217 
3.519999999999969 0.4478144331609217 
3.529999999999969 0.4478144331609217 
3.539999999999969 0.4478144331609217 
3.549999999999968 0.4478144331609217 
3.559999999999968 0.4478144331609217 
3.569999999999968 0.4478144331609217 
3.579999999999968 0.4463443750922437 
3.589999999999967 0.4447799651747181 
3.599999999999967 0.4394612710029619 
3.609999999999967 0.4394612710029619 
3.619999999999967 0.4394612710029619 
3.629999999999967 0.4394612710029619 
3.639999999999966 0.4394612710029619 
3.649999999999966 0.4394612710029619 
3.659999999999966 0.4394612710029619 
3.669999999999966 0.4394612710029619 
3.679999999999966 0.4394612710029619 
3.689999999999965 0.4394612710029619 
3.699999999999965 0.4394612710029619 
3.709999999999965 0.4394612710029619 
3.719999999999965 0.4394612710029619 
3.729999999999965 0.4394612710029619 
3.739999999999964 0.4394612710029619 
3.749999999999964 0.4394612710029619 
3.759999999999964 0.4394612710029619 
3.769999999999964 0.4394612710029619 
3.779999999999963 0.4394612710029619 
3.789999999999963 0.4394612710029619 
3.799999999999963 0.4394612710029619 
3.809999999999963 0.4394612710029619 
3.819999999999963 0.4394612710029619 
3.829999999999962 0.4394612710029619 
3.839999999999962 0.4394612710029619 
3.849999999999962 0.4394612710029619 
3.859999999999962 0.4394612710029619 
3.869999999999962 0.4394612710029619 
3.879999999999961 0.4394612710029619 
3.889999999999961 0.4394612710029619 
3.899999999999961 0.4394612710029619 
3.909999999999961 0.4394612710029619 
3.91999999999996 0.4394612710029619 
3.92999999999996 0.4394612710029619 
3.93999999999996 0.4394612710029619 
3.94999999999996 0.4394612710029619 
3.95999999999996 0.4394612710029619 
3.969999999999959 0.4394612710029619 
3.979999999999959 0.4394612710029619 
3.989999999999959 0.4394612710029619 
3.999999999999959 0.4394612710029619 
4.009999999999959 0.4394612710029619 
4.019999999999959 0.4394612710029619 
4.029999999999959 0.4394612710029619 
4.039999999999958 0.4394612710029619 
4.049999999999958 0.4394612710029619 
4.059999999999958 0.4394612710029619 
4.069999999999958 0.4394612710029619 
4.079999999999957 0.4394612710029619 
4.089999999999957 0.4394612710029619 
4.099999999999957 0.4394612710029619 
4.109999999999957 0.4394612710029619 
4.119999999999957 0.4394612710029619 
4.129999999999956 0.4394612710029619 
4.139999999999956 0.4394612710029619 
4.149999999999956 0.4394612710029619 
4.159999999999956 0.4394612710029619 
4.169999999999956 0.4394612710029619 
4.179999999999955 0.4394612710029619 
4.189999999999955 0.4394612710029619 
4.199999999999955 0.4394612710029619 
4.209999999999955 0.4394612710029619 
4.219999999999955 0.4394612710029619 
4.229999999999954 0.4394612710029619 
4.239999999999954 0.4394612710029619 
4.249999999999954 0.4394612710029619 
4.259999999999954 0.4394612710029619 
4.269999999999953 0.4394612710029619 
4.279999999999953 0.4394612710029619 
4.289999999999953 0.4394612710029619 
4.299999999999953 0.4394612710029619 
4.309999999999953 0.4394612710029619 
4.319999999999952 0.4394612710029619 
4.329999999999952 0.4394612710029619 
4.339999999999952 0.4394612710029619 
4.349999999999952 0.4394612710029619 
4.359999999999952 0.4394612710029619 
4.369999999999951 0.4394612710029619 
4.379999999999951 0.4394612710029619 
4.389999999999951 0.4394612710029619 
4.399999999999951 0.4394612710029619 
4.40999999999995 0.4394612710029619 
4.41999999999995 0.4394612710029619 
4.42999999999995 0.4394612710029619 
4.43999999999995 0.4394612710029619 
4.44999999999995 0.4394612710029619 
4.459999999999949 0.4394612710029619 
4.469999999999949 0.4394612710029619 
4.479999999999949 0.4394612710029619 
4.489999999999949 0.4394612710029619 
4.499999999999949 0.4394612710029619 
4.509999999999948 0.4394612710029619 
4.519999999999948 0.4394612710029619 
4.529999999999948 0.4394612710029619 
4.539999999999948 0.4394612710029619 
4.549999999999947 0.4394612710029619 
4.559999999999947 0.4394612710029619 
4.569999999999947 0.4394612710029619 
4.579999999999947 0.4394612710029619 
4.589999999999947 0.4394612710029619 
4.599999999999946 0.4394612710029619 
4.609999999999946 0.4394612710029619 
4.619999999999946 0.4394612710029619 
4.629999999999946 0.4394612710029619 
4.639999999999946 0.4394612710029619 
4.649999999999945 0.4394612710029619 
4.659999999999945 0.4394612710029619 
4.669999999999945 0.4394612710029619 
4.679999999999945 0.4394612710029619 
4.689999999999944 0.4394612710029619 
4.699999999999944 0.4394612710029619 
4.709999999999944 0.4394612710029619 
4.719999999999944 0.4394612710029619 
4.729999999999944 0.4394612710029619 
4.739999999999943 0.4394612710029619 
4.749999999999943 0.4394612710029619 
4.759999999999943 0.4394612710029619 
4.769999999999943 0.4394612710029619 
4.779999999999943 0.4394612710029619 
4.789999999999942 0.4394612710029619 
4.799999999999942 0.4394612710029619 
4.809999999999942 0.4394612710029619 
4.819999999999942 0.4394612710029619 
4.829999999999942 0.4394612710029619 
4.839999999999941 0.4394612710029619 
4.849999999999941 0.4394612710029619 
4.859999999999941 0.4394612710029619 
4.869999999999941 0.4394612710029619 
4.87999999999994 0.4394612710029619 
4.88999999999994 0.4394612710029619 
4.89999999999994 0.4394612710029619 
4.90999999999994 0.4394612710029619 
4.91999999999994 0.4394612710029619 
4.929999999999939 0.4394612710029619 
4.939999999999939 0.4394612710029619 
4.949999999999939 0.4394612710029619 
4.959999999999939 0.4394612710029619 
4.969999999999939 0.4394612710029619 
4.979999999999938 0.4394612710029619 
4.989999999999938 0.4394612710029619 
4.999999999999938 0.4394612710029619 
5.009999999999938 0.4394612710029619 
5.019999999999937 0.4394612710029619 
5.029999999999937 0.4394612710029619 
5.039999999999937 0.4394612710029619 
5.049999999999937 0.4394612710029619 
5.059999999999937 0.4394612710029619 
5.069999999999936 0.4394612710029619 
5.079999999999936 0.4394612710029619 
5.089999999999936 0.4394612710029619 
5.099999999999936 0.4394612710029619 
5.109999999999936 0.4394612710029619 
5.119999999999935 0.4394612710029619 
5.129999999999935 0.4394612710029619 
5.139999999999935 0.4394612710029619 
5.149999999999935 0.4394612710029619 
5.159999999999934 0.4394612710029619 
5.169999999999934 0.4394612710029619 
5.179999999999934 0.4394612710029619 
5.189999999999934 0.4394612710029619 
5.199999999999934 0.4394612710029619 
5.209999999999933 0.4394612710029619 
5.219999999999933 0.4394612710029619 
5.229999999999933 0.4394612710029619 
5.239999999999933 0.4394612710029619 
5.249999999999933 0.4394612710029619 
5.259999999999932 0.4394612710029619 
5.269999999999932 0.4394612710029619 
5.279999999999932 0.4394612710029619 
5.289999999999932 0.4394612710029619 
5.299999999999931 0.4394612710029619 
5.309999999999931 0.4394612710029619 
5.319999999999931 0.4394612710029619 
5.329999999999931 0.4394612710029619 
5.339999999999931 0.4394612710029619 
5.34999999999993 0.4394612710029619 
5.35999999999993 0.4394612710029619 
5.36999999999993 0.4394612710029619 
5.37999999999993 0.4394612710029619 
5.38999999999993 0.4394612710029619 
5.399999999999929 0.4394612710029619 
5.409999999999929 0.4394612710029619 
5.419999999999929 0.4394612710029619 
5.429999999999929 0.4394612710029619 
5.439999999999928 0.4394612710029619 
5.449999999999928 0.4394612710029619 
5.459999999999928 0.4394612710029619 
5.469999999999928 0.4394612710029619 
5.479999999999928 0.4394612710029619 
5.489999999999927 0.4394612710029619 
5.499999999999927 0.4394612710029619 
5.509999999999927 0.4394612710029619 
5.519999999999927 0.4394612710029619 
5.529999999999927 0.4394612710029619 
5.539999999999926 0.4394612710029619 
5.549999999999926 0.4394612710029619 
5.559999999999926 0.4394612710029619 
5.569999999999926 0.4394612710029619 
5.579999999999926 0.4394612710029619 
5.589999999999925 0.4394612710029619 
5.599999999999925 0.4394612710029619 
5.609999999999925 0.4394612710029619 
5.619999999999925 0.4394612710029619 
5.629999999999924 0.4394612710029619 
5.639999999999924 0.4394612710029619 
5.649999999999924 0.4394612710029619 
5.659999999999924 0.4394612710029619 
5.669999999999924 0.4394612710029619 
5.679999999999923 0.4394612710029619 
5.689999999999923 0.4394612710029619 
5.699999999999923 0.4394612710029619 
5.709999999999923 0.4394612710029619 
5.719999999999923 0.4394612710029619 
5.729999999999922 0.4394612710029619 
5.739999999999922 0.4394612710029619 
5.749999999999922 0.4394612710029619 
5.759999999999922 0.4394612710029619 
5.769999999999921 0.4394612710029619 
5.779999999999921 0.4394612710029619 
5.789999999999921 0.4394612710029619 
5.799999999999921 0.4394612710029619 
5.809999999999921 0.4394612710029619 
5.81999999999992 0.4394612710029619 
5.82999999999992 0.4394612710029619 
5.83999999999992 0.4394612710029619 
5.84999999999992 0.4394612710029619 
5.85999999999992 0.4394612710029619 
5.869999999999919 0.4394612710029619 
5.879999999999919 0.4394612710029619 
5.889999999999919 0.4394612710029619 
5.899999999999919 0.4394612710029619 
5.909999999999918 0.4394612710029619 
5.919999999999918 0.4394612710029619 
5.929999999999918 0.4394612710029619 
5.939999999999918 0.4394612710029619 
5.949999999999918 0.4394612710029619 
5.959999999999917 0.4394612710029619 
5.969999999999917 0.4394612710029619 
5.979999999999917 0.4394612710029619 
5.989999999999917 0.4394612710029619 
5.999999999999917 0.4394612710029619 
6.009999999999916 0.4394612710029619 
6.019999999999916 0.4394612710029619 
6.029999999999916 0.4394612710029619 
6.039999999999916 0.4394612710029619 
6.049999999999915 0.4394612710029619 
6.059999999999915 0.4394612710029619 
6.069999999999915 0.4394612710029619 
6.079999999999915 0.4394612710029619 
6.089999999999915 0.4394612710029619 
6.099999999999914 0.4394612710029619 
6.109999999999914 0.4394612710029619 
6.119999999999914 0.4394612710029619 
6.129999999999914 0.4394612710029619 
6.139999999999914 0.4394612710029619 
6.149999999999913 0.4394612710029619 
6.159999999999913 0.4394612710029619 
6.169999999999913 0.4394612710029619 
6.179999999999913 0.4394612710029619 
6.189999999999913 0.4394612710029619 
6.199999999999912 0.4394612710029619 
6.209999999999912 0.4394612710029619 
6.219999999999912 0.4394612710029619 
6.229999999999912 0.4394612710029619 
6.239999999999911 0.4394612710029619 
6.249999999999911 0.4394612710029619 
6.259999999999911 0.4394612710029619 
6.269999999999911 0.4394612710029619 
6.279999999999911 0.4394612710029619 
6.28999999999991 0.4394612710029619 
6.29999999999991 0.4394612710029619 
6.30999999999991 0.4394612710029619 
6.31999999999991 0.4394612710029619 
6.32999999999991 0.4394612710029619 
6.339999999999909 0.4394612710029619 
6.349999999999909 0.4394612710029619 
6.359999999999909 0.4394612710029619 
6.369999999999909 0.4394612710029619 
6.379999999999908 0.4394612710029619 
6.389999999999908 0.4394612710029619 
6.399999999999908 0.4394612710029619 
6.409999999999908 0.4394612710029619 
6.419999999999908 0.4394612710029619 
6.429999999999907 0.4394612710029619 
6.439999999999907 0.4394612710029619 
6.449999999999907 0.4394612710029619 
6.459999999999907 0.4394612710029619 
6.469999999999907 0.4394612710029619 
6.479999999999906 0.4394612710029619 
6.489999999999906 0.4394612710029619 
6.499999999999906 0.4394612710029619 
6.509999999999906 0.4394612710029619 
6.519999999999905 0.4394612710029619 
6.529999999999905 0.4394612710029619 
6.539999999999905 0.4394612710029619 
6.549999999999905 0.4394612710029619 
6.559999999999905 0.4394612710029619 
6.569999999999904 0.4394612710029619 
6.579999999999904 0.4394612710029619 
6.589999999999904 0.4394612710029619 
6.599999999999904 0.4394612710029619 
6.609999999999904 0.4394612710029619 
6.619999999999903 0.4394612710029619 
6.629999999999903 0.4394612710029619 
6.639999999999903 0.4394612710029619 
6.649999999999903 0.4394612710029619 
6.659999999999902 0.4394612710029619 
6.669999999999902 0.4394612710029619 
6.679999999999902 0.4394612710029619 
6.689999999999902 0.4394612710029619 
6.699999999999902 0.4394612710029619 
6.709999999999901 0.4394612710029619 
6.719999999999901 0.4394612710029619 
6.729999999999901 0.4394612710029619 
6.739999999999901 0.4394612710029619 
6.749999999999901 0.4394612710029619 
6.7599999999999 0.4394612710029619 
6.7699999999999 0.4394612710029619 
6.7799999999999 0.4394612710029619 
6.7899999999999 0.4394612710029619 
6.7999999999999 0.4394612710029619 
6.809999999999899 0.4394612710029619 
6.819999999999899 0.4394612710029619 
6.829999999999899 0.4394612710029619 
6.839999999999899 0.4394612710029619 
6.849999999999898 0.4394612710029619 
6.859999999999898 0.4394612710029619 
6.869999999999898 0.4394612710029619 
6.879999999999898 0.4394612710029619 
6.889999999999898 0.4394612710029619 
6.899999999999897 0.4394612710029619 
6.909999999999897 0.4394612710029619 
6.919999999999897 0.4394612710029619 
6.929999999999897 0.4394612710029619 
6.939999999999897 0.4394612710029619 
6.949999999999896 0.4394612710029619 
6.959999999999896 0.4394612710029619 
6.969999999999896 0.4394612710029619 
6.979999999999896 0.4394612710029619 
6.989999999999895 0.4394612710029619 
6.999999999999895 0.4394612710029619 
7.009999999999895 0.4394612710029619 
7.019999999999895 0.4394612710029619 
7.029999999999895 0.4394612710029619 
7.039999999999894 0.4394612710029619 
7.049999999999894 0.4394612710029619 
7.059999999999894 0.4394612710029619 
7.069999999999894 0.4394612710029619 
7.079999999999894 0.4394612710029619 
7.089999999999893 0.4394612710029619 
7.099999999999893 0.4394612710029619 
7.109999999999893 0.4394612710029619 
7.119999999999893 0.4394612710029619 
7.129999999999892 0.4394612710029619 
7.139999999999892 0.4394612710029619 
7.149999999999892 0.4394612710029619 
7.159999999999892 0.4394612710029619 
7.169999999999892 0.4394612710029619 
7.179999999999891 0.4394612710029619 
7.189999999999891 0.4394612710029619 
7.199999999999891 0.4394612710029619 
7.209999999999891 0.4394612710029619 
7.219999999999891 0.4394612710029619 
7.22999999999989 0.4394612710029619 
7.23999999999989 0.4394612710029619 
7.24999999999989 0.4394612710029619 
7.25999999999989 0.4394612710029619 
7.269999999999889 0.4394612710029619 
7.279999999999889 0.4394612710029619 
7.289999999999889 0.4394612710029619 
7.299999999999889 0.4394612710029619 
7.309999999999889 0.4394612710029619 
7.319999999999888 0.4394612710029619 
7.329999999999888 0.4394612710029619 
7.339999999999888 0.4394612710029619 
7.349999999999888 0.4394612710029619 
7.359999999999888 0.4394612710029619 
7.369999999999887 0.4394612710029619 
7.379999999999887 0.4394612710029619 
7.389999999999887 0.4394612710029619 
7.399999999999887 0.4394612710029619 
7.409999999999887 0.4394612710029619 
7.419999999999886 0.4394612710029619 
7.429999999999886 0.4394612710029619 
7.439999999999886 0.4394612710029619 
7.449999999999886 0.4394612710029619 
7.459999999999885 0.4394612710029619 
7.469999999999885 0.4394612710029619 
7.479999999999885 0.4394612710029619 
7.489999999999885 0.4394612710029619 
7.499999999999885 0.4394612710029619 
7.509999999999884 0.4394612710029619 
7.519999999999884 0.4394612710029619 
7.529999999999884 0.4394612710029619 
7.539999999999884 0.4394612710029619 
7.549999999999884 0.4394612710029619 
7.559999999999883 0.4394612710029619 
7.569999999999883 0.4394612710029619 
7.579999999999883 0.4394612710029619 
7.589999999999883 0.4394612710029619 
7.599999999999882 0.4394612710029619 
7.609999999999882 0.4394612710029619 
7.619999999999882 0.4394612710029619 
7.629999999999882 0.4394612710029619 
7.639999999999882 0.4394612710029619 
7.649999999999881 0.4394612710029619 
7.659999999999881 0.4394612710029619 
7.669999999999881 0.4394612710029619 
7.679999999999881 0.4394612710029619 
7.689999999999881 0.4394612710029619 
7.69999999999988 0.4394612710029619 
7.70999999999988 0.4394612710029619 
7.71999999999988 0.4394612710029619 
7.72999999999988 0.4394612710029619 
7.739999999999879 0.4394612710029619 
7.749999999999879 0.4394612710029619 
7.759999999999879 0.4394612710029619 
7.769999999999879 0.4394612710029619 
7.779999999999879 0.4394612710029619 
7.789999999999878 0.4394612710029619 
7.799999999999878 0.4394612710029619 
7.809999999999878 0.4394612710029619 
7.819999999999878 0.4394612710029619 
7.829999999999878 0.4394612710029619 
7.839999999999877 0.4394612710029619 
7.849999999999877 0.4394612710029619 
7.859999999999877 0.4394612710029619 
7.869999999999877 0.4394612710029619 
7.879999999999876 0.4394612710029619 
7.889999999999876 0.4394612710029619 
7.899999999999876 0.4394612710029619 
7.909999999999876 0.4394612710029619 
7.919999999999876 0.4394612710029619 
7.929999999999875 0.4394612710029619 
7.939999999999875 0.4394612710029619 
7.949999999999875 0.4394612710029619 
7.959999999999875 0.4394612710029619 
7.969999999999875 0.4394612710029619 
7.979999999999874 0.4394612710029619 
7.989999999999874 0.4394612710029619 
7.999999999999874 0.4394612710029619 
8.009999999999874 0.4394612710029619 
8.019999999999874 0.4394612710029619 
8.029999999999873 0.4394612710029619 
8.039999999999873 0.4394612710029619 
8.049999999999873 0.4394612710029619 
8.059999999999873 0.4394612710029619 
8.069999999999872 0.4394612710029619 
8.079999999999872 0.4394612710029619 
8.089999999999872 0.4394612710029619 
8.099999999999872 0.4394612710029619 
8.109999999999872 0.4394612710029619 
8.119999999999871 0.4394612710029619 
8.129999999999871 0.4394612710029619 
8.139999999999871 0.4394612710029619 
8.149999999999871 0.4394612710029619 
8.159999999999871 0.4394612710029619 
8.16999999999987 0.4394612710029619 
8.17999999999987 0.4394612710029619 
8.18999999999987 0.4394612710029619 
8.19999999999987 0.4394612710029619 
8.209999999999869 0.4394612710029619 
8.219999999999869 0.4394612710029619 
8.229999999999869 0.4394612710029619 
8.239999999999869 0.4394612710029619 
8.249999999999869 0.4394612710029619 
8.259999999999868 0.4394612710029619 
8.269999999999868 0.4394612710029619 
8.279999999999868 0.4394612710029619 
8.289999999999868 0.4394612710029619 
8.299999999999868 0.4394612710029619 
8.309999999999867 0.4394612710029619 
8.319999999999867 0.4394612710029619 
8.329999999999867 0.4394612710029619 
8.339999999999867 0.4394612710029619 
8.349999999999866 0.4394612710029619 
8.359999999999866 0.4394612710029619 
8.369999999999866 0.4394612710029619 
8.379999999999866 0.4394612710029619 
8.389999999999866 0.4394612710029619 
8.399999999999865 0.4394612710029619 
8.409999999999865 0.4394612710029619 
8.419999999999865 0.4394612710029619 
8.429999999999865 0.4394612710029619 
8.439999999999865 0.4394612710029619 
8.449999999999864 0.4394612710029619 
8.459999999999864 0.4394612710029619 
8.469999999999864 0.4394612710029619 
8.479999999999864 0.4394612710029619 
8.489999999999863 0.4394612710029619 
8.499999999999863 0.4394612710029619 
8.509999999999863 0.4394612710029619 
8.519999999999863 0.4394612710029619 
8.529999999999863 0.4394612710029619 
8.539999999999862 0.4394612710029619 
8.549999999999862 0.4394612710029619 
8.559999999999862 0.4394612710029619 
8.569999999999862 0.4394612710029619 
8.579999999999862 0.4394612710029619 
8.589999999999861 0.4394612710029619 
8.599999999999861 0.4394612710029619 
8.609999999999861 0.4394612710029619 
8.619999999999861 0.4394612710029619 
8.62999999999986 0.4394612710029619 
8.63999999999986 0.4394612710029619 
8.64999999999986 0.4394612710029619 
8.65999999999986 0.4394612710029619 
8.66999999999986 0.4394612710029619 
8.679999999999859 0.4394612710029619 
8.689999999999859 0.4394612710029619 
8.699999999999859 0.4394612710029619 
8.709999999999859 0.4394612710029619 
8.719999999999859 0.4394612710029619 
8.729999999999858 0.4394612710029619 
8.739999999999858 0.4394612710029619 
8.749999999999858 0.4394612710029619 
8.759999999999858 0.4394612710029619 
8.769999999999858 0.4394612710029619 
8.779999999999857 0.4394612710029619 
8.789999999999857 0.4394612710029619 
8.799999999999857 0.4394612710029619 
8.809999999999857 0.4394612710029619 
8.819999999999856 0.4394612710029619 
8.829999999999856 0.4394612710029619 
8.839999999999856 0.4394612710029619 
8.849999999999856 0.4394612710029619 
8.859999999999856 0.4394612710029619 
8.869999999999855 0.4394612710029619 
8.879999999999855 0.4394612710029619 
8.889999999999855 0.4394612710029619 
8.899999999999855 0.4394612710029619 
8.909999999999855 0.4394612710029619 
8.919999999999854 0.4394612710029619 
8.929999999999854 0.4394612710029619 
8.939999999999854 0.4394612710029619 
8.949999999999854 0.4394612710029619 
8.959999999999853 0.4394612710029619 
8.969999999999853 0.4394612710029619 
8.979999999999853 0.4394612710029619 
8.989999999999853 0.4394612710029619 
8.999999999999853 0.4394612710029619 
9.009999999999852 0.4394612710029619 
9.019999999999852 0.4394612710029619 
9.029999999999852 0.4394612710029619 
9.039999999999852 0.4394612710029619 
9.049999999999852 0.4394612710029619 
9.059999999999851 0.4394612710029619 
9.069999999999851 0.4394612710029619 
9.079999999999851 0.4394612710029619 
9.089999999999851 0.4394612710029619 
9.09999999999985 0.4394612710029619 
9.10999999999985 0.4394612710029619 
9.11999999999985 0.4394612710029619 
9.12999999999985 0.4394612710029619 
9.13999999999985 0.4394612710029619 
9.149999999999849 0.4394612710029619 
9.159999999999849 0.4394612710029619 
9.169999999999849 0.4394612710029619 
9.179999999999849 0.4394612710029619 
9.189999999999849 0.4394612710029619 
9.199999999999848 0.4394612710029619 
9.209999999999848 0.4394612710029619 
9.219999999999848 0.4394612710029619 
9.229999999999848 0.4394612710029619 
9.239999999999847 0.4394612710029619 
9.249999999999847 0.4394612710029619 
9.259999999999847 0.4394612710029619 
9.269999999999847 0.4394612710029619 
9.279999999999847 0.4394612710029619 
9.289999999999846 0.4394612710029619 
9.299999999999846 0.4394612710029619 
9.309999999999846 0.4394612710029619 
9.319999999999846 0.4394612710029619 
9.329999999999846 0.4394612710029619 
9.339999999999845 0.4394612710029619 
9.349999999999845 0.4394612710029619 
9.359999999999845 0.4394612710029619 
9.369999999999845 0.4394612710029619 
9.379999999999845 0.4394612710029619 
9.389999999999844 0.4394612710029619 
9.399999999999844 0.4394612710029619 
9.409999999999844 0.4394612710029619 
9.419999999999844 0.4394612710029619 
9.429999999999843 0.4394612710029619 
9.439999999999843 0.4394612710029619 
9.449999999999843 0.4394612710029619 
9.459999999999843 0.4394612710029619 
9.469999999999843 0.4394612710029619 
9.479999999999842 0.4394612710029619 
9.489999999999842 0.4394612710029619 
9.499999999999842 0.4394612710029619 
9.509999999999842 0.4394612710029619 
9.519999999999842 0.4394612710029619 
9.529999999999841 0.4394612710029619 
9.539999999999841 0.4394612710029619 
9.549999999999841 0.4394612710029619 
9.559999999999841 0.4394612710029619 
9.56999999999984 0.4394612710029619 
9.57999999999984 0.4394612710029619 
9.58999999999984 0.4394612710029619 
9.59999999999984 0.4394612710029619 
9.60999999999984 0.4394612710029619 
9.619999999999839 0.4394612710029619 
9.629999999999839 0.4394612710029619 
9.639999999999839 0.4394612710029619 
9.649999999999839 0.4394612710029619 
9.659999999999839 0.4394612710029619 
9.669999999999838 0.4394612710029619 
9.679999999999838 0.4394612710029619 
9.689999999999838 0.4394612710029619 
9.699999999999838 0.4394612710029619 
9.709999999999837 0.4394612710029619 
9.719999999999837 0.4394612710029619 
9.729999999999837 0.4394612710029619 
9.739999999999837 0.4394612710029619 
9.749999999999837 0.4394612710029619 
9.759999999999836 0.4394612710029619 
9.769999999999836 0.4394612710029619 
9.779999999999836 0.4394612710029619 
9.789999999999836 0.4394612710029619 
9.799999999999836 0.4394612710029619 
9.809999999999835 0.4394612710029619 
9.819999999999835 0.4394612710029619 
9.829999999999835 0.4394612710029619 
9.839999999999835 0.4394612710029619 
9.849999999999834 0.4394612710029619 
9.859999999999834 0.4394612710029619 
9.869999999999834 0.4394612710029619 
9.879999999999834 0.4394612710029619 
9.889999999999834 0.4394612710029619 
9.899999999999833 0.4394612710029619 
9.909999999999833 0.4394612710029619 
9.919999999999833 0.4394612710029619 
9.929999999999833 0.4394612710029619 
9.939999999999833 0.4394612710029619 
9.949999999999832 0.4394612710029619 
9.959999999999832 0.4394612710029619 
9.969999999999832 0.4394612710029619 
9.979999999999832 0.4394612710029619 
9.989999999999832 0.4394612710029619 
9.999999999999831 0.4394612710029619 
10.00999999999983 0.4394612710029619 
10.01999999999983 0.4394612710029619 
10.02999999999983 0.4394612710029619 
10.03999999999983 0.4394612710029619 
10.04999999999983 0.4394612710029619 
10.05999999999983 0.4394612710029619 
10.06999999999983 0.4394612710029619 
10.07999999999983 0.4394612710029619 
10.08999999999983 0.4394612710029619 
10.09999999999983 0.4394612710029619 
10.10999999999983 0.4394612710029619 
10.11999999999983 0.4394612710029619 
10.12999999999983 0.4394612710029619 
10.13999999999983 0.4394612710029619 
10.14999999999983 0.4394612710029619 
10.15999999999983 0.4394612710029619 
10.16999999999983 0.4394612710029619 
10.17999999999983 0.4394612710029619 
10.18999999999983 0.4394612710029619 
10.19999999999983 0.4394612710029619 
10.20999999999983 0.4394612710029619 
10.21999999999983 0.4394612710029619 
10.22999999999983 0.4394612710029619 
10.23999999999983 0.4394612710029619 
10.24999999999983 0.4394612710029619 
10.25999999999983 0.4394612710029619 
10.26999999999983 0.4394612710029619 
10.27999999999983 0.4394612710029619 
10.28999999999983 0.4394612710029619 
10.29999999999983 0.4394612710029619 
10.30999999999983 0.4394612710029619 
10.31999999999982 0.4394612710029619 
10.32999999999982 0.4394612710029619 
10.33999999999982 0.4394612710029619 
10.34999999999982 0.4394612710029619 
10.35999999999982 0.4394612710029619 
10.36999999999982 0.4394612710029619 
10.37999999999982 0.4394612710029619 
10.38999999999982 0.4394612710029619 
10.39999999999982 0.4394612710029619 
10.40999999999982 0.4394612710029619 
10.41999999999982 0.4394612710029619 
10.42999999999982 0.4394612710029619 
10.43999999999982 0.4394612710029619 
10.44999999999982 0.4394612710029619 
10.45999999999982 0.4394612710029619 
10.46999999999982 0.4394612710029619 
10.47999999999982 0.4394612710029619 
10.48999999999982 0.4394612710029619 
10.49999999999982 0.4394612710029619 
10.50999999999982 0.4394612710029619 
10.51999999999982 0.4394612710029619 
10.52999999999982 0.4394612710029619 
10.53999999999982 0.4394612710029619 
10.54999999999982 0.4394612710029619 
10.55999999999982 0.4394612710029619 
10.56999999999982 0.4394612710029619 
10.57999999999982 0.4394612710029619 
10.58999999999982 0.4394612710029619 
10.59999999999982 0.4394612710029619 
10.60999999999982 0.4394612710029619 
10.61999999999982 0.4394612710029619 
10.62999999999982 0.4394612710029619 
10.63999999999982 0.4394612710029619 
10.64999999999982 0.4394612710029619 
10.65999999999982 0.4394612710029619 
10.66999999999982 0.4394612710029619 
10.67999999999982 0.4394612710029619 
10.68999999999982 0.4394612710029619 
10.69999999999982 0.4394612710029619 
10.70999999999982 0.4394612710029619 
10.71999999999982 0.4394612710029619 
10.72999999999982 0.4394612710029619 
10.73999999999982 0.4394612710029619 
10.74999999999982 0.4394612710029619 
10.75999999999982 0.4394612710029619 
10.76999999999982 0.4394612710029619 
10.77999999999982 0.4394612710029619 
10.78999999999981 0.4394612710029619 
10.79999999999981 0.4394612710029619 
10.80999999999981 0.4394612710029619 
10.81999999999981 0.4394612710029619 
10.82999999999981 0.4394612710029619 
10.83999999999981 0.4394612710029619 
10.84999999999981 0.4394612710029619 
10.85999999999981 0.4394612710029619 
10.86999999999981 0.4394612710029619 
10.87999999999981 0.4394612710029619 
10.88999999999981 0.4394612710029619 
10.89999999999981 0.4394612710029619 
10.90999999999981 0.4394612710029619 
10.91999999999981 0.4394612710029619 
10.92999999999981 0.4394612710029619 
10.93999999999981 0.4394612710029619 
10.94999999999981 0.4394612710029619 
10.95999999999981 0.4394612710029619 
10.96999999999981 0.4394612710029619 
10.97999999999981 0.4394612710029619 
10.98999999999981 0.4394612710029619 
10.99999999999981 0.4394612710029619 
11.00999999999981 0.4394612710029619 
11.01999999999981 0.4394612710029619 
11.02999999999981 0.4394612710029619 
11.03999999999981 0.4394612710029619 
11.04999999999981 0.4394612710029619 
11.05999999999981 0.4394612710029619 
11.06999999999981 0.4394612710029619 
11.07999999999981 0.4394612710029619 
11.08999999999981 0.4394612710029619 
11.09999999999981 0.4394612710029619 
11.10999999999981 0.4394612710029619 
11.11999999999981 0.4394612710029619 
11.12999999999981 0.4394612710029619 
11.13999999999981 0.4394612710029619 
11.14999999999981 0.4394612710029619 
11.15999999999981 0.4394612710029619 
11.16999999999981 0.4394612710029619 
11.17999999999981 0.4394612710029619 
11.18999999999981 0.4394612710029619 
11.19999999999981 0.4394612710029619 
11.20999999999981 0.4394612710029619 
11.21999999999981 0.4394612710029619 
11.22999999999981 0.4394612710029619 
11.23999999999981 0.4394612710029619 
11.24999999999981 0.4394612710029619 
11.2599999999998 0.4394612710029619 
11.2699999999998 0.4394612710029619 
11.2799999999998 0.4394612710029619 
11.2899999999998 0.4394612710029619 
11.2999999999998 0.4394612710029619 
11.3099999999998 0.4394612710029619 
11.3199999999998 0.4394612710029619 
11.3299999999998 0.4394612710029619 
11.3399999999998 0.4394612710029619 
11.3499999999998 0.4394612710029619 
11.3599999999998 0.4394612710029619 
11.3699999999998 0.4394612710029619 
11.3799999999998 0.4394612710029619 
11.3899999999998 0.4394612710029619 
11.3999999999998 0.4394612710029619 
11.4099999999998 0.4394612710029619 
11.4199999999998 0.4394612710029619 
11.4299999999998 0.4394612710029619 
11.4399999999998 0.4394612710029619 
11.4499999999998 0.4394612710029619 
11.4599999999998 0.4394612710029619 
11.4699999999998 0.4394612710029619 
11.4799999999998 0.4394612710029619 
11.4899999999998 0.4394612710029619 
11.4999999999998 0.4394612710029619 
11.5099999999998 0.4394612710029619 
11.5199999999998 0.4394612710029619 
11.5299999999998 0.4394612710029619 
11.5399999999998 0.4394612710029619 
11.5499999999998 0.4394612710029619 
11.5599999999998 0.4394612710029619 
11.5699999999998 0.4394612710029619 
11.5799999999998 0.4394612710029619 
11.5899999999998 0.4394612710029619 
11.5999999999998 0.4394612710029619 
11.6099999999998 0.4394612710029619 
11.6199999999998 0.4394612710029619 
11.6299999999998 0.4394612710029619 
11.6399999999998 0.4394612710029619 
11.6499999999998 0.4394612710029619 
11.6599999999998 0.4394612710029619 
11.6699999999998 0.4394612710029619 
11.6799999999998 0.4394612710029619 
11.6899999999998 0.4394612710029619 
11.6999999999998 0.4394612710029619 
11.7099999999998 0.4394612710029619 
11.7199999999998 0.4394612710029619 
11.72999999999979 0.4394612710029619 
11.73999999999979 0.4394612710029619 
11.74999999999979 0.4394612710029619 
11.75999999999979 0.4394612710029619 
11.76999999999979 0.4394612710029619 
11.77999999999979 0.4394612710029619 
11.78999999999979 0.4394612710029619 
11.79999999999979 0.4394612710029619 
11.80999999999979 0.4394612710029619 
11.81999999999979 0.4394612710029619 
11.82999999999979 0.4394612710029619 
11.83999999999979 0.4394612710029619 
11.84999999999979 0.4394612710029619 
11.85999999999979 0.4394612710029619 
11.86999999999979 0.4394612710029619 
11.87999999999979 0.4394612710029619 
11.88999999999979 0.4394612710029619 
11.89999999999979 0.4394612710029619 
11.90999999999979 0.4394612710029619 
11.91999999999979 0.4394612710029619 
11.92999999999979 0.4394612710029619 
11.93999999999979 0.4394612710029619 
11.94999999999979 0.4394612710029619 
11.95999999999979 0.4394612710029619 
11.96999999999979 0.4394612710029619 
11.97999999999979 0.4394612710029619 
11.98999999999979 0.4394612710029619 
11.99999999999979 0.4394612710029619 
12.00999999999979 0.4394612710029619 
12.01999999999979 0.4394612710029619 
12.02999999999979 0.4394612710029619 
12.03999999999979 0.4394612710029619 
12.04999999999979 0.4394612710029619 
12.05999999999979 0.4394612710029619 
12.06999999999979 0.4394612710029619 
12.07999999999979 0.4394612710029619 
12.08999999999979 0.4394612710029619 
12.09999999999979 0.4394612710029619 
12.10999999999979 0.4394612710029619 
12.11999999999979 0.4394612710029619 
12.12999999999979 0.4394612710029619 
12.13999999999979 0.4394612710029619 
12.14999999999979 0.4394612710029619 
12.15999999999979 0.4394612710029619 
12.16999999999979 0.4394612710029619 
12.17999999999979 0.4394612710029619 
12.18999999999979 0.4394612710029619 
12.19999999999978 0.4394612710029619 
12.20999999999978 0.4394612710029619 
12.21999999999978 0.4394612710029619 
12.22999999999978 0.4394612710029619 
12.23999999999978 0.4394612710029619 
12.24999999999978 0.4394612710029619 
12.25999999999978 0.4394612710029619 
12.26999999999978 0.4394612710029619 
12.27999999999978 0.4394612710029619 
12.28999999999978 0.4394612710029619 
12.29999999999978 0.4394612710029619 
12.30999999999978 0.4394612710029619 
12.31999999999978 0.4394612710029619 
12.32999999999978 0.4394612710029619 
12.33999999999978 0.4394612710029619 
12.34999999999978 0.4394612710029619 
12.35999999999978 0.4394612710029619 
12.36999999999978 0.4394612710029619 
12.37999999999978 0.4394612710029619 
12.38999999999978 0.4394612710029619 
12.39999999999978 0.4394612710029619 
12.40999999999978 0.4394612710029619 
12.41999999999978 0.4394612710029619 
12.42999999999978 0.4394612710029619 
12.43999999999978 0.4394612710029619 
12.44999999999978 0.4394612710029619 
12.45999999999978 0.4394612710029619 
12.46999999999978 0.4394612710029619 
12.47999999999978 0.4394612710029619 
12.48999999999978 0.4394612710029619 
12.49999999999978 0.4394612710029619 
12.50999999999978 0.4394612710029619 
12.51999999999978 0.4394612710029619 
12.52999999999978 0.4394612710029619 
12.53999999999978 0.4394612710029619 
12.54999999999978 0.4394612710029619 
12.55999999999978 0.4394612710029619 
12.56999999999978 0.4394612710029619 
12.57999999999978 0.4394612710029619 
12.58999999999978 0.4394612710029619 
12.59999999999978 0.4394612710029619 
12.60999999999978 0.4394612710029619 
12.61999999999978 0.4394612710029619 
12.62999999999978 0.4394612710029619 
12.63999999999978 0.4394612710029619 
12.64999999999978 0.4394612710029619 
12.65999999999978 0.4394612710029619 
12.66999999999977 0.4394612710029619 
12.67999999999977 0.4394612710029619 
12.68999999999977 0.4394612710029619 
12.69999999999977 0.4394612710029619 
12.70999999999977 0.4394612710029619 
12.71999999999977 0.4394612710029619 
12.72999999999977 0.4394612710029619 
12.73999999999977 0.4394612710029619 
12.74999999999977 0.4394612710029619 
12.75999999999977 0.4394612710029619 
12.76999999999977 0.4394612710029619 
12.77999999999977 0.4394612710029619 
12.78999999999977 0.4394612710029619 
12.79999999999977 0.4394612710029619 
12.80999999999977 0.4394612710029619 
12.81999999999977 0.4394612710029619 
12.82999999999977 0.4394612710029619 
12.83999999999977 0.4394612710029619 
12.84999999999977 0.4394612710029619 
12.85999999999977 0.4394612710029619 
12.86999999999977 0.4394612710029619 
12.87999999999977 0.4394612710029619 
12.88999999999977 0.4394612710029619 
12.89999999999977 0.4394612710029619 
12.90999999999977 0.4394612710029619 
12.91999999999977 0.4394612710029619 
12.92999999999977 0.4394612710029619 
12.93999999999977 0.4394612710029619 
12.94999999999977 0.4394612710029619 
12.95999999999977 0.4394612710029619 
12.96999999999977 0.4394612710029619 
12.97999999999977 0.4394612710029619 
12.98999999999977 0.4394612710029619 
12.99999999999977 0.4394612710029619 
13.00999999999977 0.4394612710029619 
13.01999999999977 0.4394612710029619 
13.02999999999977 0.4394612710029619 
13.03999999999977 0.4394612710029619 
13.04999999999977 0.4394612710029619 
13.05999999999977 0.4394612710029619 
13.06999999999977 0.4394612710029619 
13.07999999999977 0.4394612710029619 
13.08999999999977 0.4394612710029619 
13.09999999999977 0.4394612710029619 
13.10999999999977 0.4394612710029619 
13.11999999999977 0.4394612710029619 
13.12999999999977 0.4394612710029619 
13.13999999999976 0.4394612710029619 
13.14999999999976 0.4394612710029619 
13.15999999999976 0.4394612710029619 
13.16999999999976 0.4394612710029619 
13.17999999999976 0.4394612710029619 
13.18999999999976 0.4394612710029619 
13.19999999999976 0.4394612710029619 
13.20999999999976 0.4394612710029619 
13.21999999999976 0.4394612710029619 
13.22999999999976 0.4394612710029619 
13.23999999999976 0.4394612710029619 
13.24999999999976 0.4394612710029619 
13.25999999999976 0.4394612710029619 
13.26999999999976 0.4394612710029619 
13.27999999999976 0.4394612710029619 
13.28999999999976 0.4394612710029619 
13.29999999999976 0.4394612710029619 
13.30999999999976 0.4394612710029619 
13.31999999999976 0.4394612710029619 
13.32999999999976 0.4394612710029619 
13.33999999999976 0.4394612710029619 
13.34999999999976 0.4394612710029619 
13.35999999999976 0.4394612710029619 
13.36999999999976 0.4394612710029619 
13.37999999999976 0.4394612710029619 
13.38999999999976 0.4394612710029619 
13.39999999999976 0.4394612710029619 
13.40999999999976 0.4394612710029619 
13.41999999999976 0.4394612710029619 
13.42999999999976 0.4394612710029619 
13.43999999999976 0.4394612710029619 
13.44999999999976 0.4394612710029619 
13.45999999999976 0.4394612710029619 
13.46999999999976 0.4394612710029619 
13.47999999999976 0.4394612710029619 
13.48999999999976 0.4394612710029619 
13.49999999999976 0.4394612710029619 
13.50999999999976 0.4394612710029619 
13.51999999999976 0.4394612710029619 
13.52999999999976 0.4394612710029619 
13.53999999999976 0.4394612710029619 
13.54999999999976 0.4394612710029619 
13.55999999999976 0.4394612710029619 
13.56999999999976 0.4394612710029619 
13.57999999999976 0.4394612710029619 
13.58999999999976 0.4394612710029619 
13.59999999999976 0.4394612710029619 
13.60999999999975 0.4394612710029619 
13.61999999999975 0.4394612710029619 
13.62999999999975 0.4394612710029619 
13.63999999999975 0.4394612710029619 
13.64999999999975 0.4394612710029619 
13.65999999999975 0.4394612710029619 
13.66999999999975 0.4394612710029619 
13.67999999999975 0.4394612710029619 
13.68999999999975 0.4394612710029619 
13.69999999999975 0.4394612710029619 
13.70999999999975 0.4394612710029619 
13.71999999999975 0.4394612710029619 
13.72999999999975 0.4394612710029619 
13.73999999999975 0.4394612710029619 
13.74999999999975 0.4394612710029619 
13.75999999999975 0.4394612710029619 
13.76999999999975 0.4394612710029619 
13.77999999999975 0.4394612710029619 
13.78999999999975 0.4394612710029619 
13.79999999999975 0.4394612710029619 
13.80999999999975 0.4394612710029619 
13.81999999999975 0.4394612710029619 
13.82999999999975 0.4394612710029619 
13.83999999999975 0.4394612710029619 
13.84999999999975 0.4394612710029619 
13.85999999999975 0.4394612710029619 
13.86999999999975 0.4394612710029619 
13.87999999999975 0.4394612710029619 
13.88999999999975 0.4394612710029619 
13.89999999999975 0.4394612710029619 
13.90999999999975 0.4394612710029619 
13.91999999999975 0.4394612710029619 
13.92999999999975 0.4394612710029619 
13.93999999999975 0.4394612710029619 
13.94999999999975 0.4394612710029619 
13.95999999999975 0.4394612710029619 
13.96999999999975 0.4394612710029619 
13.97999999999975 0.4394612710029619 
13.98999999999975 0.4394612710029619 
13.99999999999975 0.4394612710029619 
14.00999999999975 0.4394612710029619 
14.01999999999975 0.4394612710029619 
14.02999999999975 0.4394612710029619 
14.03999999999975 0.4394612710029619 
14.04999999999975 0.4394612710029619 
14.05999999999975 0.4394612710029619 
14.06999999999974 0.4394612710029619 
14.07999999999974 0.4394612710029619 
14.08999999999974 0.4394612710029619 
14.09999999999974 0.4394612710029619 
14.10999999999974 0.4394612710029619 
14.11999999999974 0.4394612710029619 
14.12999999999974 0.4394612710029619 
14.13999999999974 0.4394612710029619 
14.14999999999974 0.4394612710029619 
14.15999999999974 0.4394612710029619 
14.16999999999974 0.4394612710029619 
14.17999999999974 0.4394612710029619 
14.18999999999974 0.4394612710029619 
14.19999999999974 0.4394612710029619 
14.20999999999974 0.4394612710029619 
14.21999999999974 0.4394612710029619 
14.22999999999974 0.4394612710029619 
14.23999999999974 0.4394612710029619 
14.24999999999974 0.4394612710029619 
14.25999999999974 0.4394612710029619 
14.26999999999974 0.4394612710029619 
14.27999999999974 0.4394612710029619 
14.28999999999974 0.4394612710029619 
14.29999999999974 0.4394612710029619 
14.30999999999974 0.4394612710029619 
14.31999999999974 0.4394612710029619 
14.32999999999974 0.4394612710029619 
14.33999999999974 0.4394612710029619 
14.34999999999974 0.4394612710029619 
14.35999999999974 0.4394612710029619 
14.36999999999974 0.4394612710029619 
14.37999999999974 0.4394612710029619 
14.38999999999974 0.4394612710029619 
14.39999999999974 0.4394612710029619 
14.40999999999974 0.4394612710029619 
14.41999999999974 0.4394612710029619 
14.42999999999974 0.4394612710029619 
14.43999999999974 0.4394612710029619 
14.44999999999974 0.4394612710029619 
14.45999999999974 0.4394612710029619 
14.46999999999974 0.4394612710029619 
14.47999999999974 0.4394612710029619 
14.48999999999974 0.4394612710029619 
14.49999999999974 0.4394612710029619 
14.50999999999974 0.4394612710029619 
14.51999999999974 0.4394612710029619 
14.52999999999974 0.4394612710029619 
14.53999999999973 0.4394612710029619 
14.54999999999973 0.4394612710029619 
14.55999999999973 0.4394612710029619 
14.56999999999973 0.4394612710029619 
14.57999999999973 0.4394612710029619 
14.58999999999973 0.4394612710029619 
14.59999999999973 0.4394612710029619 
14.60999999999973 0.4394612710029619 
14.61999999999973 0.4394612710029619 
14.62999999999973 0.4394612710029619 
14.63999999999973 0.4394612710029619 
14.64999999999973 0.4394612710029619 
14.65999999999973 0.4394612710029619 
14.66999999999973 0.4394612710029619 
14.67999999999973 0.4394612710029619 
14.68999999999973 0.4394612710029619 
14.69999999999973 0.4394612710029619 
14.70999999999973 0.4394612710029619 
14.71999999999973 0.4394612710029619 
14.72999999999973 0.4394612710029619 
14.73999999999973 0.4394612710029619 
14.74999999999973 0.4394612710029619 
14.75999999999973 0.4394612710029619 
14.76999999999973 0.4394612710029619 
14.77999999999973 0.4394612710029619 
14.78999999999973 0.4394612710029619 
14.79999999999973 0.4394612710029619 
14.80999999999973 0.4394612710029619 
14.81999999999973 0.4394612710029619 
14.82999999999973 0.4394612710029619 
14.83999999999973 0.4394612710029619 
14.84999999999973 0.4394612710029619 
14.85999999999973 0.4394612710029619 
14.86999999999973 0.4394612710029619 
14.87999999999973 0.4394612710029619 
14.88999999999973 0.4394612710029619 
14.89999999999973 0.4394612710029619 
14.90999999999973 0.4394612710029619 
14.91999999999973 0.4394612710029619 
14.92999999999973 0.4394612710029619 
14.93999999999973 0.4394612710029619 
14.94999999999973 0.4394612710029619 
14.95999999999973 0.4394612710029619 
14.96999999999973 0.4394612710029619 
14.97999999999973 0.4394612710029619 
14.98999999999973 0.4394612710029619 
14.99999999999973 0.4394612710029619 
