0.01 3.93250611429708e-014 
0.02 -4.721466295428953e-014 
0.03 -4.388269564345103e-013 
0.04 1.924221814757614e-012 
0.05 -3.803089475328174e-012 
0.06000000000000001 5.366067608797431e-012 
0.07000000000000001 -7.40985143482674e-012 
0.08 9.696600592593089e-012 
0.09 -1.140688210159374e-011 
0.09999999999999999 1.134075700695585e-011 
0.11 -7.075402249372798e-012 
0.12 5.737920272874419e-014 
0.13 4.588767652178755e-012 
0.14 -6.570915375964656e-012 
0.15 9.441994150720057e-012 
0.16 -1.265381577576409e-011 
0.17 1.318345509567598e-011 
0.18 -9.483979890526287e-012 
0.19 2.475108635440315e-012 
0.2 5.83147185501293e-012 
0.2100000000000001 -1.292706707934228e-011 
0.2200000000000001 1.635927469172764e-011 
0.2300000000000001 -1.669442764446023e-011 
0.2400000000000001 1.680090389329085e-011 
0.2500000000000001 -1.852567645566005e-011 
0.2600000000000001 2.205078303614697e-011 
0.2700000000000001 -2.577792481335541e-011 
0.2800000000000001 2.885844844719804e-011 
0.2900000000000001 -3.152197801298046e-011 
0.3000000000000001 3.26446176700209e-011 
0.3100000000000001 -2.751580038001793e-011 
0.3200000000000001 1.484990746948771e-011 
0.3300000000000001 5.703952791099537e-013 
0.3400000000000001 -1.562798921255781e-011 
0.3500000000000001 2.747127914851901e-011 
0.3600000000000002 -3.166624561720212e-011 
0.3700000000000002 3.058866417455777e-011 
0.3800000000000002 -2.817219854822795e-011 
0.3900000000000002 2.348882310404308e-011 
0.4000000000000002 -1.992614784382451e-011 
0.4100000000000002 1.743752938977591e-011 
0.4200000000000002 -1.443266168538297e-011 
0.4300000000000002 1.123556997397164e-011 
0.4400000000000002 -9.137443112074831e-012 
0.4500000000000002 1.00755177397527e-011 
0.4600000000000002 -1.615491497951361e-011 
0.4700000000000003 2.866957314374262e-011 
0.4800000000000003 -4.210839783418025e-011 
0.4900000000000003 4.951888644162254e-011 
0.5000000000000002 -4.893011118222261e-011 
0.5100000000000002 4.119674941975045e-011 
0.5200000000000002 -2.662204354256061e-011 
0.5300000000000003 8.547694912328038e-012 
0.5400000000000003 8.654634719162354e-012 
0.5500000000000003 -1.997587877525837e-011 
0.5600000000000003 2.292311610912026e-011 
0.5700000000000003 -1.887029015210369e-011 
0.5800000000000003 1.239178329364641e-011 
0.5900000000000003 -6.158977216437534e-012 
0.6000000000000003 1.30853484919768e-012 
0.6100000000000003 8.725064627979618e-013 
0.6200000000000003 -1.324283065457329e-012 
0.6300000000000003 1.642034378932065e-012 
0.6400000000000004 -1.4246488231503e-012 
0.6500000000000004 -1.567622991809342e-012 
0.6600000000000004 4.000709079523985e-012 
0.6700000000000004 -1.689430781201571e-012 
0.6800000000000004 -4.631717783929626e-012 
0.6900000000000004 1.134428786177306e-011 
0.7000000000000004 -1.700913535847185e-011 
0.7100000000000004 1.920003888263346e-011 
0.7200000000000004 -1.730677408422173e-011 
0.7300000000000004 1.317213004895278e-011 
0.7400000000000004 -2.706248045619711e-012 
0.7500000000000004 -1.727965125133803e-011 
0.7600000000000005 4.426500951557483e-011 
0.7700000000000005 -7.160627728791039e-011 
0.7800000000000005 9.176089174774173e-011 
0.7900000000000005 -1.004139967966828e-010 
0.8000000000000005 9.516362514714699e-011 
0.8100000000000005 -7.531149771623941e-011 
0.8200000000000005 4.658053284952042e-011 
0.8300000000000005 -0.00462530847063347 
0.8400000000000005 1.661959903566945e-005 
0.8500000000000005 -0.02468998139266932 
0.8600000000000005 -0.0001409325942585502 
0.8700000000000006 0.02958139933589776 
0.8800000000000006 -0.001256214715190857 
0.8900000000000006 -0.07779806433895778 
0.9000000000000006 0.006609992503203966 
0.9100000000000006 0.1282703793105229 
0.9200000000000006 0.01922197376954278 
0.9300000000000006 -0.2052599797857719 
0.9400000000000006 -0.02084754328448488 
0.9500000000000006 0.2895009791076341 
0.9600000000000006 0.05581779946685685 
0.9700000000000006 -0.4195825889469075 
0.9800000000000007 -0.04970714585513929 
0.9900000000000007 0.6348959653027336 
1.000000000000001 0.09330037312977642 
1.010000000000001 -0.7056703357349635 
1.020000000000001 2.09292402985217 
1.030000000000001 9.629668648402912 
1.040000000000001 17.13339521060816 
1.050000000000001 19.03304913132202 
1.060000000000001 16.35307122775635 
1.070000000000001 14.75877000798159 
1.080000000000001 15.5242601049318 
1.090000000000001 11.8978109244611 
1.100000000000001 -1.181416854491606 
1.110000000000001 -16.63214167519186 
1.120000000000001 -20.19374550686556 
1.130000000000001 -8.692362912110045 
1.140000000000001 3.205369802353847 
1.150000000000001 -0.4832616058008065 
1.160000000000001 -17.40258509464828 
1.170000000000001 -31.31643619831474 
1.180000000000001 -33.12696946887654 
1.190000000000001 -28.63964031527276 
1.200000000000001 -25.18608883935707 
1.210000000000001 -20.87425755684486 
1.220000000000001 -11.31981666625694 
1.230000000000001 0.4254403696897112 
1.240000000000001 8.014224271433045 
1.250000000000001 11.16076625042622 
1.260000000000001 14.82987394176845 
1.270000000000001 20.15435281429178 
1.280000000000001 23.90459605363642 
1.290000000000001 25.65358861011696 
1.300000000000001 29.30407619455181 
1.310000000000001 34.37417880456453 
1.320000000000001 32.3439467982961 
1.330000000000001 17.05693539450214 
1.340000000000001 -4.435451046380768 
1.350000000000001 -17.96964620200273 
1.360000000000001 -19.02556649267891 
1.370000000000001 -18.14920355475128 
1.380000000000001 -25.61546791156849 
1.390000000000001 -36.81438147843304 
1.400000000000001 -38.4700700609953 
1.410000000000001 -27.51116532690752 
1.420000000000001 -12.95619751966816 
1.430000000000001 -0.203729479247371 
1.440000000000001 15.38137634276378 
1.450000000000001 33.16612194063914 
1.460000000000001 40.31681282357388 
1.470000000000001 28.27363216139333 
1.480000000000001 7.040335036414445 
1.490000000000001 -10.41050790219942 
1.500000000000001 -26.4973486388275 
1.510000000000001 -47.98985856473536 
1.520000000000001 -62.78454514912568 
1.530000000000001 -49.62861137103928 
1.540000000000001 -10.79968297631758 
1.550000000000001 22.90251633661743 
1.560000000000001 30.19759392402776 
1.570000000000001 27.20117694213753 
1.580000000000001 43.19369477932136 
1.590000000000001 75.60503326350802 
1.600000000000001 90.61714511941477 
1.610000000000001 72.60597402969952 
1.620000000000001 50.74146184627414 
1.630000000000001 58.53436802552082 
1.640000000000001 80.70427496124273 
1.650000000000001 68.4211378792841 
1.660000000000001 5.352192168491647 
1.670000000000001 -68.81307317355537 
1.680000000000001 -108.8445458820811 
1.690000000000001 -112.622676337749 
1.700000000000001 -106.375420638019 
1.710000000000001 -101.362834747281 
1.720000000000001 -88.63860492976438 
1.730000000000001 -64.79131427519826 
1.740000000000001 -42.95030471835705 
1.750000000000001 -36.07895385687001 
1.760000000000001 -44.26762636508222 
1.770000000000001 -58.00878643312856 
1.780000000000001 -66.62414165782447 
1.790000000000001 -61.8811777959362 
1.800000000000001 -40.86634717038782 
1.810000000000001 -8.890067166827054 
1.820000000000001 21.23758763151255 
1.830000000000001 37.32952432725027 
1.840000000000001 38.9122090289398 
1.850000000000001 41.28754844237744 
1.860000000000001 61.30988282999108 
1.870000000000001 96.43818843532623 
1.880000000000001 123.1339866418868 
1.890000000000002 123.0445856597049 
1.900000000000002 103.1628516678764 
1.910000000000002 84.80118384486525 
1.920000000000002 76.96057217284564 
1.930000000000002 72.13185974121105 
1.940000000000002 62.62845233562481 
1.950000000000002 50.41527491717449 
1.960000000000002 38.15964851935991 
1.970000000000002 21.92592369643786 
1.980000000000002 -2.164381159391868 
1.990000000000002 -29.23753498008485 
2.000000000000001 -51.8643394131085 
2.010000000000001 -72.01462719156822 
2.020000000000001 -96.34245907816434 
2.030000000000001 -122.2626529474758 
2.040000000000001 -138.2932388230975 
2.05 -143.2374543341464 
2.06 -150.5091065564266 
2.07 -167.1689223326249 
2.08 -177.9869691209316 
2.089999999999999 -160.3951774975058 
2.099999999999999 -108.05515815789 
2.109999999999999 -31.51178505913099 
2.119999999999999 54.96310779632569 
2.129999999999999 138.684643717769 
2.139999999999998 204.367981735685 
2.149999999999998 249.0990176866256 
2.159999999999998 242.6676744634469 
2.169999999999998 248.9871876414953 
2.179999999999998 287.1549821699962 
2.189999999999997 272.6731032804699 
2.199999999999997 334.7595721606108 
2.209999999999997 249.0414381855348 
2.219999999999997 277.0146255769556 
2.229999999999996 159.1838074809903 
2.239999999999996 165.7879075876704 
2.249999999999996 -40.32852324890344 
2.259999999999996 -138.3031378968851 
2.269999999999996 -351.6431518804022 
2.279999999999995 -354.0079102914726 
2.289999999999995 -425.3589163947891 
2.299999999999995 -368.6916130819078 
2.309999999999995 -459.6000621315882 
2.319999999999995 -442.7053637703426 
2.329999999999994 -542.3061090098909 
2.339999999999994 -520.3023352093881 
2.349999999999994 -491.4279346124786 
2.359999999999994 -307.0179699021852 
2.369999999999993 -158.2440826051948 
2.379999999999993 -15.25004795629739 
2.389999999999993 99.89483701879735 
2.399999999999993 172.6658911854299 
2.409999999999993 336.7999871184986 
2.419999999999992 274.9140475330488 
2.429999999999992 403.0946175840634 
2.439999999999992 321.4863052154137 
2.449999999999992 428.2444745639789 
2.459999999999992 378.3188777462883 
2.469999999999991 580.8511887143883 
2.479999999999991 474.1269789158172 
2.489999999999991 593.2259575930825 
2.499999999999991 319.0979144537204 
2.509999999999991 452.2560840102867 
2.51999999999999 145.7874702548617 
2.52999999999999 288.9225517571701 
2.53999999999999 -42.27534229522179 
2.54999999999999 56.94575182708871 
2.559999999999989 -247.6596586876736 
2.569999999999989 -221.261327479827 
2.579999999999989 -505.7385593540645 
2.589999999999989 -526.7270155242899 
2.599999999999989 -680.2738374877366 
2.609999999999988 -690.1344352598123 
2.619999999999988 -730.01647157079 
2.629999999999988 -603.7209868494925 
2.639999999999988 -400.1651481649041 
2.649999999999988 -43.49453347487896 
2.659999999999987 229.0714879843963 
2.669999999999987 360.8840744853852 
2.679999999999987 608.5485514071899 
2.689999999999987 620.5260069146547 
2.699999999999986 926.7278528436913 
2.709999999999986 705.0974802206619 
2.719999999999986 444.9977432189543 
2.729999999999986 299.1370596979407 
2.739999999999986 -82.51116285147342 
2.749999999999985 278.4064290980143 
2.759999999999985 -65.0415567332747 
2.769999999999985 110.7548208432398 
2.779999999999985 -546.7127716788681 
2.789999999999985 -301.7343434981943 
2.799999999999984 -699.3843104249625 
2.809999999999984 -504.356261637772 
2.819999999999984 -374.2755286815749 
2.829999999999984 -327.355193734929 
2.839999999999983 -221.3771654976352 
2.849999999999983 -245.8891376842239 
2.859999999999983 -263.5530067525137 
2.869999999999983 -159.7577545878387 
2.879999999999983 -311.2966558659437 
2.889999999999982 -321.7923928065093 
2.899999999999982 -408.9368992854683 
2.909999999999982 -297.45089990157 
2.919999999999982 -104.2525701992241 
2.929999999999982 68.44763304648075 
2.939999999999981 299.7643377716191 
2.949999999999981 207.5517639299662 
2.959999999999981 316.4861204963431 
2.969999999999981 454.4349949562513 
2.97999999999998 -4.278611649739625 
2.98999999999998 949.4731028532131 
2.99999999999998 115.9930348009061 
3.00999999999998 735.674881993481 
3.01999999999998 101.1002079129622 
3.029999999999979 185.5953027847968 
3.039999999999979 -17.89971185553475 
3.049999999999979 -108.1206086415019 
3.059999999999979 -44.94542902491998 
3.069999999999979 -238.6641954867746 
3.079999999999978 -192.2330398142657 
3.089999999999978 -172.9532726516874 
3.099999999999978 -123.0961641098764 
3.109999999999978 -11.64821814266061 
3.119999999999978 -237.4197647263086 
3.129999999999977 -315.3051323538102 
3.139999999999977 -164.2735937091215 
3.149999999999977 -191.5389435831831 
3.159999999999977 127.401282034258 
3.169999999999976 -50.82421991536497 
3.179999999999976 282.0501639102944 
3.189999999999976 324.4158294077865 
3.199999999999976 792.0282536777202 
3.209999999999976 995.1454296112798 
3.219999999999975 1030.657440297201 
3.229999999999975 1093.001200322801 
3.239999999999975 816.2139363045937 
3.249999999999975 1108.51732940227 
3.259999999999975 508.7274312911899 
3.269999999999974 -38.7495167155344 
3.279999999999974 -860.1073389471917 
3.289999999999974 -1095.080721400017 
3.299999999999974 -731.4964313248827 
3.309999999999973 -937.6744517590111 
3.319999999999973 -1146.048930676113 
3.329999999999973 -1574.181483995653 
3.339999999999973 -1754.703934793803 
3.349999999999973 -1504.534932771872 
3.359999999999972 -1239.130368995797 
3.369999999999972 -309.1375836163437 
3.379999999999972 -704.0070742464961 
3.389999999999972 -122.9374549227537 
3.399999999999972 167.881359689818 
3.409999999999971 57.34553247624638 
3.419999999999971 852.6408680165679 
3.429999999999971 346.8692153795477 
3.439999999999971 1418.349375128603 
3.44999999999997 1135.246155372164 
3.45999999999997 1150.946111080474 
3.46999999999997 1406.729445470352 
3.47999999999997 1411.30269926775 
3.48999999999997 2277.740718635409 
3.499999999999969 1773.238410884726 
3.509999999999969 1846.20508586858 
3.519999999999969 -208.7019726483521 
3.529999999999969 -512.1360703364078 
3.539999999999969 -747.3726047323423 
3.549999999999968 -792.0270594640949 
3.559999999999968 444.0118814739606 
3.569999999999968 -1315.947912756537 
3.579999999999968 -1940.0649820852 
3.589999999999967 -2517.858856723101 
3.599999999999967 -1348.668656881722 
3.609999999999967 -1161.838217899345 
3.619999999999967 -1449.513519287372 
3.629999999999967 -890.2381589125893 
3.639999999999966 -717.2143215445901 
3.649999999999966 506.3203789562037 
3.659999999999966 589.7196380734627 
3.669999999999966 -293.1470062477658 
3.679999999999966 576.7726863884674 
3.689999999999965 81.10590742863164 
3.699999999999965 561.9868615766445 
3.709999999999965 515.9768777045489 
3.719999999999965 732.7045563700069 
3.729999999999965 969.6932800407502 
3.739999999999964 620.7804392920829 
3.749999999999964 878.2101865764063 
3.759999999999964 341.6343405968961 
3.769999999999964 966.6052913878509 
3.779999999999963 653.2559193136715 
3.789999999999963 860.3171674185112 
3.799999999999963 886.2305455603162 
3.809999999999963 389.2768395508079 
3.819999999999963 647.9648202838931 
3.829999999999962 -337.7141433727505 
3.839999999999962 -582.1915917268409 
3.849999999999962 -1518.396884317135 
3.859999999999962 -1051.518321602184 
3.869999999999962 -624.016187282435 
3.879999999999961 -571.2465303107413 
3.889999999999961 -729.6109558332751 
3.899999999999961 -1360.298730260031 
3.909999999999961 -436.1763314760241 
3.91999999999996 -228.7560598396568 
3.92999999999996 -190.3643294057349 
3.93999999999996 -471.4548661483617 
3.94999999999996 -590.23326066148 
3.95999999999996 210.2780479629689 
3.969999999999959 360.4322706112981 
3.979999999999959 357.9732265747849 
3.989999999999959 -200.5040752679031 
3.999999999999959 -308.936947848684 
4.009999999999959 -11.08947290780402 
4.019999999999959 218.7849898159991 
4.029999999999959 931.484626573823 
4.039999999999958 1371.35331623299 
4.049999999999958 1378.999104090867 
4.059999999999958 1204.622756537977 
4.069999999999958 971.5866031828615 
4.079999999999957 943.7330972738686 
4.089999999999957 1076.347390179298 
4.099999999999957 -130.1477846185472 
4.109999999999957 92.87218609514314 
4.119999999999957 -1182.791722815994 
4.129999999999956 -94.06105558205653 
4.139999999999956 -941.8067910408213 
4.149999999999956 -379.1383087992848 
4.159999999999956 -1541.605071335182 
4.169999999999956 -1499.720899657237 
4.179999999999955 -1446.932612119075 
4.189999999999955 -566.4357647490588 
4.199999999999955 -292.6718973760872 
4.209999999999955 -300.8201457278183 
4.219999999999955 -116.9151438821254 
4.229999999999954 -39.15867653157364 
4.239999999999954 266.2782630501007 
4.249999999999954 30.13158940853021 
4.259999999999954 138.4274598830875 
4.269999999999953 168.2518663481684 
4.279999999999953 654.583087191459 
4.289999999999953 321.0418055118575 
4.299999999999953 750.3106704465646 
4.309999999999953 620.3951950596263 
4.319999999999952 1130.473086880904 
4.329999999999952 901.4408439244239 
4.339999999999952 527.7850546729833 
4.349999999999952 596.0718692970773 
4.359999999999952 639.6982279621982 
4.369999999999951 1037.703572809908 
4.379999999999951 505.1628705245919 
4.389999999999951 464.4460100757938 
4.399999999999951 -6.819558426988874 
4.40999999999995 -214.487755254471 
4.41999999999995 -627.6577615480974 
4.42999999999995 -1334.381989744901 
4.43999999999995 -1368.963913140738 
4.44999999999995 -1239.955308686309 
4.459999999999949 -681.6342388148504 
4.469999999999949 -645.3602306576047 
4.479999999999949 -868.1592236473653 
4.489999999999949 -1023.642849539536 
4.499999999999949 -812.0270043286521 
4.509999999999948 -393.3802704155733 
4.519999999999948 -265.3110427928569 
4.529999999999948 -105.1415873672728 
4.539999999999948 353.8770432135306 
4.549999999999947 627.460831260826 
4.559999999999947 765.2138393783885 
4.569999999999947 530.9238721907041 
4.579999999999947 624.5689252995734 
4.589999999999947 813.6953259264659 
4.599999999999946 831.0328849846731 
4.609999999999946 589.9657183224057 
4.619999999999946 377.944063205785 
4.629999999999946 607.8178552464231 
4.639999999999946 731.3366825462607 
4.649999999999945 597.7613692136346 
4.659999999999945 156.0591768428575 
4.669999999999945 -115.7741790994002 
4.679999999999945 -89.87034826836101 
4.689999999999944 -85.67327527235089 
4.699999999999944 -248.2640650119431 
4.709999999999944 -416.1456676679 
4.719999999999944 -593.1747952069063 
4.729999999999944 -748.9120183850957 
4.739999999999943 -976.0546043412041 
4.749999999999943 -1032.062381625526 
4.759999999999943 -952.6470217248971 
4.769999999999943 -637.7370694271635 
4.779999999999943 -570.9871779302404 
4.789999999999942 -554.223321256026 
4.799999999999942 -406.7702985718937 
4.809999999999942 45.36263217651702 
4.819999999999942 569.8290311025517 
4.829999999999942 749.0648280326369 
4.839999999999941 538.5001448985213 
4.849999999999941 482.480728915124 
4.859999999999941 883.3657835945886 
4.869999999999941 1227.553213387845 
4.87999999999994 1063.635157875259 
4.88999999999994 547.1858208537452 
4.89999999999994 193.9331365803674 
4.90999999999994 181.4473952563439 
4.91999999999994 267.6190826697689 
4.929999999999939 101.3312688586126 
4.939999999999939 -57.88931427474341 
4.949999999999939 -291.4022106854441 
4.959999999999939 -409.4605095728896 
4.969999999999939 -551.1397798858368 
4.979999999999938 -458.7733158113327 
4.989999999999938 -371.8287201659294 
4.999999999999938 -327.6296454286966 
5.009999999999938 -455.5167813784777 
5.019999999999937 -561.1976840928385 
5.029999999999937 -319.6993835366041 
5.039999999999937 -39.69718015309012 
5.049999999999937 82.83217438564766 
5.059999999999937 -157.6187545178614 
5.069999999999936 -393.8594678343803 
5.079999999999936 -275.7191022406191 
5.089999999999936 249.3274580482524 
5.099999999999936 657.6869421115312 
5.109999999999936 640.0531615042182 
5.119999999999935 354.5470387347197 
5.129999999999935 186.2791002881356 
5.139999999999935 142.6646073650236 
5.149999999999935 139.9922433447413 
5.159999999999934 -0.5142022406457587 
5.169999999999934 -4.029228522302931 
5.179999999999934 181.9854739223806 
5.189999999999934 213.5303049330369 
5.199999999999934 70.98633657688583 
5.209999999999933 -161.0870054613105 
5.219999999999933 -199.2148314094157 
5.229999999999933 -232.8152496257722 
5.239999999999933 -348.47813448818 
5.249999999999933 -487.6017653604606 
5.259999999999932 -382.5632335280957 
5.269999999999932 -71.34291528290382 
5.279999999999932 89.09052609317475 
5.289999999999932 -1.159695687460228 
5.299999999999931 -286.3405708716624 
5.309999999999931 -414.3308450848326 
5.319999999999931 -250.6995033125224 
5.329999999999931 45.56642927017575 
5.339999999999931 279.7565777721017 
5.34999999999993 429.0318693787909 
5.35999999999993 545.4185651883341 
5.36999999999993 675.3986481199594 
5.37999999999993 747.9542773760951 
5.38999999999993 779.5484773377791 
5.399999999999929 785.4592845654576 
5.409999999999929 766.5608915031511 
5.419999999999929 597.7274176556988 
5.429999999999929 262.2728758738532 
5.439999999999928 -81.36205356759787 
5.449999999999928 -355.087702882769 
5.459999999999928 -458.9591474816427 
5.469999999999928 -477.8725070996283 
5.479999999999928 -475.6242178998919 
5.489999999999927 -470.8589741862903 
5.499999999999927 -444.7544674230312 
5.509999999999927 -471.1170917688884 
5.519999999999927 -578.7761354809592 
5.529999999999927 -702.6996407981396 
5.539999999999926 -748.2641284288068 
5.549999999999926 -642.4976640264515 
5.559999999999926 -478.2135098932691 
5.569999999999926 -393.9412871162352 
5.579999999999926 -341.3960675744697 
5.589999999999925 -286.9770319465443 
5.599999999999925 -234.0277565748473 
5.609999999999925 -246.0017299915833 
5.619999999999925 -295.570706449437 
5.629999999999924 -178.0465460082197 
5.639999999999924 160.9540395556866 
5.649999999999924 571.2989138998827 
5.659999999999924 810.6041019563379 
5.669999999999924 868.4987450284759 
5.679999999999923 847.6607119385192 
5.689999999999923 895.8897012079415 
5.699999999999923 993.4080295784358 
5.709999999999923 1025.143104939575 
5.719999999999923 949.5151054661973 
5.729999999999922 830.940596267096 
5.739999999999922 701.1443639983693 
5.749999999999922 494.3427106147456 
5.759999999999922 94.96860755157773 
5.769999999999921 -450.9026687604755 
5.779999999999921 -832.037338320594 
5.789999999999921 -873.3227992213584 
5.799999999999921 -703.0076485140825 
5.809999999999921 -649.8085078259069 
5.81999999999992 -855.3525723597074 
5.82999999999992 -1210.154206819053 
5.83999999999992 -1487.659859756814 
5.84999999999992 -1481.30248921989 
5.85999999999992 -1127.745553111769 
5.869999999999919 -502.2629017967281 
5.879999999999919 160.7003132647322 
5.889999999999919 602.1040448437866 
5.899999999999919 926.3498585010649 
5.909999999999918 1221.559553469429 
5.919999999999918 1454.521536632075 
5.929999999999918 1350.778168108507 
5.939999999999918 823.6651541956411 
5.949999999999918 177.3412815229275 
5.959999999999917 449.3381174828529 
5.969999999999917 871.9829926612159 
5.979999999999917 1555.017097743049 
5.989999999999917 880.4867280593877 
5.999999999999917 70.78526036600516 
6.009999999999916 -942.9939567752978 
6.019999999999916 -737.4820517273579 
6.029999999999916 -543.6474560621178 
6.039999999999916 -173.2129701445723 
6.049999999999915 -525.9325513694615 
6.059999999999915 -630.8417472198281 
6.069999999999915 -910.0839940638039 
6.079999999999915 -705.3260195507382 
6.089999999999915 -800.7249788300029 
6.099999999999914 -834.7906636681473 
6.109999999999914 -1168.898822168782 
6.119999999999914 -1353.727907502906 
6.129999999999914 -1272.320870565848 
6.139999999999914 -582.2422551812005 
6.149999999999913 347.8071613219159 
6.159999999999913 772.315863666 
6.169999999999913 436.8215195699795 
6.179999999999913 164.0844107926919 
6.189999999999913 825.656204323497 
6.199999999999912 1244.733490589308 
6.209999999999912 1972.557677910094 
6.219999999999912 1919.020981266965 
6.229999999999912 919.4401096322487 
6.239999999999911 1027.152157051108 
6.249999999999911 -421.7417472135684 
6.259999999999911 1032.845505235302 
6.269999999999911 -615.2924237933891 
6.279999999999911 605.0840691054563 
6.28999999999991 -1192.516235337107 
6.29999999999991 -233.957126991736 
6.30999999999991 -675.1217964439153 
6.31999999999991 287.6694776089827 
6.32999999999991 -215.283959161669 
6.339999999999909 -404.9430362276716 
6.349999999999909 -1045.326131166569 
6.359999999999909 -1045.542510851928 
6.369999999999909 -915.5988801498444 
6.379999999999908 -558.4123322693238 
6.389999999999908 -681.1694393173697 
6.399999999999908 -823.7343978204423 
6.409999999999908 -981.2888202995465 
6.419999999999908 -902.5604955457818 
6.429999999999907 -339.2571898384414 
6.439999999999907 -274.5790093338891 
6.449999999999907 442.903058459753 
6.459999999999907 253.2919207457512 
6.469999999999907 909.7189276201126 
6.479999999999906 977.8861132347294 
6.489999999999906 1581.897022025007 
6.499999999999906 1514.160242699574 
6.509999999999906 1582.010504947521 
6.519999999999905 941.0798189773645 
6.529999999999905 779.7641084502927 
6.539999999999905 427.559265514553 
6.549999999999905 805.2090372616781 
6.559999999999905 125.2732718401628 
6.569999999999904 160.4817436656367 
6.579999999999904 -575.7695942507796 
6.589999999999904 -516.8964638391786 
6.599999999999904 -653.6231296069344 
6.609999999999904 -557.2990194746119 
6.619999999999903 -667.6415920894 
6.629999999999903 -928.8189818244961 
6.639999999999903 -1094.839625566007 
6.649999999999903 -1450.69976215284 
6.659999999999902 -1175.713150347831 
6.669999999999902 -1064.524434533938 
6.679999999999902 -816.5639032760071 
6.689999999999902 -584.1733971326589 
6.699999999999902 -340.2351031107553 
6.709999999999901 49.11324678467506 
6.719999999999901 819.8379141477133 
6.729999999999901 1054.258789760994 
6.739999999999901 1404.146962378507 
6.749999999999901 1018.331418285155 
6.7599999999999 1088.172136164294 
6.7699999999999 1029.654554443649 
6.7799999999999 1329.197807026817 
6.7899999999999 1069.662891075409 
6.7999999999999 857.7235275335688 
6.809999999999899 497.8745263715938 
6.819999999999899 94.84240115129144 
6.829999999999899 -33.75353244420531 
6.839999999999899 -237.7562039911228 
6.849999999999898 -335.7390191290055 
6.859999999999898 -388.1315392349846 
6.869999999999898 -595.7234416543777 
6.879999999999898 -735.8873959878583 
6.889999999999898 -728.6145132599075 
6.899999999999897 -646.3216417495603 
6.909999999999897 -746.2366906776537 
6.919999999999897 -966.8177166468794 
6.929999999999897 -1221.686901061948 
6.939999999999897 -1274.063027841924 
6.949999999999896 -937.0314781814024 
6.959999999999896 -685.6036295118287 
6.969999999999896 -489.2904386003762 
6.979999999999896 -306.3018484012276 
6.989999999999895 -37.34872864744157 
6.999999999999895 325.7364040869149 
7.009999999999895 817.4801749417923 
7.019999999999895 1165.810291375972 
7.029999999999895 1387.760872403164 
7.039999999999894 1400.726761350984 
7.049999999999894 1337.911853557882 
7.059999999999894 1163.740369596799 
7.069999999999894 1137.319736365273 
7.079999999999894 833.2223395024205 
7.089999999999893 632.8359032880304 
7.099999999999893 197.5037151036587 
7.109999999999893 -42.33268881036737 
7.119999999999893 -121.621023650322 
7.129999999999892 -86.42779201898166 
7.139999999999892 -262.7061707040974 
7.149999999999892 -493.8990199376324 
7.159999999999892 -838.3280201435035 
7.169999999999892 -1016.881240263352 
7.179999999999891 -1030.542105464811 
7.189999999999891 -1083.003324085247 
7.199999999999891 -1088.868147935423 
7.209999999999891 -1200.313878535601 
7.219999999999891 -1110.13543597415 
7.22999999999989 -1016.382175613333 
7.23999999999989 -604.9679428959643 
7.24999999999989 -340.8642411379819 
7.25999999999989 9.081261812386225 
7.269999999999889 183.0582377740936 
7.279999999999889 496.3531860322162 
7.289999999999889 859.9936011859614 
7.299999999999889 1271.172507860129 
7.309999999999889 1515.696730238406 
7.319999999999888 1403.284733474553 
7.329999999999888 1214.285970825609 
7.339999999999888 963.7600824502039 
7.349999999999888 876.1959545127751 
7.359999999999888 765.8592811204675 
7.369999999999887 557.1519695608661 
7.379999999999887 275.6267275214676 
7.389999999999887 -48.15082073157906 
7.399999999999887 -222.1366779251228 
7.409999999999887 -312.88388188624 
7.419999999999886 -395.6615366658438 
7.429999999999886 -566.7340879586708 
7.439999999999886 -776.7018317147376 
7.449999999999886 -955.9601053501089 
7.459999999999885 -1057.181950707459 
7.469999999999885 -1031.472951961631 
7.479999999999885 -1003.377609368028 
7.489999999999885 -1009.699970487541 
7.499999999999885 -1030.683495683176 
7.509999999999884 -912.9082583547877 
7.519999999999884 -577.4900034021175 
7.529999999999884 -95.50415982845716 
7.539999999999884 301.857075686264 
7.549999999999884 540.8547511799383 
7.559999999999883 646.9732044044336 
7.569999999999883 786.1682273979284 
7.579999999999883 910.4001122426028 
7.589999999999883 1061.452390759011 
7.599999999999882 1091.764766073495 
7.609999999999882 1022.683331318134 
7.619999999999882 834.4874390888402 
7.629999999999882 623.7910502348524 
7.639999999999882 483.0599427580841 
7.649999999999881 375.0811567201214 
7.659999999999881 293.5666326118192 
7.669999999999881 48.89436494097635 
7.679999999999881 -182.323385862025 
7.689999999999881 -301.3817606455633 
7.69999999999988 -283.6160517773744 
7.70999999999988 -269.1014750790641 
7.71999999999988 -466.0455024408351 
7.72999999999988 -793.779024757589 
7.739999999999879 -1054.165953060394 
7.749999999999879 -1044.351718808366 
7.759999999999879 -876.3664325363017 
7.769999999999879 -752.4238756192546 
7.779999999999879 -741.0324068779448 
7.789999999999878 -747.5913478794795 
7.799999999999878 -605.995102693547 
7.809999999999878 -320.8621095655701 
7.819999999999878 32.80600015335715 
7.829999999999878 359.5834409436579 
7.839999999999877 594.4324571868395 
7.849999999999877 723.4164885042511 
7.859999999999877 788.9340324079382 
7.869999999999877 838.3708490800206 
7.879999999999876 902.9228390536052 
7.889999999999876 861.7397186507941 
7.899999999999876 714.1215912269914 
7.909999999999876 542.4808024524212 
7.919999999999876 535.6409517850057 
7.929999999999875 659.0504899463006 
7.939999999999875 743.3355737839255 
7.949999999999875 602.3647706603287 
7.959999999999875 206.0900987112362 
7.969999999999875 -189.4871416433902 
7.979999999999874 -429.7937442971512 
7.989999999999874 -501.716211302094 
7.999999999999874 -540.7651264116656 
8.009999999999874 -668.6161361848715 
8.019999999999874 -890.6155341475718 
8.029999999999873 -1091.801382152574 
8.039999999999873 -1154.505433659544 
8.049999999999873 -1052.898645066385 
8.059999999999873 -866.0373981958296 
8.069999999999872 -682.2560960583754 
8.079999999999872 -519.5550504500698 
8.089999999999872 -275.3292344686346 
8.099999999999872 53.7747133315357 
8.109999999999872 380.4523702338663 
8.119999999999871 546.2875551739394 
8.129999999999871 516.611656859022 
8.139999999999871 425.5036902817912 
8.149999999999871 433.916492836098 
8.159999999999871 600.8456129012278 
8.16999999999987 803.0850451810792 
8.17999999999987 887.2400159111876 
8.18999999999987 814.9906885647556 
8.19999999999987 680.7315128266323 
8.209999999999869 604.1917008856791 
8.219999999999869 604.598558522317 
8.229999999999869 614.3950935108298 
8.239999999999869 524.6044251802579 
8.249999999999869 284.2816344727057 
8.259999999999868 -28.7406601899307 
8.269999999999868 -308.6512425458351 
8.279999999999868 -520.2538913808071 
8.289999999999868 -726.603431838827 
8.299999999999868 -981.2971350961116 
8.309999999999867 -1238.419371017264 
8.319999999999867 -1347.737552218319 
8.329999999999867 -1231.658775165427 
8.339999999999867 -943.3662597379555 
8.349999999999866 -642.0954689106345 
8.359999999999866 -433.3272658772082 
8.369999999999866 -305.6166876887202 
8.379999999999866 -145.8387720488604 
8.389999999999866 112.7814584131492 
8.399999999999865 415.2785395653763 
8.409999999999865 632.409050248473 
8.419999999999865 696.6954496988158 
8.429999999999865 665.1325277009025 
8.439999999999865 648.5230425361061 
8.449999999999864 695.4190023737543 
8.459999999999864 758.1619809899825 
8.469999999999864 767.7116267929763 
8.479999999999864 711.0958014610193 
8.489999999999863 654.7320563727454 
8.499999999999863 634.7458284766498 
8.509999999999863 638.0477567754097 
8.519999999999863 548.2198251937026 
8.529999999999863 301.0106934144945 
8.539999999999862 -66.55595299453614 
8.549999999999862 -424.930953445377 
8.559999999999862 -673.9217552936214 
8.569999999999862 -797.7452217736733 
8.579999999999862 -848.559998133961 
8.589999999999861 -902.8516147224581 
8.599999999999861 -981.926728139218 
8.609999999999861 -1040.383352646373 
8.619999999999861 -992.810189151085 
8.62999999999986 -811.1326058820529 
8.63999999999986 -564.4542323478088 
8.64999999999986 -354.9780073135619 
8.65999999999986 -197.1920859756296 
8.66999999999986 -25.52943973988183 
8.679999999999859 211.1354018611645 
8.689999999999859 441.3780405049117 
8.699999999999859 568.7734440329223 
8.709999999999859 583.4858312451681 
8.719999999999859 587.3491536248515 
8.729999999999858 674.8757085022429 
8.739999999999858 819.8999162872573 
8.749999999999858 935.6830953698568 
8.759999999999858 951.9842213083324 
8.769999999999858 870.7531191864074 
8.779999999999857 722.7136633227357 
8.789999999999857 547.3274990253882 
8.799999999999857 392.9946074008225 
8.809999999999857 262.0439923608055 
8.819999999999856 105.1873333820095 
8.829999999999856 -149.5893583164979 
8.839999999999856 -492.251254719993 
8.849999999999856 -788.096577464317 
8.859999999999856 -898.5695006459753 
8.869999999999855 -844.7145541843792 
8.879999999999855 -793.8215018144695 
8.889999999999855 -840.6968640287704 
8.899999999999855 -883.2909058582677 
8.909999999999855 -768.8764386772899 
8.919999999999854 -520.7142154743789 
8.929999999999854 -326.3402418163817 
8.939999999999854 -283.5824076157515 
8.949999999999854 -292.6158447882414 
8.959999999999853 -205.3468806863447 
8.969999999999853 1.060553629027097 
8.979999999999853 226.291023354351 
8.989999999999853 395.2012194369973 
8.999999999999853 504.7176665806393 
9.009999999999852 579.5911023318707 
9.019999999999852 643.5374157201427 
9.029999999999852 739.1710438772841 
9.039999999999852 892.1989922354828 
9.049999999999852 1038.403282471214 
9.059999999999851 1037.747600685855 
9.069999999999851 824.9158856574061 
9.079999999999851 508.9140919917698 
9.089999999999851 260.0645045738966 
9.09999999999985 102.9789063624379 
9.10999999999985 -78.72257887998846 
9.11999999999985 -348.3877718048389 
9.12999999999985 -615.9154212429247 
9.13999999999985 -756.5575119381306 
9.149999999999849 -784.6186937090135 
9.159999999999849 -817.6462076761508 
9.169999999999849 -901.3428328328419 
9.179999999999849 -948.7916883644498 
9.189999999999849 -865.1471900355469 
9.199999999999848 -662.6035127571834 
9.209999999999848 -427.2824456418506 
9.219999999999848 -220.8273653623131 
9.229999999999848 -69.6493351293111 
9.239999999999847 5.337053678609957 
9.249999999999847 15.87705900770852 
9.259999999999847 57.3858533892768 
9.269999999999847 224.1364312931577 
9.279999999999847 479.5388827767447 
9.289999999999846 680.1995304904123 
9.299999999999846 749.9553472572854 
9.309999999999846 763.1637918980567 
9.319999999999846 805.0549708185594 
9.329999999999846 832.1917904938237 
9.339999999999845 742.1924320784665 
9.349999999999845 537.1108083289104 
9.359999999999845 336.4943728624931 
9.369999999999845 219.3667392191284 
9.379999999999845 137.629509821306 
9.389999999999844 0.6285685057266366 
9.399999999999844 -206.7429947311017 
9.409999999999844 -429.8359889850813 
9.419999999999844 -610.6254971126014 
9.429999999999843 -706.7313511432425 
9.439999999999843 -691.5662092106888 
9.449999999999843 -591.450906295073 
9.459999999999843 -495.2389825581757 
9.469999999999843 -477.4778077529268 
9.479999999999842 -507.9298917209065 
9.489999999999842 -490.0696154552648 
9.499999999999842 -386.7726508934599 
9.509999999999842 -253.8084999006954 
9.519999999999842 -140.42772676705 
9.529999999999841 -0.6914359689149703 
9.539999999999841 229.984968223362 
9.549999999999841 508.3097194197374 
9.559999999999841 705.0321423305081 
9.56999999999984 771.8007488063975 
9.57999999999984 795.5534564863997 
9.58999999999984 832.4588791450759 
9.59999999999984 799.8266515669634 
9.60999999999984 628.9151550997939 
9.619999999999839 430.6350860651387 
9.629999999999839 349.307391476332 
9.639999999999839 306.2137255594184 
9.649999999999839 81.61951296249848 
9.659999999999839 -348.3391408803907 
9.669999999999838 -740.5846634114494 
9.679999999999838 -895.044932290961 
9.689999999999838 -877.7566859880046 
9.699999999999838 -851.68456449143 
9.709999999999837 -834.0089391836559 
9.719999999999837 -737.2557615788828 
9.729999999999837 -563.7608256500542 
9.739999999999837 -420.9255955737454 
9.749999999999837 -356.4945045536461 
9.759999999999836 -300.9216310557255 
9.769999999999836 -184.2171561491292 
9.779999999999836 -30.07458762829338 
9.789999999999836 115.2694411243671 
9.799999999999836 272.8628714751418 
9.809999999999835 468.9092600600358 
9.819999999999835 636.9073947578755 
9.829999999999835 675.3688490813271 
9.839999999999835 615.84131725548 
9.849999999999834 617.9511053794927 
9.859999999999834 755.6495670390715 
9.869999999999834 890.5726205984742 
9.879999999999834 839.7758924637353 
9.889999999999834 602.8118172373659 
9.899999999999833 326.686027038088 
9.909999999999833 82.14286653431911 
9.919999999999833 -182.763892245188 
9.929999999999833 -469.0519489482299 
9.939999999999833 -665.0282973919109 
9.949999999999832 -720.7575274985774 
9.959999999999832 -731.8785887519215 
9.969999999999832 -757.9781688646218 
9.979999999999832 -701.576596076303 
9.989999999999832 -494.1162948881318 
9.999999999999831 -265.8057298821369 
10.00999999999983 -155.3249757675799 
10.01999999999983 -59.84071829795612 
10.02999999999983 201.2431290883989 
10.03999999999983 514.7120684510662 
10.04999999999983 530.1307633542199 
10.05999999999983 156.9752203779933 
10.06999999999983 -205.3552283469847 
10.07999999999983 -119.2549240737223 
10.08999999999983 320.4144895876358 
10.09999999999983 590.6201851952407 
10.10999999999983 416.1553097243059 
10.11999999999983 89.84917395911133 
10.12999999999983 8.417968813764778 
10.13999999999983 134.5612237579622 
10.14999999999983 168.8190207146526 
10.15999999999983 70.24490922486037 
10.16999999999983 56.21206901030422 
10.17999999999983 145.0744226137217 
10.18999999999983 82.10672649286283 
10.19999999999983 -231.7374000687296 
10.20999999999983 -572.6800796627962 
10.21999999999983 -759.2324471465996 
10.22999999999983 -876.5672867645034 
10.23999999999983 -973.8182374900079 
10.24999999999983 -841.7329269809982 
10.25999999999983 -340.6047249603386 
10.26999999999983 241.7833697908222 
10.27999999999983 471.5133395933306 
10.28999999999983 337.6946430955421 
10.29999999999983 255.3459447345425 
10.30999999999983 475.7102879650601 
10.31999999999982 764.1225101003565 
10.32999999999982 794.4590960086559 
10.33999999999982 637.7228883031856 
10.34999999999982 615.2036479221941 
10.35999999999982 768.2108417855994 
10.36999999999982 774.1804488142731 
10.37999999999982 434.8773508337601 
10.38999999999982 -13.49009649324153 
10.39999999999982 -215.9584796870077 
10.40999999999982 -144.0730028225071 
10.41999999999982 -46.0575625711268 
10.42999999999982 -73.06046540050234 
10.43999999999982 -176.403244694577 
10.44999999999982 -329.1333251149309 
10.45999999999982 -612.435514221457 
10.46999999999982 -1000.047133114555 
10.47999999999982 -1253.769404598925 
10.48999999999982 -1189.816810376268 
10.49999999999982 -959.3812916994531 
10.50999999999982 -868.3521889820962 
10.51999999999982 -942.6708400695396 
10.52999999999982 -880.3211468063912 
10.53999999999982 -489.2503164915578 
10.54999999999982 35.88415486472693 
10.55999999999982 411.0313542533901 
10.56999999999982 665.8164280134754 
10.57999999999982 1041.260700531067 
10.58999999999982 1556.482122860903 
10.59999999999982 1905.773281034273 
10.60999999999982 1755.319265239521 
10.61999999999982 1220.361423406255 
10.62999999999982 589.8186921239707 
10.63999999999982 278.5861603148097 
10.64999999999982 368.2607311415881 
10.65999999999982 524.8669760634436 
10.66999999999982 440.7988303729236 
10.67999999999982 -7.398274905977638 
10.68999999999982 -450.8504852804751 
10.69999999999982 -723.3257409560139 
10.70999999999982 -728.2294554988176 
10.71999999999982 -703.0663200935292 
10.72999999999982 -690.3186746540846 
10.73999999999982 -665.5546180631027 
10.74999999999982 -697.4850613704825 
10.75999999999982 -759.4184219088078 
10.76999999999982 -870.3750209247586 
10.77999999999982 -1002.275264636047 
10.78999999999981 -1105.446130042466 
10.79999999999981 -1029.505732121285 
10.80999999999981 -757.5807339715479 
10.81999999999981 -247.3243619309356 
10.82999999999981 214.2733195847172 
10.83999999999981 528.0544287113297 
10.84999999999981 606.9319205045316 
10.85999999999981 599.9582517376866 
10.86999999999981 658.6343645336565 
10.87999999999981 924.2548604397585 
10.88999999999981 1277.914675267475 
10.89999999999981 1460.517132295873 
10.90999999999981 1350.463085041395 
10.91999999999981 1028.723702878845 
10.92999999999981 696.3228604280165 
10.93999999999981 452.5757969771407 
10.94999999999981 226.4992662621656 
10.95999999999981 40.86721982035407 
10.96999999999981 -44.15108142813689 
10.97999999999981 -10.57635653165431 
10.98999999999981 -17.69252494072973 
10.99999999999981 -161.7758448332081 
11.00999999999981 -503.154177669858 
11.01999999999981 -899.4122504226947 
11.02999999999981 -1266.722007806452 
11.03999999999981 -1516.824495680685 
11.04999999999981 -1566.861262648131 
11.05999999999981 -1375.207464062477 
11.06999999999981 -1051.095894632499 
11.07999999999981 -745.9850423764725 
11.08999999999981 -608.6393602744236 
11.09999999999981 -519.4200312034461 
11.10999999999981 -292.4767620461373 
11.11999999999981 158.2689006130576 
11.12999999999981 689.7181812639265 
11.13999999999981 1073.274313104103 
11.14999999999981 1245.561008408523 
11.15999999999981 1320.301118440502 
11.16999999999981 1388.313326270751 
11.17999999999981 1403.714598200854 
11.18999999999981 1209.620887198986 
11.19999999999981 888.211644759974 
11.20999999999981 588.7184956693234 
11.21999999999981 431.1546007929611 
11.22999999999981 369.2067387991056 
11.23999999999981 235.7225059514469 
11.24999999999981 14.55580127979523 
11.2599999999998 -332.1338938166554 
11.2699999999998 -660.6535087140874 
11.2799999999998 -929.3993957438149 
11.2899999999998 -1013.769581631462 
11.2999999999998 -1022.074155552644 
11.3099999999998 -1071.02873025012 
11.3199999999998 -1206.111099087794 
11.3299999999998 -1328.958681185402 
11.3399999999998 -1299.696690791096 
11.3499999999998 -1069.15245535437 
11.3599999999998 -709.6833589073851 
11.3699999999998 -286.5323434741924 
11.3799999999998 169.5170218184251 
11.3899999999998 623.4376552605285 
11.3999999999998 1019.813040042933 
11.4099999999998 1266.815022275459 
11.4199999999998 1351.9937242563 
11.4299999999998 1294.028685746525 
11.4399999999998 1198.786400712343 
11.4499999999998 1075.439374076733 
11.4599999999998 986.9490971152978 
11.4699999999998 914.2201687100724 
11.4799999999998 787.0232024146258 
11.4899999999998 481.0592210573704 
11.4999999999998 -18.83036622559501 
11.5099999999998 -508.3253075971554 
11.5199999999998 -738.4098577023859 
11.5299999999998 -688.3791286063798 
11.5399999999998 -591.0017095391931 
11.5499999999998 -668.231758020463 
11.5599999999998 -901.629086906914 
11.5699999999998 -1113.08736439788 
11.5799999999998 -1193.913530323139 
11.5899999999998 -1171.133830540946 
11.5999999999998 -1113.169324483005 
11.6099999999998 -965.3220911867879 
11.6199999999998 -673.6090689961712 
11.6299999999998 -255.7431707290203 
11.6399999999998 178.1734341170772 
11.6499999999998 498.1894861414753 
11.6599999999998 672.3418946094449 
11.6699999999998 748.2584006496076 
11.6799999999998 837.9706966235752 
11.6899999999998 1025.770560262785 
11.6999999999998 1275.817142290042 
11.7099999999998 1438.05171113587 
11.7199999999998 1338.374811510253 
11.72999999999979 987.5602464449893 
11.73999999999979 565.6877918628385 
11.74999999999979 255.114634893738 
11.75999999999979 95.18517231428767 
11.76999999999979 -30.29454122549192 
11.77999999999979 -177.2875238059497 
11.78999999999979 -322.4567732098655 
11.79999999999979 -431.0271552347891 
11.80999999999979 -556.2802997466467 
11.81999999999979 -776.8543985268731 
11.82999999999979 -1050.799731137026 
11.83999999999979 -1259.918437712291 
11.84999999999979 -1303.337212468826 
11.85999999999979 -1203.719604691017 
11.86999999999979 -1014.049632935552 
11.87999999999979 -780.6852020441025 
11.88999999999979 -542.103353870266 
11.89999999999979 -342.8943860788064 
11.90999999999979 -162.3537858673774 
11.91999999999979 92.80035134448106 
11.92999999999979 490.8109302441373 
11.93999999999979 947.3199168685019 
11.94999999999979 1272.063922917673 
11.95999999999979 1347.031654128096 
11.96999999999979 1208.443000895347 
11.97999999999979 990.5425538283763 
11.98999999999979 783.9905494079069 
11.99999999999979 617.4908313882313 
12.00999999999979 479.894099347134 
12.01999999999979 375.0518048145567 
12.02999999999979 292.439469822711 
12.03999999999979 213.4942571506018 
12.04999999999979 115.7770760660814 
12.05999999999979 -7.264960844088775 
12.06999999999979 -159.6461981816706 
12.07999999999979 -325.9164625609274 
12.08999999999979 -476.1957734448045 
12.09999999999979 -568.7107494164716 
12.10999999999979 -599.2639604102218 
12.11999999999979 -643.8510761845732 
12.12999999999979 -793.5324684488033 
12.13999999999979 -1046.130482566965 
12.14999999999979 -1250.785806283603 
12.15999999999979 -1238.619770570931 
12.16999999999979 -978.6887221756092 
12.17999999999979 -606.8049040704833 
12.18999999999979 -257.4685474525155 
12.19999999999978 54.74560950210945 
12.20999999999978 370.6327464540371 
12.21999999999978 677.8493339570408 
12.22999999999978 918.6138334897548 
12.23999999999978 1074.580215668717 
12.24999999999978 1170.903794368518 
12.25999999999978 1205.429131313521 
12.26999999999978 1141.729025316745 
12.27999999999978 984.6091103997429 
12.28999999999978 791.1882191655434 
12.29999999999978 595.6470892340507 
12.30999999999978 371.9194523396062 
12.31999999999978 113.923584957243 
12.32999999999978 -103.1377247941509 
12.33999999999978 -199.4963657077666 
12.34999999999978 -218.1244271548792 
12.35999999999978 -312.8049431260092 
12.36999999999978 -561.6143257392073 
12.37999999999978 -870.2181541848772 
12.38999999999978 -1073.56007417716 
12.39999999999978 -1113.648472148744 
12.40999999999978 -1062.035048093222 
12.41999999999978 -978.9864746187602 
12.42999999999978 -850.2702911506816 
12.43999999999978 -647.4816299155556 
12.44999999999978 -417.7983343167388 
12.45999999999978 -216.4812472735549 
12.46999999999978 -27.7754498170996 
12.47999999999978 206.7760512375466 
12.48999999999978 484.1574740573632 
12.49999999999978 716.3949655191594 
12.50999999999978 846.5664376790371 
12.51999999999978 898.0303283737432 
12.52999999999978 910.5325920311515 
12.53999999999978 853.0360671356145 
12.54999999999978 689.5591754837416 
12.55999999999978 474.5475005513368 
12.56999999999978 323.1373577407834 
12.57999999999978 276.8418222621014 
12.58999999999978 257.7806352753119 
12.59999999999978 175.7426774373661 
12.60999999999978 28.92843268178551 
12.61999999999978 -125.5443212963583 
12.62999999999978 -262.6222739481312 
12.63999999999978 -398.1200800721012 
12.64999999999978 -533.7703555559804 
12.65999999999978 -641.0848017387739 
12.66999999999977 -714.4825553508268 
12.67999999999977 -782.5054866439984 
12.68999999999977 -853.3318914589706 
12.69999999999977 -871.9493598645463 
12.70999999999977 -781.4101501129175 
12.71999999999977 -594.868622187407 
12.72999999999977 -365.884309178966 
12.73999999999977 -111.8224136122353 
12.74999999999977 182.8578971083811 
12.75999999999977 485.1245443849024 
12.76999999999977 704.1806023180247 
12.77999999999977 781.2441747769445 
12.78999999999977 755.490161370501 
12.79999999999977 708.4415175489379 
12.80999999999977 679.0936004858926 
12.81999999999977 649.3786098562638 
12.82999999999977 591.2302992170925 
12.83999999999977 496.0235136766477 
12.84999999999977 368.682901715026 
12.85999999999977 232.4456425609907 
12.86999999999977 132.4677229009184 
12.87999999999977 104.5425623989542 
12.88999999999977 122.8478765633998 
12.89999999999977 124.0776514448867 
12.90999999999977 85.79170501003634 
12.91999999999977 43.80555695270939 
12.92999999999977 -2.458982254963349 
12.93999999999977 -137.8299025387341 
12.94999999999977 -409.9262944374738 
12.95999999999977 -703.8960664944387 
12.96999999999977 -833.421235462342 
12.97999999999977 -761.9122334126015 
12.98999999999977 -639.3584965497604 
12.99999999999977 -596.8639069013177 
13.00999999999977 -591.790340048304 
13.01999999999977 -504.2122854390956 
13.02999999999977 -319.4746697941011 
13.03999999999977 -133.5734221001185 
13.04999999999977 -6.158143998827896 
13.05999999999977 100.3445631115687 
13.06999999999977 229.8832027289405 
13.07999999999977 348.9545439192302 
13.08999999999977 403.2537055264255 
13.09999999999977 400.0667165606414 
13.10999999999977 383.9632670298773 
13.11999999999977 358.6622327365476 
13.12999999999977 309.7189660540209 
13.13999999999976 283.8938148414659 
13.14999999999976 357.5587211266394 
13.15999999999976 501.5613201862713 
13.16999999999976 565.5069684563202 
13.17999999999976 448.112175757546 
13.18999999999976 228.5960749218545 
13.19999999999976 64.139521918247 
13.20999999999976 -7.179255242741308 
13.21999999999976 -82.48141195448696 
13.22999999999976 -236.7703484780537 
13.23999999999976 -425.0008033586034 
13.24999999999976 -566.0720802812538 
13.25999999999976 -651.4543162074356 
13.26999999999976 -721.2104130950627 
13.27999999999976 -771.7086483247515 
13.28999999999976 -753.0276984161397 
13.29999999999976 -647.835277971607 
13.30999999999976 -492.2108827266954 
13.31999999999976 -310.6190417998839 
13.32999999999976 -95.11714107807548 
13.33999999999976 130.0432204267927 
13.34999999999976 280.0136481316267 
13.35999999999976 305.8301151260899 
13.36999999999976 283.9501944049397 
13.37999999999976 349.1863049259685 
13.38999999999976 537.1323045416764 
13.39999999999976 736.6101510809707 
13.40999999999976 809.2337885438769 
13.41999999999976 725.3433843896571 
13.42999999999976 573.1866543751042 
13.43999999999976 460.2823591937597 
13.44999999999976 420.5205672488851 
13.45999999999976 409.7768739358269 
13.46999999999976 360.8133826689157 
13.47999999999976 238.9607691536217 
13.48999999999976 52.68125195533502 
13.49999999999976 -164.0333805051362 
13.50999999999976 -376.4756905027974 
13.51999999999976 -567.5730311766955 
13.52999999999976 -732.8300875042849 
13.53999999999976 -852.102846630129 
13.54999999999976 -876.2291837812664 
13.55999999999976 -771.0214821839065 
13.56999999999976 -577.8785604370232 
13.57999999999976 -403.9322431113495 
13.58999999999976 -329.9653475680838 
13.59999999999976 -333.6119534287349 
13.60999999999975 -309.2278460298754 
13.61999999999975 -160.9735340635001 
13.62999999999975 115.1858642376013 
13.63999999999975 418.2535144477151 
13.64999999999975 613.5816735928806 
13.65999999999975 639.247565279002 
13.66999999999975 559.312804502675 
13.67999999999975 500.4883000668228 
13.68999999999975 530.4775421386486 
13.69999999999975 600.2857999072214 
13.70999999999975 611.913817013112 
13.71999999999975 530.0720397875831 
13.72999999999975 413.1666165750721 
13.73999999999975 326.072938741827 
13.74999999999975 246.8241167085915 
13.75999999999975 90.86634218834658 
13.76999999999975 -162.6627520841867 
13.77999999999975 -410.9255373970038 
13.78999999999975 -526.3141130465733 
13.79999999999975 -499.0988363929708 
13.80999999999975 -445.9280790739665 
13.81999999999975 -485.9386689126536 
13.82999999999975 -630.3783207439594 
13.83999999999975 -785.0496305245323 
13.84999999999975 -828.7587234729515 
13.85999999999975 -703.2235314331815 
13.86999999999975 -460.7441947037326 
13.87999999999975 -227.9524750658426 
13.88999999999975 -93.70177896793761 
13.89999999999975 -30.38292434868568 
13.90999999999975 58.72919626561296 
13.91999999999975 218.2623007916996 
13.92999999999975 396.2819803435961 
13.93999999999975 521.9881948361112 
13.94999999999975 601.4627063153515 
13.95999999999975 701.0617413913021 
13.96999999999975 842.3619579363538 
13.97999999999975 944.3685349260146 
13.98999999999975 897.2820389594323 
13.99999999999975 683.6533939102063 
14.00999999999975 400.0700983929508 
14.01999999999975 164.4978698896651 
14.02999999999975 24.99202526000368 
14.03999999999975 -46.72200891665933 
14.04999999999975 -118.1997481636582 
14.05999999999975 -259.1521872605774 
14.06999999999974 -490.215746871853 
14.07999999999974 -736.947252010645 
14.08999999999974 -872.4702502789903 
14.09999999999974 -845.0108529380773 
14.10999999999974 -737.1144999798045 
14.11999999999974 -662.0477577645913 
14.12999999999974 -623.9461537984186 
14.13999999999974 -528.6954890762627 
14.14999999999974 -325.2357285966133 
14.15999999999974 -88.90515740770884 
14.16999999999974 65.29500944376625 
14.17999999999974 129.8265455728416 
14.18999999999974 225.7899319811926 
14.19999999999974 455.0590722917245 
14.20999999999974 752.2240929918602 
14.21999999999974 931.264229751221 
14.22999999999974 892.1143652611003 
14.23999999999974 732.054875562883 
14.24999999999974 619.5678503979864 
14.25999999999974 597.866551863048 
14.26999999999974 570.305543754191 
14.27999999999974 446.4381601163748 
14.28999999999974 231.7511999491133 
14.29999999999974 -21.74072312124469 
14.30999999999974 -277.8607993087601 
14.31999999999974 -505.4845941151633 
14.32999999999974 -663.7802486784299 
14.33999999999974 -739.0453931845749 
14.34999999999974 -762.7886352619635 
14.35999999999974 -762.5740056526074 
14.36999999999974 -714.5825357030058 
14.37999999999974 -584.0935860196798 
14.38999999999974 -403.3514325701294 
14.39999999999974 -274.7165941275376 
14.40999999999974 -273.5768947282074 
14.41999999999974 -351.2123751168874 
14.42999999999974 -355.4578061335373 
14.43999999999974 -169.1316215351092 
14.44999999999974 164.7343388221091 
14.45999999999974 475.9755846765485 
14.46999999999974 632.8938011330026 
14.47999999999974 659.8163272914673 
14.48999999999974 675.796086011905 
14.49999999999974 746.5022355167463 
14.50999999999974 823.4942246302104 
14.51999999999974 815.0455871211859 
14.52999999999974 683.2652340196977 
14.53999999999973 475.3969482595565 
14.54999999999973 281.1793538932313 
14.55999999999973 154.6409496603071 
14.56999999999973 59.8719915768981 
14.57999999999973 -100.2039515599123 
14.58999999999973 -373.1609271022271 
14.59999999999973 -673.7665666238853 
14.60999999999973 -838.3168383456871 
14.61999999999973 -786.1464039320889 
14.62999999999973 -613.9002335282833 
14.63999999999973 -502.303893002605 
14.64999999999973 -520.0580773393201 
14.65999999999973 -555.6596091197871 
14.66999999999973 -466.2483380438741 
14.67999999999973 -261.0941834898562 
14.68999999999973 -87.97653439361751 
14.69999999999973 -47.97697615354164 
14.70999999999973 -88.36091078057807 
14.71999999999973 -84.02282315950373 
14.72999999999973 23.79655106167065 
14.73999999999973 200.5535274493235 
14.74999999999973 377.2116351440848 
14.75999999999973 501.8944960893314 
14.76999999999973 558.8481564563573 
14.77999999999973 575.5779291363976 
14.78999999999973 598.7969735122549 
14.79999999999973 637.8350950299684 
14.80999999999973 636.4944854886844 
14.81999999999973 524.7453425022795 
14.82999999999973 307.9295629462267 
14.83999999999973 96.36841266946155 
14.84999999999973 22.11645465185229 
14.85999999999973 101.9983141635853 
14.86999999999973 192.1912008398946 
14.87999999999973 118.8020373495179 
14.88999999999973 -132.4117560143442 
14.89999999999973 -386.6422145095996 
14.90999999999973 -469.5770958829261 
14.91999999999973 -400.3448077213668 
14.92999999999973 -359.4078209852409 
14.93999999999973 -467.5579744354247 
14.94999999999973 -646.2828510898746 
14.95999999999973 -724.5461923519795 
14.96999999999973 -655.5816456139852 
14.97999999999973 -565.8088551818462 
14.98999999999973 -575.8664732771391 
14.99999999999973 -627.9478090327596 
