0.01 0.2628622707009174 
0.02 0.2628622707009174 
0.03 0.2628622707009174 
0.04 0.2628622707009174 
0.05 0.2628622707009174 
0.06000000000000001 0.2628622707009174 
0.07000000000000001 0.2628622707009174 
0.08 0.2628622707009174 
0.09 0.2628622707009174 
0.09999999999999999 0.2628622707009174 
0.11 0.2628622707009174 
0.12 0.2628622707009174 
0.13 0.2628622707009174 
0.14 0.2628622707009174 
0.15 0.2628622707009174 
0.16 0.2628622707009174 
0.17 0.2628622707009174 
0.18 0.2628622707009174 
0.19 0.2628622707009174 
0.2 0.2628622707009174 
0.2100000000000001 0.2628622707009174 
0.2200000000000001 0.2628622707009174 
0.2300000000000001 0.2628622707009174 
0.2400000000000001 0.2628622707009174 
0.2500000000000001 0.2628622707009174 
0.2600000000000001 0.2628622707009174 
0.2700000000000001 0.2628622707009174 
0.2800000000000001 0.2628622707009174 
0.2900000000000001 0.2628622707009174 
0.3000000000000001 0.2628622707009174 
0.3100000000000001 0.2628622707009174 
0.3200000000000001 0.2628622707009174 
0.3300000000000001 0.2628622707009174 
0.3400000000000001 0.2628622707009174 
0.3500000000000001 0.2628622707009174 
0.3600000000000002 0.2628622707009174 
0.3700000000000002 0.2628622707009174 
0.3800000000000002 0.2628622707009174 
0.3900000000000002 0.2628622707009174 
0.4000000000000002 0.2628622707009174 
0.4100000000000002 0.2628622707009174 
0.4200000000000002 0.2628622707009174 
0.4300000000000002 0.2628622707009174 
0.4400000000000002 0.2628622707009174 
0.4500000000000002 0.2628622707009174 
0.4600000000000002 0.2628622707009174 
0.4700000000000003 0.2628622707009174 
0.4800000000000003 0.2628622707009174 
0.4900000000000003 0.2628622707009174 
0.5000000000000002 0.2628622707009174 
0.5100000000000002 0.2628622707009174 
0.5200000000000002 0.2628622707009174 
0.5300000000000003 0.2628622707009174 
0.5400000000000003 0.2628622707009174 
0.5500000000000003 0.2628622707009174 
0.5600000000000003 0.2628622707009174 
0.5700000000000003 0.2628622707009174 
0.5800000000000003 0.2628622707009174 
0.5900000000000003 0.2628622707009174 
0.6000000000000003 0.2628622707009174 
0.6100000000000003 0.2628622707009174 
0.6200000000000003 0.2628622707009174 
0.6300000000000003 0.2628622707009174 
0.6400000000000004 0.2628622707009174 
0.6500000000000004 0.2628622707009174 
0.6600000000000004 0.2628622707009174 
0.6700000000000004 0.2628622707009174 
0.6800000000000004 0.2628622707009174 
0.6900000000000004 0.2628622707009174 
0.7000000000000004 0.2628622707009174 
0.7100000000000004 0.2628622707009174 
0.7200000000000004 0.2628622707009174 
0.7300000000000004 0.2628622707009174 
0.7400000000000004 0.2628622707009174 
0.7500000000000004 0.2628622707009174 
0.7600000000000005 0.2628622707009174 
0.7700000000000005 0.2628622707009174 
0.7800000000000005 0.2628622707009174 
0.7900000000000005 0.2628622707009174 
0.8000000000000005 0.2628622707009174 
0.8100000000000005 0.2628622707009174 
0.8200000000000005 0.2628622707009174 
0.8300000000000005 0.2628622707009174 
0.8400000000000005 0.2628622707009174 
0.8500000000000005 0.2628622707009174 
0.8600000000000005 0.2628622707009174 
0.8700000000000006 0.2628622707009174 
0.8800000000000006 0.2628622707009174 
0.8900000000000006 0.2628622707009174 
0.9000000000000006 0.2628622707009174 
0.9100000000000006 0.2628622707009174 
0.9200000000000006 0.2628622707009174 
0.9300000000000006 0.2628622707009174 
0.9400000000000006 0.2628622707009174 
0.9500000000000006 0.2628622707009174 
0.9600000000000006 0.2628622707009174 
0.9700000000000006 0.2628622707009174 
0.9800000000000007 0.2628622707009174 
0.9900000000000007 0.2628622707009174 
1.000000000000001 0.2628622707009174 
1.010000000000001 0.2628622707009174 
1.020000000000001 0.2628622707009174 
1.030000000000001 0.2628622707009174 
1.040000000000001 0.2628622707009174 
1.050000000000001 0.2628622707009174 
1.060000000000001 0.2628622707009174 
1.070000000000001 0.2628622707009174 
1.080000000000001 0.2628622707009174 
1.090000000000001 0.2628622707009174 
1.100000000000001 0.2628622707009174 
1.110000000000001 0.2628622707009174 
1.120000000000001 0.2628622707009174 
1.130000000000001 0.2628622707009174 
1.140000000000001 0.2628622707009174 
1.150000000000001 0.2628622707009174 
1.160000000000001 0.2628622707009174 
1.170000000000001 0.2628622707009174 
1.180000000000001 0.2628622707009174 
1.190000000000001 0.2628622707009174 
1.200000000000001 0.2628622707009174 
1.210000000000001 0.2628622707009174 
1.220000000000001 0.2628622707009174 
1.230000000000001 0.2628622707009174 
1.240000000000001 0.2628622707009174 
1.250000000000001 0.2628622707009174 
1.260000000000001 0.2628622707009174 
1.270000000000001 0.2628622707009174 
1.280000000000001 0.2628622707009174 
1.290000000000001 0.2628622707009174 
1.300000000000001 0.2628622707009174 
1.310000000000001 0.2628622707009174 
1.320000000000001 0.2628622707009174 
1.330000000000001 0.2628622707009174 
1.340000000000001 0.2628622707009174 
1.350000000000001 0.2628622707009174 
1.360000000000001 0.2628622707009174 
1.370000000000001 0.2628622707009174 
1.380000000000001 0.2628622707009174 
1.390000000000001 0.2628622707009174 
1.400000000000001 0.2628622707009174 
1.410000000000001 0.2628622707009174 
1.420000000000001 0.2628622707009174 
1.430000000000001 0.2628622707009174 
1.440000000000001 0.2628622707009174 
1.450000000000001 0.2628622707009174 
1.460000000000001 0.2628622707009174 
1.470000000000001 0.2628622707009174 
1.480000000000001 0.2628622707009174 
1.490000000000001 0.2628622707009174 
1.500000000000001 0.2628622707009174 
1.510000000000001 0.2628622707009174 
1.520000000000001 0.2628622707009174 
1.530000000000001 0.2628622707009174 
1.540000000000001 0.2628622707009174 
1.550000000000001 0.2628622707009174 
1.560000000000001 0.2628622707009174 
1.570000000000001 0.2628622707009174 
1.580000000000001 0.2628622707009174 
1.590000000000001 0.2628622707009174 
1.600000000000001 0.2628622707009174 
1.610000000000001 0.2628622707009174 
1.620000000000001 0.2628622707009174 
1.630000000000001 0.2628622707009174 
1.640000000000001 0.2628622707009174 
1.650000000000001 0.2628622707009174 
1.660000000000001 0.2628622707009174 
1.670000000000001 0.2628622707009174 
1.680000000000001 0.2628622707009174 
1.690000000000001 0.2628622707009174 
1.700000000000001 0.2628622707009174 
1.710000000000001 0.2628622707009174 
1.720000000000001 0.2628622707009174 
1.730000000000001 0.2628622707009174 
1.740000000000001 0.2628622707009174 
1.750000000000001 0.2628622707009174 
1.760000000000001 0.2628622707009174 
1.770000000000001 0.2628622707009174 
1.780000000000001 0.2628622707009174 
1.790000000000001 0.2628622707009174 
1.800000000000001 0.2628622707009174 
1.810000000000001 0.2628622707009174 
1.820000000000001 0.2628622707009174 
1.830000000000001 0.2628622707009174 
1.840000000000001 0.2628622707009174 
1.850000000000001 0.2628622707009174 
1.860000000000001 0.2628622707009174 
1.870000000000001 0.2628622707009174 
1.880000000000001 0.2628622707009174 
1.890000000000002 0.2628622707009174 
1.900000000000002 0.2628622707009174 
1.910000000000002 0.2628622707009174 
1.920000000000002 0.2628622707009174 
1.930000000000002 0.2628622707009174 
1.940000000000002 0.2628622707009174 
1.950000000000002 0.2628622707009174 
1.960000000000002 0.2628622707009174 
1.970000000000002 0.2628622707009174 
1.980000000000002 0.2628622707009174 
1.990000000000002 0.2628622707009174 
2.000000000000001 0.2628622707009174 
2.010000000000001 0.2628622707009174 
2.020000000000001 0.2628622707009174 
2.030000000000001 0.2628622707009174 
2.040000000000001 0.2628622707009174 
2.05 0.2628622707009174 
2.06 0.2628622707009174 
2.07 0.2628622707009174 
2.08 0.2628622707009174 
2.089999999999999 0.2628622707009174 
2.099999999999999 0.2628622707009174 
2.109999999999999 0.2628622707009174 
2.119999999999999 0.2628622707009174 
2.129999999999999 0.2628622707009174 
2.139999999999998 0.2628622707009174 
2.149999999999998 0.2628622707009174 
2.159999999999998 0.2628622707009174 
2.169999999999998 0.2628622707009174 
2.179999999999998 0.2628622707009174 
2.189999999999997 0.2628622707009174 
2.199999999999997 0.2628622707009174 
2.209999999999997 0.2628622707009174 
2.219999999999997 0.2628622707009174 
2.229999999999996 0.2628622707009174 
2.239999999999996 0.2628622707009174 
2.249999999999996 0.2622667709745984 
2.259999999999996 0.2609693452586533 
2.269999999999996 0.2596357830306783 
2.279999999999995 0.2585869153289687 
2.289999999999995 0.2579680362384337 
2.299999999999995 0.2577679862014222 
2.309999999999995 0.2577679862014222 
2.319999999999995 0.2577679862014222 
2.329999999999994 0.2577679862014222 
2.339999999999994 0.2577679862014222 
2.349999999999994 0.2577679862014222 
2.359999999999994 0.2577679862014222 
2.369999999999993 0.2577679862014222 
2.379999999999993 0.2577679862014222 
2.389999999999993 0.2577679862014222 
2.399999999999993 0.2577679862014222 
2.409999999999993 0.2577679862014222 
2.419999999999992 0.2577679862014222 
2.429999999999992 0.2577679862014222 
2.439999999999992 0.2577679862014222 
2.449999999999992 0.2577679862014222 
2.459999999999992 0.2577679862014222 
2.469999999999991 0.2577679862014222 
2.479999999999991 0.2577679862014222 
2.489999999999991 0.2577679862014222 
2.499999999999991 0.2577679862014222 
2.509999999999991 0.2577679862014222 
2.51999999999999 0.2577679862014222 
2.52999999999999 0.2577679862014222 
2.53999999999999 0.2577679862014222 
2.54999999999999 0.2577679862014222 
2.559999999999989 0.2577679862014222 
2.569999999999989 0.2577679862014222 
2.579999999999989 0.2577679862014222 
2.589999999999989 0.2577679862014222 
2.599999999999989 0.2577679862014222 
2.609999999999988 0.2577679862014222 
2.619999999999988 0.2577679862014222 
2.629999999999988 0.2577679862014222 
2.639999999999988 0.2577679862014222 
2.649999999999988 0.2577679862014222 
2.659999999999987 0.2577679862014222 
2.669999999999987 0.2577679862014222 
2.679999999999987 0.2577679862014222 
2.689999999999987 0.2577679862014222 
2.699999999999986 0.2577679862014222 
2.709999999999986 0.2577679862014222 
2.719999999999986 0.2577679862014222 
2.729999999999986 0.2577679862014222 
2.739999999999986 0.2577679862014222 
2.749999999999985 0.2577679862014222 
2.759999999999985 0.2577679862014222 
2.769999999999985 0.2577679862014222 
2.779999999999985 0.2577679862014222 
2.789999999999985 0.2573160437519701 
2.799999999999984 0.25587180458175 
2.809999999999984 0.2537403264462893 
2.819999999999984 0.2512809482237808 
2.829999999999984 0.2490892260913684 
2.839999999999983 0.2476960559704952 
2.849999999999983 0.2473303548871871 
2.859999999999983 0.2473303548871871 
2.869999999999983 0.2473303548871871 
2.879999999999983 0.2473303548871871 
2.889999999999982 0.2473303548871871 
2.899999999999982 0.2473303548871871 
2.909999999999982 0.2473303548871871 
2.919999999999982 0.2473303548871871 
2.929999999999982 0.2473303548871871 
2.939999999999981 0.2473303548871871 
2.949999999999981 0.2473303548871871 
2.959999999999981 0.2473303548871871 
2.969999999999981 0.2473303548871871 
2.97999999999998 0.2473303548871871 
2.98999999999998 0.2473303548871871 
2.99999999999998 0.2473303548871871 
3.00999999999998 0.2473303548871871 
3.01999999999998 0.2473303548871871 
3.029999999999979 0.2473303548871871 
3.039999999999979 0.2473303548871871 
3.049999999999979 0.2473303548871871 
3.059999999999979 0.2473303548871871 
3.069999999999979 0.2473303548871871 
3.079999999999978 0.2473303548871871 
3.089999999999978 0.2473303548871871 
3.099999999999978 0.2473303548871871 
3.109999999999978 0.2473303548871871 
3.119999999999978 0.2473303548871871 
3.129999999999977 0.2473303548871871 
3.139999999999977 0.2473303548871871 
3.149999999999977 0.2473303548871871 
3.159999999999977 0.2473303548871871 
3.169999999999976 0.2473303548871871 
3.179999999999976 0.2473303548871871 
3.189999999999976 0.2473303548871871 
3.199999999999976 0.2473303548871871 
3.209999999999976 0.2473303548871871 
3.219999999999975 0.2473303548871871 
3.229999999999975 0.2473303548871871 
3.239999999999975 0.2473303548871871 
3.249999999999975 0.2473303548871871 
3.259999999999975 0.2473303548871871 
3.269999999999974 0.2473303548871871 
3.279999999999974 0.2473303548871871 
3.289999999999974 0.2473303548871871 
3.299999999999974 0.2473303548871871 
3.309999999999973 0.2473303548871871 
3.319999999999973 0.2473303548871871 
3.329999999999973 0.2473303548871871 
3.339999999999973 0.2473303548871871 
3.349999999999973 0.2473303548871871 
3.359999999999972 0.2473303548871871 
3.369999999999972 0.2473303548871871 
3.379999999999972 0.2473303548871871 
3.389999999999972 0.2473303548871871 
3.399999999999972 0.2473303548871871 
3.409999999999971 0.2473303548871871 
3.419999999999971 0.2473303548871871 
3.429999999999971 0.2473303548871871 
3.439999999999971 0.2473303548871871 
3.44999999999997 0.2473303548871871 
3.45999999999997 0.2473303548871871 
3.46999999999997 0.2473303548871871 
3.47999999999997 0.2473303548871871 
3.48999999999997 0.2473303548871871 
3.499999999999969 0.2473303548871871 
3.509999999999969 0.2473303548871871 
3.519999999999969 0.2473303548871871 
3.529999999999969 0.2473303548871871 
3.539999999999969 0.2473303548871871 
3.549999999999968 0.2473303548871871 
3.559999999999968 0.2473303548871871 
3.569999999999968 0.2473303548871871 
3.579999999999968 0.2473303548871871 
3.589999999999967 0.2473303548871871 
3.599999999999967 0.2473303548871871 
3.609999999999967 0.2473303548871871 
3.619999999999967 0.2473303548871871 
3.629999999999967 0.2446709365757661 
3.639999999999966 0.2420231002328105 
3.649999999999966 0.2420231002328105 
3.659999999999966 0.2420231002328105 
3.669999999999966 0.2420231002328105 
3.679999999999966 0.2420231002328105 
3.689999999999965 0.2420231002328105 
3.699999999999965 0.2420231002328105 
3.709999999999965 0.2420231002328105 
3.719999999999965 0.2420231002328105 
3.729999999999965 0.2420231002328105 
3.739999999999964 0.2420231002328105 
3.749999999999964 0.2420231002328105 
3.759999999999964 0.2420231002328105 
3.769999999999964 0.2420231002328105 
3.779999999999963 0.2420231002328105 
3.789999999999963 0.2420231002328105 
3.799999999999963 0.2420231002328105 
3.809999999999963 0.2420231002328105 
3.819999999999963 0.2420231002328105 
3.829999999999962 0.2420231002328105 
3.839999999999962 0.2420231002328105 
3.849999999999962 0.2420231002328105 
3.859999999999962 0.2420231002328105 
3.869999999999962 0.2420231002328105 
3.879999999999961 0.2420231002328105 
3.889999999999961 0.2420231002328105 
3.899999999999961 0.2420231002328105 
3.909999999999961 0.2420231002328105 
3.91999999999996 0.2420231002328105 
3.92999999999996 0.2420231002328105 
3.93999999999996 0.2420231002328105 
3.94999999999996 0.2420231002328105 
3.95999999999996 0.2420231002328105 
3.969999999999959 0.2420231002328105 
3.979999999999959 0.2420231002328105 
3.989999999999959 0.2420231002328105 
3.999999999999959 0.2420231002328105 
4.009999999999959 0.2420231002328105 
4.019999999999959 0.2420231002328105 
4.029999999999959 0.2420231002328105 
4.039999999999958 0.2420231002328105 
4.049999999999958 0.2420231002328105 
4.059999999999958 0.2420231002328105 
4.069999999999958 0.2420231002328105 
4.079999999999957 0.2420231002328105 
4.089999999999957 0.2420231002328105 
4.099999999999957 0.2420231002328105 
4.109999999999957 0.2420231002328105 
4.119999999999957 0.2420231002328105 
4.129999999999956 0.2420231002328105 
4.139999999999956 0.2420231002328105 
4.149999999999956 0.2420231002328105 
4.159999999999956 0.2420231002328105 
4.169999999999956 0.2420231002328105 
4.179999999999955 0.2420231002328105 
4.189999999999955 0.2420231002328105 
4.199999999999955 0.2420231002328105 
4.209999999999955 0.2420231002328105 
4.219999999999955 0.2420231002328105 
4.229999999999954 0.2420231002328105 
4.239999999999954 0.2420231002328105 
4.249999999999954 0.2420231002328105 
4.259999999999954 0.2420231002328105 
4.269999999999953 0.2420231002328105 
4.279999999999953 0.2420231002328105 
4.289999999999953 0.2420231002328105 
4.299999999999953 0.2420231002328105 
4.309999999999953 0.2420231002328105 
4.319999999999952 0.2420231002328105 
4.329999999999952 0.2420231002328105 
4.339999999999952 0.2420231002328105 
4.349999999999952 0.2420231002328105 
4.359999999999952 0.2420231002328105 
4.369999999999951 0.2420231002328105 
4.379999999999951 0.2420231002328105 
4.389999999999951 0.2420231002328105 
4.399999999999951 0.2420231002328105 
4.40999999999995 0.2420231002328105 
4.41999999999995 0.2420231002328105 
4.42999999999995 0.2420231002328105 
4.43999999999995 0.2420231002328105 
4.44999999999995 0.2420231002328105 
4.459999999999949 0.2420231002328105 
4.469999999999949 0.2420231002328105 
4.479999999999949 0.2420231002328105 
4.489999999999949 0.2420231002328105 
4.499999999999949 0.2420231002328105 
4.509999999999948 0.2420231002328105 
4.519999999999948 0.2420231002328105 
4.529999999999948 0.2420231002328105 
4.539999999999948 0.2420231002328105 
4.549999999999947 0.2420231002328105 
4.559999999999947 0.2420231002328105 
4.569999999999947 0.2420231002328105 
4.579999999999947 0.2420231002328105 
4.589999999999947 0.2420231002328105 
4.599999999999946 0.2420231002328105 
4.609999999999946 0.2420231002328105 
4.619999999999946 0.2420231002328105 
4.629999999999946 0.2420231002328105 
4.639999999999946 0.2420231002328105 
4.649999999999945 0.2420231002328105 
4.659999999999945 0.2420231002328105 
4.669999999999945 0.2420231002328105 
4.679999999999945 0.2420231002328105 
4.689999999999944 0.2420231002328105 
4.699999999999944 0.2420231002328105 
4.709999999999944 0.2420231002328105 
4.719999999999944 0.2420231002328105 
4.729999999999944 0.2420231002328105 
4.739999999999943 0.2420231002328105 
4.749999999999943 0.2420231002328105 
4.759999999999943 0.2420231002328105 
4.769999999999943 0.2420231002328105 
4.779999999999943 0.2420231002328105 
4.789999999999942 0.2420231002328105 
4.799999999999942 0.2420231002328105 
4.809999999999942 0.2420231002328105 
4.819999999999942 0.2420231002328105 
4.829999999999942 0.2420231002328105 
4.839999999999941 0.2420231002328105 
4.849999999999941 0.2420231002328105 
4.859999999999941 0.2420231002328105 
4.869999999999941 0.2420231002328105 
4.87999999999994 0.2420231002328105 
4.88999999999994 0.2420231002328105 
4.89999999999994 0.2420231002328105 
4.90999999999994 0.2420231002328105 
4.91999999999994 0.2420231002328105 
4.929999999999939 0.2420231002328105 
4.939999999999939 0.2420231002328105 
4.949999999999939 0.2420231002328105 
4.959999999999939 0.2420231002328105 
4.969999999999939 0.2420231002328105 
4.979999999999938 0.2420231002328105 
4.989999999999938 0.2420231002328105 
4.999999999999938 0.2420231002328105 
5.009999999999938 0.2420231002328105 
5.019999999999937 0.2420231002328105 
5.029999999999937 0.2420231002328105 
5.039999999999937 0.2420231002328105 
5.049999999999937 0.2420231002328105 
5.059999999999937 0.2420231002328105 
5.069999999999936 0.2420231002328105 
5.079999999999936 0.2420231002328105 
5.089999999999936 0.2420231002328105 
5.099999999999936 0.2420231002328105 
5.109999999999936 0.2420231002328105 
5.119999999999935 0.2420231002328105 
5.129999999999935 0.2420231002328105 
5.139999999999935 0.2420231002328105 
5.149999999999935 0.2420231002328105 
5.159999999999934 0.2420231002328105 
5.169999999999934 0.2420231002328105 
5.179999999999934 0.2420231002328105 
5.189999999999934 0.2420231002328105 
5.199999999999934 0.2420231002328105 
5.209999999999933 0.2420231002328105 
5.219999999999933 0.2420231002328105 
5.229999999999933 0.2420231002328105 
5.239999999999933 0.2420231002328105 
5.249999999999933 0.2420231002328105 
5.259999999999932 0.2420231002328105 
5.269999999999932 0.2420231002328105 
5.279999999999932 0.2420231002328105 
5.289999999999932 0.2420231002328105 
5.299999999999931 0.2420231002328105 
5.309999999999931 0.2420231002328105 
5.319999999999931 0.2420231002328105 
5.329999999999931 0.2420231002328105 
5.339999999999931 0.2420231002328105 
5.34999999999993 0.2420231002328105 
5.35999999999993 0.2420231002328105 
5.36999999999993 0.2420231002328105 
5.37999999999993 0.2420231002328105 
5.38999999999993 0.2420231002328105 
5.399999999999929 0.2420231002328105 
5.409999999999929 0.2420231002328105 
5.419999999999929 0.2420231002328105 
5.429999999999929 0.2420231002328105 
5.439999999999928 0.2420231002328105 
5.449999999999928 0.2420231002328105 
5.459999999999928 0.2420231002328105 
5.469999999999928 0.2420231002328105 
5.479999999999928 0.2420231002328105 
5.489999999999927 0.2420231002328105 
5.499999999999927 0.2420231002328105 
5.509999999999927 0.2420231002328105 
5.519999999999927 0.2420231002328105 
5.529999999999927 0.2420231002328105 
5.539999999999926 0.2420231002328105 
5.549999999999926 0.2420231002328105 
5.559999999999926 0.2420231002328105 
5.569999999999926 0.2420231002328105 
5.579999999999926 0.2420231002328105 
5.589999999999925 0.2420231002328105 
5.599999999999925 0.2420231002328105 
5.609999999999925 0.2420231002328105 
5.619999999999925 0.2420231002328105 
5.629999999999924 0.2420231002328105 
5.639999999999924 0.2420231002328105 
5.649999999999924 0.2420231002328105 
5.659999999999924 0.2420231002328105 
5.669999999999924 0.2420231002328105 
5.679999999999923 0.2420231002328105 
5.689999999999923 0.2420231002328105 
5.699999999999923 0.2420231002328105 
5.709999999999923 0.2420231002328105 
5.719999999999923 0.2420231002328105 
5.729999999999922 0.2420231002328105 
5.739999999999922 0.2420231002328105 
5.749999999999922 0.2420231002328105 
5.759999999999922 0.2420231002328105 
5.769999999999921 0.2420231002328105 
5.779999999999921 0.2420231002328105 
5.789999999999921 0.2420231002328105 
5.799999999999921 0.2420231002328105 
5.809999999999921 0.2420231002328105 
5.81999999999992 0.2420231002328105 
5.82999999999992 0.2420231002328105 
5.83999999999992 0.2420231002328105 
5.84999999999992 0.2420231002328105 
5.85999999999992 0.2420231002328105 
5.869999999999919 0.2420231002328105 
5.879999999999919 0.2420231002328105 
5.889999999999919 0.2420231002328105 
5.899999999999919 0.2420231002328105 
5.909999999999918 0.2420231002328105 
5.919999999999918 0.2420231002328105 
5.929999999999918 0.2420231002328105 
5.939999999999918 0.2420231002328105 
5.949999999999918 0.2420231002328105 
5.959999999999917 0.2420231002328105 
5.969999999999917 0.2420231002328105 
5.979999999999917 0.2420231002328105 
5.989999999999917 0.2420231002328105 
5.999999999999917 0.2420231002328105 
6.009999999999916 0.2420231002328105 
6.019999999999916 0.2420231002328105 
6.029999999999916 0.2420231002328105 
6.039999999999916 0.2420231002328105 
6.049999999999915 0.2420231002328105 
6.059999999999915 0.2392630715488474 
6.069999999999915 0.2361333370683253 
6.079999999999915 0.2360841307583343 
6.089999999999915 0.2360841307583343 
6.099999999999914 0.2360841307583343 
6.109999999999914 0.2360841307583343 
6.119999999999914 0.2360841307583343 
6.129999999999914 0.2360841307583343 
6.139999999999914 0.2360841307583343 
6.149999999999913 0.2360841307583343 
6.159999999999913 0.2360841307583343 
6.169999999999913 0.2360841307583343 
6.179999999999913 0.2360841307583343 
6.189999999999913 0.2360841307583343 
6.199999999999912 0.2360841307583343 
6.209999999999912 0.2360841307583343 
6.219999999999912 0.2360841307583343 
6.229999999999912 0.2360841307583343 
6.239999999999911 0.2360841307583343 
6.249999999999911 0.2360841307583343 
6.259999999999911 0.2360841307583343 
6.269999999999911 0.2360841307583343 
6.279999999999911 0.2360841307583343 
6.28999999999991 0.2360841307583343 
6.29999999999991 0.2360841307583343 
6.30999999999991 0.2360841307583343 
6.31999999999991 0.2360841307583343 
6.32999999999991 0.2360841307583343 
6.339999999999909 0.2360841307583343 
6.349999999999909 0.2360841307583343 
6.359999999999909 0.2360841307583343 
6.369999999999909 0.2360841307583343 
6.379999999999908 0.2360841307583343 
6.389999999999908 0.2360841307583343 
6.399999999999908 0.2360841307583343 
6.409999999999908 0.2360841307583343 
6.419999999999908 0.2360841307583343 
6.429999999999907 0.2360841307583343 
6.439999999999907 0.2360841307583343 
6.449999999999907 0.2360841307583343 
6.459999999999907 0.2360841307583343 
6.469999999999907 0.2360841307583343 
6.479999999999906 0.2360841307583343 
6.489999999999906 0.2360841307583343 
6.499999999999906 0.2360841307583343 
6.509999999999906 0.2360841307583343 
6.519999999999905 0.2360841307583343 
6.529999999999905 0.2360841307583343 
6.539999999999905 0.2360841307583343 
6.549999999999905 0.2360841307583343 
6.559999999999905 0.2360841307583343 
6.569999999999904 0.2360841307583343 
6.579999999999904 0.2360841307583343 
6.589999999999904 0.2360841307583343 
6.599999999999904 0.2360841307583343 
6.609999999999904 0.2360841307583343 
6.619999999999903 0.2360841307583343 
6.629999999999903 0.2360841307583343 
6.639999999999903 0.2360841307583343 
6.649999999999903 0.2360841307583343 
6.659999999999902 0.2360841307583343 
6.669999999999902 0.2360841307583343 
6.679999999999902 0.2360841307583343 
6.689999999999902 0.2360841307583343 
6.699999999999902 0.2360841307583343 
6.709999999999901 0.2360841307583343 
6.719999999999901 0.2360841307583343 
6.729999999999901 0.2360841307583343 
6.739999999999901 0.2360841307583343 
6.749999999999901 0.2360841307583343 
6.7599999999999 0.2360841307583343 
6.7699999999999 0.2360841307583343 
6.7799999999999 0.2360841307583343 
6.7899999999999 0.2360841307583343 
6.7999999999999 0.2360841307583343 
6.809999999999899 0.2360841307583343 
6.819999999999899 0.2360841307583343 
6.829999999999899 0.2360841307583343 
6.839999999999899 0.2360841307583343 
6.849999999999898 0.2360841307583343 
6.859999999999898 0.2360841307583343 
6.869999999999898 0.2360841307583343 
6.879999999999898 0.2360841307583343 
6.889999999999898 0.2360841307583343 
6.899999999999897 0.2360841307583343 
6.909999999999897 0.2360841307583343 
6.919999999999897 0.2360841307583343 
6.929999999999897 0.2360841307583343 
6.939999999999897 0.2360841307583343 
6.949999999999896 0.2360841307583343 
6.959999999999896 0.2360841307583343 
6.969999999999896 0.2360841307583343 
6.979999999999896 0.2360841307583343 
6.989999999999895 0.2360841307583343 
6.999999999999895 0.2360841307583343 
7.009999999999895 0.2360841307583343 
7.019999999999895 0.2360841307583343 
7.029999999999895 0.2360841307583343 
7.039999999999894 0.2360841307583343 
7.049999999999894 0.2360841307583343 
7.059999999999894 0.2360841307583343 
7.069999999999894 0.2360841307583343 
7.079999999999894 0.2360841307583343 
7.089999999999893 0.2360841307583343 
7.099999999999893 0.2360841307583343 
7.109999999999893 0.2360841307583343 
7.119999999999893 0.2360841307583343 
7.129999999999892 0.2360841307583343 
7.139999999999892 0.2360841307583343 
7.149999999999892 0.2360841307583343 
7.159999999999892 0.2360841307583343 
7.169999999999892 0.2360841307583343 
7.179999999999891 0.2360841307583343 
7.189999999999891 0.2360841307583343 
7.199999999999891 0.2360841307583343 
7.209999999999891 0.2360841307583343 
7.219999999999891 0.2360841307583343 
7.22999999999989 0.2360841307583343 
7.23999999999989 0.2360841307583343 
7.24999999999989 0.2360841307583343 
7.25999999999989 0.2360841307583343 
7.269999999999889 0.2360841307583343 
7.279999999999889 0.2360841307583343 
7.289999999999889 0.2360841307583343 
7.299999999999889 0.2360841307583343 
7.309999999999889 0.2360841307583343 
7.319999999999888 0.2360841307583343 
7.329999999999888 0.2360841307583343 
7.339999999999888 0.2360841307583343 
7.349999999999888 0.2360841307583343 
7.359999999999888 0.2360841307583343 
7.369999999999887 0.2360841307583343 
7.379999999999887 0.2360841307583343 
7.389999999999887 0.2360841307583343 
7.399999999999887 0.2360841307583343 
7.409999999999887 0.2360841307583343 
7.419999999999886 0.2360841307583343 
7.429999999999886 0.2360841307583343 
7.439999999999886 0.2360841307583343 
7.449999999999886 0.2360841307583343 
7.459999999999885 0.2360841307583343 
7.469999999999885 0.2360841307583343 
7.479999999999885 0.2360841307583343 
7.489999999999885 0.2360841307583343 
7.499999999999885 0.2360841307583343 
7.509999999999884 0.2360841307583343 
7.519999999999884 0.2360841307583343 
7.529999999999884 0.2360841307583343 
7.539999999999884 0.2360841307583343 
7.549999999999884 0.2360841307583343 
7.559999999999883 0.2360841307583343 
7.569999999999883 0.2360841307583343 
7.579999999999883 0.2360841307583343 
7.589999999999883 0.2360841307583343 
7.599999999999882 0.2360841307583343 
7.609999999999882 0.2360841307583343 
7.619999999999882 0.2360841307583343 
7.629999999999882 0.2360841307583343 
7.639999999999882 0.2360841307583343 
7.649999999999881 0.2360841307583343 
7.659999999999881 0.2360841307583343 
7.669999999999881 0.2360841307583343 
7.679999999999881 0.2360841307583343 
7.689999999999881 0.2360841307583343 
7.69999999999988 0.2360841307583343 
7.70999999999988 0.2360841307583343 
7.71999999999988 0.2360841307583343 
7.72999999999988 0.2360841307583343 
7.739999999999879 0.2360841307583343 
7.749999999999879 0.2360841307583343 
7.759999999999879 0.2360841307583343 
7.769999999999879 0.2360841307583343 
7.779999999999879 0.2360841307583343 
7.789999999999878 0.2360841307583343 
7.799999999999878 0.2360841307583343 
7.809999999999878 0.2360841307583343 
7.819999999999878 0.2360841307583343 
7.829999999999878 0.2360841307583343 
7.839999999999877 0.2360841307583343 
7.849999999999877 0.2360841307583343 
7.859999999999877 0.2360841307583343 
7.869999999999877 0.2360841307583343 
7.879999999999876 0.2360841307583343 
7.889999999999876 0.2360841307583343 
7.899999999999876 0.2360841307583343 
7.909999999999876 0.2360841307583343 
7.919999999999876 0.2360841307583343 
7.929999999999875 0.2360841307583343 
7.939999999999875 0.2360841307583343 
7.949999999999875 0.2360841307583343 
7.959999999999875 0.2360841307583343 
7.969999999999875 0.2360841307583343 
7.979999999999874 0.2360841307583343 
7.989999999999874 0.2360841307583343 
7.999999999999874 0.2360841307583343 
8.009999999999874 0.2360841307583343 
8.019999999999874 0.2360841307583343 
8.029999999999873 0.2360841307583343 
8.039999999999873 0.2360841307583343 
8.049999999999873 0.2360841307583343 
8.059999999999873 0.2360841307583343 
8.069999999999872 0.2360841307583343 
8.079999999999872 0.2360841307583343 
8.089999999999872 0.2360841307583343 
8.099999999999872 0.2360841307583343 
8.109999999999872 0.2360841307583343 
8.119999999999871 0.2360841307583343 
8.129999999999871 0.2360841307583343 
8.139999999999871 0.2360841307583343 
8.149999999999871 0.2360841307583343 
8.159999999999871 0.2360841307583343 
8.16999999999987 0.2360841307583343 
8.17999999999987 0.2360841307583343 
8.18999999999987 0.2360841307583343 
8.19999999999987 0.2360841307583343 
8.209999999999869 0.2360841307583343 
8.219999999999869 0.2360841307583343 
8.229999999999869 0.2360841307583343 
8.239999999999869 0.2360841307583343 
8.249999999999869 0.2360841307583343 
8.259999999999868 0.2360841307583343 
8.269999999999868 0.2360841307583343 
8.279999999999868 0.2360841307583343 
8.289999999999868 0.2360841307583343 
8.299999999999868 0.2360841307583343 
8.309999999999867 0.2360841307583343 
8.319999999999867 0.2360841307583343 
8.329999999999867 0.2360841307583343 
8.339999999999867 0.2360841307583343 
8.349999999999866 0.2360841307583343 
8.359999999999866 0.2360841307583343 
8.369999999999866 0.2360841307583343 
8.379999999999866 0.2360841307583343 
8.389999999999866 0.2360841307583343 
8.399999999999865 0.2360841307583343 
8.409999999999865 0.2360841307583343 
8.419999999999865 0.2360841307583343 
8.429999999999865 0.2360841307583343 
8.439999999999865 0.2360841307583343 
8.449999999999864 0.2360841307583343 
8.459999999999864 0.2360841307583343 
8.469999999999864 0.2360841307583343 
8.479999999999864 0.2360841307583343 
8.489999999999863 0.2360841307583343 
8.499999999999863 0.2360841307583343 
8.509999999999863 0.2360841307583343 
8.519999999999863 0.2360841307583343 
8.529999999999863 0.2360841307583343 
8.539999999999862 0.2360841307583343 
8.549999999999862 0.2360841307583343 
8.559999999999862 0.2360841307583343 
8.569999999999862 0.2360841307583343 
8.579999999999862 0.2360841307583343 
8.589999999999861 0.2360841307583343 
8.599999999999861 0.2360841307583343 
8.609999999999861 0.2360841307583343 
8.619999999999861 0.2360841307583343 
8.62999999999986 0.2360841307583343 
8.63999999999986 0.2360841307583343 
8.64999999999986 0.2360841307583343 
8.65999999999986 0.2360841307583343 
8.66999999999986 0.2360841307583343 
8.679999999999859 0.2360841307583343 
8.689999999999859 0.2360841307583343 
8.699999999999859 0.2360841307583343 
8.709999999999859 0.2360841307583343 
8.719999999999859 0.2360841307583343 
8.729999999999858 0.2360841307583343 
8.739999999999858 0.2360841307583343 
8.749999999999858 0.2360841307583343 
8.759999999999858 0.2360841307583343 
8.769999999999858 0.2360841307583343 
8.779999999999857 0.2360841307583343 
8.789999999999857 0.2360841307583343 
8.799999999999857 0.2360841307583343 
8.809999999999857 0.2360841307583343 
8.819999999999856 0.2360841307583343 
8.829999999999856 0.2360841307583343 
8.839999999999856 0.2360841307583343 
8.849999999999856 0.2360841307583343 
8.859999999999856 0.2360841307583343 
8.869999999999855 0.2360841307583343 
8.879999999999855 0.2360841307583343 
8.889999999999855 0.2360841307583343 
8.899999999999855 0.2360841307583343 
8.909999999999855 0.2360841307583343 
8.919999999999854 0.2360841307583343 
8.929999999999854 0.2360841307583343 
8.939999999999854 0.2360841307583343 
8.949999999999854 0.2360841307583343 
8.959999999999853 0.2360841307583343 
8.969999999999853 0.2360841307583343 
8.979999999999853 0.2360841307583343 
8.989999999999853 0.2360841307583343 
8.999999999999853 0.2360841307583343 
9.009999999999852 0.2360841307583343 
9.019999999999852 0.2360841307583343 
9.029999999999852 0.2360841307583343 
9.039999999999852 0.2360841307583343 
9.049999999999852 0.2360841307583343 
9.059999999999851 0.2360841307583343 
9.069999999999851 0.2360841307583343 
9.079999999999851 0.2360841307583343 
9.089999999999851 0.2360841307583343 
9.09999999999985 0.2360841307583343 
9.10999999999985 0.2360841307583343 
9.11999999999985 0.2360841307583343 
9.12999999999985 0.2360841307583343 
9.13999999999985 0.2360841307583343 
9.149999999999849 0.2360841307583343 
9.159999999999849 0.2360841307583343 
9.169999999999849 0.2360841307583343 
9.179999999999849 0.2360841307583343 
9.189999999999849 0.2360841307583343 
9.199999999999848 0.2360841307583343 
9.209999999999848 0.2360841307583343 
9.219999999999848 0.2360841307583343 
9.229999999999848 0.2360841307583343 
9.239999999999847 0.2360841307583343 
9.249999999999847 0.2360841307583343 
9.259999999999847 0.2360841307583343 
9.269999999999847 0.2360841307583343 
9.279999999999847 0.2360841307583343 
9.289999999999846 0.2360841307583343 
9.299999999999846 0.2360841307583343 
9.309999999999846 0.2360841307583343 
9.319999999999846 0.2360841307583343 
9.329999999999846 0.2360841307583343 
9.339999999999845 0.2360841307583343 
9.349999999999845 0.2360841307583343 
9.359999999999845 0.2360841307583343 
9.369999999999845 0.2360841307583343 
9.379999999999845 0.2360841307583343 
9.389999999999844 0.2360841307583343 
9.399999999999844 0.2360841307583343 
9.409999999999844 0.2360841307583343 
9.419999999999844 0.2360841307583343 
9.429999999999843 0.2360841307583343 
9.439999999999843 0.2360841307583343 
9.449999999999843 0.2360841307583343 
9.459999999999843 0.2360841307583343 
9.469999999999843 0.2360841307583343 
9.479999999999842 0.2360841307583343 
9.489999999999842 0.2360841307583343 
9.499999999999842 0.2360841307583343 
9.509999999999842 0.2360841307583343 
9.519999999999842 0.2360841307583343 
9.529999999999841 0.2360841307583343 
9.539999999999841 0.2360841307583343 
9.549999999999841 0.2360841307583343 
9.559999999999841 0.2360841307583343 
9.56999999999984 0.2360841307583343 
9.57999999999984 0.2360841307583343 
9.58999999999984 0.2360841307583343 
9.59999999999984 0.2360841307583343 
9.60999999999984 0.2360841307583343 
9.619999999999839 0.2360841307583343 
9.629999999999839 0.2360841307583343 
9.639999999999839 0.2360841307583343 
9.649999999999839 0.2360841307583343 
9.659999999999839 0.2360841307583343 
9.669999999999838 0.2360841307583343 
9.679999999999838 0.2360841307583343 
9.689999999999838 0.2360841307583343 
9.699999999999838 0.2360841307583343 
9.709999999999837 0.2360841307583343 
9.719999999999837 0.2360841307583343 
9.729999999999837 0.2360841307583343 
9.739999999999837 0.2360841307583343 
9.749999999999837 0.2360841307583343 
9.759999999999836 0.2360841307583343 
9.769999999999836 0.2360841307583343 
9.779999999999836 0.2360841307583343 
9.789999999999836 0.2360841307583343 
9.799999999999836 0.2360841307583343 
9.809999999999835 0.2360841307583343 
9.819999999999835 0.2360841307583343 
9.829999999999835 0.2360841307583343 
9.839999999999835 0.2360841307583343 
9.849999999999834 0.2360841307583343 
9.859999999999834 0.2360841307583343 
9.869999999999834 0.2360841307583343 
9.879999999999834 0.2360841307583343 
9.889999999999834 0.2360841307583343 
9.899999999999833 0.2360841307583343 
9.909999999999833 0.2360841307583343 
9.919999999999833 0.2360841307583343 
9.929999999999833 0.2360841307583343 
9.939999999999833 0.2360841307583343 
9.949999999999832 0.2360841307583343 
9.959999999999832 0.2360841307583343 
9.969999999999832 0.2360841307583343 
9.979999999999832 0.2360841307583343 
9.989999999999832 0.2360841307583343 
9.999999999999831 0.2360841307583343 
10.00999999999983 0.2360841307583343 
10.01999999999983 0.2360841307583343 
10.02999999999983 0.2360841307583343 
10.03999999999983 0.2360841307583343 
10.04999999999983 0.2360841307583343 
10.05999999999983 0.2360841307583343 
10.06999999999983 0.2360841307583343 
10.07999999999983 0.2360841307583343 
10.08999999999983 0.2360841307583343 
10.09999999999983 0.2360841307583343 
10.10999999999983 0.2360841307583343 
10.11999999999983 0.2360841307583343 
10.12999999999983 0.2360841307583343 
10.13999999999983 0.2360841307583343 
10.14999999999983 0.2360841307583343 
10.15999999999983 0.2360841307583343 
10.16999999999983 0.2360841307583343 
10.17999999999983 0.2360841307583343 
10.18999999999983 0.2360841307583343 
10.19999999999983 0.2360841307583343 
10.20999999999983 0.2360841307583343 
10.21999999999983 0.2360841307583343 
10.22999999999983 0.2360841307583343 
10.23999999999983 0.2360841307583343 
10.24999999999983 0.2360841307583343 
10.25999999999983 0.2360841307583343 
10.26999999999983 0.2360841307583343 
10.27999999999983 0.2360841307583343 
10.28999999999983 0.2360841307583343 
10.29999999999983 0.2360841307583343 
10.30999999999983 0.2360841307583343 
10.31999999999982 0.2360841307583343 
10.32999999999982 0.2360841307583343 
10.33999999999982 0.2360841307583343 
10.34999999999982 0.2360841307583343 
10.35999999999982 0.2360841307583343 
10.36999999999982 0.2360841307583343 
10.37999999999982 0.2360841307583343 
10.38999999999982 0.2360841307583343 
10.39999999999982 0.2360841307583343 
10.40999999999982 0.2360841307583343 
10.41999999999982 0.2360841307583343 
10.42999999999982 0.2360841307583343 
10.43999999999982 0.2360841307583343 
10.44999999999982 0.2360841307583343 
10.45999999999982 0.2360841307583343 
10.46999999999982 0.2360841307583343 
10.47999999999982 0.2360841307583343 
10.48999999999982 0.2360841307583343 
10.49999999999982 0.2360841307583343 
10.50999999999982 0.2360841307583343 
10.51999999999982 0.2360841307583343 
10.52999999999982 0.2360841307583343 
10.53999999999982 0.2360841307583343 
10.54999999999982 0.2360841307583343 
10.55999999999982 0.2360841307583343 
10.56999999999982 0.2360841307583343 
10.57999999999982 0.2360841307583343 
10.58999999999982 0.2360841307583343 
10.59999999999982 0.2360841307583343 
10.60999999999982 0.2360841307583343 
10.61999999999982 0.2360841307583343 
10.62999999999982 0.2360841307583343 
10.63999999999982 0.2360841307583343 
10.64999999999982 0.2360841307583343 
10.65999999999982 0.2360841307583343 
10.66999999999982 0.2360841307583343 
10.67999999999982 0.2360841307583343 
10.68999999999982 0.2360841307583343 
10.69999999999982 0.2360841307583343 
10.70999999999982 0.2360841307583343 
10.71999999999982 0.2360841307583343 
10.72999999999982 0.2360841307583343 
10.73999999999982 0.2360841307583343 
10.74999999999982 0.2360841307583343 
10.75999999999982 0.2360841307583343 
10.76999999999982 0.2360841307583343 
10.77999999999982 0.2360841307583343 
10.78999999999981 0.2360841307583343 
10.79999999999981 0.2360841307583343 
10.80999999999981 0.2360841307583343 
10.81999999999981 0.2360841307583343 
10.82999999999981 0.2360841307583343 
10.83999999999981 0.2360841307583343 
10.84999999999981 0.2360841307583343 
10.85999999999981 0.2360841307583343 
10.86999999999981 0.2360841307583343 
10.87999999999981 0.2360841307583343 
10.88999999999981 0.2360841307583343 
10.89999999999981 0.2360841307583343 
10.90999999999981 0.2360841307583343 
10.91999999999981 0.2360841307583343 
10.92999999999981 0.2360841307583343 
10.93999999999981 0.2360841307583343 
10.94999999999981 0.2360841307583343 
10.95999999999981 0.2360841307583343 
10.96999999999981 0.2360841307583343 
10.97999999999981 0.2360841307583343 
10.98999999999981 0.2360841307583343 
10.99999999999981 0.2360841307583343 
11.00999999999981 0.2360841307583343 
11.01999999999981 0.2360841307583343 
11.02999999999981 0.2360841307583343 
11.03999999999981 0.2360841307583343 
11.04999999999981 0.2360841307583343 
11.05999999999981 0.2360841307583343 
11.06999999999981 0.2360841307583343 
11.07999999999981 0.2360841307583343 
11.08999999999981 0.2360841307583343 
11.09999999999981 0.2360841307583343 
11.10999999999981 0.2360841307583343 
11.11999999999981 0.2360841307583343 
11.12999999999981 0.2360841307583343 
11.13999999999981 0.2360841307583343 
11.14999999999981 0.2360841307583343 
11.15999999999981 0.2360841307583343 
11.16999999999981 0.2360841307583343 
11.17999999999981 0.2360841307583343 
11.18999999999981 0.2360841307583343 
11.19999999999981 0.2360841307583343 
11.20999999999981 0.2360841307583343 
11.21999999999981 0.2360841307583343 
11.22999999999981 0.2360841307583343 
11.23999999999981 0.2360841307583343 
11.24999999999981 0.2360841307583343 
11.2599999999998 0.2360841307583343 
11.2699999999998 0.2360841307583343 
11.2799999999998 0.2360841307583343 
11.2899999999998 0.2360841307583343 
11.2999999999998 0.2360841307583343 
11.3099999999998 0.2360841307583343 
11.3199999999998 0.2360841307583343 
11.3299999999998 0.2360841307583343 
11.3399999999998 0.2360841307583343 
11.3499999999998 0.2360841307583343 
11.3599999999998 0.2360841307583343 
11.3699999999998 0.2360841307583343 
11.3799999999998 0.2360841307583343 
11.3899999999998 0.2360841307583343 
11.3999999999998 0.2360841307583343 
11.4099999999998 0.2360841307583343 
11.4199999999998 0.2360841307583343 
11.4299999999998 0.2360841307583343 
11.4399999999998 0.2360841307583343 
11.4499999999998 0.2360841307583343 
11.4599999999998 0.2360841307583343 
11.4699999999998 0.2360841307583343 
11.4799999999998 0.2360841307583343 
11.4899999999998 0.2360841307583343 
11.4999999999998 0.2360841307583343 
11.5099999999998 0.2360841307583343 
11.5199999999998 0.2360841307583343 
11.5299999999998 0.2360841307583343 
11.5399999999998 0.2360841307583343 
11.5499999999998 0.2360841307583343 
11.5599999999998 0.2360841307583343 
11.5699999999998 0.2360841307583343 
11.5799999999998 0.2360841307583343 
11.5899999999998 0.2360841307583343 
11.5999999999998 0.2360841307583343 
11.6099999999998 0.2360841307583343 
11.6199999999998 0.2360841307583343 
11.6299999999998 0.2360841307583343 
11.6399999999998 0.2360841307583343 
11.6499999999998 0.2360841307583343 
11.6599999999998 0.2360841307583343 
11.6699999999998 0.2360841307583343 
11.6799999999998 0.2360841307583343 
11.6899999999998 0.2360841307583343 
11.6999999999998 0.2360841307583343 
11.7099999999998 0.2360841307583343 
11.7199999999998 0.2360841307583343 
11.72999999999979 0.2360841307583343 
11.73999999999979 0.2360841307583343 
11.74999999999979 0.2360841307583343 
11.75999999999979 0.2360841307583343 
11.76999999999979 0.2360841307583343 
11.77999999999979 0.2360841307583343 
11.78999999999979 0.2360841307583343 
11.79999999999979 0.2360841307583343 
11.80999999999979 0.2360841307583343 
11.81999999999979 0.2360841307583343 
11.82999999999979 0.2360841307583343 
11.83999999999979 0.2360841307583343 
11.84999999999979 0.2360841307583343 
11.85999999999979 0.2360841307583343 
11.86999999999979 0.2360841307583343 
11.87999999999979 0.2360841307583343 
11.88999999999979 0.2360841307583343 
11.89999999999979 0.2360841307583343 
11.90999999999979 0.2360841307583343 
11.91999999999979 0.2360841307583343 
11.92999999999979 0.2360841307583343 
11.93999999999979 0.2360841307583343 
11.94999999999979 0.2360841307583343 
11.95999999999979 0.2360841307583343 
11.96999999999979 0.2360841307583343 
11.97999999999979 0.2360841307583343 
11.98999999999979 0.2360841307583343 
11.99999999999979 0.2360841307583343 
12.00999999999979 0.2360841307583343 
12.01999999999979 0.2360841307583343 
12.02999999999979 0.2360841307583343 
12.03999999999979 0.2360841307583343 
12.04999999999979 0.2360841307583343 
12.05999999999979 0.2360841307583343 
12.06999999999979 0.2360841307583343 
12.07999999999979 0.2360841307583343 
12.08999999999979 0.2360841307583343 
12.09999999999979 0.2360841307583343 
12.10999999999979 0.2360841307583343 
12.11999999999979 0.2360841307583343 
12.12999999999979 0.2360841307583343 
12.13999999999979 0.2360841307583343 
12.14999999999979 0.2360841307583343 
12.15999999999979 0.2360841307583343 
12.16999999999979 0.2360841307583343 
12.17999999999979 0.2360841307583343 
12.18999999999979 0.2360841307583343 
12.19999999999978 0.2360841307583343 
12.20999999999978 0.2360841307583343 
12.21999999999978 0.2360841307583343 
12.22999999999978 0.2360841307583343 
12.23999999999978 0.2360841307583343 
12.24999999999978 0.2360841307583343 
12.25999999999978 0.2360841307583343 
12.26999999999978 0.2360841307583343 
12.27999999999978 0.2360841307583343 
12.28999999999978 0.2360841307583343 
12.29999999999978 0.2360841307583343 
12.30999999999978 0.2360841307583343 
12.31999999999978 0.2360841307583343 
12.32999999999978 0.2360841307583343 
12.33999999999978 0.2360841307583343 
12.34999999999978 0.2360841307583343 
12.35999999999978 0.2360841307583343 
12.36999999999978 0.2360841307583343 
12.37999999999978 0.2360841307583343 
12.38999999999978 0.2360841307583343 
12.39999999999978 0.2360841307583343 
12.40999999999978 0.2360841307583343 
12.41999999999978 0.2360841307583343 
12.42999999999978 0.2360841307583343 
12.43999999999978 0.2360841307583343 
12.44999999999978 0.2360841307583343 
12.45999999999978 0.2360841307583343 
12.46999999999978 0.2360841307583343 
12.47999999999978 0.2360841307583343 
12.48999999999978 0.2360841307583343 
12.49999999999978 0.2360841307583343 
12.50999999999978 0.2360841307583343 
12.51999999999978 0.2360841307583343 
12.52999999999978 0.2360841307583343 
12.53999999999978 0.2360841307583343 
12.54999999999978 0.2360841307583343 
12.55999999999978 0.2360841307583343 
12.56999999999978 0.2360841307583343 
12.57999999999978 0.2360841307583343 
12.58999999999978 0.2360841307583343 
12.59999999999978 0.2360841307583343 
12.60999999999978 0.2360841307583343 
12.61999999999978 0.2360841307583343 
12.62999999999978 0.2360841307583343 
12.63999999999978 0.2360841307583343 
12.64999999999978 0.2360841307583343 
12.65999999999978 0.2360841307583343 
12.66999999999977 0.2360841307583343 
12.67999999999977 0.2360841307583343 
12.68999999999977 0.2360841307583343 
12.69999999999977 0.2360841307583343 
12.70999999999977 0.2360841307583343 
12.71999999999977 0.2360841307583343 
12.72999999999977 0.2360841307583343 
12.73999999999977 0.2360841307583343 
12.74999999999977 0.2360841307583343 
12.75999999999977 0.2360841307583343 
12.76999999999977 0.2360841307583343 
12.77999999999977 0.2360841307583343 
12.78999999999977 0.2360841307583343 
12.79999999999977 0.2360841307583343 
12.80999999999977 0.2360841307583343 
12.81999999999977 0.2360841307583343 
12.82999999999977 0.2360841307583343 
12.83999999999977 0.2360841307583343 
12.84999999999977 0.2360841307583343 
12.85999999999977 0.2360841307583343 
12.86999999999977 0.2360841307583343 
12.87999999999977 0.2360841307583343 
12.88999999999977 0.2360841307583343 
12.89999999999977 0.2360841307583343 
12.90999999999977 0.2360841307583343 
12.91999999999977 0.2360841307583343 
12.92999999999977 0.2360841307583343 
12.93999999999977 0.2360841307583343 
12.94999999999977 0.2360841307583343 
12.95999999999977 0.2360841307583343 
12.96999999999977 0.2360841307583343 
12.97999999999977 0.2360841307583343 
12.98999999999977 0.2360841307583343 
12.99999999999977 0.2360841307583343 
13.00999999999977 0.2360841307583343 
13.01999999999977 0.2360841307583343 
13.02999999999977 0.2360841307583343 
13.03999999999977 0.2360841307583343 
13.04999999999977 0.2360841307583343 
13.05999999999977 0.2360841307583343 
13.06999999999977 0.2360841307583343 
13.07999999999977 0.2360841307583343 
13.08999999999977 0.2360841307583343 
13.09999999999977 0.2360841307583343 
13.10999999999977 0.2360841307583343 
13.11999999999977 0.2360841307583343 
13.12999999999977 0.2360841307583343 
13.13999999999976 0.2360841307583343 
13.14999999999976 0.2360841307583343 
13.15999999999976 0.2360841307583343 
13.16999999999976 0.2360841307583343 
13.17999999999976 0.2360841307583343 
13.18999999999976 0.2360841307583343 
13.19999999999976 0.2360841307583343 
13.20999999999976 0.2360841307583343 
13.21999999999976 0.2360841307583343 
13.22999999999976 0.2360841307583343 
13.23999999999976 0.2360841307583343 
13.24999999999976 0.2360841307583343 
13.25999999999976 0.2360841307583343 
13.26999999999976 0.2360841307583343 
13.27999999999976 0.2360841307583343 
13.28999999999976 0.2360841307583343 
13.29999999999976 0.2360841307583343 
13.30999999999976 0.2360841307583343 
13.31999999999976 0.2360841307583343 
13.32999999999976 0.2360841307583343 
13.33999999999976 0.2360841307583343 
13.34999999999976 0.2360841307583343 
13.35999999999976 0.2360841307583343 
13.36999999999976 0.2360841307583343 
13.37999999999976 0.2360841307583343 
13.38999999999976 0.2360841307583343 
13.39999999999976 0.2360841307583343 
13.40999999999976 0.2360841307583343 
13.41999999999976 0.2360841307583343 
13.42999999999976 0.2360841307583343 
13.43999999999976 0.2360841307583343 
13.44999999999976 0.2360841307583343 
13.45999999999976 0.2360841307583343 
13.46999999999976 0.2360841307583343 
13.47999999999976 0.2360841307583343 
13.48999999999976 0.2360841307583343 
13.49999999999976 0.2360841307583343 
13.50999999999976 0.2360841307583343 
13.51999999999976 0.2360841307583343 
13.52999999999976 0.2360841307583343 
13.53999999999976 0.2360841307583343 
13.54999999999976 0.2360841307583343 
13.55999999999976 0.2360841307583343 
13.56999999999976 0.2360841307583343 
13.57999999999976 0.2360841307583343 
13.58999999999976 0.2360841307583343 
13.59999999999976 0.2360841307583343 
13.60999999999975 0.2360841307583343 
13.61999999999975 0.2360841307583343 
13.62999999999975 0.2360841307583343 
13.63999999999975 0.2360841307583343 
13.64999999999975 0.2360841307583343 
13.65999999999975 0.2360841307583343 
13.66999999999975 0.2360841307583343 
13.67999999999975 0.2360841307583343 
13.68999999999975 0.2360841307583343 
13.69999999999975 0.2360841307583343 
13.70999999999975 0.2360841307583343 
13.71999999999975 0.2360841307583343 
13.72999999999975 0.2360841307583343 
13.73999999999975 0.2360841307583343 
13.74999999999975 0.2360841307583343 
13.75999999999975 0.2360841307583343 
13.76999999999975 0.2360841307583343 
13.77999999999975 0.2360841307583343 
13.78999999999975 0.2360841307583343 
13.79999999999975 0.2360841307583343 
13.80999999999975 0.2360841307583343 
13.81999999999975 0.2360841307583343 
13.82999999999975 0.2360841307583343 
13.83999999999975 0.2360841307583343 
13.84999999999975 0.2360841307583343 
13.85999999999975 0.2360841307583343 
13.86999999999975 0.2360841307583343 
13.87999999999975 0.2360841307583343 
13.88999999999975 0.2360841307583343 
13.89999999999975 0.2360841307583343 
13.90999999999975 0.2360841307583343 
13.91999999999975 0.2360841307583343 
13.92999999999975 0.2360841307583343 
13.93999999999975 0.2360841307583343 
13.94999999999975 0.2360841307583343 
13.95999999999975 0.2360841307583343 
13.96999999999975 0.2360841307583343 
13.97999999999975 0.2360841307583343 
13.98999999999975 0.2360841307583343 
13.99999999999975 0.2360841307583343 
14.00999999999975 0.2360841307583343 
14.01999999999975 0.2360841307583343 
14.02999999999975 0.2360841307583343 
14.03999999999975 0.2360841307583343 
14.04999999999975 0.2360841307583343 
14.05999999999975 0.2360841307583343 
14.06999999999974 0.2360841307583343 
14.07999999999974 0.2360841307583343 
14.08999999999974 0.2360841307583343 
14.09999999999974 0.2360841307583343 
14.10999999999974 0.2360841307583343 
14.11999999999974 0.2360841307583343 
14.12999999999974 0.2360841307583343 
14.13999999999974 0.2360841307583343 
14.14999999999974 0.2360841307583343 
14.15999999999974 0.2360841307583343 
14.16999999999974 0.2360841307583343 
14.17999999999974 0.2360841307583343 
14.18999999999974 0.2360841307583343 
14.19999999999974 0.2360841307583343 
14.20999999999974 0.2360841307583343 
14.21999999999974 0.2360841307583343 
14.22999999999974 0.2360841307583343 
14.23999999999974 0.2360841307583343 
14.24999999999974 0.2360841307583343 
14.25999999999974 0.2360841307583343 
14.26999999999974 0.2360841307583343 
14.27999999999974 0.2360841307583343 
14.28999999999974 0.2360841307583343 
14.29999999999974 0.2360841307583343 
14.30999999999974 0.2360841307583343 
14.31999999999974 0.2360841307583343 
14.32999999999974 0.2360841307583343 
14.33999999999974 0.2360841307583343 
14.34999999999974 0.2360841307583343 
14.35999999999974 0.2360841307583343 
14.36999999999974 0.2360841307583343 
14.37999999999974 0.2360841307583343 
14.38999999999974 0.2360841307583343 
14.39999999999974 0.2360841307583343 
14.40999999999974 0.2360841307583343 
14.41999999999974 0.2360841307583343 
14.42999999999974 0.2360841307583343 
14.43999999999974 0.2360841307583343 
14.44999999999974 0.2360841307583343 
14.45999999999974 0.2360841307583343 
14.46999999999974 0.2360841307583343 
14.47999999999974 0.2360841307583343 
14.48999999999974 0.2360841307583343 
14.49999999999974 0.2360841307583343 
14.50999999999974 0.2360841307583343 
14.51999999999974 0.2360841307583343 
14.52999999999974 0.2360841307583343 
14.53999999999973 0.2360841307583343 
14.54999999999973 0.2360841307583343 
14.55999999999973 0.2360841307583343 
14.56999999999973 0.2360841307583343 
14.57999999999973 0.2360841307583343 
14.58999999999973 0.2360841307583343 
14.59999999999973 0.2360841307583343 
14.60999999999973 0.2360841307583343 
14.61999999999973 0.2360841307583343 
14.62999999999973 0.2360841307583343 
14.63999999999973 0.2360841307583343 
14.64999999999973 0.2360841307583343 
14.65999999999973 0.2360841307583343 
14.66999999999973 0.2360841307583343 
14.67999999999973 0.2360841307583343 
14.68999999999973 0.2360841307583343 
14.69999999999973 0.2360841307583343 
14.70999999999973 0.2360841307583343 
14.71999999999973 0.2360841307583343 
14.72999999999973 0.2360841307583343 
14.73999999999973 0.2360841307583343 
14.74999999999973 0.2360841307583343 
14.75999999999973 0.2360841307583343 
14.76999999999973 0.2360841307583343 
14.77999999999973 0.2360841307583343 
14.78999999999973 0.2360841307583343 
14.79999999999973 0.2360841307583343 
14.80999999999973 0.2360841307583343 
14.81999999999973 0.2360841307583343 
14.82999999999973 0.2360841307583343 
14.83999999999973 0.2360841307583343 
14.84999999999973 0.2360841307583343 
14.85999999999973 0.2360841307583343 
14.86999999999973 0.2360841307583343 
14.87999999999973 0.2360841307583343 
14.88999999999973 0.2360841307583343 
14.89999999999973 0.2360841307583343 
14.90999999999973 0.2360841307583343 
14.91999999999973 0.2360841307583343 
14.92999999999973 0.2360841307583343 
14.93999999999973 0.2360841307583343 
14.94999999999973 0.2360841307583343 
14.95999999999973 0.2360841307583343 
14.96999999999973 0.2360841307583343 
14.97999999999973 0.2360841307583343 
14.98999999999973 0.2360841307583343 
14.99999999999973 0.2360841307583343 
