0.01 -4.807568532810122 
0.02 -3.678675613757155 
0.03 -2.869167879065788 
0.04 -2.947722366711821 
0.05 -3.197691060503282 
0.06000000000000001 -2.979100468180637 
0.07000000000000001 -1.784384017534584 
0.08 0.824942472157115 
0.09 3.231930502852152 
0.09999999999999999 1.822575347323346 
0.11 -3.277090428695705 
0.12 -5.88173865939061 
0.13 -2.839054155120608 
0.14 -0.07417225588243835 
0.15 -1.63705069967269 
0.16 -1.434754508758701 
0.17 4.850290884945586 
0.18 11.75842308148906 
0.19 16.25719864884541 
0.2 22.17377749268857 
0.2100000000000001 28.25290371627212 
0.2200000000000001 28.54511489248333 
0.2300000000000001 23.96999501438689 
0.2400000000000001 19.18134180476494 
0.2500000000000001 13.53028142096482 
0.2600000000000001 3.820998500300084 
0.2700000000000001 -11.1658434210812 
0.2800000000000001 -29.5202999002597 
0.2900000000000001 -44.39152222662385 
0.3000000000000001 -49.14154476528153 
0.3100000000000001 -45.8918370054207 
0.3200000000000001 -41.45420747412234 
0.3300000000000001 -36.83795657096827 
0.3400000000000001 -27.4887783715294 
0.3500000000000001 -10.93384054061418 
0.3600000000000002 8.250927235909048 
0.3700000000000002 21.19941987131015 
0.3800000000000002 23.59091454543121 
0.3900000000000002 19.35225649997748 
0.4000000000000002 14.68032481349471 
0.4100000000000002 13.55636894078907 
0.4200000000000002 17.94750032086436 
0.4300000000000002 24.80097652950687 
0.4400000000000002 27.4862154589505 
0.4500000000000002 25.83622526575429 
0.4600000000000002 27.30800566664292 
0.4700000000000003 33.94950008222408 
0.4800000000000003 36.5992057223486 
0.4900000000000003 27.01411531266761 
0.5000000000000002 9.300876373078038 
0.5100000000000002 -5.110134796690313 
0.5200000000000002 -12.27429135614452 
0.5300000000000003 -20.38783599378504 
0.5400000000000003 -37.71779896165207 
0.5500000000000003 -58.06493132967157 
0.5600000000000003 -63.78357744143887 
0.5700000000000003 -46.76799415001792 
0.5800000000000003 -19.81301846678355 
0.5900000000000003 -0.3515359525614589 
0.6000000000000003 9.875332500958409 
0.6100000000000003 18.26083318785368 
0.6200000000000003 22.94164494826731 
0.6300000000000003 16.79034631089721 
0.6400000000000004 1.992915103289849 
0.6500000000000004 -13.80957488783875 
0.6600000000000004 -29.83175367839582 
0.6700000000000004 -48.37136814396273 
0.6800000000000004 -61.77276677036751 
0.6900000000000004 -56.66222166157586 
0.7000000000000004 -33.12889117406721 
0.7100000000000004 -7.528244374431782 
0.7200000000000004 10.7070634089638 
0.7300000000000004 35.50838207108831 
0.7400000000000004 84.25238604362409 
0.7500000000000004 144.8367611452146 
0.7600000000000005 176.6860583002725 
0.7700000000000005 151.943026594385 
0.7800000000000005 87.67383513185774 
0.7900000000000005 26.42930063906624 
0.8000000000000005 -10.61682622122036 
0.8100000000000005 -38.11683939575286 
0.8200000000000005 -73.96490020233271 
0.8300000000000005 -111.0453214296982 
0.8400000000000005 -128.7574852456337 
0.8500000000000005 -117.8096949232734 
0.8600000000000005 -85.6800656817865 
0.8700000000000006 -47.95159262199979 
0.8800000000000006 -20.63969435383928 
0.8900000000000006 -9.802105640552929 
0.9000000000000006 -3.610342685273915 
0.9100000000000006 15.78844970197099 
0.9200000000000006 44.96357874508766 
0.9300000000000006 52.75107490927945 
0.9400000000000006 13.52928650146738 
0.9500000000000006 -54.57396817785087 
0.9600000000000006 -97.54735458045913 
0.9700000000000006 -79.47630657813758 
0.9800000000000007 -18.2237909021878 
0.9900000000000007 41.38589235556465 
1.000000000000001 80.37988385101797 
1.010000000000001 113.4915792103754 
1.020000000000001 148.5889701787618 
1.030000000000001 163.7400063635294 
1.040000000000001 134.4579610529076 
1.050000000000001 69.04673697071308 
1.060000000000001 -0.3973275512721923 
1.070000000000001 -50.23457155019985 
1.080000000000001 -83.56446233021538 
1.090000000000001 -110.1267881840005 
1.100000000000001 -106.2066041071968 
1.110000000000001 -118.0825111618334 
1.120000000000001 -56.82197558836536 
1.130000000000001 -46.79068764242911 
1.140000000000001 65.9311348694434 
1.150000000000001 92.04921698005094 
1.160000000000001 181.4703432244488 
1.170000000000001 110.0492352380347 
1.180000000000001 76.03621538436337 
1.190000000000001 -74.95719206057466 
1.200000000000001 -107.7434162351912 
1.210000000000001 -206.9694659080595 
1.220000000000001 -201.8931635343957 
1.230000000000001 -265.6057627602366 
1.240000000000001 -217.3095174628579 
1.250000000000001 -179.3972231954411 
1.260000000000001 -43.84176126105909 
1.270000000000001 65.00082981429452 
1.280000000000001 168.6163471010337 
1.290000000000001 218.8134988358951 
1.300000000000001 249.2513321655822 
1.310000000000001 294.3868955151501 
1.320000000000001 304.7026688716731 
1.330000000000001 303.5802381603367 
1.340000000000001 167.238834564496 
1.350000000000001 37.87674799537905 
1.360000000000001 -124.2003581793078 
1.370000000000001 -154.7393581414883 
1.380000000000001 -182.6409896798082 
1.390000000000001 -172.7665236897246 
1.400000000000001 -187.0628009673137 
1.410000000000001 -178.2722621355616 
1.420000000000001 -104.8274146185585 
1.430000000000001 -24.56091394833699 
1.440000000000001 61.72711493546264 
1.450000000000001 73.42363278763111 
1.460000000000001 44.34668446801324 
1.470000000000001 -6.278230144400985 
1.480000000000001 -46.07237870858609 
1.490000000000001 -42.30910132429632 
1.500000000000001 -54.91334195569901 
1.510000000000001 -69.46578266584277 
1.520000000000001 -89.50687344718 
1.530000000000001 -57.24082501208966 
1.540000000000001 57.28157489642577 
1.550000000000001 151.0104647663873 
1.560000000000001 241.2578581261228 
1.570000000000001 181.6116668580349 
1.580000000000001 165.5170686390057 
1.590000000000001 60.10256431010732 
1.600000000000001 41.80303471854508 
1.610000000000001 -64.56528718908531 
1.620000000000001 -113.1507940042319 
1.630000000000001 -168.6811747911859 
1.640000000000001 -180.6526383295055 
1.650000000000001 -167.7096644490596 
1.660000000000001 -129.1799776473232 
1.670000000000001 -37.81544710905951 
1.680000000000001 43.95546158504597 
1.690000000000001 78.50250554732941 
1.700000000000001 82.86929362332349 
1.710000000000001 89.35145095832536 
1.720000000000001 140.5604077755322 
1.730000000000001 145.946385787342 
1.740000000000001 76.86687848269436 
1.750000000000001 -43.25619904122819 
1.760000000000001 -141.6345876705092 
1.770000000000001 -136.3836635139202 
1.780000000000001 -108.0934023950671 
1.790000000000001 -33.46656139249387 
1.800000000000001 -0.5799057698626429 
1.810000000000001 83.19814957350211 
1.820000000000001 112.2632199691005 
1.830000000000001 140.6537919468584 
1.840000000000001 106.4055325765391 
1.850000000000001 100.7887357173668 
1.860000000000001 71.98954709843657 
1.870000000000001 25.95118305289563 
1.880000000000001 -42.05551826254567 
1.890000000000002 -79.13898515508406 
1.900000000000002 -83.94095526259626 
1.910000000000002 -98.51894541257738 
1.920000000000002 -155.2373478048219 
1.930000000000002 -166.1654488767223 
1.940000000000002 -132.0749540580584 
1.950000000000002 -8.689677439013829 
1.960000000000002 72.05057693444823 
1.970000000000002 141.201583556477 
1.980000000000002 121.8447789816825 
1.990000000000002 92.19866953677641 
2.000000000000001 -16.60891568819141 
2.010000000000001 -101.6981598278716 
2.020000000000001 -177.8230379617027 
2.030000000000001 -152.1037319565093 
2.040000000000001 -113.3483295432009 
2.05 -68.65274383955813 
2.06 -10.80233827724462 
2.07 11.26313374128132 
2.08 160.734726256917 
2.089999999999999 125.5541389882369 
2.099999999999999 215.5327633347611 
2.109999999999999 101.0212919145182 
2.119999999999999 188.8145665836812 
2.129999999999999 138.0399320350447 
2.139999999999998 196.7504531805841 
2.149999999999998 -53.71421456711327 
2.159999999999998 -90.26806462511439 
2.169999999999998 -319.1585891177199 
2.179999999999998 -140.4064426537688 
2.189999999999997 -267.6394628586615 
2.199999999999997 26.63119406187337 
2.209999999999997 -7.104387019573367 
2.219999999999997 278.5699203532176 
2.229999999999996 176.1182419805486 
2.239999999999996 180.6384195188558 
2.249999999999996 19.75181936270525 
2.259999999999996 -60.70489759760071 
2.269999999999996 -52.30305611284053 
2.279999999999995 -202.48768714368 
2.289999999999995 -112.6088880060729 
2.299999999999995 -248.562254340863 
2.309999999999995 -14.38068551158912 
2.319999999999995 -6.60529715577944 
2.329999999999994 -190.9296742350401 
2.339999999999994 5.993399299203278 
2.349999999999994 -386.9454044385101 
2.359999999999994 264.2883545943754 
2.369999999999993 -208.4458701112111 
2.379999999999993 524.8480196176527 
2.389999999999993 -73.11756686264143 
2.399999999999993 581.6619250860859 
2.409999999999993 -155.3225654838712 
2.419999999999992 361.0875360728135 
2.429999999999992 -264.6116810480537 
2.439999999999992 322.5358677124908 
2.449999999999992 -120.0855198252536 
2.459999999999992 369.436867359403 
2.469999999999991 -45.84746693144215 
2.479999999999991 346.956109686749 
2.489999999999991 -50.75954835319387 
2.499999999999991 156.5231282378422 
2.509999999999991 -347.7802572561071 
2.51999999999999 -296.3913548865069 
2.52999999999999 -512.0651767649927 
2.53999999999999 -326.4800811605645 
2.54999999999999 -408.975440429919 
2.559999999999989 4.935422629935286 
2.569999999999989 -504.1046343740226 
2.579999999999989 226.2036417778118 
2.589999999999989 -454.5015532272636 
2.599999999999989 562.1303316319517 
2.609999999999988 -124.6206367811146 
2.619999999999988 835.2226900693777 
2.629999999999988 28.45717458480412 
2.639999999999988 821.5109564662455 
2.649999999999988 -173.0895357917466 
2.659999999999987 459.4112420904038 
2.669999999999987 -500.61532921898 
2.679999999999987 156.5578827286886 
2.689999999999987 -616.538151889166 
2.699999999999986 110.1161708023775 
2.709999999999986 -405.0510907805711 
2.719999999999986 342.305463600448 
2.729999999999986 -101.0506878779906 
2.739999999999986 328.6163608284979 
2.749999999999985 -79.47487672783149 
2.759999999999985 170.4693879484691 
2.769999999999985 24.64101602783146 
2.779999999999985 169.7563559246716 
2.789999999999985 116.7362932122121 
2.799999999999984 -11.52511165201304 
2.809999999999984 -79.62743067764065 
2.819999999999984 -341.5987186470331 
2.829999999999984 -225.6040348627711 
2.839999999999983 -409.0882465905352 
2.849999999999983 -103.923793426463 
2.859999999999983 -309.1701442006966 
2.869999999999983 69.23870062189796 
2.879999999999983 -53.61158196419839 
2.889999999999982 338.472371042422 
2.899999999999982 111.9172567721066 
2.909999999999982 289.2734921161757 
2.919999999999982 -50.28799143790349 
2.929999999999982 105.3456320596216 
2.939999999999981 -196.158150256798 
2.949999999999981 103.4260201752278 
2.959999999999981 -234.6185721994649 
2.969999999999981 20.29200473798802 
2.97999999999998 -348.7447677379186 
2.98999999999998 64.02111155654902 
2.99999999999998 -103.2359095860664 
3.00999999999998 345.8670002748307 
3.01999999999998 258.5894338724778 
3.029999999999979 542.5426796097474 
3.039999999999979 351.6561170481344 
3.049999999999979 361.9949862669723 
3.059999999999979 115.2502742681198 
3.069999999999979 12.06225927286165 
3.079999999999978 -167.0705864065687 
3.089999999999978 -334.8528352497802 
3.099999999999978 -353.4838299408883 
3.109999999999978 -380.8256407974814 
3.119999999999978 -133.6184579321999 
3.129999999999977 -151.0233291205051 
3.139999999999977 49.76649928094395 
3.149999999999977 -136.9575313965317 
3.159999999999977 51.46191684777497 
3.169999999999976 -105.6895912932943 
3.179999999999976 174.3287661344185 
3.189999999999976 -4.857556627943751 
3.199999999999976 172.1092291858013 
3.209999999999976 -120.8880204645944 
3.219999999999975 -71.55500077284152 
3.229999999999975 -294.0764005736346 
3.239999999999975 -161.5929665876394 
3.249999999999975 -164.0365673564668 
3.259999999999975 -9.07159798420131 
3.269999999999974 88.39736201694544 
3.279999999999974 245.4015226889347 
3.289999999999974 401.6155564317102 
3.299999999999974 520.6581578728035 
3.309999999999973 548.0101475054964 
3.319999999999973 459.770513607003 
3.329999999999973 338.5566291385065 
3.339999999999973 156.261005329524 
3.349999999999973 138.1295852738758 
3.359999999999972 -11.76560776283677 
3.369999999999972 -110.7900210435913 
3.379999999999972 -343.5077697909484 
3.389999999999972 -445.8957645125474 
3.399999999999972 -425.7735819513528 
3.409999999999971 -368.4214749849085 
3.419999999999971 -135.7228920418484 
3.429999999999971 -100.172547221778 
3.439999999999971 62.13363117954629 
3.44999999999997 -0.5189935151958535 
3.45999999999997 16.067731616456 
3.46999999999997 -44.25066692349099 
3.47999999999997 -186.5349513599862 
3.48999999999997 -217.4666528971603 
3.499999999999969 -469.5134561052719 
3.509999999999969 -254.1560734186683 
3.519999999999969 -302.2721783187738 
3.529999999999969 26.57606760920963 
3.539999999999969 -57.79822604446721 
3.549999999999968 184.8117903640808 
3.559999999999968 203.6969418657528 
3.569999999999968 362.2005082032389 
3.579999999999968 457.3061946306235 
3.589999999999967 513.2262330160833 
3.599999999999967 601.8662199384825 
3.609999999999967 385.7987014429111 
3.619999999999967 311.5212902666214 
3.629999999999967 42.32362124971258 
3.639999999999966 -1.536820418873078 
3.649999999999966 -227.2909665242138 
3.659999999999966 -279.6163209954221 
3.669999999999966 -371.7353517274925 
3.679999999999966 -274.8302775174861 
3.689999999999965 -338.0641290403931 
3.699999999999965 -247.0781453736792 
3.709999999999965 -366.4984369442216 
3.719999999999965 -397.7788180391377 
3.729999999999965 -602.433258485733 
3.739999999999964 -572.3150510424881 
3.749999999999964 -647.2497718136051 
3.759999999999964 -685.5411270949213 
3.769999999999964 -711.9806421447855 
3.779999999999963 -751.2064017689503 
3.789999999999963 -543.2493359919098 
3.799999999999963 -523.5949333338424 
3.809999999999963 -152.4473365138749 
3.819999999999963 -18.45998148645849 
3.829999999999962 462.2141219967171 
3.839999999999962 531.9641802976821 
3.849999999999962 1071.425905207669 
3.859999999999962 1135.369017774171 
3.869999999999962 1420.38656925868 
3.879999999999961 1345.685676069158 
3.889999999999961 1346.265023292118 
3.899999999999961 1139.577604445446 
3.909999999999961 841.7675248378378 
3.91999999999996 825.313428157396 
3.92999999999996 455.8945471037068 
3.93999999999996 581.5488530241613 
3.94999999999996 336.0634644982354 
3.95999999999996 539.2031519615578 
3.969999999999959 425.1873468299884 
3.979999999999959 429.8436980542985 
3.989999999999959 387.3136303998177 
3.999999999999959 112.2904398759579 
4.009999999999959 -186.0169382748479 
4.019999999999959 -813.7119287013848 
4.029999999999959 -1131.354700916165 
4.039999999999958 -1424.210832877599 
4.049999999999958 -1758.217624371212 
4.059999999999958 -1141.695427173999 
4.069999999999958 -2525.32240438132 
4.079999999999957 -1543.441878935029 
4.089999999999957 -2927.1083433619 
4.099999999999957 -1188.072993171199 
4.109999999999957 -2296.341968079987 
4.119999999999957 -720.5976971151849 
4.129999999999956 -1177.500831360484 
4.139999999999956 806.0300668001473 
4.149999999999956 146.4225012266576 
4.159999999999956 1465.804134444854 
4.169999999999956 1228.442778680051 
4.179999999999955 2137.498614246251 
4.189999999999955 1434.486688266502 
4.199999999999955 1786.840721729735 
4.209999999999955 924.7502003828507 
4.219999999999955 1598.660884922679 
4.229999999999954 1327.713904274863 
4.239999999999954 1944.953675958339 
4.249999999999954 1448.856946745088 
4.259999999999954 1398.760869656396 
4.269999999999953 1217.661037263603 
4.279999999999953 784.8308063055735 
4.289999999999953 968.5228516978904 
4.299999999999953 264.3135388309303 
4.309999999999953 328.7904728696454 
4.319999999999952 -1001.445038293512 
4.329999999999952 -1019.355811100155 
4.339999999999952 -2066.413695932218 
4.349999999999952 -1863.540405791043 
4.359999999999952 -2273.166624272972 
4.369999999999951 -2052.037649291716 
4.379999999999951 -2323.012805089824 
4.389999999999951 -1768.345058891271 
4.399999999999951 -718.8576946647488 
4.40999999999995 171.5704341647384 
4.41999999999995 -66.51342439374845 
4.42999999999995 -236.2111324839849 
4.43999999999995 -98.09568076203928 
4.44999999999995 513.761867555882 
4.459999999999949 608.2592017780592 
4.469999999999949 519.8543904610178 
4.479999999999949 11.5356251320922 
4.489999999999949 -194.4324086122312 
4.499999999999949 187.0622771993067 
4.509999999999948 642.7870775105751 
4.519999999999948 739.0138671574686 
4.529999999999948 872.1629346366689 
4.539999999999948 1101.68779019191 
4.549999999999947 1813.583745403388 
4.559999999999947 2010.565882985398 
4.569999999999947 2257.024614575122 
4.579999999999947 1677.531878199175 
4.589999999999947 955.2109254266983 
4.599999999999946 11.39739306690067 
4.609999999999946 -401.7397848975204 
4.619999999999946 -831.3883433004648 
4.629999999999946 -1200.706259792634 
4.639999999999946 -1490.305273547177 
4.649999999999945 -1898.017302823556 
4.659999999999945 -1673.178545141622 
4.669999999999945 -1467.598989600201 
4.679999999999945 -730.6526309843347 
4.689999999999944 -1041.400132574232 
4.699999999999944 -778.6722640914438 
4.709999999999944 -713.6576066222053 
4.719999999999944 -117.2428778618183 
4.729999999999944 -230.5885161528329 
4.739999999999943 -366.5477722646075 
4.749999999999943 -573.9608388874483 
4.759999999999943 -634.9766633816254 
4.769999999999943 -321.576917769885 
4.779999999999943 3.703397905198325 
4.789999999999942 349.4231495419949 
4.799999999999942 783.6590709901187 
4.809999999999942 1441.771740088277 
4.819999999999942 1879.023673069584 
4.829999999999942 2080.573904476371 
4.839999999999941 2054.20793434 
4.849999999999941 2283.810492388159 
4.859999999999941 1658.711482989727 
4.869999999999941 1472.428913828144 
4.87999999999994 989.4177741504021 
4.88999999999994 414.4076427044764 
4.89999999999994 -291.8082469993041 
4.90999999999994 -1307.792613529498 
4.91999999999994 -1324.6848957251 
4.929999999999939 -1929.444238516001 
4.939999999999939 -1616.350636798137 
4.949999999999939 -1759.35356236815 
4.959999999999939 -1298.882433168219 
4.969999999999939 -985.8894569937711 
4.979999999999938 -733.7005939951315 
4.989999999999938 -375.3755996922338 
4.999999999999938 -867.8401520546734 
5.009999999999938 -537.0445060139933 
5.019999999999937 -1083.015661758276 
5.029999999999937 -369.2735140698607 
5.039999999999937 -677.8073707183108 
5.049999999999937 -148.1818549193093 
5.059999999999937 -106.4431476409706 
5.069999999999936 394.3588475129134 
5.079999999999936 865.6011230426802 
5.089999999999936 1155.040408912459 
5.099999999999936 1660.322925671399 
5.109999999999936 1461.152305211223 
5.119999999999935 1748.439274400983 
5.129999999999935 1398.214032409748 
5.139999999999935 1570.249110411803 
5.149999999999935 909.9445167815211 
5.159999999999934 559.7415857961265 
5.169999999999934 -147.1034444507805 
5.179999999999934 -233.8575844996964 
5.189999999999934 -613.1477071481147 
5.199999999999934 -400.9985728599824 
5.209999999999933 -661.64190574481 
5.219999999999933 -433.5617027797675 
5.229999999999933 -771.4470688192455 
5.239999999999933 -426.5914524460616 
5.249999999999933 -478.9107802845445 
5.259999999999932 -444.1286161823668 
5.269999999999932 -642.0827637115098 
5.279999999999932 -932.0897977334566 
5.289999999999932 -687.960390052555 
5.299999999999931 -1049.302695775381 
5.309999999999931 -703.7929871297146 
5.319999999999931 -1248.604075413232 
5.329999999999931 -733.37471379663 
5.339999999999931 -855.8368352418172 
5.34999999999993 41.90718366550462 
5.35999999999993 220.7767162033544 
5.36999999999993 964.9313776659453 
5.37999999999993 1092.328506855574 
5.38999999999993 1511.781465766369 
5.399999999999929 1441.312401455912 
5.409999999999929 1419.386493583798 
5.419999999999929 1093.974833142763 
5.429999999999929 731.2292623192901 
5.439999999999928 529.5162432108396 
5.449999999999928 240.7013543240902 
5.459999999999928 293.3008518460874 
5.469999999999928 11.56237064899624 
5.479999999999928 149.838316581286 
5.489999999999927 -147.0078174276566 
5.499999999999927 119.6454920810976 
5.509999999999927 -87.1372733492489 
5.519999999999927 84.42196613653859 
5.529999999999927 -304.0207441717738 
5.539999999999926 -302.945136039339 
5.549999999999926 -690.6625234999768 
5.559999999999926 -783.8456796150432 
5.569999999999926 -1163.048860707677 
5.579999999999926 -1344.403575141672 
5.589999999999925 -1548.53304493784 
5.599999999999925 -1386.161475939737 
5.609999999999925 -1106.761728325411 
5.619999999999925 -711.3680241394077 
5.629999999999924 -263.6515687202576 
5.639999999999924 165.7272615458732 
5.649999999999924 601.2983872802309 
5.659999999999924 919.3334133290169 
5.669999999999924 1254.391505765253 
5.679999999999923 1374.354465076981 
5.689999999999923 1413.04583105995 
5.699999999999923 1206.565680028628 
5.709999999999923 1088.75577364109 
5.719999999999923 781.5530985839774 
5.729999999999922 614.3828805626847 
5.739999999999922 181.0406139267338 
5.749999999999922 -8.34119161127432 
5.759999999999922 -283.6377290683425 
5.769999999999921 -138.889199388785 
5.779999999999921 -197.3970340532298 
5.789999999999921 -153.6803154503599 
5.799999999999921 -346.4169660451069 
5.809999999999921 -436.2100477067198 
5.81999999999992 -579.970007273785 
5.82999999999992 -729.6669173619126 
5.83999999999992 -901.9940677421539 
5.84999999999992 -1055.669505416287 
5.85999999999992 -1096.24445961081 
5.869999999999919 -1047.537072458287 
5.879999999999919 -835.9573324087212 
5.889999999999919 -563.6782588398136 
5.899999999999919 -214.2638026014594 
5.909999999999918 94.42254004798825 
5.919999999999918 508.9639960219191 
5.929999999999918 856.6552480379183 
5.939999999999918 1169.673534986594 
5.949999999999918 1241.487431097803 
5.959999999999917 1266.413483867516 
5.969999999999917 1074.28831354859 
5.979999999999917 902.8273588162301 
5.989999999999917 675.2176196967872 
5.999999999999917 546.6607118371005 
6.009999999999916 318.1087302509266 
6.019999999999916 164.7981136661722 
6.029999999999916 52.35267737168025 
6.039999999999916 -13.39852223123204 
6.049999999999915 -114.707198546064 
6.059999999999915 -279.6298920802359 
6.069999999999915 -383.9834406611419 
6.079999999999915 -500.7228422058856 
6.089999999999915 -568.1344463644969 
6.099999999999914 -705.6171218274109 
6.109999999999914 -862.6902840083109 
6.119999999999914 -1026.587205842902 
6.129999999999914 -1111.583555480874 
6.139999999999914 -1079.533779501305 
6.149999999999913 -990.9705204135591 
6.159999999999913 -809.0818330581207 
6.169999999999913 -548.4376526309015 
6.179999999999913 -182.4376523491785 
6.189999999999913 162.5430919932804 
6.199999999999912 470.4351226410302 
6.209999999999912 652.3819475090219 
6.219999999999912 757.9344625245871 
6.229999999999912 795.4547942275217 
6.239999999999911 801.1297964813903 
6.249999999999911 785.3782437952966 
6.259999999999911 729.0066739335348 
6.269999999999911 671.3393408735369 
6.279999999999911 575.7843235112115 
6.28999999999991 535.8601147258891 
6.29999999999991 541.4969215744579 
6.30999999999991 603.7584529742173 
6.31999999999991 618.7877818538049 
6.32999999999991 576.0328890133761 
6.339999999999909 475.8806995813073 
6.349999999999909 334.4174717751167 
6.359999999999909 90.97094439951923 
6.369999999999909 -247.8946442093614 
6.379999999999908 -665.0106471695647 
6.389999999999908 -1009.276136255654 
6.399999999999908 -1243.089674670557 
6.409999999999908 -1298.23255463033 
6.419999999999908 -1285.865252036772 
6.429999999999907 -1179.466247255222 
6.439999999999907 -995.5977649963849 
6.449999999999907 -724.272601709109 
6.459999999999907 -441.0701800547595 
6.469999999999907 -193.5417109716411 
6.479999999999906 31.65048727905138 
6.489999999999906 198.8761204366305 
6.499999999999906 335.8595799048165 
6.509999999999906 406.4055625604285 
6.519999999999905 441.0433503084294 
6.529999999999905 437.2905449029254 
6.539999999999905 434.5407204255812 
6.549999999999905 467.5865299688232 
6.559999999999905 560.517392761294 
6.569999999999904 701.1746021441866 
6.579999999999904 851.8688971426921 
6.589999999999904 958.1951452333736 
6.599999999999904 1022.561138264138 
6.609999999999904 992.0304962842776 
6.619999999999903 873.3769927940809 
6.629999999999903 639.5798341363111 
6.639999999999903 346.3591489615921 
6.649999999999903 -2.00546130084197 
6.659999999999902 -343.820326084243 
6.669999999999902 -640.6074118477175 
6.679999999999902 -877.6533585304577 
6.689999999999902 -1058.56694138854 
6.699999999999902 -1150.447692740303 
6.709999999999901 -1123.170468366392 
6.719999999999901 -1008.206410800231 
6.729999999999901 -871.3251831857531 
6.739999999999901 -746.5643194944978 
6.749999999999901 -651.9426169403151 
6.7599999999999 -595.9366279004431 
6.7699999999999 -573.8086806726317 
6.7799999999999 -557.5112892310361 
6.7899999999999 -517.8632027972539 
6.7999999999999 -413.9478687700432 
6.809999999999899 -204.9895868447516 
6.819999999999899 115.4429401370847 
6.829999999999899 519.1985779980319 
6.839999999999899 952.7601350298509 
6.849999999999898 1371.577988768374 
6.859999999999898 1718.951840885752 
6.869999999999898 1952.278022190844 
6.879999999999898 2021.048982677779 
6.889999999999898 1901.531525678128 
6.899999999999897 1581.350568918501 
6.909999999999897 1097.706589855892 
6.919999999999897 505.3842774255612 
6.929999999999897 -106.4518173743372 
6.939999999999897 -676.2105438668691 
6.949999999999896 -1147.527740576929 
6.959999999999896 -1493.856773462888 
6.969999999999896 -1672.544224516634 
6.979999999999896 -1687.928260091555 
6.989999999999895 -1567.797590029838 
6.999999999999895 -1378.773650987311 
7.009999999999895 -1159.109318006528 
7.019999999999895 -935.7514641563748 
7.029999999999895 -714.5099223542468 
7.039999999999894 -507.2902469878709 
7.049999999999894 -328.8768945061756 
7.059999999999894 -178.3814168717314 
7.069999999999894 -33.96396556840312 
7.079999999999894 140.8756451965747 
7.089999999999893 365.324705218123 
7.099999999999893 641.0605545957551 
7.109999999999893 950.4267304552107 
7.119999999999893 1262.064944416397 
7.129999999999892 1536.560184508796 
7.139999999999892 1732.310017300471 
7.149999999999892 1806.37370036675 
7.159999999999892 1715.639608974199 
7.169999999999892 1450.412754760688 
7.179999999999891 1036.402186256251 
7.189999999999891 539.0579539533521 
7.199999999999891 25.4931878982237 
7.209999999999891 -453.6037943913883 
7.219999999999891 -863.4430863957813 
7.22999999999989 -1173.895106354909 
7.23999999999989 -1348.089053383421 
7.24999999999989 -1400.185750608682 
7.25999999999989 -1355.747145518242 
7.269999999999889 -1264.5243350023 
7.279999999999889 -1147.856808786947 
7.289999999999889 -1025.661880042419 
7.299999999999889 -899.319933871185 
7.309999999999889 -776.3846223821857 
7.319999999999888 -659.9504763045821 
7.329999999999888 -543.1427331468242 
7.339999999999888 -382.020679498479 
7.349999999999888 -156.9857399837712 
7.359999999999888 137.8110417222804 
7.369999999999887 474.3268463978879 
7.379999999999887 845.7929206161498 
7.389999999999887 1219.046601312081 
7.399999999999887 1548.071229411863 
7.409999999999887 1769.614388431301 
7.419999999999886 1834.550014817175 
7.429999999999886 1724.675235604477 
7.439999999999886 1457.871357799963 
7.449999999999886 1082.164014052909 
7.459999999999885 634.3498918640388 
7.469999999999885 158.3954043325631 
7.479999999999885 -300.8688677942283 
7.489999999999885 -677.2168596848402 
7.499999999999885 -946.7125578337461 
7.509999999999884 -1095.790196586307 
7.519999999999884 -1147.071886390799 
7.529999999999884 -1108.627281012073 
7.539999999999884 -1012.904439503616 
7.549999999999884 -881.9643978110992 
7.559999999999883 -756.0691332605636 
7.569999999999883 -659.0845575548065 
7.579999999999883 -616.4617404634923 
7.589999999999883 -620.6068851740313 
7.599999999999882 -643.9114984354468 
7.609999999999882 -629.1567074585754 
7.619999999999882 -530.5448679558464 
7.629999999999882 -329.8311305597985 
7.639999999999882 -39.61751138585064 
7.649999999999881 320.9977264934568 
7.659999999999881 726.6445297061312 
7.669999999999881 1128.666868571698 
7.679999999999881 1452.564812795019 
7.689999999999881 1619.171888365122 
7.69999999999988 1594.306348152193 
7.70999999999988 1391.027584965153 
7.71999999999988 1054.679133212826 
7.72999999999988 610.1362550055216 
7.739999999999879 99.10644622083429 
7.749999999999879 -422.036168119461 
7.759999999999879 -860.1381755406395 
7.769999999999879 -1148.241925814041 
7.779999999999879 -1251.034591644343 
7.789999999999878 -1196.002136230927 
7.799999999999878 -1032.134565058102 
7.809999999999878 -803.5385857796659 
7.819999999999878 -527.7785225585604 
7.829999999999878 -229.7500826304243 
7.839999999999877 43.67125043277706 
7.849999999999877 238.7214566219405 
7.859999999999877 336.7120807545854 
7.869999999999877 366.065683794799 
7.879999999999876 377.0665698791675 
7.889999999999876 391.1808650645874 
7.899999999999876 397.5661014969939 
7.909999999999876 391.9991639442767 
7.919999999999876 409.5015481355626 
7.929999999999875 486.0156681424398 
7.939999999999875 607.8460941378855 
7.949999999999875 712.3774701086227 
7.959999999999875 736.3615411796487 
7.969999999999875 660.7015670867012 
7.979999999999874 493.0119546706987 
7.989999999999874 246.2581366045636 
7.999999999999874 -71.11854929396766 
8.009999999999874 -423.5091414251018 
8.019999999999874 -755.5018913810989 
8.029999999999873 -1012.664803417815 
8.039999999999873 -1165.816111697082 
8.049999999999873 -1196.759221277981 
8.059999999999873 -1105.046587720876 
8.069999999999872 -913.7924955074274 
8.079999999999872 -673.422177176705 
8.089999999999872 -425.4176210811575 
8.099999999999872 -188.0410895598633 
8.109999999999872 30.2709876347969 
8.119999999999871 203.0184902933486 
8.129999999999871 301.85736290312 
8.139999999999871 334.4021131872758 
8.149999999999871 345.5664759109373 
8.159999999999871 373.5280645845339 
8.16999999999987 420.0558267706681 
8.17999999999987 471.3774597720922 
8.18999999999987 528.1864998357492 
8.19999999999987 599.0761451526809 
8.209999999999869 670.8800306652406 
8.219999999999869 710.2019735260026 
8.229999999999869 689.173629123132 
8.239999999999869 605.5885495181731 
8.249999999999869 461.4413073989658 
8.259999999999868 252.6180466868426 
8.269999999999868 -16.14690321826521 
8.279999999999868 -303.2214290604935 
8.289999999999868 -552.4110936543669 
8.299999999999868 -730.3939785665824 
8.309999999999867 -838.6071769487812 
8.319999999999867 -876.6456881316532 
8.329999999999867 -830.1503311697267 
8.339999999999867 -694.5198456473756 
8.349999999999866 -504.3950454019285 
8.359999999999866 -312.8110537981703 
8.369999999999866 -155.3464005019448 
8.379999999999866 -35.47509974753947 
8.389999999999866 50.40785606790217 
8.399999999999865 101.926119192755 
8.409999999999865 120.9786325243421 
8.419999999999865 123.6159188208191 
8.429999999999865 129.0095288414878 
8.439999999999865 151.586054936209 
8.449999999999864 207.0948245695923 
8.459999999999864 315.115985089459 
8.469999999999864 480.8236093284386 
8.479999999999864 671.6389976056643 
8.489999999999863 829.5131146882023 
8.499999999999863 908.416839136393 
8.509999999999863 898.9397260597017 
8.519999999999863 806.5913700585581 
8.529999999999863 627.8412137723401 
8.539999999999862 359.6797821744206 
8.549999999999862 36.16591237081487 
8.559999999999862 -276.4164450111067 
8.569999999999862 -520.9595725378315 
8.579999999999862 -684.4922164435342 
8.589999999999861 -780.835145654441 
8.599999999999861 -824.0213265748124 
8.609999999999861 -818.1078906593222 
8.619999999999861 -770.2262372172297 
8.62999999999986 -691.4997408835661 
8.63999999999986 -593.8519015521188 
8.64999999999986 -488.1092529731531 
8.65999999999986 -392.480531228507 
8.66999999999986 -327.4500121690609 
8.679999999999859 -297.0080579980666 
8.689999999999859 -275.7161171520576 
8.699999999999859 -228.1210908996477 
8.709999999999859 -137.9379692574917 
8.719999999999859 -10.11099609371013 
8.729999999999858 153.3684353218397 
8.739999999999858 361.3553733463572 
8.749999999999858 608.0129813075562 
8.759999999999858 853.1104950562046 
8.769999999999858 1039.759053862355 
8.779999999999857 1132.179802396145 
8.789999999999857 1126.414035005587 
8.799999999999857 1034.530297607907 
8.809999999999857 866.687838860589 
8.819999999999856 633.8617128530032 
8.829999999999856 352.8128201660374 
8.839999999999856 48.7169183976307 
8.849999999999856 -246.2720007225455 
8.859999999999856 -492.2184217006865 
8.869999999999855 -651.8071434575458 
8.879999999999855 -708.9405100331773 
8.889999999999855 -681.8744068255497 
8.899999999999855 -611.3907875685344 
8.909999999999855 -533.3744954411508 
8.919999999999854 -465.0366674194363 
8.929999999999854 -416.5164076990021 
8.939999999999854 -403.9159857847532 
8.949999999999854 -433.4697083771768 
8.959999999999853 -480.8298241427404 
8.969999999999853 -498.5043451758434 
8.979999999999853 -451.9322717863828 
8.989999999999853 -336.9331683716769 
8.999999999999853 -169.2666955419908 
9.009999999999852 33.81452110003016 
9.019999999999852 255.1949149810781 
9.029999999999852 475.8129858761088 
9.039999999999852 674.7912794895411 
9.049999999999852 831.9008081374942 
9.059999999999851 924.2405367910723 
9.069999999999851 929.0629768118445 
9.079999999999851 835.5296294420739 
9.089999999999851 658.2925775795721 
9.09999999999985 431.8730169762276 
9.10999999999985 190.9367709265546 
9.11999999999985 -42.5771630279863 
9.12999999999985 -250.1464366868023 
9.13999999999985 -406.4693542143738 
9.149999999999849 -490.3464135108062 
9.159999999999849 -505.9284429074984 
9.169999999999849 -481.2248663824169 
9.179999999999849 -442.7501552241221 
9.189999999999849 -399.522311318044 
9.199999999999848 -354.3609596027475 
9.209999999999848 -318.2789503195098 
9.219999999999848 -304.5537986974202 
9.229999999999848 -314.7646053166376 
9.239999999999847 -336.8315091889912 
9.249999999999847 -352.944745027418 
9.259999999999847 -341.6369168212107 
9.269999999999847 -279.7097409311876 
9.279999999999847 -150.6979502525902 
9.289999999999846 40.93632990421635 
9.299999999999846 267.6133392768139 
9.309999999999846 489.6908571814828 
9.319999999999846 670.9037007870493 
9.329999999999846 783.3715060836515 
9.339999999999845 807.6811586969642 
9.349999999999845 737.8921575159631 
9.359999999999845 591.378375665422 
9.369999999999845 404.7738636909789 
9.379999999999845 213.7780854775083 
9.389999999999844 39.38264372719057 
9.399999999999844 -106.6855489850941 
9.409999999999844 -211.7490147277171 
9.419999999999844 -267.4311450447522 
9.429999999999843 -278.1199117855467 
9.439999999999843 -257.6101200750512 
9.449999999999843 -218.0885760166992 
9.459999999999843 -171.0596109375037 
9.469999999999843 -135.2584670403007 
9.479999999999842 -134.6733894665801 
9.489999999999842 -182.185926086089 
9.499999999999842 -267.410173382362 
9.509999999999842 -362.0284967413788 
9.519999999999842 -438.0805992892659 
9.529999999999841 -479.6377794825342 
9.539999999999841 -478.7446776686148 
9.549999999999841 -426.4330316153447 
9.559999999999841 -315.7428274646545 
9.56999999999984 -154.8156572614058 
9.57999999999984 30.54396124553961 
9.58999999999984 211.121050467363 
9.59999999999984 367.878923932349 
9.60999999999984 490.7491078279364 
9.619999999999839 570.6450366613118 
9.629999999999839 597.3894186644444 
9.639999999999839 564.5422335626541 
9.649999999999839 475.3484298360002 
9.659999999999839 350.1122389178133 
9.669999999999838 225.3358739480267 
9.679999999999838 138.6188692392306 
9.689999999999838 104.6374011564612 
9.699999999999838 107.9924015751827 
9.709999999999837 118.3255680499285 
9.719999999999837 113.604242140346 
9.729999999999837 86.15557606845472 
9.739999999999837 32.54035104935001 
9.749999999999837 -56.63396863590745 
9.759999999999836 -186.3182146696108 
9.769999999999836 -339.1912619473782 
9.779999999999836 -476.5641868850224 
9.789999999999836 -565.9089052207934 
9.799999999999836 -601.0109176322889 
9.809999999999835 -589.9127665304778 
9.819999999999835 -533.7610024480681 
9.829999999999835 -428.3162909849849 
9.839999999999835 -282.3115947394801 
9.849999999999834 -118.867051442317 
9.859999999999834 39.14132042501792 
9.869999999999834 176.5361613796362 
9.879999999999834 279.8856230458604 
9.889999999999834 338.1047586262851 
9.899999999999833 353.0295283011118 
9.909999999999833 341.5425808784725 
9.919999999999833 321.5581477436865 
9.929999999999833 298.4314749275674 
9.939999999999833 269.456926814862 
9.949999999999832 237.9839302585149 
9.959999999999832 216.1298501139031 
9.969999999999832 209.1912452625429 
9.979999999999832 205.5816394580918 
9.989999999999832 187.7913177927522 
9.999999999999831 150.754236803405 
10.00999999999983 98.82743402845568 
10.01999999999983 29.63210421778256 
10.02999999999983 -66.74621390286545 
10.03999999999983 -189.2301152162981 
10.04999999999983 -318.0057315095686 
10.05999999999983 -428.2291688298466 
10.06999999999983 -503.0949923116801 
10.07999999999983 -529.671762114013 
10.08999999999983 -493.6580362591914 
10.09999999999983 -389.962383202722 
10.10999999999983 -236.2320609215362 
10.11999999999983 -67.23654238896042 
10.12999999999983 85.90852875468173 
10.13999999999983 207.3075161912166 
10.14999999999983 287.1120426156105 
10.15999999999983 312.9922495491159 
10.16999999999983 279.3977028055424 
10.17999999999983 204.6482364394175 
10.18999999999983 124.1941251966506 
10.19999999999983 64.58073982765744 
10.20999999999983 28.56680754031545 
10.21999999999983 10.57387710590465 
10.22999999999983 13.92408517016954 
10.23999999999983 43.74543959563547 
10.24999999999983 89.55582973204523 
10.25999999999983 127.8067399114111 
10.26999999999983 142.2392471528323 
10.27999999999983 133.2878982237507 
10.28999999999983 107.7256992157391 
10.29999999999983 68.09690610148783 
10.30999999999983 16.13701486768744 
10.31999999999982 -39.76584160696748 
10.32999999999982 -86.80563528214012 
10.33999999999982 -116.7856291705332 
10.34999999999982 -129.2079101460948 
10.35999999999982 -125.0974041672632 
10.36999999999982 -103.0784649609161 
10.37999999999982 -65.05785327094047 
10.38999999999982 -22.88707985067777 
10.39999999999982 7.411698522930245 
10.40999999999982 17.98938867610626 
10.41999999999982 10.41243114791906 
10.42999999999982 -14.36906739690518 
10.43999999999982 -59.84069365986888 
10.44999999999982 -123.4630720590383 
10.45999999999982 -189.3462150532766 
10.46999999999982 -235.0412804928888 
10.47999999999982 -245.512937962819 
10.48999999999982 -217.1292369458474 
10.49999999999982 -152.7821773430777 
10.50999999999982 -56.26229629785468 
10.51999999999982 65.15721144834316 
10.52999999999982 194.6870440364685 
10.53999999999982 305.8480242660338 
10.54999999999982 372.7996700583072 
10.55999999999982 382.5524829475461 
10.56999999999982 336.7870417826106 
10.57999999999982 247.9912136002155 
10.58999999999982 136.1529737547093 
10.59999999999982 27.570333592323 
10.60999999999982 -54.39738555584501 
10.61999999999982 -97.78702460890209 
10.62999999999982 -103.296439484905 
10.63999999999982 -77.90642945785564 
10.64999999999982 -33.05527294099694 
10.65999999999982 14.01123130466295 
10.66999999999982 44.26753545617019 
10.67999999999982 45.52620550308991 
10.68999999999982 18.36798285882469 
10.69999999999982 -28.38727171941782 
10.70999999999982 -84.68296208740637 
10.71999999999982 -143.6061491028844 
10.72999999999982 -196.9486308002002 
10.73999999999982 -232.9838807831102 
10.74999999999982 -239.3195886282357 
10.75999999999982 -211.3716132538404 
10.76999999999982 -153.1997931803699 
10.77999999999982 -73.82218430477693 
10.78999999999981 15.40805468900427 
10.79999999999981 98.30799141348881 
10.80999999999981 157.3987898468199 
10.81999999999981 182.0835953489178 
10.82999999999981 172.7144307379027 
10.83999999999981 134.2499041731566 
10.84999999999981 70.64885403361053 
10.85999999999981 -11.9431520058208 
10.86999999999981 -99.69189514100761 
10.87999999999981 -172.3920197872201 
10.88999999999981 -212.6536201363897 
10.89999999999981 -212.0414300777329 
10.90999999999981 -170.9952569775092 
10.91999999999981 -93.18952215577733 
10.92999999999981 15.16875194108146 
10.93999999999981 140.9466659520514 
10.94999999999981 259.9406801583763 
10.95999999999981 343.4786263600599 
10.96999999999981 371.6849668812811 
10.97999999999981 342.0959205665729 
10.98999999999981 267.1167668363589 
10.99999999999981 166.2564751770872 
11.00999999999981 60.72718977866171 
11.01999999999981 -28.74269084523085 
11.02999999999981 -84.38473100444257 
11.03999999999981 -96.77287698014492 
11.04999999999981 -70.33684343775575 
11.05999999999981 -23.10706041635034 
11.06999999999981 22.19629209977668 
11.07999999999981 48.90567572961415 
11.08999999999981 49.25267993060589 
11.09999999999981 19.04320739973139 
11.10999999999981 -45.24484155083808 
11.11999999999981 -141.0780889354449 
11.12999999999981 -253.7951380457754 
11.13999999999981 -361.8222951319607 
11.14999999999981 -448.0616243814712 
11.15999999999981 -503.0693734196657 
11.16999999999981 -516.0769601692738 
11.17999999999981 -472.2590830394777 
11.18999999999981 -365.2081538998764 
11.19999999999981 -209.1000365171093 
11.20999999999981 -30.42612033294994 
11.21999999999981 150.2285500542839 
11.22999999999981 322.2447392513844 
11.23999999999981 473.1160258895914 
11.24999999999981 583.5388018767782 
11.2599999999998 639.1507578939114 
11.2699999999998 641.0876011762495 
11.2799999999998 600.3911398598706 
11.2899999999998 524.8001101825315 
11.2999999999998 419.2800156411785 
11.3099999999998 296.135483514033 
11.3199999999998 176.5518337781794 
11.3299999999998 74.52331413201931 
11.3399999999998 -12.6786802949365 
11.3499999999998 -94.80268817437366 
11.3599999999998 -174.4709598583788 
11.3699999999998 -252.4448057437809 
11.3799999999998 -338.9145532189614 
11.3899999999998 -444.6380328815818 
11.3999999999998 -560.0744340863092 
11.4099999999998 -654.5200722954819 
11.4199999999998 -700.4822276824511 
11.4299999999998 -689.6207051696615 
11.4399999999998 -625.2291573835444 
11.4499999999998 -509.4649620829022 
11.4599999999998 -346.9718064355538 
11.4699999999998 -153.7567196260022 
11.4799999999998 45.95339619945091 
11.4899999999998 232.2914491640684 
11.4999999999998 395.2161521188735 
11.5099999999998 527.0089305542483 
11.5199999999998 617.068446038734 
11.5299999999998 657.4853013476134 
11.5399999999998 652.3660826211087 
11.5499999999998 613.7474780493457 
11.5599999999998 550.4919977043546 
11.5699999999998 466.0741840002996 
11.5799999999998 368.315896542137 
11.5899999999998 270.6276041230469 
11.5999999999998 180.1513835117981 
11.6099999999998 89.96298969923112 
11.6199999999998 -10.68143646591025 
11.6299999999998 -122.6561767761833 
11.6399999999998 -237.0209903719108 
11.6499999999998 -344.4957119696006 
11.6599999999998 -439.7472693211118 
11.6699999999998 -518.2723420346392 
11.6799999999998 -575.276379220184 
11.6899999999998 -607.5197811476335 
11.6999999999998 -613.8222891919545 
11.7099999999998 -591.1271623970656 
11.7199999999998 -533.1791450076713 
11.72999999999979 -434.3709771247972 
11.73999999999979 -296.5087230622659 
11.74999999999979 -129.3689372852881 
11.75999999999979 53.33962358568945 
11.76999999999979 236.236206883796 
11.77999999999979 399.0882291951544 
11.78999999999979 519.1879034433968 
11.79999999999979 582.7411229357365 
11.80999999999979 594.2270471444198 
11.81999999999979 569.3493784457355 
11.82999999999979 521.1835516475709 
11.83999999999979 455.9547242516434 
11.84999999999979 379.6256862282676 
11.85999999999979 299.8237217324535 
11.86999999999979 220.1885247986939 
11.87999999999979 137.8937684081733 
11.88999999999979 49.94799605993836 
11.89999999999979 -41.45643235939865 
11.90999999999979 -131.808444511053 
11.91999999999979 -220.020649909453 
11.92999999999979 -307.3858585804298 
11.93999999999979 -391.2338398735632 
11.94999999999979 -462.4233518299634 
11.95999999999979 -510.863565582248 
11.96999999999979 -531.0035795244263 
11.97999999999979 -520.0881466490923 
11.98999999999979 -473.7353715662031 
11.99999999999979 -388.6949796361434 
12.00999999999979 -270.4777945010758 
12.01999999999979 -133.684919293628 
12.02999999999979 6.744971275875415 
12.03999999999979 142.1680078033134 
12.04999999999979 266.92563010187 
12.05999999999979 373.4661957822256 
12.06999999999979 453.2101574769453 
12.07999999999979 500.6761444851733 
12.08999999999979 513.7541572748638 
12.09999999999979 492.5242356725483 
12.10999999999979 440.1733874316285 
12.11999999999979 365.356560049047 
12.12999999999979 280.3972856601201 
12.13999999999979 196.2212089513986 
12.14999999999979 118.5222900318914 
12.15999999999979 48.09602009441275 
12.16999999999979 -15.8798633388283 
12.17999999999979 -75.74329593782382 
12.18999999999979 -136.1285123427043 
12.19999999999978 -202.7379429959117 
12.20999999999978 -275.5700673216487 
12.21999999999978 -346.5269928645161 
12.22999999999978 -403.9082491519261 
12.23999999999978 -439.8658679612149 
12.24999999999978 -449.8981812532476 
12.25999999999978 -430.0451747173177 
12.26999999999978 -377.197411414166 
12.27999999999978 -293.6990693509215 
12.28999999999978 -187.3780265127745 
12.29999999999978 -69.00837503065174 
12.30999999999978 49.06783271419855 
12.31999999999978 151.9777012009011 
12.32999999999978 225.6607737141982 
12.33999999999978 263.5339655037698 
12.34999999999978 270.1866258507359 
12.35999999999978 256.3786552090326 
12.36999999999978 231.0722344776665 
12.37999999999978 199.8655812469916 
12.38999999999978 170.5184035527094 
12.39999999999978 153.5279325997085 
12.40999999999978 152.4556094817363 
12.41999999999978 156.4205558256405 
12.42999999999978 149.5064515514399 
12.43999999999978 127.647730364653 
12.44999999999978 100.6529289043042 
12.45999999999978 76.93186216476681 
12.46999999999978 51.81182911759164 
12.47999999999978 14.07147662759002 
12.48999999999978 -41.38665932734911 
12.49999999999978 -109.1915927306 
12.50999999999978 -179.254805119848 
12.51999999999978 -241.0924739716861 
12.52999999999978 -285.340011377217 
12.53999999999978 -303.50872586256 
12.54999999999978 -290.4756149587045 
12.55999999999978 -246.0771400328455 
12.56999999999978 -176.1971852006078 
12.57999999999978 -92.50006025389999 
12.58999999999978 -11.69139250889553 
12.59999999999978 49.3749779161274 
12.60999999999978 82.54384321968217 
12.61999999999978 94.02894706491286 
12.62999999999978 97.63558230975416 
12.63999999999978 101.3833801187637 
12.64999999999978 103.2602989477059 
12.65999999999978 100.7099820826165 
12.66999999999977 99.96804516036316 
12.67999999999977 111.3269735123834 
12.68999999999977 138.1001261678395 
12.69999999999977 172.7359843849685 
12.70999999999977 203.0777339412286 
12.71999999999977 218.2070905264267 
12.72999999999977 210.1596540524039 
12.73999999999977 174.4604261991217 
12.74999999999977 112.4390414834429 
12.75999999999977 31.73527094238265 
12.76999999999977 -56.23172348996665 
12.77999999999977 -139.0440303323597 
12.78999999999977 -204.4237093298334 
12.79999999999977 -242.0179798664217 
12.80999999999977 -248.90801550665 
12.81999999999977 -233.572561880291 
12.82999999999977 -211.3855118499626 
12.83999999999977 -191.7494511639422 
12.84999999999977 -171.06370989015 
12.85999999999977 -140.7997808398227 
12.86999999999977 -101.992553428183 
12.87999999999977 -66.48181828267549 
12.88999999999977 -43.49945567775313 
12.89999999999977 -29.82669995742167 
12.90999999999977 -16.10225784239386 
12.91999999999977 2.77111108241974 
12.92999999999977 27.84542151288467 
12.93999999999977 63.39462260462079 
12.94999999999977 116.3546011392179 
12.95999999999977 187.2886410195899 
12.96999999999977 264.8957667345965 
12.97999999999977 330.9499581584802 
12.98999999999977 368.7259690199613 
12.99999999999977 368.0398339271421 
13.00999999999977 326.2014161422276 
13.01999999999977 249.3928576964603 
13.02999999999977 151.0177000749321 
13.03999999999977 45.97025432788312 
13.04999999999977 -57.0999817571117 
13.05999999999977 -155.1531996439354 
13.06999999999977 -243.3222004364023 
13.07999999999977 -310.5317260881794 
13.08999999999977 -346.3424950396191 
13.09999999999977 -349.5948815590527 
13.10999999999977 -327.5790153075019 
13.11999999999977 -288.3117863008187 
13.12999999999977 -237.6913245550104 
13.13999999999976 -183.0323926938036 
13.14999999999976 -133.56214276705 
13.15999999999976 -94.85591661505578 
13.16999999999976 -64.61638610720269 
13.17999999999976 -35.14558583471391 
13.18999999999976 1.248373795442984 
13.19999999999976 49.58320309084091 
13.20999999999976 110.88001163255 
13.21999999999976 180.4855003718751 
13.22999999999976 247.4963064486529 
13.23999999999976 300.1837764391649 
13.24999999999976 333.1632725593701 
13.25999999999976 348.2495829153809 
13.26999999999976 346.0660309404593 
13.27999999999976 320.0068201928445 
13.28999999999976 261.7983545048967 
13.29999999999976 172.9803361137796 
13.30999999999976 66.49715625973715 
13.31999999999976 -42.4217690585916 
13.32999999999976 -143.6183804809351 
13.33999999999976 -228.6706975385893 
13.34999999999976 -286.8265815275569 
13.35999999999976 -309.3312336604948 
13.36999999999976 -298.1532139208113 
13.37999999999976 -266.2409331251003 
13.38999999999976 -228.5285453671286 
13.39999999999976 -193.8205531547703 
13.40999999999976 -164.5285666498056 
13.41999999999976 -140.2650271735824 
13.42999999999976 -118.8200705899045 
13.43999999999976 -96.22698232008872 
13.44999999999976 -69.31590363453152 
13.45999999999976 -38.59549366272766 
13.46999999999976 -5.307361435325329 
13.47999999999976 34.29684002115259 
13.48999999999976 88.38189093518247 
13.49999999999976 160.2772692426266 
13.50999999999976 241.9698271440633 
13.51999999999976 318.032230344108 
13.52999999999976 374.6838675368226 
13.53999999999976 402.2056452221254 
13.54999999999976 392.2691237290997 
13.55999999999976 337.9650036551936 
13.56999999999976 240.2457243134279 
13.57999999999976 112.253479762214 
13.58999999999976 -24.14128369701365 
13.59999999999976 -148.0748196562427 
13.60999999999975 -246.8926067738409 
13.61999999999975 -316.1348137610278 
13.62999999999975 -354.4190345107676 
13.63999999999975 -360.506432757741 
13.64999999999975 -335.1720525876694 
13.65999999999975 -284.2768268126615 
13.66999999999975 -218.3167806627566 
13.67999999999975 -149.3885077510054 
13.68999999999975 -87.96657064266621 
13.69999999999975 -40.62832630352296 
13.70999999999975 -8.736051688516227 
13.71999999999975 10.83297053794248 
13.72999999999975 23.32533753055713 
13.73999999999975 35.32254565439649 
13.74999999999975 54.43904595036813 
13.75999999999975 88.04578264019327 
13.76999999999975 138.7559200313331 
13.77999999999975 201.6918346864098 
13.78999999999975 265.0885198534595 
13.79999999999975 315.9319191285823 
13.80999999999975 345.3279635584876 
13.81999999999975 349.5648412033561 
13.82999999999975 326.0762781902398 
13.83999999999975 270.994732180392 
13.84999999999975 183.7244185518543 
13.85999999999975 72.20026983717888 
13.86999999999975 -48.20643119534486 
13.87999999999975 -161.5581129605114 
13.88999999999975 -254.8215366363893 
13.89999999999975 -318.067059356018 
13.90999999999975 -345.1852606449341 
13.91999999999975 -336.908462199691 
13.92999999999975 -300.2952706131653 
13.93999999999975 -245.978235445174 
13.94999999999975 -185.1705488676292 
13.95999999999975 -129.2327691820291 
13.96999999999975 -87.12916852073434 
13.97999999999975 -62.31007644757848 
13.98999999999975 -50.62034311563536 
13.99999999999975 -43.93025872700644 
14.00999999999975 -35.70875415173851 
14.01999999999975 -23.92786525786752 
14.02999999999975 -7.269066762524965 
14.03999999999975 18.97238442226441 
14.04999999999975 60.50758923699341 
14.05999999999975 117.3083404656296 
14.06999999999974 181.4430871989431 
14.07999999999974 241.8180107593647 
14.08999999999974 288.2717694454223 
14.09999999999974 311.7060743978607 
14.10999999999974 304.6543826854457 
14.11999999999974 264.6535976796934 
14.12999999999974 196.2410970649242 
14.13999999999974 108.8333357523811 
14.14999999999974 13.9859591524018 
14.15999999999974 -75.5530196683675 
14.16999999999974 -147.7026117006046 
14.17999999999974 -194.4595931094101 
14.18999999999974 -214.5041383346848 
14.19999999999974 -211.5278118243414 
14.20999999999974 -190.8300265333863 
14.21999999999974 -156.8901129775531 
14.22999999999974 -114.789145157979 
14.23999999999974 -72.57238784979813 
14.24999999999974 -40.8655005596946 
14.25999999999974 -27.90473077390773 
14.26999999999974 -35.04202299763038 
14.27999999999974 -56.69808115697043 
14.28999999999974 -83.39211241751315 
14.29999999999974 -103.8981665484722 
14.30999999999974 -107.4028172490614 
14.31999999999974 -86.64140997351461 
14.32999999999974 -40.72758536854306 
14.33999999999974 25.01854047992645 
14.34999999999974 100.5057165733733 
14.35999999999974 172.5731777469468 
14.36999999999974 228.256141332679 
14.37999999999974 259.1179215655982 
14.38999999999974 263.3694409339666 
14.39999999999974 243.9673579497108 
14.40999999999974 205.4398590493354 
14.41999999999974 152.0718421154323 
14.42999999999974 88.07917654350162 
14.43999999999974 19.34761806975116 
14.44999999999974 -45.12464987286219 
14.45999999999974 -94.74768203537471 
14.46999999999974 -122.1877206260017 
14.47999999999974 -127.0068714637552 
14.48999999999974 -115.4807567328964 
14.49999999999974 -96.99412025265983 
14.50999999999974 -80.54953331630675 
14.51999999999974 -72.85704210189515 
14.52999999999974 -78.05034908381643 
14.53999999999973 -97.24425804479439 
14.54999999999973 -126.5274834474696 
14.55999999999973 -156.2191713988865 
14.56999999999973 -174.5810506389088 
14.57999999999973 -173.9746156997926 
14.58999999999973 -152.8843977313219 
14.59999999999973 -113.3085043928758 
14.60999999999973 -58.33518769559222 
14.61999999999973 7.606556043979945 
14.62999999999973 78.79299090772096 
14.63999999999973 149.314666614158 
14.64999999999973 212.2918667885115 
14.65999999999973 257.8204115940474 
14.66999999999973 274.3257392148349 
14.67999999999973 255.6766440098869 
14.68999999999973 207.1865133692481 
14.69999999999973 143.4339876444887 
14.70999999999973 78.74948703103405 
14.71999999999973 21.29980781964832 
14.72999999999973 -24.19878810817064 
14.73999999999973 -51.96830655259743 
14.74999999999973 -58.8790658543428 
14.75999999999973 -51.58991142663633 
14.76999999999973 -44.5111503640708 
14.77999999999973 -48.47825537804461 
14.78999999999973 -63.59332772280573 
14.79999999999973 -84.06857498861182 
14.80999999999973 -105.7068332420502 
14.81999999999973 -127.1488872232573 
14.82999999999973 -146.7904788335576 
14.83999999999973 -162.1538027958213 
14.84999999999973 -170.3726420958508 
14.85999999999973 -167.2978785841298 
14.86999999999973 -146.7367316151033 
14.87999999999973 -104.1865641106029 
14.88999999999973 -42.52868694864355 
14.89999999999973 27.04434257762357 
14.90999999999973 90.98102971091376 
14.91999999999973 140.4034353844715 
14.92999999999973 171.4571391128767 
14.93999999999973 181.5158738805767 
14.94999999999973 168.5899365094813 
14.95999999999973 136.4158299708365 
14.96999999999973 96.0979246790629 
14.97999999999973 60.45821453853291 
14.98999999999973 36.20363711515753 
14.99999999999973 23.00706939514529 
15.00999999999972 17.33379475911872 
15.01999999999972 16.70900125232398 
15.02999999999972 20.89434190723176 
15.03999999999972 31.05855325592124 
15.04999999999972 45.7654545135812 
15.05999999999972 58.14943693695969 
15.06999999999972 58.15570439583289 
15.07999999999972 39.43334839250639 
15.08999999999972 3.273063024151257 
15.09999999999972 -43.18640473930848 
15.10999999999972 -91.0042278414261 
15.11999999999972 -131.5490256529925 
15.12999999999972 -157.2170853724456 
15.13999999999972 -162.3068037614141 
15.14999999999972 -144.7077713487515 
15.15999999999972 -107.8087785556482 
15.16999999999972 -60.62812427215153 
15.17999999999972 -14.90905316386066 
15.18999999999972 20.15802383697974 
15.19999999999972 40.74222160100275 
15.20999999999972 48.20685243242754 
15.21999999999972 45.93543250873213 
15.22999999999972 36.78899436710794 
15.23999999999972 21.34977402306475 
15.24999999999972 0.4600721152398487 
15.25999999999972 -21.1794631317557 
15.26999999999972 -34.33618646053554 
15.27999999999972 -31.15604268961634 
15.28999999999972 -10.89587316306051 
15.29999999999972 20.36332478413859 
15.30999999999972 55.08272062791226 
15.31999999999972 87.5130350260487 
15.32999999999972 112.3732932560006 
15.33999999999972 123.4750178230023 
15.34999999999972 115.7949825679792 
15.35999999999972 89.48147097852014 
15.36999999999972 50.48141892324771 
15.37999999999972 7.011912222273828 
15.38999999999972 -34.78051558401832 
15.39999999999972 -71.51760115444047 
15.40999999999972 -100.8371040303461 
15.41999999999972 -120.1834715108166 
15.42999999999972 -127.1477493905425 
15.43999999999972 -119.3508819123702 
15.44999999999972 -94.66282553768865 
15.45999999999972 -54.26278855825967 
15.46999999999972 -6.261078732870336 
15.47999999999971 36.20253750571509 
15.48999999999971 62.84007079542296 
15.49999999999971 71.38395697537226 
15.50999999999971 64.93889456922459 
15.51999999999971 47.03382803680272 
15.52999999999971 22.00484358917703 
15.53999999999971 -2.42609857468449 
15.54999999999971 -17.31590064580823 
15.55999999999971 -18.5806044712891 
15.56999999999971 -9.188976636071642 
15.57999999999971 4.82212884730321 
15.58999999999971 18.90175610389497 
15.59999999999971 30.77289686040363 
15.60999999999971 38.87505333116523 
15.61999999999971 41.7972216444352 
15.62999999999971 38.67181843967637 
15.63999999999971 29.09443585192724 
15.64999999999971 12.92432741219892 
15.65999999999971 -8.577600825977875 
15.66999999999971 -30.87530105788877 
15.67999999999971 -46.96813300393357 
15.68999999999971 -51.5019089079905 
15.69999999999971 -44.18497190251765 
15.70999999999971 -28.44999138568982 
15.71999999999971 -8.039329977782861 
15.72999999999971 13.70797778747328 
15.73999999999971 32.23931086170691 
15.74999999999971 42.43139224636254 
15.75999999999971 41.92767029971274 
15.76999999999971 32.69374154347451 
15.77999999999971 18.79759442955186 
15.78999999999971 3.773260994467753 
15.79999999999971 -10.21597878943454 
15.80999999999971 -21.62296800594914 
15.81999999999971 -29.40466179549674 
15.82999999999971 -32.405371807945 
15.83999999999971 -29.41500177080361 
15.84999999999971 -19.56056689267917 
15.85999999999971 -4.523854235800915 
15.86999999999971 10.78838402210626 
15.87999999999971 19.48826440325376 
15.88999999999971 16.9336323156663 
15.89999999999971 3.616967114936302 
15.90999999999971 -15.38220837819017 
15.91999999999971 -34.21422783706416 
15.92999999999971 -48.89246336466513 
15.93999999999971 -56.63472063172687 
15.9499999999997 -54.78595255270444 
15.9599999999997 -42.07823926639768 
15.9699999999997 -20.83634641236804 
15.9799999999997 3.680977915731206 
15.9899999999997 26.20522612399477 
15.9999999999997 43.60866961047505 
16.0099999999997 54.479259344133 
16.01999999999971 58.27430777007216 
16.02999999999971 54.87215914569962 
16.03999999999971 44.39108891446765 
16.04999999999971 27.14317528837226 
16.05999999999971 5.147094003580009 
16.06999999999971 -15.75440451073454 
16.07999999999971 -26.6010785312651 
16.08999999999972 -20.63711588632178 
16.09999999999972 1.233459841125733 
16.10999999999972 30.49235985292982 
16.11999999999972 57.29317594640244 
16.12999999999972 75.74665376335685 
16.13999999999972 83.59431529327158 
16.14999999999973 78.50271652098694 
16.15999999999973 58.21701916491654 
16.16999999999973 24.13683950802102 
16.17999999999973 -16.97337027004501 
16.18999999999973 -57.13134461198212 
16.19999999999973 -91.65062183767709 
16.20999999999973 -119.3072356944966 
16.21999999999974 -139.1730886228905 
16.22999999999974 -148.8050132384556 
16.23999999999974 -144.8194436802799 
16.24999999999974 -123.8874644356917 
16.25999999999974 -84.96134031033962 
16.26999999999974 -32.26209691682626 
16.27999999999975 23.50381333780271 
16.28999999999975 70.28439601405327 
16.29999999999975 101.4722998772523 
16.30999999999975 118.1046266039407 
16.31999999999975 123.7551280644289 
16.32999999999975 119.8041017564312 
16.33999999999976 106.3566100674325 
16.34999999999976 86.52974511028405 
16.35999999999976 66.78622021276287 
16.36999999999976 51.83105553672379 
16.37999999999976 40.37833460956651 
16.38999999999976 27.20879441349776 
16.39999999999976 9.183004523603508 
16.40999999999977 -11.75598178309166 
16.41999999999977 -31.56798386908079 
16.42999999999977 -48.67405155240359 
16.43999999999977 -65.40028334961953 
16.44999999999977 -85.00512020016791 
16.45999999999977 -108.239815297396 
16.46999999999978 -131.4077412732996 
16.47999999999978 -147.7505035394285 
16.48999999999978 -150.3203386969938 
16.49999999999978 -135.6659641737009 
16.50999999999978 -105.042437618353 
16.51999999999978 -62.83390702227677 
16.52999999999978 -13.70701987258083 
16.53999999999979 38.07967362120158 
16.54999999999979 86.95809172681304 
16.55999999999979 125.7572945971713 
16.56999999999979 148.7946140306783 
16.57999999999979 155.7715071315259 
16.58999999999979 150.8888105195582 
16.5999999999998 138.1589930025233 
16.6099999999998 117.8241853889888 
16.6199999999998 88.99627229279317 
16.6299999999998 54.14848536965575 
16.6399999999998 20.27668819906912 
16.6499999999998 -5.513272196695352 
16.65999999999981 -20.02957443807785 
16.66999999999981 -24.68637489387029 
16.67999999999981 -23.53119742044538 
16.68999999999981 -21.95745756622523 
16.69999999999981 -25.14540202240543 
16.70999999999981 -35.69777295345734 
16.71999999999981 -52.45533948134744 
16.72999999999982 -72.22001468918292 
16.73999999999982 -91.93841302900231 
16.74999999999982 -108.0345586094801 
16.75999999999982 -114.9044449738781 
16.76999999999982 -106.816508271351 
16.77999999999982 -82.75847644453054 
16.78999999999983 -47.91332988606616 
16.79999999999983 -9.464652922592507 
16.80999999999983 28.870861537053 
16.81999999999983 66.36371168543235 
16.82999999999983 100.7373440641987 
16.83999999999983 125.6142001757355 
16.84999999999983 134.3427483199342 
16.85999999999984 124.6700067760516 
16.86999999999984 99.82276213698991 
16.87999999999984 65.47809693459641 
16.88999999999984 27.85675418614626 
16.89999999999984 -7.1814097834249 
16.90999999999984 -34.80981316099819 
16.91999999999985 -53.12721645313453 
16.92999999999985 -62.82783309030389 
16.93999999999985 -65.43289379983297 
16.94999999999985 -62.06845047766498 
16.95999999999985 -55.24384906952322 
16.96999999999985 -49.80645141789912 
16.97999999999986 -50.24313453035709 
16.98999999999986 -56.07444954595574 
16.99999999999986 -61.84613071142848 
17.00999999999986 -62.73766801374434 
17.01999999999986 -59.11969359153276 
17.02999999999986 -54.28989990765967 
17.03999999999986 -48.04912797428189 
17.04999999999987 -35.37381839305176 
17.05999999999987 -11.65643139493513 
17.06999999999987 21.49346983080888 
17.07999999999987 57.69395018967145 
17.08999999999987 90.99645569263031 
17.09999999999987 118.6891898694174 
17.10999999999988 138.4604983177193 
17.11999999999988 146.3433901846871 
17.12999999999988 138.545931356826 
17.13999999999988 115.4461460745656 
17.14999999999988 81.95860498973939 
17.15999999999988 44.67376846863873 
17.16999999999988 9.12330992492662 
17.17999999999989 -20.48905459935765 
17.18999999999989 -41.26475748202031 
17.19999999999989 -52.63650316349018 
17.20999999999989 -56.80105622357016 
17.21999999999989 -57.17988991978462 
17.22999999999989 -56.07179002548772 
17.2399999999999 -54.79628576723827 
17.2499999999999 -55.04171741000391 
17.2599999999999 -59.1468628584431 
17.2699999999999 -67.6076760485611 
17.2799999999999 -77.76570394754094 
17.2899999999999 -84.98983709039062 
17.29999999999991 -86.11099517078009 
17.30999999999991 -80.38405438666989 
17.31999999999991 -68.2878440486319 
17.32999999999991 -49.23725447497824 
17.33999999999991 -22.35355882501949 
17.34999999999991 11.07891045602064 
17.35999999999991 46.16206770418673 
17.36999999999992 76.73992735577794 
17.37999999999992 98.66804285016913 
17.38999999999992 110.6476982634073 
17.39999999999992 112.6778759949915 
17.40999999999992 105.1481388246773 
17.41999999999992 89.11556665690861 
17.42999999999993 66.23095098820919 
17.43999999999993 38.83981072836048 
17.44999999999993 10.59159479581837 
17.45999999999993 -13.41137923583504 
17.46999999999993 -29.31624536193624 
17.47999999999993 -36.75851536888453 
17.48999999999993 -38.21994127810739 
17.49999999999994 -35.58543120864393 
17.50999999999994 -29.23682140665726 
17.51999999999994 -20.05639431459647 
17.52999999999994 -11.6520989938174 
17.53999999999994 -8.59491011168403 
17.54999999999994 -12.50949507430332 
17.55999999999995 -20.35423979927877 
17.56999999999995 -27.32632634594341 
17.57999999999995 -30.45851007840181 
17.58999999999995 -28.83404403557376 
17.59999999999995 -21.81456655385236 
17.60999999999995 -9.261417021797648 
17.61999999999996 6.96775383589702 
17.62999999999996 23.73056926787697 
17.63999999999996 38.7197697411873 
17.64999999999996 50.29236725971413 
17.65999999999996 55.64981876165311 
17.66999999999996 51.88295028981219 
17.67999999999996 39.29881884206949 
17.68999999999997 22.13014771144595 
17.69999999999997 4.381548342526337 
17.70999999999997 -13.3040204741086 
17.71999999999997 -32.01746313053619 
17.72999999999997 -50.07727786300098 
17.73999999999997 -62.84984078936419 
17.74999999999998 -66.84673529596439 
17.75999999999998 -63.05898222374982 
17.76999999999998 -54.65616969416631 
17.77999999999998 -43.06128302023215 
17.78999999999998 -27.92889193418043 
17.79999999999998 -10.13548745481288 
17.80999999999999 7.557562084100268 
17.81999999999999 22.99299634799722 
17.82999999999999 35.25622186158665 
17.83999999999999 42.89182552817049 
17.84999999999999 43.86777422665313 
17.85999999999999 38.88232177626016 
17.86999999999999 32.30366121920392 
17.88 28.07353214033623 
17.89 25.53866120101342 
17.9 21.68146285952107 
17.91 16.45602868369177 
17.92 13.48558731638765 
17.93 14.42743370860732 
17.94000000000001 15.54548348664005 
17.95000000000001 11.85083186877496 
17.96000000000001 3.439501721338491 
17.97000000000001 -5.037652901285546 
17.98000000000001 -10.69420579158221 
17.99000000000001 -15.22877235066327 
18.00000000000001 -21.07316602686029 
18.01000000000002 -27.54348219108344 
18.02000000000002 -32.34446904339927 
18.03000000000002 -35.02723092742895 
18.04000000000002 -36.64149507384229 
18.05000000000002 -37.53481803521439 
18.06000000000002 -37.0425984118752 
18.07000000000003 -35.33321045644141 
18.08000000000003 -32.89488807388954 
18.09000000000003 -28.55709341051868 
18.10000000000003 -19.73537498297859 
18.11000000000003 -5.874040857068925 
18.12000000000003 10.05986489794455 
18.13000000000004 24.81932318649399 
18.14000000000004 38.22164628555677 
18.15000000000004 51.50133608173082 
18.16000000000004 63.08038581609893 
18.17000000000004 68.72017871306886 
18.18000000000004 66.4290786080537 
18.19000000000004 59.01216887780195 
18.20000000000005 50.62369061981685 
18.21000000000005 42.22838457495763 
18.22000000000005 32.36206785229811 
18.23000000000005 20.85395536906935 
18.24000000000005 9.52887785505588 
18.25000000000005 -0.9806255177519669 
18.26000000000006 -12.31270628460851 
18.27000000000006 -25.64727783871815 
18.28000000000006 -39.70479678313841 
18.29000000000006 -53.12414566084151 
18.30000000000006 -66.6882571658266 
18.31000000000006 -81.16796085632063 
18.32000000000006 -93.57237802332918 
18.33000000000007 -98.41796450960771 
18.34000000000007 -92.78304100168042 
18.35000000000007 -78.35490932929899 
18.36000000000007 -58.01873556713274 
18.37000000000007 -32.41306849429824 
18.38000000000007 -1.63032453577016 
18.39000000000008 31.36679028433467 
18.40000000000008 60.96205970811706 
18.41000000000008 83.00675522127209 
18.42000000000008 96.90154547137607 
18.43000000000008 103.4339098872942 
18.44000000000008 102.8129966565437 
18.45000000000009 95.56311078867459 
18.46000000000009 83.93220623023265 
18.47000000000009 69.80021598131455 
18.48000000000009 53.29344872997549 
18.49000000000009 34.78508748425239 
18.50000000000009 17.4618524911985 
18.51000000000009 4.264891346332206 
18.5200000000001 -6.870097838165267 
18.5300000000001 -21.88188581754088 
18.5400000000001 -43.78301395745013 
18.5500000000001 -69.3717742542708 
18.5600000000001 -93.39810259580095 
18.5700000000001 -113.5898834581595 
18.58000000000011 -129.5831505523682 
18.59000000000011 -138.5197146794351 
18.60000000000011 -134.6569002588036 
18.61000000000011 -114.2301744934468 
18.62000000000011 -79.19315356057024 
18.63000000000011 -35.16212553767061 
18.64000000000011 12.73178293446644 
18.65000000000012 60.57684858133614 
18.66000000000012 103.3733136715926 
18.67000000000012 135.1325343629163 
18.68000000000012 151.5228491296058 
18.69000000000012 151.1523812987131 
18.70000000000012 134.2925133351858 
18.71000000000013 103.1046834287246 
18.72000000000013 63.55507160617349 
18.73000000000013 24.6835210976332 
18.74000000000013 -6.110690950228666 
18.75000000000013 -26.34352283846391 
18.76000000000013 -36.92973437965014 
18.77000000000014 -39.0846911507231 
18.78000000000014 -34.65241420609591 
18.79000000000014 -27.88253146391222 
18.80000000000014 -24.92008843416604 
18.81000000000014 -29.88876298843634 
18.82000000000014 -42.67983397279399 
18.83000000000014 -60.31081493638372 
18.84000000000015 -79.801746328428 
18.85000000000015 -98.37268913553383 
18.86000000000015 -112.0121773619116 
18.87000000000015 -115.9276104375681 
18.88000000000015 -106.9245077459178 
18.89000000000015 -84.38379828557908 
18.90000000000016 -48.77143038142792 
18.91000000000016 -1.67804600467936 
18.92000000000016 51.73788483186562 
18.93000000000016 102.1522964300358 
18.94000000000016 140.5800985280419 
18.95000000000016 163.201100064468 
18.96000000000016 170.6372587231193 
18.97000000000017 163.5185836332544 
18.98000000000017 141.5667013941437 
18.99000000000017 107.2860476547322 
19.00000000000017 67.85649929176012 
19.01000000000017 31.07024406296795 
19.02000000000017 0.4613246969946643 
19.03000000000018 -24.11416269046486 
19.04000000000018 -42.27396651919424 
19.05000000000018 -52.27610139889055 
19.06000000000018 -54.47636322823482 
19.07000000000018 -53.10239041759394 
19.08000000000018 -53.11846967981005 
19.09000000000019 -56.7297480974566 
19.10000000000019 -64.09784862329647 
19.11000000000019 -75.5715207140358 
19.12000000000019 -90.86940264989278 
19.13000000000019 -106.1586061141349 
19.14000000000019 -114.7203110147105 
19.15000000000019 -111.2296185455072 
19.1600000000002 -94.7834259581369 
19.1700000000002 -67.12683235392186 
19.1800000000002 -30.02508495012969 
19.1900000000002 14.32705808441811 
19.2000000000002 61.06055074140283 
19.2100000000002 103.2350062026836 
19.22000000000021 135.0064495294529 
19.23000000000021 153.6812114731757 
19.24000000000021 158.5297397706959 
19.25000000000021 149.5332209803624 
19.26000000000021 127.8173885555411 
19.27000000000021 96.67566938871529 
19.28000000000021 60.7428964606745 
19.29000000000022 24.60614082549742 
19.30000000000022 -7.87414684015018 
19.31000000000022 -33.54074774265065 
19.32000000000022 -50.94915885381076 
19.33000000000022 -61.30920551654634 
19.34000000000022 -67.86203547143605 
19.35000000000023 -73.67042246305446 
19.36000000000023 -80.31739549950548 
19.37000000000023 -88.25639746713814 
19.38000000000023 -97.43528496651484 
19.39000000000023 -106.6503428053488 
19.40000000000023 -112.8516041841625 
19.41000000000024 -112.1703178476831 
19.42000000000024 -101.9523961339046 
19.43000000000024 -81.81838419797529 
19.44000000000024 -52.77554878188752 
19.45000000000024 -16.7046379882926 
19.46000000000024 23.20528656547276 
19.47000000000024 62.17766613408264 
19.48000000000025 95.81645203935504 
19.49000000000025 121.9187938154144 
19.50000000000025 139.8514743170825 
19.51000000000025 147.9488054449985 
19.52000000000025 143.7586352707241 
19.53000000000025 127.178357033212 
19.54000000000026 102.5304115835855 
19.55000000000026 75.73646484059337 
19.56000000000026 50.30342006338819 
19.57000000000026 26.78498550520248 
19.58000000000026 5.899319939029789 
19.59000000000026 -10.25039411365961 
19.60000000000026 -20.4586739307513 
19.61000000000027 -27.25685173947294 
19.62000000000027 -35.57496497037619 
19.63000000000027 -49.110969015408 
19.64000000000027 -67.99773069440185 
19.65000000000027 -90.00906018341672 
19.66000000000027 -111.8655156770335 
19.67000000000028 -129.6606075211282 
19.68000000000028 -139.1407303732025 
19.69000000000028 -137.6475764065396 
19.70000000000028 -125.014128360837 
19.71000000000028 -102.128621907516 
19.72000000000028 -69.25133197099117 
19.73000000000029 -27.35077340403554 
19.74000000000029 19.54011789739246 
19.75000000000029 65.03121636449562 
19.76000000000029 103.8891220470424 
19.77000000000029 133.864392300166 
19.78000000000029 153.8993836279005 
19.79000000000029 162.2046949678102 
19.8000000000003 157.1182884460925 
19.8100000000003 139.6622292652934 
19.8200000000003 113.9219127629908 
19.8300000000003 85.00727793464618 
19.8400000000003 56.66572660371383 
19.8500000000003 30.82148744886559 
19.86000000000031 7.883758248880367 
19.87000000000031 -13.06233018090922 
19.88000000000031 -33.89608025189044 
19.89000000000031 -55.83120486025168 
19.90000000000031 -78.28570534436432 
19.91000000000031 -99.79129201297897 
19.92000000000031 -119.8379894979067 
19.93000000000032 -138.3614074473865 
19.94000000000032 -153.6389856171299 
19.95000000000032 -161.8600588756617 
19.96000000000032 -159.7124842896926 
19.97000000000032 -146.2819272840787 
19.98000000000032 -122.3021979990839 
19.99000000000033 -78.09851751949493 
20.00000000000033 -32.25522520742295 
