0.01 -4.811006152957774 
0.02 -3.710629227633731 
0.03 -2.966468437781615 
0.04 -2.895864127108572 
0.05 -1.960635777956526 
0.06000000000000001 1.048109064571294 
0.07000000000000001 4.765779748226186 
0.08 5.750096116625952 
0.09 2.347862327276607 
0.09999999999999999 -2.760130659279705 
0.11 -6.432774659580332 
0.12 -9.284133031631896 
0.13 -11.27490205934423 
0.14 -7.937032179836783 
0.15 1.784032100313461 
0.16 11.07955643953367 
0.17 16.06034473603235 
0.18 20.39013778146225 
0.19 24.32805545891323 
0.2 22.59407114321513 
0.2100000000000001 15.05375952921165 
0.2200000000000001 6.357949965857658 
0.2300000000000001 -2.014709526053317 
0.2400000000000001 -9.649377585950139 
0.2500000000000001 -14.03239127516136 
0.2600000000000001 -14.75295580213595 
0.2700000000000001 -13.61940595078372 
0.2800000000000001 -10.542289245042 
0.2900000000000001 -5.98905939491699 
0.3000000000000001 -3.670514881111931 
0.3100000000000001 -5.601858323115217 
0.3200000000000001 -9.650842184761682 
0.3300000000000001 -13.60345944806248 
0.3400000000000001 -16.61587513846014 
0.3500000000000001 -17.11676862039811 
0.3600000000000002 -13.98888825875694 
0.3700000000000002 -8.865486000355793 
0.3800000000000002 -5.369247824572664 
0.3900000000000002 -4.553028188914811 
0.4000000000000002 -1.027624670254059 
0.4100000000000002 11.2300668761284 
0.4200000000000002 29.3948980165149 
0.4300000000000002 44.05876698516985 
0.4400000000000002 49.30969895966118 
0.4500000000000002 44.52934258062971 
0.4600000000000002 30.59651618199849 
0.4700000000000003 10.00926354050505 
0.4800000000000003 -11.81923320250041 
0.4900000000000003 -27.52334537546064 
0.5000000000000002 -30.76309790246138 
0.5100000000000002 -20.85783146998685 
0.5200000000000002 -6.386334078693733 
0.5300000000000003 1.407801596156082 
0.5400000000000003 0.1395719202722384 
0.5500000000000003 -4.14562306166727 
0.5600000000000003 -6.860022591377201 
0.5700000000000003 -6.958083216015704 
0.5800000000000003 -2.383803076092169 
0.5900000000000003 6.042129756838555 
0.6000000000000003 8.710719962290924 
0.6100000000000003 -3.86358465331168 
0.6200000000000003 -27.41669643975619 
0.6300000000000003 -46.98671031954873 
0.6400000000000004 -52.3289978701083 
0.6500000000000004 -43.84675069522059 
0.6600000000000004 -26.1654871627403 
0.6700000000000004 -3.234613712001457 
0.6800000000000004 19.93449160080516 
0.6900000000000004 34.87172429542017 
0.7000000000000004 34.89084960151604 
0.7100000000000004 24.21845091955671 
0.7200000000000004 17.35002341211019 
0.7300000000000004 26.18932778295901 
0.7400000000000004 48.0100596031252 
0.7500000000000004 67.45419155899916 
0.7600000000000005 68.43287187604379 
0.7700000000000005 44.08738538740084 
0.7800000000000005 -0.2659846070345137 
0.7900000000000005 -48.07279567536713 
0.8000000000000005 -75.52101675607487 
0.8100000000000005 -65.12733034352823 
0.8200000000000005 -21.44905074269456 
0.8300000000000005 30.40740934820048 
0.8400000000000005 65.07425674938153 
0.8500000000000005 70.72512715983608 
0.8600000000000005 43.86470103789343 
0.8700000000000006 -13.9513680203722 
0.8800000000000006 -86.82064943932542 
0.8900000000000006 -141.7685387650749 
0.9000000000000006 -148.2778969245356 
0.9100000000000006 -102.6972671955023 
0.9200000000000006 -32.37376023118068 
0.9300000000000006 25.31953448146214 
0.9400000000000006 50.0332312755204 
0.9500000000000006 48.21038568377787 
0.9600000000000006 40.96047942845049 
0.9700000000000006 44.59797749539789 
0.9800000000000007 62.10098888483457 
0.9900000000000007 83.94387535792332 
1.000000000000001 92.11920319573423 
1.010000000000001 69.22811909205397 
1.020000000000001 13.39477008536564 
1.030000000000001 -53.89050015911145 
1.040000000000001 -100.3813999448757 
1.050000000000001 -103.270245743372 
1.060000000000001 -61.53298292793963 
1.070000000000001 10.64296476522321 
1.080000000000001 85.71943672707663 
1.090000000000001 129.5442963852119 
1.100000000000001 118.5411903553261 
1.110000000000001 58.38860943402612 
1.120000000000001 -12.14581069740084 
1.130000000000001 -58.09802056835417 
1.140000000000001 -66.1033107212299 
1.150000000000001 -45.78757033139323 
1.160000000000001 -27.36195060059293 
1.170000000000001 -25.84880938063339 
1.180000000000001 -49.99254156610078 
1.190000000000001 -94.24550381899454 
1.200000000000001 -121.9251694106869 
1.210000000000001 -116.1467000018928 
1.220000000000001 -70.22775182055003 
1.230000000000001 -3.795070403685224 
1.240000000000001 49.20667465433598 
1.250000000000001 85.211693860612 
1.260000000000001 94.52421448826371 
1.270000000000001 78.44039613213457 
1.280000000000001 37.62204886672748 
1.290000000000001 -0.3801761464469196 
1.300000000000001 -12.39806825378489 
1.310000000000001 19.76095501940679 
1.320000000000001 47.34666280737036 
1.330000000000001 73.74828956757042 
1.340000000000001 62.17033522845635 
1.350000000000001 49.86039454889435 
1.360000000000001 39.16695610918701 
1.370000000000001 37.16262849205586 
1.380000000000001 49.24135539254908 
1.390000000000001 46.06541327556764 
1.400000000000001 27.57471726029646 
1.410000000000001 -34.66534401940849 
1.420000000000001 -95.45204656990489 
1.430000000000001 -149.6671166250928 
1.440000000000001 -167.4628201306756 
1.450000000000001 -162.2062013899928 
1.460000000000001 -130.0857667848128 
1.470000000000001 -71.83627687196803 
1.480000000000001 13.25161806259206 
1.490000000000001 89.06875206103015 
1.500000000000001 125.7755416904563 
1.510000000000001 118.0449479785727 
1.520000000000001 92.93123448903941 
1.530000000000001 71.54420622761953 
1.540000000000001 53.72210376607977 
1.550000000000001 26.28969239385783 
1.560000000000001 -5.92912326677056 
1.570000000000001 -34.45451609810137 
1.580000000000001 -61.84266027837676 
1.590000000000001 -91.62772297929232 
1.600000000000001 -87.64566513686047 
1.610000000000001 -47.81204375610334 
1.620000000000001 29.8163741691018 
1.630000000000001 80.60094348966459 
1.640000000000001 111.3083218487205 
1.650000000000001 100.3194901212179 
1.660000000000001 67.20010359476859 
1.670000000000001 -6.750912467748135 
1.680000000000001 -100.6738381551246 
1.690000000000001 -155.0010899581135 
1.700000000000001 -153.6727905085097 
1.710000000000001 -70.52502260452913 
1.720000000000001 10.04910391376033 
1.730000000000001 79.84938742389727 
1.740000000000001 89.23169316564361 
1.750000000000001 70.20636575359268 
1.760000000000001 15.47998219475729 
1.770000000000001 -27.62659773549818 
1.780000000000001 -20.01513904325685 
1.790000000000001 45.05520968052348 
1.800000000000001 117.753589085443 
1.810000000000001 132.2185772038564 
1.820000000000001 80.88954056348386 
1.830000000000001 -1.273932997144145 
1.840000000000001 -89.13341749008298 
1.850000000000001 -158.2027128096278 
1.860000000000001 -173.1082105971236 
1.870000000000001 -97.9723193657865 
1.880000000000001 35.04962422511949 
1.890000000000002 143.2938574045252 
1.900000000000002 170.3442791161139 
1.910000000000002 114.4219261416605 
1.920000000000002 19.76991944273417 
1.930000000000002 -74.50879144010777 
1.940000000000002 -126.7668631387643 
1.950000000000002 -115.251790374448 
1.960000000000002 -48.34670207014357 
1.970000000000002 14.38586734875813 
1.980000000000002 21.32904750270466 
1.990000000000002 -47.1771843256335 
2.000000000000001 -139.0783857223121 
2.010000000000001 -181.847881280363 
2.020000000000001 -125.4213382844976 
2.030000000000001 0.5163449006697428 
2.040000000000001 154.7200127369407 
2.05 261.8139787806474 
2.06 282.5496433329567 
2.07 181.3018193211715 
2.08 -7.9705201882064 
2.089999999999999 -195.4985836046044 
2.099999999999999 -277.0465789787256 
2.109999999999999 -194.9961968200686 
2.119999999999999 -53.14416035867398 
2.129999999999999 152.4021903766247 
2.139999999999998 219.5271262317091 
2.149999999999998 254.1360505963143 
2.159999999999998 121.2687499970686 
2.169999999999998 -50.87302396799301 
2.179999999999998 -158.0625899080906 
2.189999999999997 -172.6129975432041 
2.199999999999997 -3.703347029295828 
2.209999999999997 92.02775092810116 
2.219999999999997 227.5171371942198 
2.229999999999996 114.7523413609748 
2.239999999999996 28.56512974598959 
2.249999999999996 -231.6284779883652 
2.259999999999996 -293.6036045730564 
2.269999999999996 -382.788162773872 
2.279999999999995 -151.6544161404428 
2.289999999999995 56.69198065909266 
2.299999999999995 327.3466277313524 
2.309999999999995 343.7836515521412 
2.319999999999995 259.9528502768983 
2.329999999999994 -0.6425920225748382 
2.339999999999994 -215.7409705299691 
2.349999999999994 -413.9403035219231 
2.359999999999994 -414.6159450407306 
2.369999999999993 -156.7267756399414 
2.379999999999993 104.4218421895966 
2.389999999999993 343.9873511916562 
2.399999999999993 358.0033926173218 
2.409999999999993 272.4426028343883 
2.419999999999992 119.1146282990347 
2.429999999999992 -2.696956875447078 
2.439999999999992 -60.41355737746275 
2.449999999999992 52.53270844652815 
2.459999999999992 120.0432029059072 
2.469999999999991 233.1901442973272 
2.479999999999991 127.235083060238 
2.489999999999991 -14.50113031642619 
2.499999999999991 -318.2583308003291 
2.509999999999991 -433.3955974499735 
2.51999999999999 -474.9189611014958 
2.52999999999999 -241.573741537678 
2.53999999999999 2.248475798058256 
2.54999999999999 244.2179829980633 
2.559999999999989 300.4772261153658 
2.569999999999989 171.6199171267259 
2.579999999999989 -6.224599516031407 
2.589999999999989 -256.5539509338785 
2.599999999999989 -276.6234226694705 
2.609999999999988 -186.1524106674515 
2.619999999999988 50.19054324322516 
2.629999999999988 244.8563040698933 
2.639999999999988 323.7791430820939 
2.649999999999988 213.78922993819 
2.659999999999987 53.48248666187799 
2.669999999999987 -124.3248740191502 
2.679999999999987 -190.3161309541687 
2.689999999999987 -88.81136680222494 
2.699999999999986 88.67181595719806 
2.709999999999986 272.1161348943003 
2.719999999999986 322.3494604722492 
2.729999999999986 239.7842923837528 
2.739999999999986 -45.20399741363723 
2.749999999999985 -194.788555830518 
2.759999999999985 -397.7347415767321 
2.769999999999985 -258.8692140636238 
2.779999999999985 -144.8160679791734 
2.789999999999985 100.619585395678 
2.799999999999984 176.3427463427128 
2.809999999999984 124.8740177725854 
2.819999999999984 31.00890358685187 
2.829999999999984 -93.59759393006455 
2.839999999999983 -101.0269101616698 
2.849999999999983 -117.1989104336501 
2.859999999999983 13.37513071713776 
2.869999999999983 66.27563932324087 
2.879999999999983 103.1106052182862 
2.889999999999982 -5.544803973289834 
2.899999999999982 -115.4667771291466 
2.909999999999982 -260.568805593438 
2.919999999999982 -296.3825900927472 
2.929999999999982 -171.0216710212183 
2.939999999999981 45.65327079243704 
2.949999999999981 227.7746678368472 
2.959999999999981 340.5252536475134 
2.969999999999981 303.4228511412924 
2.97999999999998 173.7906685316933 
2.98999999999998 -4.838257365833431 
2.99999999999998 -114.3934702183422 
3.00999999999998 -81.49696639515905 
3.01999999999998 6.183443324794606 
3.029999999999979 100.0533129860196 
3.039999999999979 140.7112135663558 
3.049999999999979 146.0362037806643 
3.059999999999979 10.70506353582111 
3.069999999999979 -83.02995778242307 
3.079999999999978 -192.1367953197631 
3.089999999999978 -125.5122420087609 
3.099999999999978 -21.31860446343929 
3.109999999999978 149.8739220219612 
3.119999999999978 189.0482663697665 
3.129999999999977 187.1364981991274 
3.139999999999977 -11.22920937195593 
3.149999999999977 -185.6371201908237 
3.159999999999977 -370.9580018829535 
3.169999999999976 -373.4338325912709 
3.179999999999976 -266.2351315535375 
3.189999999999976 -64.69487730679377 
3.199999999999976 98.31472438832059 
3.209999999999976 130.7812564456748 
3.219999999999975 113.2635395799003 
3.229999999999975 7.303699010594578 
3.239999999999975 -9.672708921593795 
3.249999999999975 -8.525209650509339 
3.259999999999975 127.9378159692011 
3.269999999999974 217.7233433537493 
3.279999999999974 310.8009240646913 
3.289999999999974 278.7646907506982 
3.299999999999974 165.293701012182 
3.309999999999973 13.44457262532597 
3.319999999999973 -129.9005147661742 
3.329999999999973 -106.6322682720199 
3.339999999999973 -52.69499804933989 
3.349999999999973 156.1049214126747 
3.359999999999972 213.8811192145186 
3.369999999999972 300.930753451141 
3.379999999999972 134.7118070095746 
3.389999999999972 -31.87336215445194 
3.399999999999972 -210.4757095697565 
3.409999999999971 -278.8887473652638 
3.419999999999971 -241.5650274598058 
3.429999999999971 -179.4273061628074 
3.439999999999971 -92.22736165042431 
3.44999999999997 -112.7141029576127 
3.45999999999997 -114.1399203337713 
3.46999999999997 -256.2333948529818 
3.47999999999997 -264.710966841211 
3.48999999999997 -286.4416927717535 
3.499999999999969 -133.0909429211735 
3.509999999999969 42.65728259393679 
3.519999999999969 204.1970336920033 
3.529999999999969 297.7250261993241 
3.539999999999969 299.4578960347775 
3.549999999999968 103.8372533346888 
3.559999999999968 -24.9899272190783 
3.569999999999968 -82.16100812784659 
3.579999999999968 -22.86688245020021 
3.589999999999967 120.1641353118173 
3.599999999999967 214.1782173992683 
3.609999999999967 271.6403359909388 
3.619999999999967 255.3435808131155 
3.629999999999967 103.2160706179411 
3.639999999999966 -0.03210064675039449 
3.649999999999966 -99.87001775052468 
3.659999999999966 -109.8627458355908 
3.669999999999966 -32.00048374745131 
3.679999999999966 -8.99449189492238 
3.689999999999965 27.11242590490267 
3.699999999999965 -134.9663713815306 
3.709999999999965 -365.900687552692 
3.719999999999965 -647.0683044230767 
3.729999999999965 -728.7028453429783 
3.739999999999964 -812.0300782079103 
3.749999999999964 -629.1127689098454 
3.759999999999964 -424.0408643516631 
3.769999999999964 -210.6424265399805 
3.779999999999963 -7.470332191830067 
3.789999999999963 6.920767531224352 
3.799999999999963 100.6245193431971 
3.809999999999963 85.52591277184985 
3.819999999999963 114.1704306800762 
3.829999999999962 306.7720417677575 
3.839999999999962 98.75063779213529 
3.849999999999962 689.9583621387172 
3.859999999999962 517.8192247011762 
3.869999999999962 828.9829831878203 
3.879999999999961 570.5440540590073 
3.889999999999961 727.0869113723707 
3.899999999999961 444.6073617387452 
3.909999999999961 423.0529309801649 
3.91999999999996 484.2814497285222 
3.92999999999996 431.6616499190934 
3.93999999999996 735.8000785825743 
3.94999999999996 641.4732299358141 
3.95999999999996 861.3206491542253 
3.969999999999959 662.6129480941498 
3.979999999999959 573.2806481164262 
3.989999999999959 -27.22995566292828 
3.999999999999959 -482.2295703399165 
4.009999999999959 -1078.944518482269 
4.019999999999959 -1189.893851210699 
4.029999999999959 -1308.895468716651 
4.039999999999958 -981.6756714575583 
4.049999999999958 -1087.414086726058 
4.059999999999958 -981.8223121274266 
4.069999999999958 -800.6793532043726 
4.079999999999957 -724.8337894922596 
4.089999999999957 -699.0526477198787 
4.099999999999957 -708.9632842151553 
4.109999999999957 -1052.507701960122 
4.119999999999957 -396.677996278664 
4.129999999999956 -155.2674858447441 
4.139999999999956 -614.0206704120975 
4.149999999999956 450.0404748995541 
4.159999999999956 287.5244953204423 
4.169999999999956 454.9611093926764 
4.179999999999955 760.6543445428027 
4.189999999999955 445.074260076254 
4.199999999999955 1200.588838770236 
4.209999999999955 888.0177643292634 
4.219999999999955 1279.127844059157 
4.229999999999954 1462.00203839086 
4.239999999999954 2098.477508440495 
4.249999999999954 1390.63145780983 
4.259999999999954 1495.974877998837 
4.269999999999953 -52.85774269321352 
4.279999999999953 -102.082587093329 
4.289999999999953 -374.117110471987 
4.299999999999953 -273.511797571384 
4.309999999999953 -144.8462529119994 
4.319999999999952 -516.3585234523285 
4.329999999999952 -722.0028861614002 
4.339999999999952 -815.6685496738755 
4.349999999999952 -634.5530110355485 
4.359999999999952 -1199.556279295802 
4.369999999999951 -838.1720997369135 
4.379999999999951 -1095.739290968161 
4.389999999999951 -233.4642440860565 
4.399999999999951 -291.9546215556167 
4.40999999999995 -305.5966571763232 
4.41999999999995 -559.2225305971368 
4.42999999999995 -973.468415446801 
4.43999999999995 -1306.439946669741 
4.44999999999995 -681.6060182329437 
4.459999999999949 11.95367282619497 
4.469999999999949 508.1024598848567 
4.479999999999949 1003.909758961953 
4.489999999999949 989.6205258898249 
4.499999999999949 1240.216988720453 
4.509999999999948 948.2446501758695 
4.519999999999948 692.3297188373872 
4.529999999999948 549.8017777035603 
4.539999999999948 328.8688294297276 
4.549999999999947 358.7402267737127 
4.559999999999947 994.4268989293623 
4.569999999999947 801.1866937465115 
4.579999999999947 633.1320024802817 
4.589999999999947 -40.03109027432974 
4.599999999999946 -277.0697366594378 
4.609999999999946 -243.406713552167 
4.619999999999946 -123.0709731119527 
4.629999999999946 -38.6673033309421 
4.639999999999946 -218.6632846119571 
4.649999999999945 -240.351344031601 
4.659999999999945 -466.3219154724599 
4.669999999999945 -643.4902090528693 
4.679999999999945 -1175.321744472307 
4.689999999999944 -1272.601469834231 
4.699999999999944 -1264.765328082717 
4.709999999999944 -999.5676946014154 
4.719999999999944 -583.3973330918129 
4.729999999999944 -232.0834251792942 
4.739999999999943 -247.0077050051334 
4.749999999999943 -196.2429544894352 
4.759999999999943 -168.0274241278648 
4.769999999999943 194.9695623152608 
4.779999999999943 566.4395155667825 
4.789999999999942 918.0976953302833 
4.799999999999942 1347.812828798773 
4.809999999999942 1136.461839486169 
4.819999999999942 1142.534599306544 
4.829999999999942 935.5284837256882 
4.839999999999941 612.3051667511196 
4.849999999999941 140.2656593444661 
4.859999999999941 194.6360845783309 
4.869999999999941 392.347178542567 
4.87999999999994 624.336475255069 
4.88999999999994 539.9348772890352 
4.89999999999994 604.7600345466967 
4.90999999999994 -40.21118636273965 
4.91999999999994 -222.2160637822377 
4.929999999999939 -767.4937032398921 
4.939999999999939 -756.4361905207722 
4.949999999999939 -1096.067747686572 
4.959999999999939 -940.1244954137002 
4.969999999999939 -1050.721917259515 
4.979999999999938 -756.2782094210942 
4.989999999999938 -981.0929469037997 
4.999999999999938 -964.8966788184105 
5.009999999999938 -956.9639103302462 
5.019999999999937 -777.6495051286757 
5.029999999999937 -196.5731331185429 
5.039999999999937 261.4568239551537 
5.049999999999937 645.121952455587 
5.059999999999937 849.09562498714 
5.069999999999936 723.2885155995073 
5.079999999999936 671.8216034795071 
5.089999999999936 559.4282079539927 
5.099999999999936 291.6317413353768 
5.109999999999936 343.0204721303084 
5.119999999999935 391.2135459166793 
5.129999999999935 557.6209633357221 
5.139999999999935 703.6942328974493 
5.149999999999935 663.3922224638758 
5.159999999999934 566.3486031871088 
5.169999999999934 306.8091269989214 
5.179999999999934 89.44597164145846 
5.189999999999934 248.9044210959964 
5.199999999999934 154.06374557828 
5.209999999999933 101.3134795608269 
5.219999999999933 -274.719057364229 
5.229999999999933 -420.0997901353749 
5.239999999999933 -768.6358243888296 
5.249999999999933 -918.6827221701317 
5.259999999999932 -1118.371347913081 
5.269999999999932 -960.522402839514 
5.279999999999932 -737.8138650624961 
5.289999999999932 -454.6653326408444 
5.299999999999931 -105.7040988336861 
5.309999999999931 7.564114262724075 
5.319999999999931 -73.29052956993279 
5.329999999999931 -118.6867300408045 
5.339999999999931 -204.1240060138049 
5.34999999999993 -42.50864088604406 
5.35999999999993 161.1195441251294 
5.36999999999993 332.6240079656701 
5.37999999999993 480.7278421898834 
5.38999999999993 470.4862432964063 
5.399999999999929 524.9418393527448 
5.409999999999929 433.2714916581878 
5.419999999999929 422.9490993140635 
5.429999999999929 330.4711668398062 
5.439999999999928 535.1389036455641 
5.449999999999928 657.622423009199 
5.459999999999928 847.9892960456076 
5.469999999999928 729.1086146782809 
5.479999999999928 431.7850995803147 
5.489999999999927 124.9371704517028 
5.499999999999927 -240.5942968403457 
5.509999999999927 -507.974668379642 
5.519999999999927 -604.785861506267 
5.529999999999927 -668.4554796369724 
5.539999999999926 -589.686728805802 
5.549999999999926 -527.6910686062142 
5.559999999999926 -517.9021662684633 
5.569999999999926 -526.0245498019511 
5.579999999999926 -590.343066333679 
5.589999999999925 -638.4090917282244 
5.599999999999925 -548.3005463816415 
5.609999999999925 -334.4372521608552 
5.619999999999925 -79.23900762017446 
5.629999999999924 151.6582922547469 
5.639999999999924 120.1494462077364 
5.649999999999924 167.5022661182692 
5.659999999999924 186.1706830412585 
5.669999999999924 204.199086612533 
5.679999999999923 344.5952871430895 
5.689999999999923 452.2095194697445 
5.699999999999923 622.3951978720459 
5.709999999999923 791.2036415152325 
5.719999999999923 821.3827447884569 
5.729999999999922 739.4943665981801 
5.739999999999922 513.5740869180027 
5.749999999999922 269.5525108511816 
5.759999999999922 104.4521641669927 
5.769999999999921 -29.25661013193167 
5.779999999999921 -156.1145260680745 
5.789999999999921 -254.1172062916838 
5.799999999999921 -474.270956419689 
5.809999999999921 -670.6162581426432 
5.81999999999992 -777.1022914307334 
5.82999999999992 -789.2976791503602 
5.83999999999992 -674.9920702219871 
5.84999999999992 -514.213985421395 
5.85999999999992 -364.796576120577 
5.869999999999919 -126.545925014864 
5.879999999999919 -15.72979118741444 
5.889999999999919 16.04570349016198 
5.899999999999919 -12.92794217360666 
5.909999999999918 -22.21285689314549 
5.919999999999918 74.1120265298602 
5.929999999999918 197.8126643459943 
5.939999999999918 394.5754982742056 
5.949999999999918 502.063721259629 
5.959999999999917 537.3375590985348 
5.969999999999917 504.3622718460553 
5.979999999999917 546.0967906333962 
5.989999999999917 541.3977311305752 
5.999999999999917 548.8774928155691 
6.009999999999916 545.0500087399246 
6.019999999999916 491.2471246535006 
6.029999999999916 372.3395181241272 
6.039999999999916 140.016616564694 
6.049999999999915 -144.1833748023613 
6.059999999999915 -427.2901449007786 
6.069999999999915 -648.662033739641 
6.079999999999915 -709.1226858266311 
6.089999999999915 -643.3478144005057 
6.099999999999914 -566.5278988981667 
6.109999999999914 -494.5167634151489 
6.119999999999914 -477.1359329284724 
6.129999999999914 -467.0214447289709 
6.139999999999914 -456.9196806938698 
6.149999999999913 -394.1817293438288 
6.159999999999913 -291.8636573693111 
6.169999999999913 -160.8525737827282 
6.179999999999913 -37.56668225102715 
6.189999999999913 52.02333376141186 
6.199999999999912 106.234344041827 
6.209999999999912 76.30956204852427 
6.219999999999912 65.29750634877237 
6.229999999999912 111.2562774708828 
6.239999999999911 278.0191293694546 
6.249999999999911 536.4398986051635 
6.259999999999911 742.3858411747331 
6.269999999999911 858.6964936795474 
6.279999999999911 831.2855001626857 
6.28999999999991 726.8784570995238 
6.29999999999991 554.0960156921517 
6.30999999999991 357.8527392000248 
6.31999999999991 180.942170180068 
6.32999999999991 55.82230231042375 
6.339999999999909 -23.10430534723949 
6.349999999999909 -105.6121793692372 
6.359999999999909 -202.6897118625255 
6.369999999999909 -351.7375026994859 
6.379999999999908 -485.8118746793381 
6.389999999999908 -562.9839481802915 
6.399999999999908 -553.6813249023585 
6.409999999999908 -472.0476769177083 
6.419999999999908 -385.4252950924746 
6.429999999999907 -335.9598389428214 
6.439999999999907 -359.8121177342611 
6.449999999999907 -432.4967992593478 
6.459999999999907 -489.2428266835544 
6.469999999999907 -496.2834783034526 
6.479999999999906 -444.6570490541783 
6.489999999999906 -302.0926161291366 
6.499999999999906 -72.18062970816689 
6.509999999999906 181.2387272996261 
6.519999999999905 394.8827283053735 
6.529999999999905 527.4411348901052 
6.539999999999905 591.4527053169322 
6.549999999999905 633.8553792649317 
6.559999999999905 666.622823248808 
6.569999999999904 681.0020680965133 
6.579999999999904 661.9720119579387 
6.589999999999904 583.3224299046254 
6.599999999999904 451.2587309786749 
6.609999999999904 285.5311318028089 
6.619999999999903 131.6439780249187 
6.629999999999903 -0.606940725766375 
6.639999999999903 -83.7431149467978 
6.649999999999903 -104.7893738642316 
6.659999999999902 -75.25128392787794 
6.669999999999902 -63.61944152660578 
6.679999999999902 -118.9141156627012 
6.689999999999902 -232.0768555037532 
6.699999999999902 -399.986778954641 
6.709999999999901 -575.8651208702187 
6.719999999999901 -719.1237145560207 
6.729999999999901 -802.457344159563 
6.739999999999901 -843.2225673434278 
6.749999999999901 -838.4109680037328 
6.7599999999999 -773.3617264283748 
6.7699999999999 -637.0442008279729 
6.7799999999999 -444.5592472807255 
6.7899999999999 -198.8376145204135 
6.7999999999999 85.55241326040634 
6.809999999999899 374.8313264150431 
6.819999999999899 633.6324782748673 
6.829999999999899 829.2853039053865 
6.839999999999899 926.8561884126914 
6.849999999999898 922.7831487940948 
6.859999999999898 852.6655031006246 
6.869999999999898 762.8042776137536 
6.879999999999898 682.9387716234529 
6.889999999999898 595.7398682615512 
6.899999999999897 496.9191824847536 
6.909999999999897 376.8548411754509 
6.919999999999897 244.7211613261474 
6.929999999999897 103.2186293383099 
6.939999999999897 -54.83253105112348 
6.949999999999896 -221.5616852161589 
6.959999999999896 -389.6290218910127 
6.969999999999896 -556.8213546439239 
6.979999999999896 -721.6121234172948 
6.989999999999895 -875.8934241631382 
6.999999999999895 -1010.339503280719 
7.009999999999895 -1095.697408036783 
7.019999999999895 -1092.500567962794 
7.029999999999895 -967.3923562612032 
7.039999999999894 -724.5710189028863 
7.049999999999894 -404.0610294004251 
7.059999999999894 -56.5380050326153 
7.069999999999894 263.4593188265411 
7.079999999999894 524.7263464629103 
7.089999999999893 715.2133946040991 
7.099999999999893 833.178160726642 
7.109999999999893 878.6429873258994 
7.119999999999893 868.4955212656086 
7.129999999999892 831.6313105560759 
7.139999999999892 778.8150497153828 
7.149999999999892 708.0705896458301 
7.159999999999892 607.1604906721675 
7.169999999999892 484.5355347636606 
7.179999999999891 358.6170665496298 
7.189999999999891 244.125199702693 
7.199999999999891 139.2044501062273 
7.209999999999891 29.02700309297051 
7.219999999999891 -98.06610650441778 
7.22999999999989 -250.452379265224 
7.23999999999989 -431.9446488494486 
7.24999999999989 -629.7903822780835 
7.25999999999989 -825.191109827478 
7.269999999999889 -994.373609570082 
7.279999999999889 -1100.672535660892 
7.289999999999889 -1101.866069885878 
7.299999999999889 -985.7591580361944 
7.309999999999889 -773.6297828161264 
7.319999999999888 -503.546003216968 
7.329999999999888 -213.1535217360926 
7.339999999999888 65.37659048540475 
7.349999999999888 303.9089696931943 
7.359999999999888 497.8160068896913 
7.369999999999887 642.6010202583998 
7.379999999999887 741.810221908395 
7.389999999999887 805.9129058534795 
7.399999999999887 837.4045401792956 
7.409999999999887 825.1698489048767 
7.419999999999886 753.0897676661673 
7.429999999999886 633.8262763000397 
7.439999999999886 495.34829772159 
7.449999999999886 368.9302402073983 
7.459999999999885 271.4491322082819 
7.469999999999885 207.1809455237643 
7.479999999999885 153.5533597947122 
7.489999999999885 76.40285865351063 
7.499999999999885 -44.94156036606511 
7.509999999999884 -217.2748213073462 
7.519999999999884 -428.9779780756733 
7.529999999999884 -654.8828877833995 
7.539999999999884 -849.453154816125 
7.549999999999884 -965.488047646768 
7.559999999999883 -978.0673225449471 
7.569999999999883 -897.6668449297555 
7.579999999999883 -754.0817279470355 
7.589999999999883 -574.6278884604645 
7.599999999999882 -370.9737206491337 
7.609999999999882 -148.2801711746139 
7.619999999999882 78.62769771516489 
7.629999999999882 290.7160001601262 
7.639999999999882 464.9362974218112 
7.649999999999881 585.70023785686 
7.659999999999881 645.4727601412645 
7.669999999999881 644.604497213001 
7.679999999999881 589.1534621827772 
7.689999999999881 498.1287969527565 
7.69999999999988 396.463456705537 
7.70999999999988 305.2988397371529 
7.71999999999988 233.0234848992122 
7.72999999999988 174.2105915878904 
7.739999999999879 113.8110278337619 
7.749999999999879 36.8592683647612 
7.759999999999879 -52.76526652630822 
7.769999999999879 -138.5103016374533 
7.779999999999879 -214.5448988654303 
7.789999999999878 -295.3653337583543 
7.799999999999878 -390.9350442001344 
7.809999999999878 -490.2465356090972 
7.819999999999878 -560.013148713283 
7.829999999999878 -568.3054661527243 
7.839999999999877 -498.7310023098955 
7.849999999999877 -354.3336455024858 
7.859999999999877 -143.3568884787943 
7.869999999999877 111.2597376407423 
7.879999999999876 367.0596582540466 
7.889999999999876 565.681493514305 
7.899999999999876 668.2891190136351 
7.909999999999876 670.3762939709679 
7.919999999999876 597.5928874776263 
7.929999999999875 486.2950513454583 
7.939999999999875 364.291449019887 
7.949999999999875 246.0424719402352 
7.959999999999875 135.5334824627061 
7.969999999999875 31.64484285103407 
7.979999999999874 -68.24159547390522 
7.989999999999874 -157.4340578509609 
7.999999999999874 -224.977750003994 
8.009999999999874 -267.9866648376079 
8.019999999999874 -297.1181146828939 
8.029999999999873 -319.6974608583295 
8.039999999999873 -336.1696458431069 
8.049999999999873 -352.3822847201166 
8.059999999999873 -382.6805889747776 
8.069999999999872 -428.9363623060214 
8.079999999999872 -470.2696020132936 
8.089999999999872 -476.0826643543608 
8.099999999999872 -430.8289728430405 
8.109999999999872 -339.0944653836609 
8.119999999999871 -208.6277783655304 
8.129999999999871 -46.53680965812099 
8.139999999999871 135.8594432932464 
8.149999999999871 313.621170992632 
8.159999999999871 460.7993551118406 
8.16999999999987 560.862421389934 
8.17999999999987 607.6949441206152 
8.18999999999987 597.5269052084652 
8.19999999999987 531.2055217772559 
8.209999999999869 421.7954634115982 
8.219999999999869 294.4987933871095 
8.229999999999869 174.475467536412 
8.239999999999869 72.67584160462815 
8.249999999999869 -10.4559475308579 
8.259999999999868 -75.53383817142652 
8.269999999999868 -122.1951272290425 
8.279999999999868 -154.5022814472385 
8.289999999999868 -180.4070049913356 
8.299999999999868 -201.6109106332665 
8.309999999999867 -217.3086369248163 
8.319999999999867 -232.3553024655934 
8.329999999999867 -258.9549612903059 
8.339999999999867 -302.0755844387302 
8.349999999999866 -353.4742382348759 
8.359999999999866 -396.4003561621236 
8.369999999999866 -414.0677035368451 
8.379999999999866 -388.7457100892312 
8.389999999999866 -304.0600585846993 
8.399999999999865 -154.8685272656716 
8.409999999999865 37.31662897031109 
8.419999999999865 228.3303655825722 
8.429999999999865 371.960463895676 
8.439999999999865 447.3754641600909 
8.449999999999864 462.9516361394491 
8.459999999999864 443.4771611714396 
8.469999999999864 412.3371590706705 
8.479999999999864 384.5018386914633 
8.489999999999863 365.6090221306751 
8.499999999999863 349.8360173459404 
8.509999999999863 320.3839669255575 
8.519999999999863 259.3586974481985 
8.529999999999863 166.3568659300216 
8.539999999999862 59.79781737582145 
8.549999999999862 -34.31124236995483 
8.559999999999862 -98.83993399971486 
8.569999999999862 -131.3489846653727 
8.579999999999862 -148.0589064373208 
8.589999999999861 -178.2185961434835 
8.599999999999861 -249.2543312366821 
8.609999999999861 -363.8188253348291 
8.619999999999861 -495.7298170668988 
8.62999999999986 -601.066600417273 
8.63999999999986 -643.2021938132698 
8.64999999999986 -609.1806557771147 
8.65999999999986 -513.1751447085545 
8.66999999999986 -382.0958123220908 
8.679999999999859 -243.4702066536288 
8.689999999999859 -115.7442029736286 
8.699999999999859 -4.301444116431977 
8.709999999999859 101.4882762027655 
8.719999999999859 217.2626607226525 
8.729999999999858 344.8226383024957 
8.739999999999858 464.8426788123753 
8.749999999999858 548.355087868573 
8.759999999999858 574.5193452366885 
8.769999999999858 539.5487089348227 
8.779999999999857 458.7287487874159 
8.789999999999857 362.8953477012292 
8.799999999999857 289.2910464764718 
8.809999999999857 260.8103084319537 
8.819999999999856 270.2687221923276 
8.829999999999856 281.7202180466078 
8.839999999999856 254.4112238112629 
8.849999999999856 167.4589904611277 
8.859999999999856 30.67903628951702 
8.869999999999855 -126.6592614400752 
8.879999999999855 -272.9944747653138 
8.889999999999855 -386.6258302003912 
8.899999999999855 -458.9406360843456 
8.909999999999855 -494.9665627919895 
8.919999999999854 -510.2502289526058 
8.929999999999854 -516.9045694248164 
8.939999999999854 -511.2827872213765 
8.949999999999854 -475.660542967907 
8.959999999999853 -394.5312480560423 
8.969999999999853 -264.7348918465307 
8.979999999999853 -98.69856553797638 
8.989999999999853 76.76257704979746 
8.999999999999853 223.7576549768098 
9.009999999999852 310.7995801325577 
9.019999999999852 331.6277447058853 
9.029999999999852 309.9813073081909 
9.039999999999852 281.0946805637215 
9.049999999999852 269.1326326523652 
9.059999999999851 276.064926942514 
9.069999999999851 290.332627692633 
9.079999999999851 298.129864800747 
9.089999999999851 289.5821262147603 
9.09999999999985 258.9056595807883 
9.10999999999985 208.104572613817 
9.11999999999985 147.7153831079779 
9.12999999999985 88.43628066658272 
9.13999999999985 28.54100369772772 
9.149999999999849 -45.24447846023789 
9.159999999999849 -143.6762179246437 
9.169999999999849 -262.615082103571 
9.179999999999849 -383.5068695314107 
9.189999999999849 -479.539634328574 
9.199999999999848 -522.5696417087719 
9.209999999999848 -494.4098811584034 
9.219999999999848 -400.6884309609802 
9.229999999999848 -272.1077972333563 
9.239999999999847 -146.3600669124185 
9.249999999999847 -47.76425451100756 
9.259999999999847 20.55031166078753 
9.269999999999847 69.26934976528943 
9.279999999999847 113.7369983214399 
9.289999999999846 165.1400793924325 
9.299999999999846 224.6999353018651 
9.309999999999846 279.7913599974681 
9.319999999999846 309.2808663409876 
9.329999999999846 297.3671148401282 
9.339999999999845 249.0581038061326 
9.349999999999845 189.6094773922578 
9.359999999999845 148.422133955098 
9.369999999999845 141.5126172387983 
9.379999999999845 165.8508498565969 
9.389999999999844 202.6432165786569 
9.399999999999844 222.6952515124073 
9.409999999999844 198.2681996924257 
9.419999999999844 118.5553524758678 
9.429999999999843 -1.849950235528732 
9.439999999999843 -132.0186503585383 
9.449999999999843 -241.1379533601312 
9.459999999999843 -311.4870578711181 
9.469999999999843 -342.1820850680022 
9.479999999999842 -345.1246604075152 
9.489999999999842 -333.9385459996177 
9.499999999999842 -313.3737243201551 
9.509999999999842 -277.5855957859321 
9.519999999999842 -218.9630674063009 
9.529999999999841 -138.0922583750121 
9.539999999999841 -48.5839103780735 
9.549999999999841 26.48252985540655 
9.559999999999841 65.68387337278678 
9.56999999999984 61.81236317299152 
9.57999999999984 27.09576234785989 
9.58999999999984 -11.54159788643123 
9.59999999999984 -23.10428355166267 
9.60999999999984 15.08712109837915 
9.619999999999839 105.0964279748673 
9.629999999999839 223.0981840038042 
9.639999999999839 329.650455367249 
9.649999999999839 390.1149915122552 
9.659999999999839 392.8105759478617 
9.669999999999838 350.6895058393462 
9.679999999999838 288.665532706159 
9.689999999999838 224.2626976692999 
9.699999999999838 159.8430156135359 
9.709999999999837 88.84848541350014 
9.719999999999837 7.843186117399241 
9.729999999999837 -81.41053275850912 
9.739999999999837 -172.5566628962592 
9.749999999999837 -252.9112735735402 
9.759999999999836 -303.2630699146568 
9.769999999999836 -310.7403206945764 
9.779999999999836 -280.37202771484 
9.789999999999836 -231.6572788611119 
9.799999999999836 -184.6105916980952 
9.809999999999835 -151.8839961986497 
9.819999999999835 -138.6832488067715 
9.829999999999835 -140.0336935186492 
9.839999999999835 -141.2396626479761 
9.849999999999834 -127.1691361951488 
9.859999999999834 -94.48956050442045 
9.869999999999834 -50.80987782314227 
9.879999999999834 -3.89587511939645 
9.889999999999834 45.65964416935523 
9.899999999999833 101.6848751292505 
9.909999999999833 165.6639332659628 
9.919999999999833 233.2213979660089 
9.929999999999833 294.6604548789743 
9.939999999999833 337.6917029882138 
9.949999999999832 348.8962312307275 
9.959999999999832 317.2372306331569 
9.969999999999832 240.859391835564 
9.979999999999832 133.787490075832 
9.989999999999832 20.49038910552051 
9.999999999999831 -76.63582344748259 
10.00999999999983 -145.1428573154238 
10.01999999999983 -180.1533651462404 
10.02999999999983 -183.3145076352441 
10.03999999999983 -165.2771111037436 
10.04999999999983 -143.2232285876821 
10.05999999999983 -130.0248333728645 
10.06999999999983 -127.1824018117484 
10.07999999999983 -128.571682237615 
10.08999999999983 -128.2780268622314 
10.09999999999983 -123.7802287277552 
10.10999999999983 -114.225633447133 
10.11999999999983 -98.55752368933311 
10.12999999999983 -76.27837359729466 
10.13999999999983 -48.68106439941349 
10.14999999999983 -18.48342166586669 
10.15999999999983 14.0144477197429 
10.16999999999983 50.74236631778666 
10.17999999999983 92.08806428921032 
10.18999999999983 132.6783871337752 
10.19999999999983 165.1247761097376 
10.20999999999983 183.4828213959312 
10.21999999999983 183.5211669410648 
10.22999999999983 161.9677183326279 
10.23999999999983 120.4543002647171 
10.24999999999983 67.96216975218631 
10.25999999999983 15.84478758393438 
10.26999999999983 -28.26137840544292 
10.27999999999983 -59.84453620357589 
10.28999999999983 -73.9851540066211 
10.29999999999983 -66.97501732309172 
10.30999999999983 -41.2038171840551 
10.31999999999982 -5.786081063673328 
10.32999999999982 28.29910793649179 
10.33999999999982 52.84184512011056 
10.34999999999982 63.09666977831883 
10.35999999999982 56.49975050347174 
10.36999999999982 32.2111685650946 
10.37999999999982 -7.306642700891159 
10.38999999999982 -55.70199783226114 
10.39999999999982 -104.472532715413 
10.40999999999982 -145.2056771221652 
10.41999999999982 -170.1195885542377 
10.42999999999982 -172.4334002665166 
10.43999999999982 -149.5911346773886 
10.44999999999982 -105.4243637015987 
10.45999999999982 -49.50986787109765 
10.46999999999982 6.21244599107166 
10.47999999999982 49.12061680355953 
10.48999999999982 69.87647439110245 
10.49999999999982 66.90696063583658 
10.50999999999982 48.52078752573769 
10.51999999999982 27.96889912348007 
10.52999999999982 17.00386468066792 
10.53999999999982 21.49948476809242 
10.54999999999982 39.64456098419434 
10.55999999999982 63.69424630525634 
10.56999999999982 84.94218570547629 
10.57999999999982 100.0860461752744 
10.58999999999982 110.4047184710348 
10.59999999999982 118.1339226369353 
10.60999999999982 122.5228425350783 
10.61999999999982 120.8582147306633 
10.62999999999982 108.0556190074058 
10.63999999999982 78.32240639554753 
10.64999999999982 28.96419111599407 
10.65999999999982 -35.0127536277171 
10.66999999999982 -100.2421812460546 
10.67999999999982 -150.4167249976783 
10.68999999999982 -172.8083427938821 
10.69999999999982 -164.4313918008601 
10.70999999999982 -131.7899434628807 
10.71999999999982 -87.70633901718038 
10.72999999999982 -44.84908469104423 
10.73999999999982 -12.86527735194631 
10.74999999999982 5.355554208114539 
10.75999999999982 13.18721514440795 
10.76999999999982 16.78710285480502 
10.77999999999982 17.94415302642441 
10.78999999999981 13.43029474273839 
10.79999999999981 -0.7129217744734244 
10.80999999999981 -23.83936672014887 
10.81999999999981 -50.72305921442946 
10.82999999999981 -72.5821543693751 
10.83999999999981 -79.62875950681851 
10.84999999999981 -65.61263645426118 
10.85999999999981 -32.39662900244133 
10.86999999999981 10.09167920477132 
10.87999999999981 49.14434815127635 
10.88999999999981 73.47667935290356 
10.89999999999981 77.03041652400242 
10.90999999999981 61.24405509617347 
10.91999999999981 36.29302457876968 
10.92999999999981 15.78805834777317 
10.93999999999981 10.02535739175072 
10.94999999999981 20.94125491509102 
10.95999999999981 42.47368036446905 
10.96999999999981 64.52243591475801 
10.97999999999981 79.60598566180322 
10.98999999999981 87.24591038992122 
10.99999999999981 92.08761461564852 
11.00999999999981 98.49183067894917 
11.01999999999981 107.8508503881786 
11.02999999999981 118.7622646733067 
11.03999999999981 125.3371692218238 
11.04999999999981 116.0910110581676 
11.05999999999981 79.71210741547944 
11.06999999999981 15.1937632631274 
11.07999999999981 -65.19624186780581 
11.08999999999981 -143.5364060101992 
11.09999999999981 -205.3142221570182 
11.10999999999981 -242.0933748438013 
11.11999999999981 -251.3328276181507 
11.12999999999981 -237.4581573146822 
11.13999999999981 -211.6699960345885 
11.14999999999981 -185.1605321567407 
11.15999999999981 -161.649445712763 
11.16999999999981 -136.7443912021989 
11.17999999999981 -105.5180769781048 
11.18999999999981 -68.07136064254429 
11.19999999999981 -28.20247975693251 
11.20999999999981 11.37524984689489 
11.21999999999981 50.02760029026619 
11.22999999999981 88.20469761267765 
11.23999999999981 128.8299873671057 
11.24999999999981 178.8370356932053 
11.2599999999998 243.6333797342917 
11.2699999999998 316.7282183968865 
11.2799999999998 378.7259522944113 
11.2899999999998 408.4064065386401 
11.2999999999998 394.5103342034567 
11.3099999999998 335.3360328344019 
11.3199999999998 236.4218282962115 
11.3299999999998 112.1713540469825 
11.3399999999998 -13.71506324023228 
11.3499999999998 -120.8678661392684 
11.3599999999998 -204.2747734380976 
11.3699999999998 -271.281710080203 
11.3799999999998 -327.8603406758899 
11.3899999999998 -372.3728404151707 
11.3999999999998 -399.7860225635812 
11.4099999999998 -404.3316173059029 
11.4199999999998 -379.987536126865 
11.4299999999998 -324.3813851112051 
11.4399999999998 -246.2493368704226 
11.4499999999998 -163.7894018862821 
11.4599999999998 -93.80793294547954 
11.4699999999998 -41.00768553651175 
11.4799999999998 2.544877002155857 
11.4899999999998 49.68353706457761 
11.4999999999998 110.1594744573696 
11.5099999999998 186.0960889044226 
11.5199999999998 271.5837165860283 
11.5299999999998 352.1013965910366 
11.5399999999998 408.4398806932311 
11.5499999999998 425.8615086723385 
11.5599999999998 404.185659304659 
11.5699999999998 355.9307067778794 
11.5799999999998 295.4180999727395 
11.5899999999998 229.8733623416625 
11.5999999999998 160.0558025566817 
11.6099999999998 82.81312010808506 
11.6199999999998 -6.784986702691301 
11.6299999999998 -110.351286167333 
11.6399999999998 -218.940006791419 
11.6499999999998 -313.1219752908933 
11.6599999999998 -373.3905024179853 
11.6699999999998 -391.2896850002438 
11.6799999999998 -373.1098504427339 
11.6899999999998 -334.7015034815112 
11.6999999999998 -293.1332555093872 
11.7099999999998 -258.5117126198696 
11.7199999999998 -231.0706302725992 
11.72999999999979 -202.1752928892556 
11.73999999999979 -159.0413859186874 
11.74999999999979 -91.23271503563335 
11.75999999999979 0.5478541823525084 
11.76999999999979 101.776373521191 
11.77999999999979 191.6379430607905 
11.78999999999979 255.9343603418467 
11.79999999999979 292.228606773806 
11.80999999999979 307.0278411421422 
11.81999999999979 310.4757790010838 
11.82999999999979 312.1614337775362 
11.83999999999979 314.7298434466098 
11.84999999999979 310.1296887293627 
11.85999999999979 284.1444961623268 
11.86999999999979 227.3167690409928 
11.87999999999979 141.7523329652012 
11.88999999999979 39.68517990500428 
11.89999999999979 -62.74310675077701 
11.90999999999979 -151.2564852500752 
11.91999999999979 -217.4881837917096 
11.92999999999979 -260.5082813197283 
11.93999999999979 -285.5458006008508 
11.94999999999979 -299.4471616801644 
11.95999999999979 -305.1388327415323 
11.96999999999979 -298.9994858441786 
11.97999999999979 -274.6057923266437 
11.98999999999979 -229.4594462725445 
11.99999999999979 -168.0383255248064 
12.00999999999979 -99.3438505597678 
12.01999999999979 -33.01963325775608 
12.02999999999979 23.20319056151639 
12.03999999999979 66.82439097484465 
12.04999999999979 102.6100859724965 
12.05999999999979 139.7253062365232 
12.06999999999979 183.907460431286 
12.07999999999979 232.665158985602 
12.08999999999979 276.7678239560103 
12.09999999999979 305.6713704168215 
12.10999999999979 311.6205758347586 
12.11999999999979 292.1923353444412 
12.12999999999979 250.3929660268499 
12.13999999999979 192.9903614716928 
12.14999999999979 127.5680986643323 
12.15999999999979 59.48582287109053 
12.16999999999979 -9.028844814728533 
12.17999999999979 -78.1266539415433 
12.18999999999979 -145.9520006058728 
12.19999999999978 -206.416990991237 
12.20999999999978 -250.3741359702555 
12.21999999999978 -271.2323147040216 
12.22999999999978 -267.5621324163919 
12.23999999999978 -243.7424701624917 
12.24999999999978 -208.0522868183969 
12.25999999999978 -171.0747844295597 
12.26999999999978 -140.595681045089 
12.27999999999978 -117.4163865560276 
12.28999999999978 -94.87103396397188 
12.29999999999978 -65.17587051275532 
12.30999999999978 -26.07960394227797 
12.31999999999978 16.96726063764581 
12.32999999999978 55.61982182948827 
12.33999999999978 84.35422325281576 
12.34999999999978 102.8752625769284 
12.35999999999978 114.9300108315157 
12.36999999999978 127.1942958402764 
12.37999999999978 146.9002960761016 
12.38999999999978 176.0660130567853 
12.39999999999978 205.8580277227099 
12.40999999999978 219.3253362973437 
12.41999999999978 201.7568156499467 
12.42999999999978 149.9974718069275 
12.43999999999978 74.29655615970506 
12.44999999999978 -5.512340296738294 
12.45999999999978 -67.10991846936574 
12.46999999999978 -96.04364370709054 
12.47999999999978 -93.63615281907168 
12.48999999999978 -75.83806558917901 
12.49999999999978 -61.57141388854186 
12.50999999999978 -61.9532360313892 
12.51999999999978 -76.45665485548255 
12.52999999999978 -97.1722802370134 
12.53999999999978 -113.5685208428052 
12.54999999999978 -117.4838518158287 
12.55999999999978 -106.4375031055279 
12.56999999999978 -86.22655568780199 
12.57999999999978 -68.26142070447166 
12.58999999999978 -61.58406984175863 
12.59999999999978 -64.30638959850045 
12.60999999999978 -63.55804685361605 
12.61999999999978 -44.50224654796167 
12.62999999999978 -0.8771685009744967 
12.63999999999978 61.20586894000772 
12.64999999999978 125.9667341575288 
12.65999999999978 174.1454783661535 
12.66999999999977 191.9417263434462 
12.67999999999977 178.2265108537623 
12.68999999999977 144.8817448018645 
12.69999999999977 108.0920818472526 
12.70999999999977 78.9551439750522 
12.71999999999977 59.30376812336745 
12.72999999999977 44.00665332956331 
12.73999999999977 25.82773363618658 
12.74999999999977 0.8683795391276706 
12.75999999999977 -28.55239514143715 
12.76999999999977 -54.81230851533493 
12.77999999999977 -68.97079738399002 
12.78999999999977 -66.25187996478501 
12.79999999999977 -51.05856777325197 
12.80999999999977 -38.28190580001527 
12.81999999999977 -45.65167120865301 
12.82999999999977 -81.09047577017277 
12.83999999999977 -135.1730869318978 
12.84999999999977 -186.1004926316729 
12.85999999999977 -211.074922681317 
12.86999999999977 -196.3173624043389 
12.87999999999977 -142.418695623769 
12.88999999999977 -65.09866572766913 
12.89999999999977 11.56291736788924 
12.90999999999977 67.41758227331428 
12.91999999999977 96.15205007954108 
12.92999999999977 105.3371231175998 
12.93999999999977 109.2924561626615 
12.94999999999977 120.5575825038327 
12.95999999999977 143.7443202224235 
12.96999999999977 172.531773814474 
12.97999999999977 192.1145723812654 
12.98999999999977 187.3693981172506 
12.99999999999977 153.460080946325 
13.00999999999977 100.2865201047434 
13.01999999999977 47.44400708072163 
13.02999999999977 11.3747001143938 
13.03999999999977 -3.754386813354125 
13.04999999999977 -6.827800661394269 
13.05999999999977 -12.5839825541864 
13.06999999999977 -34.18004065874837 
13.07999999999977 -76.72725853861485 
13.08999999999977 -133.6529307524053 
13.09999999999977 -188.4012734216821 
13.10999999999977 -223.5470269188435 
13.11999999999977 -230.8059407895366 
13.12999999999977 -213.5795164541677 
13.13999999999976 -181.7013234696758 
13.14999999999976 -144.6926571632991 
13.15999999999976 -107.8022476168001 
13.16999999999976 -70.39128132765222 
13.17999999999976 -26.87256097679055 
13.18999999999976 28.34318270146028 
13.19999999999976 94.26653123286057 
13.20999999999976 159.8493750549499 
13.21999999999976 208.1536971046053 
13.22999999999976 225.6116792503728 
13.23999999999976 210.8910554447341 
13.24999999999976 175.5931979305987 
13.25999999999976 137.0359562702824 
13.26999999999976 108.4458075999607 
13.27999999999976 93.72212967201325 
13.28999999999976 87.17070725482537 
13.29999999999976 77.39753456028544 
13.30999999999976 53.72768334290787 
13.31999999999976 13.7507802571028 
13.32999999999976 -34.5038530427455 
13.33999999999976 -77.61875127978837 
13.34999999999976 -105.9024038424297 
13.35999999999976 -118.5237991780271 
13.36999999999976 -122.9800691022201 
13.37999999999976 -130.2835434786472 
13.38999999999976 -148.754296526492 
13.39999999999976 -177.7829458605262 
13.40999999999976 -205.1000169090923 
13.41999999999976 -211.7684095582648 
13.42999999999976 -183.3830190237426 
13.43999999999976 -119.9300923233911 
13.44999999999976 -36.15861975356142 
13.45999999999976 46.59995208961112 
13.46999999999976 110.6273678904618 
13.47999999999976 147.9337291381262 
13.48999999999976 161.7754085185323 
13.49999999999976 163.2713868483564 
13.50999999999976 164.2185461413648 
13.51999999999976 169.1547757022967 
13.52999999999976 173.4289888278447 
13.53999999999976 167.6963274437233 
13.54999999999976 145.1023646364357 
13.55999999999976 105.1652571905004 
13.56999999999976 54.80894303494696 
13.57999999999976 5.911983506866045 
13.58999999999976 -29.92280106253472 
13.59999999999976 -48.28618288769875 
13.60999999999975 -54.93649478336529 
13.61999999999975 -62.20323814589002 
13.62999999999975 -80.81597137283109 
13.63999999999975 -113.3374542242964 
13.64999999999975 -152.9359402023355 
13.65999999999975 -187.5131539883004 
13.66999999999975 -205.5692495650594 
13.67999999999975 -200.8492564148115 
13.68999999999975 -173.8662572819954 
13.69999999999975 -130.5279776994692 
13.70999999999975 -78.59201670909077 
13.71999999999975 -24.2125394262023 
13.72999999999975 29.02227843236608 
13.73999999999975 79.48213935283121 
13.74999999999975 125.8485254744318 
13.75999999999975 166.147927550473 
13.76999999999975 195.8686513317316 
13.77999999999975 209.0134100565491 
13.78999999999975 201.7192682848757 
13.79999999999975 176.7128544313086 
13.80999999999975 142.3308174997125 
13.81999999999975 107.8824457012703 
13.82999999999975 79.65623733901509 
13.83999999999975 59.35696170990853 
13.84999999999975 44.09869084409505 
13.85999999999975 27.40496930641259 
13.86999999999975 3.588382141388276 
13.87999999999975 -28.2870522548981 
13.88999999999975 -63.88659823868145 
13.89999999999975 -97.44589401711228 
13.90999999999975 -124.6259676258577 
13.91999999999975 -143.7937752327097 
13.92999999999975 -155.4169669199736 
13.93999999999975 -162.0015295055565 
13.94999999999975 -166.0573109788424 
13.95999999999975 -168.0306375962908 
13.96999999999975 -164.0104070216175 
13.97999999999975 -147.5084429066047 
13.98999999999975 -113.6356441571164 
13.99999999999975 -63.95845942056311 
14.00999999999975 -6.252977581592412 
14.01999999999975 49.01760808640668 
14.02999999999975 92.83949018505446 
14.03999999999975 119.9818851384039 
14.04999999999975 130.9062876182427 
14.05999999999975 131.7220886822867 
14.06999999999974 129.8256231438486 
14.07999999999974 128.4538900791552 
14.08999999999974 125.5197825746006 
14.09999999999974 117.2254774628977 
14.10999999999974 101.3463447104738 
14.11999999999974 78.07990784410039 
14.12999999999974 50.60583734498745 
14.13999999999974 25.130189024266 
14.14999999999974 8.143621109594486 
14.15999999999974 1.875838703001599 
14.16999999999974 1.822493687818841 
14.17999999999974 -0.9538574514314344 
14.18999999999974 -15.12102933244061 
14.19999999999974 -43.93289158162772 
14.20999999999974 -83.07790616057399 
14.21999999999974 -121.9803024862035 
14.22999999999974 -148.6665523098027 
14.23999999999974 -154.8585227167905 
14.24999999999974 -139.8677281150348 
14.25999999999974 -110.8326801599721 
14.26999999999974 -78.62766288086331 
14.27999999999974 -51.28390563988751 
14.28999999999974 -30.34837204156517 
14.29999999999974 -12.13900201821457 
14.30999999999974 8.391915764019952 
14.31999999999974 34.56457322782564 
14.32999999999974 65.14329094370619 
14.33999999999974 93.30686203084144 
14.34999999999974 109.5264532649253 
14.35999999999974 107.7634699774097 
14.36999999999974 89.96958718597227 
14.37999999999974 65.39578307632503 
14.38999999999974 46.22069859966976 
14.39999999999974 41.87437448856166 
14.40999999999974 54.17654384260116 
14.41999999999974 75.66765165883194 
14.42999999999974 93.06558506748847 
14.43999999999974 94.28336396977865 
14.44999999999974 74.59117068170656 
14.45999999999974 38.52447107495596 
14.46999999999974 -3.541930815351579 
14.47999999999974 -41.37910296507381 
14.48999999999974 -69.91775920813491 
14.49999999999974 -89.85016384779542 
14.50999999999974 -105.2988679007979 
14.51999999999974 -120.4838965984101 
14.52999999999974 -136.2807787396536 
14.53999999999973 -147.8131867093287 
14.54999999999973 -145.9364725227933 
14.55999999999973 -123.5481609852166 
14.56999999999973 -81.54072387936402 
14.57999999999973 -29.46155745381171 
14.58999999999973 18.908995817554 
14.59999999999973 50.85510006859229 
14.60999999999973 59.67250448815874 
14.61999999999973 48.57153716788106 
14.62999999999973 30.6227307063976 
14.63999999999973 21.99372781688859 
14.64999999999973 31.88757101380042 
14.65999999999973 57.52283562445682 
14.66999999999973 87.56485671756148 
14.67999999999973 110.054022222763 
14.68999999999973 117.7232679386605 
14.69999999999973 109.7982683627358 
14.70999999999973 91.51728552737927 
14.71999999999973 71.8207826044648 
14.72999999999973 57.4476436776797 
14.73999999999973 47.47570437821246 
14.74999999999973 33.70542824899332 
14.75999999999973 7.464497466367764 
14.76999999999973 -33.60179572173518 
14.77999999999973 -83.66214652538068 
14.78999999999973 -130.3710352417727 
14.79999999999973 -158.9798770391212 
14.80999999999973 -158.7413896737431 
14.81999999999973 -130.1645213822074 
14.82999999999973 -86.34590470887369 
14.83999999999973 -45.77252220944781 
14.84999999999973 -21.30992351928367 
14.85999999999973 -14.66631637801124 
14.86999999999973 -18.46061618687966 
14.87999999999973 -22.2255872368453 
14.88999999999973 -17.5635984558828 
14.89999999999973 -1.736549860212075 
14.90999999999973 20.43775937597721 
14.91999999999973 39.23358486765012 
14.92999999999973 46.89777390635199 
14.93999999999973 43.8965854670104 
14.94999999999973 37.91317608851061 
14.95999999999973 38.18903046587319 
14.96999999999973 50.25977737648721 
14.97999999999973 73.90996216381258 
14.98999999999973 101.3766636367035 
14.99999999999973 118.8900410289766 
15.00999999999972 113.5718746085688 
15.01999999999972 82.86588936323386 
15.02999999999972 36.52848181712103 
15.03999999999972 -9.43116128041143 
15.04999999999972 -41.48508600722826 
15.05999999999972 -53.45321401768585 
15.06999999999972 -48.11316567341459 
15.07999999999972 -34.98539951160323 
15.08999999999972 -24.87163089783283 
15.09999999999972 -23.72883696520704 
15.10999999999972 -30.49533179637309 
15.11999999999972 -39.2469320717657 
15.12999999999972 -43.39854072536193 
15.13999999999972 -39.65551302792053 
15.14999999999972 -30.218379709778 
15.15999999999972 -21.58733488652062 
15.16999999999972 -20.27056253272497 
15.17999999999972 -28.79230276491724 
15.18999999999972 -43.51971948678779 
15.19999999999972 -55.89513950238253 
15.20999999999972 -56.13260468611189 
15.21999999999972 -39.70572691186623 
15.22999999999972 -10.67014382375155 
15.23999999999972 20.14020335479284 
15.24999999999972 42.02475455739297 
15.25999999999972 49.67370070515418 
15.26999999999972 45.26433750616475 
15.27999999999972 36.12284428667676 
15.28999999999972 30.39078984309871 
15.29999999999972 32.25268087728612 
15.30999999999972 39.96724280511786 
15.31999999999972 47.18092739595073 
15.32999999999972 46.39200462007739 
15.33999999999972 33.52170799514715 
15.34999999999972 11.19838468958754 
15.35999999999972 -11.85704329445073 
15.36999999999972 -26.13975032676061 
15.37999999999972 -26.65794729878186 
15.38999999999972 -15.09376457409664 
15.39999999999972 1.052254108356522 
15.40999999999972 10.98766340115594 
15.41999999999972 6.307152617067353 
15.42999999999972 -12.70125905098305 
15.43999999999972 -36.40842294677854 
15.44999999999972 -52.8209056384388 
15.45999999999972 -55.2782980187731 
15.46999999999972 -44.36308743334384 
15.47999999999971 -25.75482388021413 
15.48999999999971 -7.596498298174651 
15.49999999999971 2.894713525366838 
15.50999999999971 4.158504436906346 
15.51999999999971 1.793246686876091 
15.52999999999971 4.155987992453704 
15.53999999999971 15.7046187357152 
15.54999999999971 34.21907486063739 
15.55999999999971 52.41719066951245 
15.56999999999971 61.3935240418532 
15.57999999999971 54.53909120995483 
15.58999999999971 31.37487855102745 
15.59999999999971 -0.7311466995774654 
15.60999999999971 -29.44518092807756 
15.61999999999971 -43.90919309927868 
15.62999999999971 -40.59644007428148 
15.63999999999971 -24.30883672625921 
15.64999999999971 -4.015418167588754 
15.65999999999971 12.43622364356378 
15.66999999999971 21.08133667907586 
15.67999999999971 21.88914873211322 
15.68999999999971 17.94910224597863 
15.69999999999971 13.374119507825 
15.70999999999971 10.07353991947822 
15.71999999999971 6.157498510495399 
15.72999999999971 -1.44396704413148 
15.73999999999971 -13.00261504228655 
15.74999999999971 -25.02323473079768 
15.75999999999971 -32.29259369325227 
15.76999999999971 -30.20466630202338 
15.77999999999971 -16.83836131546941 
15.78999999999971 5.048377232965608 
15.79999999999971 27.60393664709724 
15.80999999999971 41.57416009201309 
15.81999999999971 41.14078460090443 
15.82999999999971 27.01636985105355 
15.83999999999971 5.321917418795064 
15.84999999999971 -15.38666419478088 
15.85999999999971 -28.84164132965136 
15.86999999999971 -33.65626160032274 
15.87999999999971 -33.08608990804095 
15.88999999999971 -31.2194128731963 
15.89999999999971 -30.08722801985223 
15.90999999999971 -28.65771364845859 
15.91999999999971 -23.87170697247724 
15.92999999999971 -12.89486809760634 
15.93999999999971 3.969548565997669 
15.9499999999997 21.76085368861522 
15.9599999999997 32.99602458180696 
15.9699999999997 31.96929806762295 
15.9799999999997 18.18997457031336 
15.9899999999997 -3.156467620243401 
15.9999999999997 -23.04452098696228 
16.0099999999997 -32.40802835877889 
16.01999999999971 -26.34434017687401 
16.02999999999971 -7.048393038906737 
16.03999999999971 16.94497773953976 
16.04999999999971 35.20224030019531 
16.05999999999971 41.47039893997169 
16.06999999999971 37.20974244267931 
16.07999999999971 29.7529824785235 
16.08999999999972 26.41092474974332 
16.09999999999972 29.80316631872222 
16.10999999999972 36.98085586295439 
16.11999999999972 41.63298916949651 
16.12999999999972 37.00101541285134 
16.13999999999972 19.94734163883827 
16.14999999999973 -6.07623236827472 
16.15999999999973 -31.88398413034433 
16.16999999999973 -48.26404857366368 
16.17999999999973 -50.9252464578706 
16.18999999999973 -41.89619674798803 
16.19999999999973 -27.86140634399391 
16.20999999999973 -17.93257390640947 
16.21999999999974 -19.62784369179064 
16.22999999999974 -33.65415021146313 
16.23999999999974 -52.17726082473542 
16.24999999999974 -63.34512278486815 
16.25999999999974 -59.04236860252698 
16.26999999999974 -38.93259058751713 
16.27999999999975 -9.755275696383723 
16.28999999999975 19.04455084778318 
16.29999999999975 39.5327057063847 
16.30999999999975 48.96401437694635 
16.31999999999975 50.2742110247656 
16.32999999999975 49.77374955023153 
16.33999999999976 52.91664045130497 
16.34999999999976 61.08562854776265 
16.35999999999976 70.76110351345425 
16.36999999999976 75.17811013861798 
16.37999999999976 67.70200389452235 
16.38999999999976 45.41541351311447 
16.39999999999976 11.35791001367783 
16.40999999999977 -25.97871817464124 
16.41999999999977 -56.5244018695153 
16.42999999999977 -73.81520836542916 
16.43999999999977 -78.36155145772081 
16.44999999999977 -75.99596029149461 
16.45999999999977 -73.28057529017393 
16.46999999999978 -72.87056752574782 
16.47999999999978 -72.60982233922228 
16.48999999999978 -67.35874444522278 
16.49999999999978 -53.03475433512664 
16.50999999999978 -29.58019225785523 
16.51999999999978 -1.610759142172709 
16.52999999999978 23.79394593096515 
16.53999999999979 40.25877418399348 
16.54999999999979 44.80103195420947 
16.55999999999979 39.76604796740886 
16.56999999999979 32.43901917175496 
16.57999999999979 31.53090630137228 
16.58999999999979 41.55967987006588 
16.5999999999998 60.14975000036711 
16.6099999999998 79.43064352670633 
16.6199999999998 90.55888927812808 
16.6299999999998 87.40338556259466 
16.6399999999998 69.49355663415084 
16.6499999999998 42.24052402967153 
16.65999999999981 14.14788990439707 
16.66999999999981 -8.614052238078001 
16.67999999999981 -25.11965461046427 
16.68999999999981 -38.24446122068684 
16.69999999999981 -50.7607760946857 
16.70999999999981 -63.10319213140486 
16.71999999999981 -73.39914570322097 
16.72999999999982 -78.24717759138071 
16.73999999999982 -73.97580773398471 
16.74999999999982 -58.80838400588397 
16.75999999999982 -35.08058642243422 
16.76999999999982 -9.166425453210094 
16.77999999999982 11.3250690851154 
16.78999999999983 21.53836120092036 
16.79999999999983 21.46365385592193 
16.80999999999983 15.66151879043149 
16.81999999999983 10.4934896031714 
16.82999999999983 11.18589340751279 
16.83999999999983 19.07530647383202 
16.84999999999983 31.23401941555119 
16.85999999999984 42.06316787499677 
16.86999999999984 46.97363028767758 
16.87999999999984 44.58989247157304 
16.88999999999984 36.86708696887005 
16.89999999999984 26.68959381714425 
16.90999999999984 16.24666640843203 
16.91999999999985 6.004450201472849 
16.92999999999985 -4.773178151478088 
16.93999999999985 -17.49352773288632 
16.94999999999985 -32.97232188401434 
16.95999999999985 -50.63954645723165 
16.96999999999985 -67.81027926214182 
16.97999999999986 -80.03017950831453 
16.98999999999986 -82.42623493263442 
16.99999999999986 -72.31190959883577 
17.00999999999986 -51.28040014009582 
17.01999999999986 -24.83422081266434 
17.02999999999986 0.1935608684612177 
17.03999999999986 18.87283990195399 
17.04999999999987 29.46794360864669 
17.05999999999987 33.46757494773582 
17.06999999999987 34.0443329199226 
17.07999999999987 34.62530373162566 
17.08999999999987 37.13779947558698 
17.09999999999987 41.86792091453536 
17.10999999999988 47.63334649063865 
17.11999999999988 52.67721361414826 
17.12999999999988 54.95852466444607 
17.13999999999988 53.2073228668766 
17.14999999999988 47.68113289731881 
17.15999999999988 40.09415621118123 
17.16999999999988 31.96886565857583 
17.17999999999989 23.39179692761814 
17.18999999999989 13.25892467160245 
17.19999999999989 0.5168914945183133 
17.20999999999989 -14.98514942685942 
17.21999999999989 -32.45209158065917 
17.22999999999989 -49.87004477667299 
17.2399999999999 -64.43872751003828 
17.2499999999999 -73.50628176229857 
17.2599999999999 -75.98029313202623 
17.2699999999999 -72.08072646945169 
17.2799999999999 -62.91240581094232 
17.2899999999999 -49.94409028380541 
17.29999999999991 -35.38522699271894 
17.30999999999991 -21.15411820378219 
17.31999999999991 -8.323721009512221 
17.32999999999991 3.059757234625562 
17.33999999999991 12.88698968733241 
17.34999999999991 20.92559574743951 
17.35999999999991 26.91821647359975 
17.36999999999992 30.6964125972713 
17.37999999999992 32.18705464118523 
17.38999999999992 32.16143793918445 
17.39999999999992 32.47601869339974 
17.40999999999992 34.78617762301795 
17.41999999999992 38.83633222947576 
17.42999999999993 42.37240633841744 
17.43999999999993 42.97412967785474 
17.44999999999993 39.24046904476313 
17.45999999999993 30.90265885672531 
17.46999999999993 18.14773570102678 
17.47999999999993 2.248226094973995 
17.48999999999993 -14.133723815584 
17.49999999999994 -27.37675384175366 
17.50999999999994 -35.02533526178479 
17.51999999999994 -36.82149144303996 
17.52999999999994 -34.21586225305859 
17.53999999999994 -28.845879271952 
17.54999999999994 -22.23735887324612 
17.55999999999995 -15.77711389420097 
17.56999999999995 -10.0476309573204 
17.57999999999995 -4.246953374340682 
17.58999999999995 2.547234208528417 
17.59999999999995 9.631729985874955 
17.60999999999995 15.09698631052499 
17.61999999999996 17.89900280729041 
17.62999999999996 18.47586600709461 
17.63999999999996 17.37768952875117 
17.64999999999996 14.53550445699414 
17.65999999999996 10.15766175715196 
17.66999999999996 5.517193437773493 
17.67999999999996 1.909405929004345 
17.68999999999997 -0.5183559879343075 
17.69999999999997 -2.846519385036128 
17.70999999999997 -5.918039508249398 
17.71999999999997 -9.755245604095881 
17.72999999999997 -13.73708299695256 
17.73999999999997 -17.59385900439382 
17.74999999999998 -21.11807066009292 
17.75999999999998 -23.76702006279203 
17.76999999999998 -24.79642593046803 
17.77999999999998 -24.14763446699264 
17.78999999999998 -22.19574662976096 
17.79999999999998 -18.4459328418121 
17.80999999999999 -11.62060422306013 
17.81999999999999 -1.558110735235558 
17.82999999999999 9.503030256710989 
17.83999999999999 18.66834463502367 
17.84999999999999 24.68471088474511 
17.85999999999999 28.08246407736253 
17.86999999999999 29.33282341971059 
17.88 28.26229910491591 
17.89 24.98208748660829 
17.9 20.58699437635083 
17.91 16.07539566394803 
17.92 11.50014307082745 
17.93 6.47847021426551 
17.94000000000001 1.468363694417701 
17.95000000000001 -2.451133834363243 
17.96000000000001 -4.744298981048577 
17.97000000000001 -5.732450823221448 
17.98000000000001 -5.875456543223372 
17.99000000000001 -5.687752506279266 
18.00000000000001 -6.573101989734368 
18.01000000000002 -10.43520273466531 
18.02000000000002 -17.54584856095645 
18.03000000000002 -25.58684793588996 
18.04000000000002 -31.29713291667909 
18.05000000000002 -33.13913294496707 
18.06000000000002 -31.33360494113924 
18.07000000000003 -26.45618908502205 
18.08000000000003 -18.59447516706726 
18.09000000000003 -8.452158396469175 
18.10000000000003 2.095463746270506 
18.11000000000003 11.01450081835638 
18.12000000000003 17.55330430029056 
18.13000000000004 22.15366016896131 
18.14000000000004 25.10490727618363 
18.15000000000004 26.17268893863009 
18.16000000000004 25.60065496041348 
18.17000000000004 24.80155657587012 
18.18000000000004 25.41031702071517 
18.19000000000004 27.85013115712169 
18.20000000000005 31.3081833355872 
18.21000000000005 34.41865915286222 
18.22000000000005 35.45725185311444 
18.23000000000005 32.04894758093265 
18.24000000000005 22.26073342821563 
18.25000000000005 6.360972105403204 
18.26000000000006 -12.62744996729059 
18.27000000000006 -30.82169464123047 
18.28000000000006 -45.54875393140606 
18.29000000000006 -55.82176356638047 
18.30000000000006 -61.21656844688361 
18.31000000000006 -61.40705654430915 
18.32000000000006 -56.56291501996893 
18.33000000000007 -47.74388974138634 
18.34000000000007 -36.16229657687215 
18.35000000000007 -22.62033784726945 
18.36000000000007 -8.267901533430344 
18.37000000000007 4.597202265579782 
18.38000000000007 13.41358616868044 
18.39000000000008 17.74747810667585 
18.40000000000008 19.66643009139564 
18.41000000000008 21.82271994480796 
18.42000000000008 25.85653018246608 
18.43000000000008 32.84219329735425 
18.44000000000008 43.62433751790551 
18.45000000000009 56.75545040132982 
18.46000000000009 67.62228626468765 
18.47000000000009 70.84265013728943 
18.48000000000009 64.42867049135367 
18.49000000000009 50.07635396576374 
18.50000000000009 30.62039130286503 
18.51000000000009 7.964593095242168 
18.5200000000001 -16.29939234857719 
18.5300000000001 -40.16091953246578 
18.5400000000001 -61.53402178272899 
18.5500000000001 -78.6047352422499 
18.5600000000001 -89.23174190099631 
18.5700000000001 -90.75888754395687 
18.58000000000011 -81.42627965990546 
18.59000000000011 -62.37915319445151 
18.60000000000011 -37.8905958650795 
18.61000000000011 -13.38572389893816 
18.62000000000011 6.679164217359673 
18.63000000000011 19.5623238248775 
18.64000000000011 24.41478954491381 
18.65000000000012 23.33911259181228 
18.66000000000012 21.30342162425967 
18.67000000000012 23.28796149678751 
18.68000000000012 30.50489271862259 
18.69000000000012 40.28616074927611 
18.70000000000012 49.15940985383859 
18.71000000000013 55.187521874923 
18.72000000000013 57.50230880435402 
18.73000000000013 55.54474720665397 
18.74000000000013 49.35118365479737 
18.75000000000013 39.61329164749861 
18.76000000000013 26.50313526332442 
18.77000000000014 9.252524732640925 
18.78000000000014 -12.73046220724931 
18.79000000000014 -37.84984923665856 
18.80000000000014 -62.09135588167867 
18.81000000000014 -80.29051311534778 
18.82000000000014 -88.60245915698241 
18.83000000000014 -85.79036076284643 
18.84000000000015 -73.32504069163331 
18.85000000000015 -54.69739834201212 
18.86000000000015 -34.79411593477174 
18.87000000000015 -18.36343415516311 
18.88000000000015 -7.360797775326032 
18.89000000000015 0.1206544569637191 
18.90000000000016 7.693868816077667 
18.91000000000016 17.18641979843715 
18.92000000000016 27.88864842123179 
18.93000000000016 38.25719046972196 
18.94000000000016 47.25718296754554 
18.95000000000016 54.0945120533106 
18.96000000000016 58.22869805375014 
18.97000000000017 60.19153485212108 
18.98000000000017 61.55650097298467 
18.99000000000017 63.12300870195195 
19.00000000000017 63.50358691512741 
19.01000000000017 59.8873415041149 
19.02000000000017 50.14515469752454 
19.03000000000018 33.87894509962036 
19.04000000000018 12.15459665830813 
19.05000000000018 -12.79859499736671 
19.06000000000018 -37.47783801642033 
19.07000000000018 -57.9206498774271 
19.08000000000018 -71.67420616354031 
19.09000000000019 -78.94857296023858 
19.10000000000019 -81.39009746453743 
19.11000000000019 -79.85599567603981 
19.12000000000019 -74.06588662716294 
19.13000000000019 -63.7613138975698 
19.14000000000019 -49.53829129814998 
19.15000000000019 -32.24929964182095 
19.1600000000002 -13.0941136719332 
19.1700000000002 5.653898856673548 
19.1800000000002 20.79487998023463 
19.1900000000002 30.33255368495387 
19.2000000000002 34.97192144388351 
19.2100000000002 37.32686099440625 
19.22000000000021 39.82578494459405 
19.23000000000021 44.02802934017205 
19.24000000000021 50.67164306241293 
19.25000000000021 59.26565203765982 
19.26000000000021 67.18370901475576 
19.27000000000021 70.53890138804182 
19.28000000000021 66.32549768416203 
19.29000000000022 54.05749212640136 
19.30000000000022 35.27359048630284 
19.31000000000022 12.43408079879034 
19.32000000000022 -11.89654737614843 
19.33000000000022 -35.20204251359341 
19.34000000000022 -55.40407590104219 
19.35000000000023 -71.22955085700599 
19.36000000000023 -82.29191368290334 
19.37000000000023 -88.44744093615456 
19.38000000000023 -89.16748288009217 
19.39000000000023 -83.60500059042163 
19.40000000000023 -71.53030976847477 
19.41000000000024 -54.123461193285 
19.42000000000024 -33.6514163321888 
19.43000000000024 -12.78146728806583 
19.44000000000024 5.962843999209514 
19.45000000000024 20.28396924586951 
19.46000000000024 29.01910670271188 
19.47000000000024 33.03132855074501 
19.48000000000025 35.27777905771816 
19.49000000000025 39.02864103943085 
19.50000000000025 46.11764029725683 
19.51000000000025 56.06887173227254 
19.52000000000025 66.82404667703472 
19.53000000000025 75.48106836219442 
19.54000000000026 79.18785439655167 
19.55000000000026 75.8333916760582 
19.56000000000026 65.0609314261571 
19.57000000000026 48.44095524383292 
19.58000000000026 28.76663723474314 
19.59000000000026 8.512212848493048 
19.60000000000026 -10.77447309268247 
19.61000000000027 -28.57102711761941 
19.62000000000027 -44.9626703554061 
19.63000000000027 -60.50363036853886 
19.64000000000027 -74.97239069083221 
19.65000000000027 -86.38317699531955 
19.66000000000027 -91.24381388943218 
19.67000000000028 -87.16342124109507 
19.68000000000028 -74.64450079589047 
19.69000000000028 -56.7783851036393 
19.70000000000028 -37.2998449474843 
19.71000000000028 -19.47750033126118 
19.72000000000028 -5.550016429338631 
19.73000000000029 4.013580913678463 
19.74000000000029 11.11178287135717 
19.75000000000029 19.04459826185491 
19.76000000000029 30.31814781183856 
19.77000000000029 45.13239863333421 
19.78000000000029 61.50119123483729 
19.79000000000029 76.42342313849839 
19.8000000000003 86.81204276119654 
19.8100000000003 90.41694626475189 
19.8200000000003 86.54291802378704 
19.8300000000003 76.4477534156715 
19.8400000000003 62.21499027420062 
19.8500000000003 45.02661653804908 
19.86000000000031 24.3998319294616 
19.87000000000031 -0.2658329623595175 
19.88000000000031 -27.80450706221652 
19.89000000000031 -55.03515238219373 
19.90000000000031 -78.29211861159354 
19.91000000000031 -94.6040890889785 
19.92000000000031 -102.2855539538415 
19.93000000000032 -101.4056828522356 
19.94000000000032 -94.17896268221254 
19.95000000000032 -83.85973057454021 
19.96000000000032 -72.91448748719849 
19.97000000000032 -61.84150234503858 
19.98000000000032 -49.73972069809175 
19.99000000000033 -25.01762385981701 
20.00000000000033 -4.535589130595381 
