0.01 0.3576076512111951 
0.02 0.3571548956464832 
0.03 0.3563250316662116 
0.04 0.3551822092040148 
0.05 0.3537366723926907 
0.06000000000000001 0.3520002020002878 
0.07000000000000001 0.3500729921211969 
0.08 0.3481848176236198 
0.09 0.3466094760775726 
0.09999999999999999 0.3454180697071885 
0.11 0.3442823993801131 
0.12 0.342659890897311 
0.13 0.3402555661894654 
0.14 0.3372041589619969 
0.15 0.333811434381273 
0.16 0.3303645536862088 
0.17 0.3272766125455517 
0.18 0.3251724905209892 
0.19 0.324685125565209 
0.2 0.3262588622643953 
0.2100000000000001 0.330126929680333 
0.2200000000000001 0.336281238594499 
0.2300000000000001 0.3443952635912286 
0.2400000000000001 0.353894956170761 
0.2500000000000001 0.3641822104687498 
0.2600000000000001 0.3747142946056096 
0.2700000000000001 0.3848011829943895 
0.2800000000000001 0.393458693323193 
0.2900000000000001 0.3996787656817454 
0.3000000000000001 0.4029109160102007 
0.3100000000000001 0.4032116062563274 
0.3200000000000001 0.4008702351783575 
0.3300000000000001 0.3959264915214164 
0.3400000000000001 0.3881932232744489 
0.3500000000000001 0.3778442507133777 
0.3600000000000002 0.3658565376626874 
0.3700000000000002 0.3536932638508877 
0.3800000000000002 0.342514595254959 
0.3900000000000002 0.332674350693253 
0.4000000000000002 0.323887173009828 
0.4100000000000002 0.3158768521915858 
0.4200000000000002 0.3089852050974953 
0.4300000000000002 0.3042412969316827 
0.4400000000000002 0.3028082630302309 
0.4500000000000002 0.3052902019082414 
0.4600000000000002 0.3115329961120907 
0.4700000000000003 0.3209748952816492 
0.4800000000000003 0.332917394344334 
0.4900000000000003 0.3463541084460087 
0.5000000000000002 0.3598993060436123 
0.5100000000000002 0.3723650597346263 
0.5200000000000002 0.3834787167857728 
0.5300000000000003 0.393717109821446 
0.5400000000000003 0.4031859432602557 
0.5500000000000003 0.4107858286823278 
0.5600000000000003 0.4148158632385455 
0.5700000000000003 0.4145175546559357 
0.5800000000000003 0.4108636534902307 
0.5900000000000003 0.405807701281458 
0.6000000000000003 0.4009967252971528 
0.6100000000000003 0.3972034060766216 
0.6200000000000003 0.3944436624595153 
0.6300000000000003 0.392067735305953 
0.6400000000000004 0.3888153185386815 
0.6500000000000004 0.3832834981767736 
0.6600000000000004 0.3745818192985991 
0.6700000000000004 0.3625135046858117 
0.6800000000000004 0.347348752880295 
0.6900000000000004 0.3297998984877315 
0.7000000000000004 0.311090191082617 
0.7100000000000004 0.2924580014899217 
0.7200000000000004 0.2744283353527112 
0.7300000000000004 0.2572105765385072 
0.7400000000000004 0.2424780752394291 
0.7500000000000004 0.234494908850567 
0.7600000000000005 0.2383920843407462 
0.7700000000000005 0.2563986334754447 
0.7800000000000005 0.2856300568059111 
0.7900000000000005 0.3198059596819231 
0.8000000000000005 0.3531373439220657 
0.8100000000000005 0.382611437486417 
0.8200000000000005 0.4072836673728995 
0.8300000000000005 0.4266067757299444 
0.8400000000000005 0.4400836802557298 
0.8500000000000005 0.4480852661347855 
0.8600000000000005 0.4521387176890772 
0.8700000000000006 0.4538562670383189 
0.8800000000000006 0.4533177622970132 
0.8900000000000006 0.4484476620625627 
0.9000000000000006 0.4364034964105505 
0.9100000000000006 0.4164108986479591 
0.9200000000000006 0.3916830069353233 
0.9300000000000006 0.3680145390811185 
0.9400000000000006 0.3494856476733049 
0.9500000000000006 0.3351058089515295 
0.9600000000000006 0.3199951601495039 
0.9700000000000006 0.3002404994278587 
0.9800000000000007 0.2766800950656577 
0.9900000000000007 0.2542270253456149 
1.000000000000001 0.2382497516065006 
1.010000000000001 0.2319673137020331 
1.020000000000001 0.2363297036828625 
1.030000000000001 0.2505727186572359 
1.040000000000001 0.2720052440573008 
1.050000000000001 0.2961158940939768 
1.060000000000001 0.3184010912941638 
1.070000000000001 0.3368986855560545 
1.080000000000001 0.3528498747923901 
1.090000000000001 0.3686544674199339 
1.100000000000001 0.3854974726861954 
1.110000000000001 0.4019600578516556 
1.120000000000001 0.414938127044013 
1.130000000000001 0.4220182646928317 
1.140000000000001 0.4236261251710811 
1.150000000000001 0.4239911303710831 
1.160000000000001 0.4292252678870152 
1.170000000000001 0.4433294782432203 
1.180000000000001 0.4647669624223407 
1.190000000000001 0.4869490565873205 
1.200000000000001 0.5018262605073389 
1.210000000000001 0.5035558218799641 
1.220000000000001 0.4896129584251693 
1.230000000000001 0.4596014597661602 
1.240000000000001 0.4144975792995294 
1.250000000000001 0.3574909722169799 
1.260000000000001 0.2945165363777162 
1.270000000000001 0.2331061827665723 
1.280000000000001 0.1796824515246629 
1.290000000000001 0.1374396297388534 
1.300000000000001 0.1072384450916089 
1.310000000000001 0.09075961276975875 
1.320000000000001 0.09204302855484113 
1.330000000000001 0.115347449844757 
1.340000000000001 0.1603644844366544 
1.350000000000001 0.2191782861356775 
1.360000000000001 0.2802318106039284 
1.370000000000001 0.3346377724975368 
1.380000000000001 0.3798510451179527 
1.390000000000001 0.4176348322531937 
1.400000000000001 0.44858883756677 
1.410000000000001 0.4705209771879827 
1.420000000000001 0.4809505931657564 
1.430000000000001 0.4802862659749965 
1.440000000000001 0.4719399957524593 
1.450000000000001 0.4595518404229056 
1.460000000000001 0.444317395116692 
1.470000000000001 0.4251420313892166 
1.480000000000001 0.4015774721603319 
1.490000000000001 0.3757131647892884 
1.500000000000001 0.3514046806767397 
1.510000000000001 0.330742928639546 
1.520000000000001 0.3119601680333665 
1.530000000000001 0.2920846182735335 
1.540000000000001 0.2714689093725171 
1.550000000000001 0.2554548897573053 
1.560000000000001 0.2505230028608561 
1.570000000000001 0.2590944624793003 
1.580000000000001 0.2779509052648317 
1.590000000000001 0.3014489326180975 
1.600000000000001 0.3252060466375249 
1.610000000000001 0.3467009329037633 
1.620000000000001 0.3642716519931379 
1.630000000000001 0.3764365377009471 
1.640000000000001 0.3822383431221861 
1.650000000000001 0.3815080398630495 
1.660000000000001 0.374879886259641 
1.670000000000001 0.3642238503130129 
1.680000000000001 0.3519303517628588 
1.690000000000001 0.3387805476883815 
1.700000000000001 0.3230008305568924 
1.710000000000001 0.3035101160292755 
1.720000000000001 0.2842353215441886 
1.730000000000001 0.2732723716858604 
1.740000000000001 0.2762727638699951 
1.750000000000001 0.2903717041981733 
1.760000000000001 0.3057589077331746 
1.770000000000001 0.313012630586951 
1.780000000000001 0.3090639905759465 
1.790000000000001 0.2973446901533891 
1.800000000000001 0.2845471379735308 
1.810000000000001 0.2775112404366951 
1.820000000000001 0.2811257090696004 
1.830000000000001 0.2965102068941694 
1.840000000000001 0.320359580355129 
1.850000000000001 0.3472026157315732 
1.860000000000001 0.3725836466799422 
1.870000000000001 0.3943591271743753 
1.880000000000001 0.4122779038379005 
1.890000000000002 0.4280774865936635 
1.900000000000002 0.4452069561428612 
1.910000000000002 0.4660872179850959 
1.920000000000002 0.4879712330126092 
1.930000000000002 0.5028103638998913 
1.940000000000002 0.5032246084483997 
1.950000000000002 0.4889036450624448 
1.960000000000002 0.4672543480974914 
1.970000000000002 0.4484002594104988 
1.980000000000002 0.4392762947791183 
1.990000000000002 0.4402117616167026 
2.000000000000001 0.4448352091473156 
2.010000000000001 0.4427614207405419 
2.020000000000001 0.4250177857050571 
2.030000000000001 0.3898792518882057 
2.040000000000001 0.3442278065299815 
2.05 0.2987227423450641 
2.06 0.262141891749953 
2.07 0.2381832274210522 
2.08 0.2261742199680627 
2.089999999999999 0.2221921008240026 
2.099999999999999 0.2197544497673987 
2.109999999999999 0.2135928094303124 
2.119999999999999 0.2037854057520147 
2.129999999999999 0.1986793020023009 
2.139999999999998 0.2104686952792887 
2.149999999999998 0.2435152081639994 
2.159999999999998 0.2902400707278331 
2.169999999999998 0.3347378665388815 
2.179999999999998 0.3624149045547833 
2.189999999999997 0.3683280755647952 
2.199999999999997 0.3556302496236222 
2.209999999999997 0.336503797966672 
2.219999999999997 0.3269911869834632 
2.229999999999996 0.3386091429061039 
2.239999999999996 0.3714131543220181 
2.249999999999996 0.4134796873497731 
2.259999999999996 0.4493771056813177 
2.269999999999996 0.4677828799418081 
2.279999999999995 0.4656579170794203 
2.289999999999995 0.4455530282757416 
2.299999999999995 0.4160764009430824 
2.309999999999995 0.3896303425933396 
2.319999999999995 0.3766223679723201 
2.329999999999994 0.3753831221179188 
2.339999999999994 0.3710517669698295 
2.349999999999994 0.3458087211014794 
2.359999999999994 0.2916919194605384 
2.369999999999993 0.2173709886272626 
2.379999999999993 0.1410284860262915 
2.389999999999993 0.0826324853376061 
2.399999999999993 0.0552520757137058 
2.409999999999993 0.06021611867628213 
2.419999999999992 0.08731151540255235 
2.429999999999992 0.1221560320112642 
2.439999999999992 0.1560989621743721 
2.449999999999992 0.190408535443122 
2.459999999999992 0.2323042256074728 
2.469999999999991 0.2896805882054119 
2.479999999999991 0.3668924102028166 
2.489999999999991 0.4624700774738328 
2.499999999999991 0.5659474356369886 
2.509999999999991 0.6570418376070351 
2.51999999999999 0.7126634621285937 
2.52999999999999 0.7202641408136885 
2.53999999999999 0.6872173826307028 
2.54999999999999 0.6307371395928562 
2.559999999999989 0.572294948844106 
2.569999999999989 0.5190894827947618 
2.579999999999989 0.4653497417142387 
2.589999999999989 0.4022586071808294 
2.599999999999989 0.3234421688864533 
2.609999999999988 0.2360985026971803 
2.619999999999988 0.1552893495202976 
2.629999999999988 0.10063120877713 
2.639999999999988 0.08473573184356499 
2.649999999999988 0.1089611396190317 
2.659999999999987 0.1605518612344468 
2.669999999999987 0.218647771186772 
2.679999999999987 0.263522755080221 
2.689999999999987 0.2849321408918304 
2.699999999999986 0.2836529472976725 
2.709999999999986 0.2725391918782023 
2.719999999999986 0.2701424840268996 
2.729999999999986 0.288941717600543 
2.739999999999986 0.3281012022691422 
2.749999999999985 0.3736237842772555 
2.759999999999985 0.4095825497647495 
2.769999999999985 0.4299234273077111 
2.779999999999985 0.4424134870453026 
2.789999999999985 0.4600907707997021 
2.799999999999984 0.492054610178319 
2.809999999999984 0.5351242508452524 
2.819999999999984 0.5758568944245047 
2.829999999999984 0.5993952481155852 
2.839999999999983 0.5978961015852701 
2.849999999999983 0.5714997248138494 
2.859999999999983 0.5270656142136458 
2.869999999999983 0.4735218747547959 
2.879999999999983 0.4212411704313646 
2.889999999999982 0.3800948967447593 
2.899999999999982 0.3534210591445961 
2.909999999999982 0.3353125264867278 
2.919999999999982 0.3145047140674286 
2.929999999999982 0.2813820070100759 
2.939999999999981 0.2360026915590362 
2.949999999999981 0.1883967971309564 
2.959999999999981 0.150357102152783 
2.969999999999981 0.125937090572973 
2.97999999999998 0.1088898270681702 
2.98999999999998 0.08936570309830703 
2.99999999999998 0.06236984403025837 
3.00999999999998 0.03242451271845184 
3.01999999999998 0.01035186874848962 
3.029999999999979 0.009383736453132252 
3.039999999999979 0.03881570481090513 
3.049999999999979 0.09956084761431402 
3.059999999999979 0.1842795163057536 
3.069999999999979 0.2805553695912634 
3.079999999999978 0.373837532352287 
3.089999999999978 0.4503131708664908 
3.099999999999978 0.5008427637834858 
3.109999999999978 0.5258721345354807 
3.119999999999978 0.5360155538804047 
3.129999999999977 0.5452348575099378 
3.139999999999977 0.5599871219982089 
3.149999999999977 0.5745646659008371 
3.159999999999977 0.5762130916184459 
3.169999999999976 0.5559875303785256 
3.179999999999976 0.5163275930884166 
3.189999999999976 0.4691205983247764 
3.199999999999976 0.4276842218509243 
3.209999999999976 0.3977316279096089 
3.219999999999975 0.374299238592643 
3.229999999999975 0.3456601859389677 
3.239999999999975 0.3024664899390315 
3.249999999999975 0.2432508677402522 
3.259999999999975 0.1749633746139447 
3.269999999999974 0.1097887867176463 
3.279999999999974 0.0612122483712023 
3.289999999999974 0.0420455921405663 
3.299999999999974 0.0615410515901859 
3.309999999999973 0.1214018143072845 
3.319999999999973 0.2140783046823192 
3.329999999999973 0.327419469303421 
3.339999999999973 0.4502467106381687 
3.349999999999973 0.579295651071451 
3.359999999999972 0.7204014291544165 
3.369999999999972 0.8758668258563318 
3.379999999999972 1.038473361887863 
3.389999999999972 1.19067878511702 
3.399999999999972 1.313705362959148 
3.409999999999971 1.400199756709547 
3.419999999999971 1.453156315266686 
3.429999999999971 1.484199203582353 
3.439999999999971 1.504941908975592 
3.44999999999997 1.522637888002271 
3.45999999999997 1.538248471943818 
3.46999999999997 1.547792855505752 
3.47999999999997 1.544813452749774 
3.48999999999997 1.519606816856307 
3.499999999999969 1.464973809732696 
3.509999999999969 1.380165779882264 
3.519999999999969 1.276524895434288 
3.529999999999969 1.171780413781638 
3.539999999999969 1.078674232287421 
3.549999999999968 1.000656145375049 
3.559999999999968 0.9349905760130879 
3.569999999999968 0.8800218248298851 
3.579999999999968 0.8391389655671986 
3.589999999999967 0.8224918909814986 
3.599999999999967 0.8429750677936893 
3.609999999999967 0.9078492662599776 
3.619999999999967 1.013330583542892 
3.629999999999967 1.146072590294406 
3.639999999999966 1.289805886561162 
3.649999999999966 1.429205493031893 
3.659999999999966 1.551183067807346 
3.669999999999966 1.648933411180523 
3.679999999999966 1.723178328826417 
3.689999999999965 1.778957300884711 
3.699999999999965 1.818908657439839 
3.709999999999965 1.838762242244689 
3.719999999999965 1.824245757877401 
3.729999999999965 1.756289738965301 
3.739999999999964 1.620682532060561 
3.749999999999964 1.412642173062311 
3.759999999999964 1.137518698038011 
3.769999999999964 0.8029233777863939 
3.779999999999963 0.4172379576885772 
3.789999999999963 -0.01002528676840102 
3.799999999999963 -0.4700104737369366 
3.809999999999963 -0.953840550332669 
3.819999999999963 -1.448895438685775 
3.829999999999962 -1.937296082744329 
3.839999999999962 -2.399694221910205 
3.849999999999962 -2.810851485604753 
3.859999999999962 -3.140895943302515 
3.869999999999962 -3.367207711092159 
3.879999999999961 -3.477515856918197 
3.889999999999961 -3.472444699684564 
3.899999999999961 -3.364700932030648 
3.909999999999961 -3.171263689174007 
3.91999999999996 -2.907478962574047 
3.92999999999996 -2.580300931166295 
3.93999999999996 -2.192196191122678 
3.94999999999996 -1.744691506419252 
3.95999999999996 -1.238154981399694 
3.969999999999959 -0.6732022095098181 
3.979999999999959 -0.05345978006052219 
3.989999999999959 0.6107741791563844 
3.999999999999959 1.300222405311 
4.009999999999959 1.979990205200008 
4.019999999999959 2.602891266683352 
4.029999999999959 3.124396096584967 
4.039999999999958 3.51472648218632 
4.049999999999958 3.768940520408159 
4.059999999999958 3.894848499451532 
4.069999999999958 3.88425485732152 
4.079999999999957 3.720508015014754 
4.089999999999957 3.391438497721625 
4.099999999999957 2.898824205748531 
4.109999999999957 2.259785970754778 
4.119999999999957 1.49275772491547 
4.129999999999956 0.6290393024359761 
4.139999999999956 -0.2849398405812803 
4.149999999999956 -1.200294677616334 
4.159999999999956 -2.074230526103297 
4.169999999999956 -2.869939904161698 
4.179999999999955 -3.550610731694479 
4.189999999999955 -4.091487691939435 
4.199999999999955 -4.493672197649386 
4.209999999999955 -4.773717993499667 
4.219999999999955 -4.941921037936838 
4.229999999999954 -4.976500876081685 
4.239999999999954 -4.8399335974422 
4.249999999999954 -4.516755373634744 
4.259999999999954 -4.023237144748778 
4.269999999999953 -3.403332244784803 
4.279999999999953 -2.704731065039113 
4.289999999999953 -1.96178039576882 
4.299999999999953 -1.189575984309167 
4.309999999999953 -0.4018381445420028 
4.319999999999952 0.3741067892461824 
4.329999999999952 1.095552741048812 
4.339999999999952 1.713460891139403 
4.349999999999952 2.19335423147182 
4.359999999999952 2.515062745328355 
4.369999999999951 2.665888002508925 
4.379999999999951 2.633468076273413 
4.389999999999951 2.425979485022785 
4.399999999999951 2.096780608225494 
4.40999999999995 1.724797646755416 
4.41999999999995 1.352396150224988 
4.42999999999995 0.9556113434787853 
4.43999999999995 0.4928984477458248 
4.44999999999995 -0.03227551062023654 
4.459999999999949 -0.5679603465012693 
4.469999999999949 -1.062687728150734 
4.479999999999949 -1.502734202638971 
4.489999999999949 -1.901604982996062 
4.499999999999949 -2.258356404594216 
4.509999999999948 -2.551734678497287 
4.519999999999948 -2.764670325368273 
4.529999999999948 -2.899487771081135 
4.539999999999948 -2.966360853529948 
4.549999999999947 -2.953052457851407 
4.559999999999947 -2.817091868495334 
4.569999999999947 -2.517991033684005 
4.579999999999947 -2.049183100215046 
4.589999999999947 -1.451886644779355 
4.599999999999946 -0.8013368170535657 
4.609999999999946 -0.1609099982633828 
4.619999999999946 0.4363765325559804 
4.629999999999946 0.978821186477581 
4.639999999999946 1.454052494053712 
4.649999999999945 1.8375352166665 
4.659999999999945 2.102518714565728 
4.669999999999945 2.242249739000907 
4.679999999999945 2.270412128369344 
4.689999999999944 2.192444486864269 
4.699999999999944 2.003040167924226 
4.709999999999944 1.703391229093073 
4.719999999999944 1.322811054853998 
4.729999999999944 0.9056748846048147 
4.739999999999943 0.4722058697402727 
4.749999999999943 0.01252688903819487 
4.759999999999943 -0.4910560627565748 
4.769999999999943 -1.038393029237467 
4.779999999999943 -1.604549518955057 
4.789999999999942 -2.152089611820232 
4.799999999999942 -2.638571881853584 
4.809999999999942 -3.018535147912697 
4.819999999999942 -3.252711367889896 
4.829999999999942 -3.321976881480045 
4.839999999999941 -3.229944009315116 
4.849999999999941 -2.986933938026392 
4.859999999999941 -2.6095435593461 
4.869999999999941 -2.122465110391594 
4.87999999999994 -1.538272334404358 
4.88999999999994 -0.8715130140466808 
4.89999999999994 -0.1522868409916797 
4.90999999999994 0.5697405236153103 
4.91999999999994 1.231482346807419 
4.929999999999939 1.790532591277134 
4.939999999999939 2.217299147598123 
4.949999999999939 2.498887587960084 
4.959999999999939 2.638354658532865 
4.969999999999939 2.652855241747987 
4.979999999999938 2.5711333324074 
4.989999999999938 2.412097672464008 
4.999999999999938 2.180876600519646 
5.009999999999938 1.863030394886249 
5.019999999999937 1.452668212007252 
5.029999999999937 0.962865224411496 
5.039999999999937 0.4256652912829514 
5.049999999999937 -0.1230613615089296 
5.059999999999937 -0.6582570731850335 
5.069999999999936 -1.156348147285408 
5.079999999999936 -1.598569988104193 
5.089999999999936 -1.963773868611024 
5.099999999999936 -2.23555661174821 
5.109999999999936 -2.406027829737177 
5.119999999999935 -2.470342524281182 
5.129999999999935 -2.423178959119613 
5.139999999999935 -2.255827310337896 
5.149999999999935 -1.969583647129576 
5.159999999999934 -1.589205266516959 
5.169999999999934 -1.15753437966005 
5.179999999999934 -0.7175926305051903 
5.189999999999934 -0.2942136656111037 
5.199999999999934 0.1046751605160999 
5.209999999999933 0.4805564061429598 
5.219999999999933 0.8289931879077738 
5.229999999999933 1.136017745006497 
5.239999999999933 1.388041433438415 
5.249999999999933 1.576429270839131 
5.259999999999932 1.698383546484804 
5.269999999999932 1.744437859383109 
5.279999999999932 1.705521542842597 
5.289999999999932 1.582617657094689 
5.299999999999931 1.389967882197321 
5.309999999999931 1.14224624381997 
5.319999999999931 0.8410895279011262 
5.329999999999931 0.4792631600535788 
5.339999999999931 0.05407014398050231 
5.34999999999993 -0.4166433986719988 
5.35999999999993 -0.8991294573266833 
5.36999999999993 -1.352760912347385 
5.37999999999993 -1.740823598075417 
5.38999999999993 -2.037325328814766 
5.399999999999929 -2.226875751383269 
5.409999999999929 -2.306768056378922 
5.419999999999929 -2.287513521791179 
5.429999999999929 -2.18835672652477 
5.439999999999928 -2.027436545135025 
5.449999999999928 -1.814467990768623 
5.459999999999928 -1.551134160566335 
5.469999999999928 -1.237921033738968 
5.479999999999928 -0.8847521389940072 
5.489999999999927 -0.5096183208922679 
5.499999999999927 -0.1314832725041177 
5.509999999999927 0.2344573609593725 
5.519999999999927 0.5785089099958863 
5.529999999999927 0.8914856492078735 
5.539999999999926 1.163824224124896 
5.549999999999926 1.386778091654313 
5.559999999999926 1.552406225754343 
5.569999999999926 1.648707240226652 
5.579999999999926 1.656695767934428 
5.589999999999925 1.555887947480669 
5.599999999999925 1.33584971790452 
5.609999999999925 1.006851821327103 
5.619999999999925 0.5969398999596002 
5.629999999999924 0.1422449437472416 
5.639999999999924 -0.3220810109047155 
5.649999999999924 -0.7670671783434124 
5.659999999999924 -1.168922879362665 
5.669999999999924 -1.507355015098279 
5.679999999999923 -1.764642856665051 
5.689999999999923 -1.927428150679799 
5.699999999999923 -1.989309481984114 
5.709999999999923 -1.950219721278961 
5.719999999999923 -1.8141690161867 
5.729999999999922 -1.591226347762106 
5.739999999999922 -1.302088726894475 
5.749999999999922 -0.9767963276695626 
5.759999999999922 -0.6446565965345089 
5.769999999999921 -0.3223152287419863 
5.779999999999921 -0.01282395311612259 
5.789999999999921 0.2836058036199288 
5.799999999999921 0.5586422758387968 
5.809999999999921 0.7952016645427447 
5.81999999999992 0.9751116977430603 
5.82999999999992 1.084588363746759 
5.83999999999992 1.114196194613562 
5.84999999999992 1.058824407228768 
5.85999999999992 0.9185447316828611 
5.869999999999919 0.6999788197733369 
5.879999999999919 0.4162584619859094 
5.889999999999919 0.08437703977171752 
5.899999999999919 -0.2786518609886783 
5.909999999999918 -0.6567896052371772 
5.919999999999918 -1.030976470551126 
5.929999999999918 -1.375774764070968 
5.939999999999918 -1.661476757383385 
5.949999999999918 -1.862397297634999 
5.959999999999917 -1.96427155535046 
5.969999999999917 -1.967019838681623 
5.979999999999917 -1.881134053335282 
5.989999999999917 -1.720250716003875 
5.999999999999917 -1.49603357856593 
6.009999999999916 -1.218149945224877 
6.019999999999916 -0.8968025892455004 
6.029999999999916 -0.5431507757122362 
6.039999999999916 -0.1688972769380379 
6.049999999999915 0.2115225279294067 
6.059999999999915 0.5782506737029601 
6.069999999999915 0.9092708894870376 
6.079999999999915 1.187712494953874 
6.089999999999915 1.405718035310835 
6.099999999999914 1.561186517860637 
6.109999999999914 1.651365368501842 
6.119999999999914 1.669317184562865 
6.129999999999914 1.606296436820883 
6.139999999999914 1.457173931196891 
6.149999999999913 1.223076477246138 
6.159999999999913 0.9117796354129698 
6.169999999999913 0.5385138696997666 
6.179999999999913 0.1260052624754478 
6.189999999999913 -0.2980121508671972 
6.199999999999912 -0.7072355144964758 
6.209999999999912 -1.083340916717277 
6.219999999999912 -1.417278992710963 
6.229999999999912 -1.705363263951071 
6.239999999999911 -1.943362908334547 
6.249999999999911 -2.123211826023923 
6.259999999999911 -2.234187902250775 
6.269999999999911 -2.268008845985158 
6.279999999999911 -2.223178264073826 
6.28999999999991 -2.105166689194856 
6.29999999999991 -1.922904813081954 
6.30999999999991 -1.6842663101855 
6.31999999999991 -1.395450034778826 
6.32999999999991 -1.0630962073134 
6.339999999999909 -0.6950996206076814 
6.349999999999909 -0.3002871603282776 
6.359999999999909 0.1098721773269609 
6.369999999999909 0.517154249612256 
6.379999999999908 0.8947557219369408 
6.389999999999908 1.21188676375709 
6.399999999999908 1.443581744402704 
6.409999999999908 1.577671165089714 
6.419999999999908 1.613877509951892 
6.429999999999907 1.558228799202838 
6.439999999999907 1.418839474934176 
6.449999999999907 1.205516893973277 
6.459999999999907 0.9301361209109915 
6.469999999999907 0.6060351884974022 
6.479999999999906 0.2473979064181845 
6.489999999999906 -0.1300685928217807 
6.499999999999906 -0.5085212858526578 
6.509999999999906 -0.8696122794403854 
6.519999999999905 -1.197482802102328 
6.529999999999905 -1.481417668944246 
6.539999999999905 -1.716182242705174 
6.549999999999905 -1.899592271241553 
6.559999999999905 -2.028478243671433 
6.569999999999904 -2.095935536398613 
6.579999999999904 -2.092415174542075 
6.589999999999904 -2.009200486923605 
6.599999999999904 -1.842079657971146 
6.609999999999904 -1.593354013935961 
6.619999999999903 -1.272393329287408 
6.629999999999903 -0.8948953890424621 
6.639999999999903 -0.4807825028010601 
6.649999999999903 -0.05160220034573762 
6.659999999999902 0.3721245674566057 
6.669999999999902 0.7722690455768088 
6.679999999999902 1.132610011744522 
6.689999999999902 1.437030821066649 
6.699999999999902 1.669317235223872 
6.709999999999901 1.816211744861289 
6.719999999999901 1.870978265554508 
6.729999999999901 1.833979659651623 
6.739999999999901 1.709863531845813 
6.749999999999901 1.504606954448952 
6.7599999999999 1.224227358692953 
6.7699999999999 0.874751210378843 
6.7799999999999 0.4630083537631026 
6.7899999999999 -0.001968434804362787 
6.7999999999999 -0.5069357906478639 
6.809999999999899 -1.032576416191459 
6.819999999999899 -1.552912820447518 
6.829999999999899 -2.037026525003487 
6.839999999999899 -2.452848492839246 
6.849999999999898 -2.771230940399946 
6.859999999999898 -2.968616510179988 
6.869999999999898 -3.028013274162243 
6.879999999999898 -2.939791021714342 
6.889999999999898 -2.703226887289118 
6.899999999999897 -2.328545962563062 
6.909999999999897 -1.838187074244712 
6.919999999999897 -1.265629864287587 
6.929999999999897 -0.6516095011971658 
6.939999999999897 -0.03909636346228104 
6.949999999999896 0.5310237833281457 
6.959999999999896 1.023160448830339 
6.969999999999896 1.409613852464043 
6.979999999999896 1.672626109253387 
6.989999999999895 1.804646413447298 
6.999999999999895 1.806071166340781 
7.009999999999895 1.682268653354751 
7.019999999999895 1.442008079563443 
7.029999999999895 1.098249778246716 
7.039999999999894 0.6692450682019689 
7.049999999999894 0.1778084588027269 
7.059999999999894 -0.3511683668769552 
7.069999999999894 -0.8933192453902925 
7.079999999999894 -1.425735077114044 
7.089999999999893 -1.926574271941394 
7.099999999999893 -2.374249510398907 
7.109999999999893 -2.747365976491915 
7.119999999999893 -3.025540090097779 
7.129999999999892 -3.190544185939703 
7.139999999999892 -3.227776727574408 
7.149999999999892 -3.128256243198123 
7.159999999999892 -2.891310604811242 
7.169999999999892 -2.526986964200817 
7.179999999999891 -2.056460336789773 
7.189999999999891 -1.50953072054763 
7.199999999999891 -0.9202507352841153 
7.209999999999891 -0.3230281083917707 
7.219999999999891 0.2494590080904927 
7.22999999999989 0.7674645967805334 
7.23999999999989 1.205821118829533 
7.24999999999989 1.545684844959237 
7.25999999999989 1.775043547750557 
7.269999999999889 1.887657803878124 
7.279999999999889 1.881649273958636 
7.289999999999889 1.759233487110358 
7.299999999999889 1.52749963317443 
7.309999999999889 1.198815295960968 
7.319999999999888 0.7898201592839697 
7.329999999999888 0.3195688382380034 
7.339999999999888 -0.1915476503717343 
7.349999999999888 -0.7215712424771021 
7.359999999999888 -1.246652013694503 
7.369999999999887 -1.7415960754625 
7.379999999999887 -2.180638858952407 
7.389999999999887 -2.537893092875492 
7.399999999999887 -2.788388479972048 
7.409999999999887 -2.910950716054841 
7.419999999999886 -2.892632002400324 
7.429999999999886 -2.732436249731873 
7.439999999999886 -2.442071146532615 
7.449999999999886 -2.043453559869331 
7.459999999999885 -1.564722464030552 
7.469999999999885 -1.03681472622555 
7.479999999999885 -0.4909728006438092 
7.489999999999885 0.04351178819726051 
7.499999999999885 0.5412771257832465 
7.509999999999884 0.9817240271144678 
7.519999999999884 1.348611586736193 
7.529999999999884 1.629544438073107 
7.539999999999884 1.816301676795906 
7.549999999999884 1.905762702005548 
7.559999999999883 1.90033062592318 
7.569999999999883 1.806982256495802 
7.579999999999883 1.634970984117991 
7.589999999999883 1.393258459923962 
7.599999999999882 1.089395434373071 
7.609999999999882 0.7309005630761121 
7.619999999999882 0.3283107664407124 
7.629999999999882 -0.1023788360994068 
7.639999999999882 -0.5396030776862657 
7.649999999999881 -0.9580332137909962 
7.659999999999881 -1.330761161658027 
7.669999999999881 -1.631357139236625 
7.679999999999881 -1.836723793929686 
7.689999999999881 -1.931089923083691 
7.69999999999988 -1.90941928945999 
7.70999999999988 -1.7779255169755 
7.71999999999988 -1.55185823632978 
7.72999999999988 -1.253137283252682 
7.739999999999879 -0.9094634265289555 
7.749999999999879 -0.5535658956946238 
7.759999999999879 -0.2200460235132527 
7.769999999999879 0.06041949696963844 
7.779999999999879 0.26669387383607 
7.789999999999878 0.3892622023520455 
7.799999999999878 0.4281082738546725 
7.809999999999878 0.3889838673372728 
7.819999999999878 0.2812908414392308 
7.829999999999878 0.1182144846978972 
7.839999999999877 -0.08318186033769216 
7.849999999999877 -0.3039440525501016 
7.859999999999877 -0.5263815241615768 
7.869999999999877 -0.7356845212932089 
7.879999999999876 -0.9190162353010565 
7.889999999999876 -1.064334727998964 
7.899999999999876 -1.161593020224027 
7.909999999999876 -1.205541050010845 
7.919999999999876 -1.196451292195114 
7.929999999999875 -1.136908594319207 
7.939999999999875 -1.027569588775678 
7.949999999999875 -0.8663522766290879 
7.959999999999875 -0.6518455623505757 
7.969999999999875 -0.3873882569582893 
7.979999999999874 -0.08254317600159286 
7.989999999999874 0.2478210760160516 
7.999999999999874 0.5848920718016537 
8.009999999999874 0.907131920096049 
8.019999999999874 1.19222460222607 
8.029999999999873 1.419892645412623 
8.039999999999873 1.574487335097193 
8.049999999999873 1.646486683316108 
8.059999999999873 1.633064219508512 
8.069999999999872 1.537847636571797 
8.079999999999872 1.369605227883164 
8.089999999999872 1.140330863971537 
8.099999999999872 0.8640738276998475 
8.109999999999872 0.5568818534388593 
8.119999999999871 0.2362663310331513 
8.129999999999871 -0.08108430383121647 
8.139999999999871 -0.3819012239895344 
8.149999999999871 -0.6566350991349836 
8.159999999999871 -0.8973739967842167 
8.16999999999987 -1.096133210243342 
8.17999999999987 -1.245429469490563 
8.18999999999987 -1.3398888221918 
8.19999999999987 -1.376694317667101 
8.209999999999869 -1.354892334002745 
8.219999999999869 -1.275217217451586 
8.229999999999869 -1.140891789238629 
8.239999999999869 -0.9582344949974703 
8.249999999999869 -0.7364644538146326 
8.259999999999868 -0.4876049359968515 
8.269999999999868 -0.2269281279559377 
8.279999999999868 0.02743606540233602 
8.289999999999868 0.2569392347377576 
8.299999999999868 0.4458419367638623 
8.309999999999867 0.5828254330748699 
8.319999999999867 0.6607147974880607 
8.329999999999867 0.6762820183808037 
8.339999999999867 0.6310908216033068 
8.349999999999866 0.5317417948030345 
8.359999999999866 0.3878690244449797 
8.369999999999866 0.209035383015637 
8.379999999999866 0.003206820333632597 
8.389999999999866 -0.22234147359858 
8.399999999999865 -0.4594133807467873 
8.409999999999865 -0.6984221015692769 
8.419999999999865 -0.9292466578790743 
8.429999999999865 -1.142610705956488 
8.439999999999865 -1.331274864969497 
8.449999999999864 -1.490345393557709 
8.459999999999864 -1.615995596968558 
8.469999999999864 -1.703035064152897 
8.479999999999864 -1.743392884644337 
8.489999999999863 -1.72734527187906 
8.499999999999863 -1.646807941035384 
8.509999999999863 -1.498139406085333 
8.519999999999863 -1.283117676668599 
8.529999999999863 -1.009217488885479 
8.539999999999862 -0.6903388195535735 
8.549999999999862 -0.3467488865191291 
8.559999999999862 -0.00214966419301061 
8.569999999999862 0.3215466138920997 
8.579999999999862 0.6082666551606009 
8.589999999999861 0.8480203957847198 
8.599999999999861 1.034277682073678 
8.609999999999861 1.161453904657724 
8.619999999999861 1.224356536759348 
8.62999999999986 1.219347097838108 
8.63999999999986 1.14608454016355 
8.64999999999986 1.008756549771964 
8.65999999999986 0.8158089563850143 
8.66999999999986 0.577800637461258 
8.679999999999859 0.3045162941475868 
8.689999999999859 0.003501634560042033 
8.699999999999859 -0.3189108503003678 
8.709999999999859 -0.6553540411755187 
8.719999999999859 -0.9959853599098764 
8.729999999999858 -1.328277714784292 
8.739999999999858 -1.63700328918138 
8.749999999999858 -1.904251608349211 
8.759999999999858 -2.110945698958314 
8.769999999999858 -2.240632738071433 
8.779999999999857 -2.283703439024224 
8.789999999999857 -2.239107491266243 
8.799999999999857 -2.112676962092831 
8.809999999999857 -1.913953511160348 
8.819999999999856 -1.654037770773394 
8.829999999999856 -1.345452006927668 
8.839999999999856 -1.003282400688397 
8.849999999999856 -0.6460683580125368 
8.859999999999856 -0.2950120330129519 
8.869999999999855 0.02894962133154148 
8.879999999999855 0.3090379736835 
8.889999999999855 0.5352346368900992 
8.899999999999855 0.7041030187549846 
8.909999999999855 0.8165119537120704 
8.919999999999854 0.8752467891300239 
8.929999999999854 0.8835768687253844 
8.939999999999854 0.8442638696472351 
8.949999999999854 0.7585978150199599 
8.959999999999853 0.6264604801701418 
8.969999999999853 0.4484755786250116 
8.979999999999853 0.229252645665175 
8.989999999999853 -0.02084959460749871 
8.999999999999853 -0.286879207990181 
9.009999999999852 -0.5522867787703484 
9.019999999999852 -0.801591549114582 
9.029999999999852 -1.021485045434699 
9.039999999999852 -1.200548578192227 
9.049999999999852 -1.328533770726387 
9.059999999999851 -1.39633307746893 
9.069999999999851 -1.397359341670769 
9.079999999999851 -1.329902191035515 
9.089999999999851 -1.198872438814442 
9.09999999999985 -1.015514892826603 
9.10999999999985 -0.7952548521450101 
9.11999999999985 -0.5551273909809311 
9.12999999999985 -0.311827475457482 
9.13999999999985 -0.08018187105966465 
9.149999999999849 0.1282896742741275 
9.159999999999849 0.3060339449757433 
9.169999999999849 0.4484952830887831 
9.179999999999849 0.5521873927640457 
9.189999999999849 0.6137035904794181 
9.199999999999848 0.6305763197824688 
9.209999999999848 0.6028275901755864 
9.219999999999848 0.5334812053754917 
9.229999999999848 0.4276080766801333 
9.239999999999847 0.2907610492411024 
9.249999999999847 0.1277634655718102 
9.259999999999847 -0.05758326834686687 
9.269999999999847 -0.261571399251648 
9.279999999999847 -0.4786416851521118 
9.289999999999846 -0.699493935400348 
9.299999999999846 -0.9106800511532174 
9.309999999999846 -1.096260157521127 
9.319999999999846 -1.240785024692819 
9.329999999999846 -1.332336765196962 
9.339999999999845 -1.364767078183977 
9.349999999999845 -1.338697436009823 
9.359999999999845 -1.260878302993424 
9.369999999999845 -1.141841690033843 
9.379999999999845 -0.9928389045861792 
9.389999999999844 -0.8237540937656209 
9.399999999999844 -0.6428585936027558 
9.409999999999844 -0.4576744996953985 
9.419999999999844 -0.2756405667084605 
9.429999999999843 -0.1040446401285924 
9.439999999999843 0.05056615255765658 
9.449999999999843 0.1832645584032329 
9.459999999999843 0.2916264767653511 
9.469999999999843 0.3758546788643704 
9.479999999999842 0.4374256607243286 
9.489999999999842 0.4767413293100758 
9.499999999999842 0.4914809601449439 
9.509999999999842 0.4770301190002798 
9.519999999999842 0.4286686161787134 
9.529999999999841 0.3438951858947861 
9.539999999999841 0.2236003689968319 
9.549999999999841 0.07207298152144377 
9.559999999999841 -0.1035318930754621 
9.56999999999984 -0.2940427250176033 
9.57999999999984 -0.4895742159310765 
9.58999999999984 -0.6808980333888784 
9.59999999999984 -0.8599322915600455 
9.60999999999984 -1.018980072737475 
9.619999999999839 -1.149671102343279 
9.629999999999839 -1.243092840179627 
9.639999999999839 -1.291686727644614 
9.649999999999839 -1.291992289347829 
9.659999999999839 -1.246417929617211 
9.669999999999838 -1.162535125520015 
9.679999999999838 -1.049939502171993 
9.689999999999838 -0.9165865531801182 
9.699999999999838 -0.7670529519832575 
9.709999999999837 -0.6036057046667342 
9.719999999999837 -0.4286606440668822 
9.729999999999837 -0.2464675080945732 
9.739999999999837 -0.06323399673558683 
9.749999999999837 0.1134215112415064 
9.759999999999836 0.274760871558522 
9.769999999999836 0.4113143859136319 
9.779999999999836 0.5142225220457981 
9.789999999999836 0.5771859038195883 
9.799999999999836 0.5974648238373346 
9.809999999999835 0.575158030101929 
9.819999999999835 0.5119461178071223 
9.829999999999835 0.4109206196683564 
9.839999999999835 0.2774887556180328 
9.849999999999834 0.1199638957154025 
9.859999999999834 -0.05102779624015046 
9.869999999999834 -0.2239802669794465 
9.879999999999834 -0.3881458679776498 
9.889999999999834 -0.5350184401096083 
9.899999999999833 -0.6591588534853033 
9.909999999999833 -0.7577671990355712 
9.919999999999833 -0.8292413992731659 
9.929999999999833 -0.8720049786732065 
9.939999999999833 -0.8846224532602165 
9.949999999999832 -0.8667550630174737 
9.959999999999832 -0.8196858780714671 
9.969999999999832 -0.7459950578632149 
9.979999999999832 -0.6491841956252532 
9.989999999999832 -0.533863016299203 
9.999999999999831 -0.4059395993571776 
10.00999999999983 -0.2720446911993977 
10.01999999999983 -0.138587553541119 
10.02999999999983 -0.01151895498391769 
10.03999999999983 0.1030834414385924 
10.04999999999983 0.1986374804931574 
10.05999999999983 0.2685628902497212 
10.06999999999983 0.3072308474225388 
10.07999999999983 0.3107841789688823 
10.08999999999983 0.277963277706061 
10.09999999999983 0.2110700569547439 
10.10999999999983 0.1163638133468097 
10.11999999999983 0.003082378455729556 
10.12999999999983 -0.1185362321562664 
10.13999999999983 -0.2389443996256507 
10.14999999999983 -0.3500811216438225 
10.15999999999983 -0.4459017436577202 
10.16999999999983 -0.5231757856254489 
10.17999999999983 -0.581873147495595 
10.18999999999983 -0.6241983741627122 
10.19999999999983 -0.6527489883904197 
10.20999999999983 -0.6693927008782424 
10.21999999999983 -0.675532105748361 
10.22999999999983 -0.6726769350072357 
10.23999999999983 -0.6621669077850526 
10.24999999999983 -0.6444608904418447 
10.25999999999983 -0.6191950088194268 
10.26999999999983 -0.5861432130195505 
10.27999999999983 -0.5460078167600396 
10.28999999999983 -0.5003329812916574 
10.29999999999983 -0.4509995894674041 
10.30999999999983 -0.3999981654781764 
10.31999999999982 -0.3494352579141368 
10.32999999999982 -0.3013355705586349 
10.33999999999982 -0.2572503911431927 
10.34999999999982 -0.2180906575029592 
10.35999999999982 -0.1842865012972124 
10.36999999999982 -0.1559007936350588 
10.37999999999982 -0.1325184179763136 
10.38999999999982 -0.1133006810025709 
10.39999999999982 -0.09755072122421188 
10.40999999999982 -0.08541254536559678 
10.41999999999982 -0.07802490086249479 
10.42999999999982 -0.07710954739149517 
10.43999999999982 -0.08461912330703485 
10.44999999999982 -0.1027122266984951 
10.45999999999982 -0.1335663664710526 
10.46999999999982 -0.1786313586040108 
10.47999999999982 -0.2377686773022008 
10.48999999999982 -0.3090511084746912 
10.49999999999982 -0.3892950743021494 
10.50999999999982 -0.4746034376284751 
10.51999999999982 -0.5603266878985576 
10.52999999999982 -0.6407255600906111 
10.53999999999982 -0.7091572528245221 
10.54999999999982 -0.7591828099611812 
10.55999999999982 -0.786121942329494 
10.56999999999982 -0.7882317741777399 
10.57999999999982 -0.7670487131254176 
10.58999999999982 -0.7268765730077827 
10.59999999999982 -0.673576609252688 
10.60999999999982 -0.6129969898958285 
10.61999999999982 -0.5496608782648036 
10.62999999999982 -0.4862449444011128 
10.63999999999982 -0.4238352066459039 
10.64999999999982 -0.3625424523983521 
10.65999999999982 -0.3021928196941539 
10.66999999999982 -0.2430315498985025 
10.67999999999982 -0.1862408472054707 
10.68999999999982 -0.1339110030638384 
10.69999999999982 -0.08841750588297533 
10.70999999999982 -0.05172729880382111 
10.71999999999982 -0.02524910185150734 
10.72999999999982 -0.01023631335679025 
10.73999999999982 -0.008102166287628644 
10.74999999999982 -0.02008336312933737 
10.75999999999982 -0.04637930973816327 
10.76999999999982 -0.08539166665635896 
10.77999999999982 -0.1335393716202518 
10.78999999999981 -0.1857292971356383 
10.79999999999981 -0.2363874661556283 
10.80999999999981 -0.2808294610256966 
10.81999999999981 -0.3164421881232543 
10.82999999999981 -0.3430594830028559 
10.83999999999981 -0.3624427598324714 
10.84999999999981 -0.3774537606258229 
10.85999999999981 -0.3914976606384152 
10.86999999999981 -0.4081944770991507 
10.87999999999981 -0.4308922196357334 
10.88999999999981 -0.4619744718781378 
10.89999999999981 -0.5023570803949262 
10.90999999999981 -0.551436110569997 
10.91999999999981 -0.6072244356884957 
10.92999999999981 -0.6662447640021368 
10.93999999999981 -0.7232530890828373 
10.94999999999981 -0.7714443790944019 
10.95999999999981 -0.8036517347288636 
10.96999999999981 -0.8142156677562006 
10.97999999999981 -0.8005450665463603 
10.98999999999981 -0.7635874056717189 
10.99999999999981 -0.7071805601606647 
11.00999999999981 -0.6367964108807027 
11.01999999999981 -0.5581646860424798 
11.02999999999981 -0.4760148798081553 
11.03999999999981 -0.3931358879794174 
11.04999999999981 -0.3101174960186506 
11.05999999999981 -0.2260677368580906 
11.06999999999981 -0.1400537030489705 
11.07999999999981 -0.05242767210640491 
11.08999999999981 0.03471132168317641 
11.09999999999981 0.1178785730834368 
11.10999999999981 0.1927086384933557 
11.11999999999981 0.2541468611688266 
11.12999999999981 0.2965573591640979 
11.13999999999981 0.3141534012206655 
11.14999999999981 0.3016629385269535 
11.15999999999981 0.2548725051724025 
11.16999999999981 0.1711542703623949 
11.17999999999981 0.05045143621237837 
11.18999999999981 -0.1034371135267258 
11.19999999999981 -0.2823554132154965 
11.20999999999981 -0.474849113546982 
11.21999999999981 -0.6681346547649206 
11.22999999999981 -0.8496319994526189 
11.23999999999981 -1.007624173158036 
11.24999999999981 -1.131711499742523 
11.2599999999998 -1.213530769302651 
11.2699999999998 -1.247348414458558 
11.2799999999998 -1.230138364042204 
11.2899999999998 -1.161550224112576 
11.2999999999998 -1.044316968358775 
11.3099999999998 -0.8847493943338858 
11.3199999999998 -0.692384629122041 
11.3299999999998 -0.4785935717678259 
11.3399999999998 -0.2550257766345595 
11.3499999999998 -0.03267605686557179 
11.3599999999998 0.1785549308926086 
11.3699999999998 0.3701166736563962 
11.3799999999998 0.5345440032354946 
11.3899999999998 0.6644316538280806 
11.3999999999998 0.7516129254400096 
11.4099999999998 0.7879383755040411 
11.4199999999998 0.7675740701709194 
11.4299999999998 0.6890893291119578 
11.4399999999998 0.5559394635375221 
11.4499999999998 0.3756299000372956 
11.4599999999998 0.1586160908377977 
11.4699999999998 -0.08267357342537311 
11.4799999999998 -0.3348847344165387 
11.4899999999998 -0.5847145733510553 
11.4999999999998 -0.8193651499951856 
11.5099999999998 -1.026554360441117 
11.5199999999998 -1.194833367646571 
11.5299999999998 -1.314653894590122 
11.5399999999998 -1.379678718713463 
11.5499999999998 -1.387514740798834 
11.5599999999998 -1.339686379977717 
11.5699999999998 -1.241183616766879 
11.5799999999998 -1.099651946495093 
11.5899999999998 -0.9240522237015123 
11.5999999999998 -0.7231996487644712 
11.6099999999998 -0.5051982262456065 
11.6199999999998 -0.2782050137109253 
11.6299999999998 -0.05163601987481661 
11.6399999999998 0.1635003806227418 
11.6499999999998 0.3555291205986607 
11.6599999999998 0.5136355958515153 
11.6699999999998 0.6292005633762646 
11.6799999999998 0.6965681775311027 
11.6899999999998 0.7131399827423479 
11.6999999999998 0.6788421301216642 
11.7099999999998 0.5953460810144438 
11.7199999999998 0.4656732830854965 
11.72999999999979 0.29452067667333 
11.73999999999979 0.08899284963346678 
11.74999999999979 -0.1408975374956132 
11.75999999999979 -0.3823529831288032 
11.76999999999979 -0.620600598890252 
11.77999999999979 -0.8404068109539082 
11.78999999999979 -1.028198134951708 
11.79999999999979 -1.174136214768135 
11.80999999999979 -1.273073130257361 
11.81999999999979 -1.323875834929942 
11.82999999999979 -1.327835648414249 
11.83999999999979 -1.287420113820582 
11.84999999999979 -1.205942377957238 
11.85999999999979 -1.087804337293948 
11.86999999999979 -0.9388159713841788 
11.87999999999979 -0.7664142926266372 
11.88999999999979 -0.5796434281520172 
11.89999999999979 -0.3886183201534209 
11.90999999999979 -0.2034698096372136 
11.91999999999979 -0.03332437940141587 
11.92999999999979 0.1140709943713301 
11.93999999999979 0.232102711113717 
11.94999999999979 0.3150145176900709 
11.95999999999979 0.3580462876186855 
11.96999999999979 0.3579067163001376 
11.97999999999979 0.313326838236477 
11.98999999999979 0.225647093962585 
11.99999999999979 0.09937727520014822 
12.00999999999979 -0.05768775644342893 
12.01999999999979 -0.2352507569892333 
12.02999999999979 -0.4220084649083918 
12.03999999999979 -0.6070436684602335 
12.04999999999979 -0.7804773810084071 
12.05999999999979 -0.9335012277114262 
12.06999999999979 -1.058327944275304 
12.07999999999979 -1.148387527112016 
12.08999999999979 -1.198758988438359 
12.09999999999979 -1.206721242110067 
12.10999999999979 -1.172256422615866 
12.11999999999979 -1.098212924666313 
12.12999999999979 -0.9898762985855344 
12.13999999999979 -0.8540518126901483 
12.14999999999979 -0.6981018628212676 
12.15999999999979 -0.5293348446724998 
12.16999999999979 -0.3547932538191997 
12.17999999999979 -0.1812656142214723 
12.18999999999979 -0.01541588680873406 
12.19999999999978 0.1360241483841997 
12.20999999999978 0.2662271958176742 
12.21999999999978 0.368727726473312 
12.22999999999978 0.4383321452736345 
12.23999999999978 0.4719556525852186 
12.24999999999978 0.4688773991602159 
12.25999999999978 0.4304500600074454 
12.26999999999978 0.3596844817776562 
12.27999999999978 0.2609895537037951 
12.28999999999978 0.1400512352326065 
12.29999999999978 0.003752089544983548 
12.30999999999978 -0.139988269825419 
12.31999999999978 -0.2826889362055766 
12.32999999999978 -0.4162782783901334 
12.33999999999978 -0.5343115749167992 
12.34999999999978 -0.6328037397758092 
12.35999999999978 -0.7102358169351437 
12.36999999999978 -0.7668991876241628 
12.37999999999978 -0.8040489129269878 
12.38999999999978 -0.8230831608313918 
12.39999999999978 -0.8247519525360553 
12.40999999999978 -0.808725920299239 
12.41999999999978 -0.7741563049776105 
12.42999999999978 -0.7212268708409207 
12.43999999999978 -0.6525184418206911 
12.44999999999978 -0.5728332415142913 
12.45999999999978 -0.4875116463676986 
12.46999999999978 -0.4007300480559802 
12.47999999999978 -0.3151287968345926 
12.48999999999978 -0.2327094407028346 
12.49999999999978 -0.155950410619854 
12.50999999999978 -0.08831642595354423 
12.51999999999978 -0.03405868335441407 
12.52999999999978 0.002452516018406518 
12.53999999999978 0.01765174664806346 
12.54999999999978 0.009750658542752377 
12.55999999999978 -0.02055821881366391 
12.56999999999978 -0.06998960817542298 
12.57999999999978 -0.1333064982706607 
12.58999999999978 -0.2046180118040707 
12.59999999999978 -0.278906566274674 
12.60999999999978 -0.3530355428879125 
12.61999999999978 -0.4255428107853168 
12.62999999999978 -0.4952888281423423 
12.63999999999978 -0.5600523583643174 
12.64999999999978 -0.6163348403743849 
12.65999999999978 -0.6605298333959394 
12.66999999999977 -0.6903156682708356 
12.67999999999977 -0.7050494373696035 
12.68999999999977 -0.7050567251244159 
12.69999999999977 -0.690663916088865 
12.70999999999977 -0.6617363221819578 
12.71999999999977 -0.6178495961291206 
12.72999999999977 -0.5588677443462283 
12.73999999999977 -0.4856962538838354 
12.74999999999977 -0.4009444410213238 
12.75999999999977 -0.3091492813588387 
12.76999999999977 -0.2163453986101571 
12.77999999999977 -0.1290754303722919 
12.78999999999977 -0.05314568014538069 
12.79999999999977 0.007497712195734797 
12.80999999999977 0.05130940883487406 
12.81999999999977 0.07866205542765975 
12.82999999999977 0.09040784987320046 
12.83999999999977 0.08641298574525888 
12.84999999999977 0.06530803093733427 
12.85999999999977 0.02578807188186912 
12.86999999999977 -0.03164020663265871 
12.87999999999977 -0.1039845122852939 
12.88999999999977 -0.1865826610256503 
12.89999999999977 -0.274495149757905 
12.90999999999977 -0.3634494115968741 
12.91999999999977 -0.4501602176589077 
12.92999999999977 -0.5323139485547815 
12.93999999999977 -0.6081890404585651 
12.94999999999977 -0.6757228794023151 
12.95999999999977 -0.7314025998297008 
12.96999999999977 -0.7699107237919044 
12.97999999999977 -0.7851052913889728 
12.98999999999977 -0.771941314141284 
12.99999999999977 -0.7283182326941998 
13.00999999999977 -0.655978884354853 
13.01999999999977 -0.5601246562749273 
13.02999999999977 -0.447974070561306 
13.03999999999977 -0.3269956466009892 
13.04999999999977 -0.203775837574428 
13.05999999999977 -0.08406271465784049 
13.06999999999977 0.026440983186459 
13.07999999999977 0.121596380146394 
13.08999999999977 0.1953127388431198 
13.09999999999977 0.2426608884069098 
13.10999999999977 0.2608202433274858 
13.11999999999977 0.24945799727791 
13.12999999999977 0.2106259157155646 
13.13999999999976 0.1482599614284018 
13.14999999999976 0.06725162531497474 
13.15999999999976 -0.02766709971187755 
13.16999999999976 -0.1326209448276475 
13.17999999999976 -0.2444247548615989 
13.18999999999976 -0.3597305627907543 
13.19999999999976 -0.4741218804555286 
13.20999999999976 -0.5817507014781598 
13.21999999999976 -0.6758017206376411 
13.22999999999976 -0.7497054247903159 
13.23999999999976 -0.7985946006903911 
13.24999999999976 -0.8201731780131324 
13.25999999999976 -0.8144234267438821 
13.26999999999976 -0.7824914487886354 
13.27999999999976 -0.7258409264991983 
13.28999999999976 -0.6464484805899434 
13.29999999999976 -0.5477020491282619 
13.30999999999976 -0.4350182120257432 
13.31999999999976 -0.3156425829748216 
13.32999999999976 -0.1978681606961543 
13.33999999999976 -0.09003627277420205 
13.34999999999976 0.0006364736964487187 
13.35999999999976 0.06929284288568033 
13.36999999999976 0.1141364265468339 
13.37999999999976 0.1359690475816312 
13.38999999999976 0.1367176046757122 
13.39999999999976 0.1179303775155477 
13.40999999999976 0.08019368053507063 
13.41999999999976 0.02364775432128558 
13.42999999999976 -0.05091918689076499 
13.43999999999976 -0.1410982685875897 
13.44999999999976 -0.2425526364180099 
13.45999999999976 -0.3496153830316152 
13.46999999999976 -0.4565188371261506 
13.47999999999976 -0.5584469218982066 
13.48999999999976 -0.6516370382919463 
13.49999999999976 -0.7325645713761654 
13.50999999999976 -0.7970760331550265 
13.51999999999976 -0.8403034807728547 
13.52999999999976 -0.8574213027057464 
13.53999999999976 -0.8447465892462984 
13.54999999999976 -0.8007914143380158 
13.55999999999976 -0.7271340772722862 
13.56999999999976 -0.6288660984699979 
13.57999999999976 -0.5141717324944474 
13.58999999999976 -0.3928870612150943 
13.59999999999976 -0.2745899897199268 
13.60999999999975 -0.1671760320049503 
13.61999999999975 -0.07649671981835839 
13.62999999999975 -0.006805159954962593 
13.63999999999975 0.03875227761230561 
13.64999999999975 0.05813416661595304 
13.65999999999975 0.05081196974744538 
13.66999999999975 0.01812952786354859 
13.67999999999975 -0.03675168829220345 
13.68999999999975 -0.1093695129157228 
13.69999999999975 -0.1947338266507578 
13.70999999999975 -0.2880529723137439 
13.71999999999975 -0.3851706980778723 
13.72999999999975 -0.4826449196194895 
13.73999999999975 -0.577543821384238 
13.74999999999975 -0.6670551472787953 
13.75999999999975 -0.748010843354707 
13.76999999999975 -0.8165405567775913 
13.77999999999975 -0.8681593089894077 
13.78999999999975 -0.8984223069218112 
13.79999999999975 -0.9038759824889545 
13.80999999999975 -0.8827546925432539 
13.81999999999975 -0.8350635927364335 
13.82999999999975 -0.7622362444468971 
13.83999999999975 -0.6669102073508958 
13.84999999999975 -0.5531061525752853 
13.85999999999975 -0.4265113746797783 
13.86999999999975 -0.2943642095401101 
13.87999999999975 -0.1647949979217087 
13.88999999999975 -0.04588089616063727 
13.89999999999975 0.05530440760849874 
13.90999999999975 0.1335090659952293 
13.91999999999975 0.1858477811071752 
13.92999999999975 0.2118931458831821 
13.93999999999975 0.2132758429983406 
13.94999999999975 0.1929598324778982 
13.95999999999975 0.1544165296402324 
13.96999999999975 0.1008939956579377 
13.97999999999975 0.03500600395068427 
13.98999999999975 -0.04116407356632754 
13.99999999999975 -0.1255231145199922 
14.00999999999975 -0.2154409522467177 
14.01999999999975 -0.3077172628072855 
14.02999999999975 -0.399054147177522 
14.03999999999975 -0.4865149613716582 
14.04999999999975 -0.567476506252497 
14.05999999999975 -0.6391590186764817 
14.06999999999974 -0.6982628771222863 
14.07999999999974 -0.7410866722541011 
14.08999999999974 -0.764065189932939 
14.09999999999974 -0.7644919022229341 
14.10999999999974 -0.7412596917772031 
14.11999999999974 -0.6954392162857572 
14.12999999999974 -0.6304345390708425 
14.13999999999974 -0.5515694299017901 
14.14999999999974 -0.4652341467193456 
14.15999999999974 -0.3778756634797739 
14.16999999999974 -0.2950932198409421 
14.17999999999974 -0.2210664266056571 
14.18999999999974 -0.1584903848718027 
14.19999999999974 -0.1089739988896341 
14.20999999999974 -0.07354443526376384 
14.21999999999974 -0.05282090801327388 
14.22999999999974 -0.04674171240572067 
14.23999999999974 -0.05419262915167995 
14.24999999999974 -0.07303290529366464 
14.25999999999974 -0.1006860076841216 
14.26999999999974 -0.1349846895313649 
14.27999999999974 -0.1747835909783213 
14.28999999999974 -0.2200487209194835 
14.29999999999974 -0.2714110983947894 
14.30999999999974 -0.3293452433543245 
14.31999999999974 -0.3932557362350874 
14.32999999999974 -0.4608429268569105 
14.33999999999974 -0.5280547402150988 
14.34999999999974 -0.58969127076898 
14.35999999999974 -0.6404643038922083 
14.36999999999974 -0.6761311725742938 
14.37999999999974 -0.6942540755115645 
14.38999999999974 -0.6942729967919799 
14.39999999999974 -0.6769524027479298 
14.40999999999974 -0.6436513291048905 
14.41999999999974 -0.5959443322955265 
14.42999999999974 -0.5358053269356583 
14.43999999999974 -0.4660982191917413 
14.44999999999974 -0.3908430580153814 
14.45999999999974 -0.3148576719647578 
14.46999999999974 -0.2428378096980914 
14.47999999999974 -0.1783693412392804 
14.48999999999974 -0.1234116426129504 
14.49999999999974 -0.078456508152195 
14.50999999999974 -0.04316892362967312 
14.51999999999974 -0.0171523941900146 
14.52999999999974 -0.0005614512020528512 
14.53999999999973 0.005592625167537349 
14.54999999999973 -0.0004323676148587049 
14.55999999999973 -0.02047276008332156 
14.56999999999973 -0.05548600415677236 
14.57999999999973 -0.1047511299890003 
14.58999999999973 -0.1657526869218847 
14.59999999999973 -0.2347953698142652 
14.60999999999973 -0.3078972467203375 
14.61999999999973 -0.3814185519469674 
14.62999999999973 -0.4521550522742776 
14.63999999999973 -0.5169617470004576 
14.64999999999973 -0.5722584741262694 
14.65999999999973 -0.613946815817887 
14.66999999999973 -0.638106105725928 
14.67999999999973 -0.6422462340244012 
14.68999999999973 -0.6263250352914158 
14.69999999999973 -0.5928215913469102 
14.70999999999973 -0.5458876121982701 
14.71999999999973 -0.4902150837617457 
14.72999999999973 -0.4301506421319409 
14.73999999999973 -0.3690957922000669 
14.74999999999973 -0.3091326093073425 
14.75999999999973 -0.2511423420903364 
14.76999999999973 -0.1956564116029139 
14.77999999999973 -0.143998792260968 
14.78999999999973 -0.09877556635508457 
14.79999999999973 -0.06324079780075596 
14.80999999999973 -0.04006745031089384 
14.81999999999973 -0.03047197022606416 
14.82999999999973 -0.03419068613128753 
14.83999999999973 -0.05014185585829628 
14.84999999999973 -0.07727280210765196 
14.85999999999973 -0.1150592961311423 
14.86999999999973 -0.1632925473808828 
14.87999999999973 -0.2212176194995995 
14.88999999999973 -0.2866159644856139 
14.89999999999973 -0.3555590087339508 
14.90999999999973 -0.4230679118548292 
14.91999999999973 -0.4842438285344845 
14.92999999999973 -0.535242556430592 
14.93999999999973 -0.5738263718721512 
14.94999999999973 -0.5995576477582356 
14.95999999999973 -0.6136237309286361 
14.96999999999973 -0.6181466680611364 
14.97999999999973 -0.6151111805353092 
14.98999999999973 -0.6055148607153973 
14.99999999999973 -0.5893405068427774 
15.00999999999972 -0.5663320680274523 
15.01999999999972 -0.5369221967426375 
15.02999999999972 -0.5025830599034397 
15.03999999999972 -0.4653458348069867 
15.04999999999972 -0.4268630490180855 
15.05999999999972 -0.3877419399708239 
15.06999999999972 -0.3476787939494409 
15.07999999999972 -0.3062943784190066 
15.08999999999972 -0.2640497487865393 
15.09999999999972 -0.2226591897494424 
15.10999999999972 -0.1848672470401283 
15.11999999999972 -0.1538172052446744 
15.12999999999972 -0.1322850719800976 
15.13999999999972 -0.1219662930120521 
15.14999999999972 -0.1229874850464477 
15.15999999999972 -0.1338463491654158 
15.16999999999972 -0.1518986343546684 
15.17999999999972 -0.1742530323815613 
15.18999999999972 -0.19865085078559 
15.19999999999972 -0.2238604437189006 
15.20999999999972 -0.2494147991559821 
15.21999999999972 -0.2749665908883487 
15.22999999999972 -0.2997975548014196 
15.23999999999972 -0.3228935018862567 
15.24999999999972 -0.3435398895973198 
15.25999999999972 -0.361913203814164 
15.26999999999972 -0.3790706701995374 
15.27999999999972 -0.3962230880248002 
15.28999999999972 -0.4137997388351955 
15.29999999999972 -0.4309557885638249 
15.30999999999972 -0.445736174797748 
15.31999999999972 -0.4556402730994004 
15.32999999999972 -0.4582879477412399 
15.33999999999972 -0.4520926924920345 
15.34999999999972 -0.4368606051596486 
15.35999999999972 -0.4140460257343824 
15.36999999999972 -0.3863973983153649 
15.37999999999972 -0.3570951116524944 
15.38999999999972 -0.3288763356285769 
15.39999999999972 -0.303639158336626 
15.40999999999972 -0.2826307950569813 
15.41999999999972 -0.2669268058252756 
15.42999999999972 -0.2577723666699948 
15.43999999999972 -0.2564705469394951 
15.44999999999972 -0.2637743778309438 
15.45999999999972 -0.2791112652587491 
15.46999999999972 -0.30023515150171 
15.47999999999971 -0.3237259191995529 
15.48999999999971 -0.3461342768106788 
15.49999999999971 -0.3650647001194915 
15.50999999999971 -0.3796271276979146 
15.51999999999971 -0.3902510147039846 
15.52999999999971 -0.3981722432277599 
15.53999999999971 -0.4047885877646406 
15.54999999999971 -0.4109825054189592 
15.55999999999971 -0.4166785266143038 
15.56999999999971 -0.4209711344230804 
15.57999999999971 -0.4228010840018261 
15.58999999999971 -0.421692770094858 
15.59999999999971 -0.4180300209359545 
15.60999999999971 -0.4127575128106534 
15.61999999999971 -0.4068019650140833 
15.62999999999971 -0.4006066104023502 
15.63999999999971 -0.3940372525737457 
15.64999999999971 -0.3867037051442573 
15.65999999999971 -0.3784974293517083 
15.66999999999971 -0.3699641167747819 
15.67999999999971 -0.3621994970387765 
15.68999999999971 -0.3563157492379306 
15.69999999999971 -0.3528707039585138 
15.70999999999971 -0.351633854825384 
15.71999999999971 -0.3517373741112443 
15.72999999999971 -0.3520204178049824 
15.73999999999971 -0.3514097561905623 
15.74999999999971 -0.3492701347759455 
15.75999999999971 -0.34560205421232 
15.76999999999971 -0.3409200338963211 
15.77999999999971 -0.3358311133806433 
15.78999999999971 -0.3306056296343289 
15.79999999999971 -0.3250657058221385 
15.80999999999971 -0.3188592138302298 
15.81999999999971 -0.311898232077836 
15.82999999999971 -0.3046439395352415 
15.83999999999971 -0.2980235141522548 
15.84999999999971 -0.2929884135764837 
15.85999999999971 -0.2899751544706299 
15.86999999999971 -0.2886564623386537 
15.87999999999971 -0.288213067768637 
15.88999999999971 -0.2879721916831958 
15.89999999999971 -0.2879560146135756 
15.90999999999971 -0.2889581561622852 
15.91999999999971 -0.292149305490743 
15.92999999999971 -0.2985282352051504 
15.93999999999971 -0.308520628802121 
15.9499999999997 -0.3218160661029633 
15.9599999999997 -0.3374221445268981 
15.9699999999997 -0.3539402145536503 
15.9799999999997 -0.3700254629400623 
15.9899999999997 -0.384823620494141 
15.9999999999997 -0.3980983460985068 
16.0099999999997 -0.4099519306894746 
16.01999999999971 -0.4203502101572653 
16.02999999999971 -0.4288073809375232 
16.03999999999971 -0.4344792585018762 
16.04999999999971 -0.4366575312157849 
16.05999999999971 -0.4353749128959655 
16.06999999999971 -0.4316568592759247 
16.07999999999971 -0.4270864071700483 
16.08999999999972 -0.4228372875090167 
16.09999999999972 -0.4188212288392469 
16.10999999999972 -0.4135792455462922 
16.11999999999972 -0.4049693335161436 
16.12999999999972 -0.3911245434734063 
16.13999999999972 -0.3711269804812662 
16.14999999999973 -0.3452566878914671 
16.15999999999973 -0.3149657745231798 
16.16999999999973 -0.2826456771904536 
16.17999999999973 -0.251126611694302 
16.18999999999973 -0.223010952414943 
16.19999999999973 -0.2002112560857542 
16.20999999999973 -0.183998056588037 
16.21999999999974 -0.175439873391561 
16.22999999999974 -0.1757727535839234 
16.23999999999974 -0.1862956362738854 
16.24999999999974 -0.207743787288414 
16.25999999999974 -0.239463810801513 
16.26999999999974 -0.2789203510482035 
16.27999999999975 -0.3219750590926095 
16.28999999999975 -0.3639271566962842 
16.29999999999975 -0.4007458115040892 
16.30999999999975 -0.4297870617471323 
16.31999999999975 -0.4497612706296636 
16.32999999999975 -0.4603166582234471 
16.33999999999976 -0.4616983408142422 
16.34999999999976 -0.4545544839615423 
16.35999999999976 -0.4396975423885153 
16.36999999999976 -0.4178280819632759 
16.37999999999976 -0.3895255963485991 
16.38999999999976 -0.3556758925418496 
16.39999999999976 -0.3180167752726144 
16.40999999999977 -0.2792390046081442 
16.41999999999977 -0.2424284878162758 
16.42999999999977 -0.2102361553405364 
16.43999999999977 -0.1844004276831376 
16.44999999999977 -0.1659209224731891 
16.45999999999977 -0.1556418314678096 
16.46999999999978 -0.1547178843488646 
16.47999999999978 -0.1645676449248009 
16.48999999999978 -0.1863052584992065 
16.49999999999978 -0.2199987709024245 
16.50999999999978 -0.2642102336082179 
16.51999999999978 -0.3160633658976786 
16.52999999999978 -0.3717370981730668 
16.53999999999979 -0.4270990783963939 
16.54999999999979 -0.4782877740037697 
16.55999999999979 -0.5222080453332374 
16.56999999999979 -0.5568696197715992 
16.57999999999979 -0.5813769374610275 
16.58999999999979 -0.5954974080569374 
16.5999999999998 -0.5991090998182593 
16.6099999999998 -0.5920294549547797 
16.6199999999998 -0.5744161138643131 
16.6299999999998 -0.5473641741439451 
16.6399999999998 -0.5131045770909887 
16.6499999999998 -0.4745625508608233 
16.65999999999981 -0.4345713926400405 
16.66999999999981 -0.3952406782038376 
16.67999999999981 -0.3577774111604262 
16.68999999999981 -0.3227508089758035 
16.69999999999981 -0.2905962337471399 
16.70999999999981 -0.2620717569808937 
16.71999999999981 -0.2384160875255959 
16.72999999999982 -0.2211521111910864 
16.73999999999982 -0.2117088281330918 
16.74999999999982 -0.2110658629920041 
16.75999999999982 -0.219467403771545 
16.76999999999982 -0.2361912759863395 
16.77999999999982 -0.2595040025760652 
16.78999999999983 -0.2869884200704082 
16.79999999999983 -0.3161507513221329 
16.80999999999983 -0.3448700974199109 
16.81999999999983 -0.3713424567565407 
16.82999999999983 -0.393695896508272 
16.83999999999983 -0.409822007620426 
16.84999999999983 -0.4177400996966003 
16.85999999999984 -0.4162584099761202 
16.86999999999984 -0.4054390727013893 
16.87999999999984 -0.3866013794639167 
16.88999999999984 -0.3619526744325878 
16.89999999999984 -0.3340743283136568 
16.90999999999984 -0.3054450849153272 
16.91999999999985 -0.2781260845643293 
16.92999999999985 -0.2536674845321534 
16.93999999999985 -0.2331721441249703 
16.94999999999985 -0.2173787078389581 
16.95999999999985 -0.2067277306073957 
16.96999999999985 -0.2015113901675534 
16.97999999999986 -0.2021212609387133 
16.98999999999986 -0.2091596264174655 
16.99999999999986 -0.2231654881465806 
17.00999999999986 -0.2440943923787382 
17.01999999999986 -0.2710512235680145 
17.02999999999986 -0.3025854636024094 
17.03999999999986 -0.3372595405899295 
17.04999999999987 -0.3739047744959926 
17.05999999999987 -0.4113596660150279 
17.06999999999987 -0.4480677012714275 
17.07999999999987 -0.4820004068803207 
17.08999999999987 -0.5109368208618706 
17.09999999999987 -0.5327822754788367 
17.10999999999988 -0.5457381385719989 
17.11999999999988 -0.5484502993869693 
17.12999999999988 -0.540284985506598 
17.13999999999988 -0.5216151260339578 
17.14999999999988 -0.4938589176497675 
17.15999999999988 -0.459191402163567 
17.16999999999988 -0.4201017286053759 
17.17999999999989 -0.3790061442349532 
17.18999999999989 -0.3379978896852145 
17.19999999999989 -0.2987364594620408 
17.20999999999989 -0.2624811981198054 
17.21999999999989 -0.23023259868009 
17.22999999999989 -0.2028575954455979 
17.2399999999999 -0.1810951177836143 
17.2499999999999 -0.1654947602685971 
17.2599999999999 -0.1564303454268732 
17.2699999999999 -0.1542091755988762 
17.2799999999999 -0.1591273811338472 
17.2899999999999 -0.1713532457466565 
17.29999999999991 -0.1907270080713136 
17.30999999999991 -0.2166696304817803 
17.31999999999991 -0.2482494603184338 
17.32999999999991 -0.284255769891347 
17.33999999999991 -0.3231383900279956 
17.34999999999991 -0.3628951252777145 
17.35999999999991 -0.4011381604448839 
17.36999999999992 -0.4354373783191798 
17.37999999999992 -0.4637648340832473 
17.38999999999992 -0.4847712422832956 
17.39999999999992 -0.4978013787899708 
17.40999999999992 -0.5027662405043413 
17.41999999999992 -0.5000274330858034 
17.42999999999993 -0.4903599606637388 
17.43999999999993 -0.4749649573855633 
17.44999999999993 -0.4554375117509643 
17.45999999999993 -0.4335923698963669 
17.46999999999993 -0.411171679577207 
17.47999999999993 -0.3896099469658718 
17.48999999999993 -0.3699933748172564 
17.49999999999994 -0.3531273751777362 
17.50999999999994 -0.3395120246796821 
17.51999999999994 -0.3292053075297381 
17.52999999999994 -0.3217944044052746 
17.53999999999994 -0.3166485274787991 
17.54999999999994 -0.3133145649195649 
17.55999999999995 -0.3117249326452576 
17.56999999999995 -0.3120636826341932 
17.57999999999995 -0.314463287391403 
17.58999999999995 -0.3187928835423335 
17.59999999999995 -0.3246101470084147 
17.60999999999995 -0.3311946119173911 
17.61999999999996 -0.3376188874357797 
17.62999999999996 -0.3428712469660252 
17.63999999999996 -0.3459915468057876 
17.64999999999996 -0.3461648992957905 
17.65999999999996 -0.3428180389981281 
17.66999999999996 -0.335786546360205 
17.67999999999996 -0.325458671671112 
17.68999999999997 -0.3127072787395619 
17.69999999999997 -0.2986221390415924 
17.70999999999997 -0.2843090662940315 
17.71999999999997 -0.2709332184394659 
17.72999999999997 -0.259827375082123 
17.73999999999997 -0.2523551585424192 
17.74999999999998 -0.2495274405143427 
17.75999999999998 -0.2517105681255119 
17.76999999999998 -0.2586772039197082 
17.77999999999998 -0.2698622013316905 
17.78999999999998 -0.2845227186537257 
17.79999999999998 -0.301726036473504 
17.80999999999999 -0.3203210964432668 
17.81999999999999 -0.3390014954945315 
17.82999999999999 -0.3564274769916788 
17.83999999999999 -0.3713900722813092 
17.84999999999999 -0.383037562418395 
17.85999999999999 -0.3910563920255975 
17.86999999999999 -0.395603381247737 
17.88 -0.3969961366609699 
17.89 -0.3954717755722597 
17.9 -0.3912524555203507 
17.91 -0.3847410180857582 
17.92 -0.3764906511669229 
17.93 -0.3669366292720247 
17.94000000000001 -0.3562636763412615 
17.95000000000001 -0.3446261306869948 
17.96000000000001 -0.3324403471355573 
17.97000000000001 -0.3203495961134057 
17.98000000000001 -0.3089050413933047 
17.99000000000001 -0.298382029500839 
18.00000000000001 -0.2889452751918668 
18.01000000000002 -0.2809243879114359 
18.02000000000002 -0.2748829232825992 
18.03000000000002 -0.2714737900292879 
18.04000000000002 -0.2712744298729181 
18.05000000000002 -0.2746882300395019 
18.06000000000002 -0.2818726384520504 
18.07000000000003 -0.2927012798259845 
18.08000000000003 -0.3068089888217813 
18.09000000000003 -0.3236611013045259 
18.10000000000003 -0.3425297998719083 
18.11000000000003 -0.3624152978989177 
18.12000000000003 -0.3820967298121373 
18.13000000000004 -0.4003567628915052 
18.14000000000004 -0.4161654195787837 
18.15000000000004 -0.4286475674883863 
18.16000000000004 -0.4369770405582679 
18.17000000000004 -0.4404605312364607 
18.18000000000004 -0.4387800163273298 
18.19000000000004 -0.4320781285218497 
18.20000000000005 -0.4207378100212763 
18.21000000000005 -0.4051051820986679 
18.22000000000005 -0.3854712376331352 
18.23000000000005 -0.3622889587715299 
18.24000000000005 -0.3363508314676539 
18.25000000000005 -0.3087893981139148 
18.26000000000006 -0.2810001214958696 
18.27000000000006 -0.2545643635342125 
18.28000000000006 -0.2311075721238213 
18.29000000000006 -0.2120882787492632 
18.30000000000006 -0.1986842956417863 
18.31000000000006 -0.1918676908743228 
18.32000000000006 -0.1924779384322647 
18.33000000000007 -0.2010563988743833 
18.34000000000007 -0.2175277077496793 
18.35000000000007 -0.2410543399197916 
18.36000000000007 -0.2701948328663179 
18.37000000000007 -0.3031494890300336 
18.38000000000007 -0.3378731203638732 
18.39000000000008 -0.3721337303013368 
18.40000000000008 -0.4037166454849652 
18.41000000000008 -0.4307435412725912 
18.42000000000008 -0.4518575724618776 
18.43000000000008 -0.4661515792595318 
18.44000000000008 -0.4729904066865076 
18.45000000000009 -0.4719270297596739 
18.46000000000009 -0.4627477939808842 
18.47000000000009 -0.4455909099317881 
18.48000000000009 -0.4211094981681192 
18.49000000000009 -0.3905898309926065 
18.50000000000009 -0.3558380229066378 
18.51000000000009 -0.3188026639441092 
18.5200000000001 -0.281245150911804 
18.5300000000001 -0.2448007297892037 
18.5400000000001 -0.2113249198319046 
18.5500000000001 -0.1830500338230679 
18.5600000000001 -0.1622986580131655 
18.5700000000001 -0.1510134393781864 
18.58000000000011 -0.1504770567711284 
18.59000000000011 -0.1612356708276812 
18.60000000000011 -0.1829868267553201 
18.61000000000011 -0.2143948780215876 
18.62000000000011 -0.2530939816296543 
18.63000000000011 -0.2960482929517452 
18.64000000000011 -0.3400732025804704 
18.65000000000012 -0.3821871792964431 
18.66000000000012 -0.4197120814933523 
18.67000000000012 -0.4502996485786986 
18.68000000000012 -0.4720350301212372 
18.69000000000012 -0.4836145175312294 
18.70000000000012 -0.4845518247813802 
18.71000000000013 -0.4753628258740629 
18.72000000000013 -0.457586001853082 
18.73000000000013 -0.433479074107454 
18.74000000000013 -0.4054631578438794 
18.75000000000013 -0.3756360571865583 
18.76000000000013 -0.345600936015596 
18.77000000000014 -0.3165431529116697 
18.78000000000014 -0.2893521876404699 
18.79000000000014 -0.2647387282648089 
18.80000000000014 -0.2434187632647787 
18.81000000000014 -0.2263155861205714 
18.82000000000014 -0.2145871507518406 
18.83000000000014 -0.2094052434436645 
18.84000000000015 -0.2116695094009692 
18.85000000000015 -0.221885345220219 
18.86000000000015 -0.2402147993724589 
18.87000000000015 -0.2665319574716398 
18.88000000000015 -0.3003744598321517 
18.89000000000015 -0.3408134570928743 
18.90000000000016 -0.3862808382207926 
18.91000000000016 -0.4343943912619394 
18.92000000000016 -0.4819397513949409 
18.93000000000016 -0.5252180972661678 
18.94000000000016 -0.5607240018654128 
18.95000000000016 -0.5857841992708838 
18.96000000000016 -0.5988136068346859 
18.97000000000017 -0.5992405937582997 
18.98000000000017 -0.5874031462857479 
18.99000000000017 -0.5645179198046888 
19.00000000000017 -0.5325334118424399 
19.01000000000017 -0.493764213564928 
19.02000000000017 -0.4505243019127008 
19.03000000000018 -0.4050123712537853 
19.04000000000018 -0.3593726541404254 
19.05000000000018 -0.3156493225208366 
19.06000000000018 -0.2755678541060488 
19.07000000000018 -0.2403717474273969 
19.08000000000018 -0.2108880745988378 
19.09000000000019 -0.187718462496508 
19.10000000000019 -0.171380349005848 
19.11000000000019 -0.1623920167917949 
19.12000000000019 -0.1613572197581329 
19.13000000000019 -0.1689536421049312 
19.14000000000019 -0.1856751024908446 
19.15000000000019 -0.2114067641655909 
19.1600000000002 -0.2451365138808841 
19.1700000000002 -0.2849940899809311 
19.1800000000002 -0.3285005402884161 
19.1900000000002 -0.3728092192468534 
19.2000000000002 -0.4149006691878561 
19.2100000000002 -0.4518329327092127 
19.22000000000021 -0.4810485535093996 
19.23000000000021 -0.5005998238291384 
19.24000000000021 -0.5092157869173369 
19.25000000000021 -0.5063014103372565 
19.26000000000021 -0.4919799649213126 
19.27000000000021 -0.4671563417542338 
19.28000000000021 -0.4334994363786173 
19.29000000000022 -0.3932988925893598 
19.30000000000022 -0.3492250959895278 
19.31000000000022 -0.3040317989263617 
19.32000000000022 -0.2602534582657848 
19.33000000000022 -0.2199961768044845 
19.34000000000022 -0.1849057681412549 
19.35000000000023 -0.1562773486929715 
19.36000000000023 -0.1351769674583059 
19.37000000000023 -0.1224928390235897 
19.38000000000023 -0.1189389811808922 
19.39000000000023 -0.125042679168266 
19.40000000000023 -0.1410745599548956 
19.41000000000024 -0.1668813843341644 
19.42000000000024 -0.2016898262667499 
19.43000000000024 -0.2440171072483488 
19.44000000000024 -0.2917494251979206 
19.45000000000024 -0.3423315056219155 
19.46000000000024 -0.3929956330692569 
19.47000000000024 -0.4410094138838209 
19.48000000000025 -0.483906596589108 
19.49000000000025 -0.5196077061998219 
19.50000000000025 -0.5463965936921396 
19.51000000000025 -0.5628891459069751 
19.52000000000025 -0.5681661040585481 
19.53000000000025 -0.5620242097208493 
19.54000000000026 -0.5450926324460549 
19.55000000000026 -0.5186704061217923 
19.56000000000026 -0.484442909446384 
19.57000000000026 -0.4443188744373596 
19.58000000000026 -0.4003871073923284 
19.59000000000026 -0.3547899541911341 
19.60000000000026 -0.3094484491427169 
19.61000000000027 -0.265854646230157 
19.62000000000027 -0.2251651329707075 
19.63000000000027 -0.188541701140321 
19.64000000000027 -0.1574448770736668 
19.65000000000027 -0.1336514772321341 
19.66000000000027 -0.1190027767983331 
19.67000000000028 -0.1150272183654637 
19.68000000000028 -0.122581216028283 
19.69000000000028 -0.1416300960786525 
19.70000000000028 -0.1712553726766124 
19.71000000000028 -0.209845672409169 
19.72000000000028 -0.2552933851511076 
19.73000000000029 -0.3050738880866099 
19.74000000000029 -0.356291527633807 
19.75000000000029 -0.4058487784588374 
19.76000000000029 -0.4507211629861398 
19.77000000000029 -0.4881661484202328 
19.78000000000029 -0.5158024285853615 
19.79000000000029 -0.5317060257694238 
19.8000000000003 -0.5346579258651073 
19.8100000000003 -0.5244406329642372 
19.8200000000003 -0.5019336711887983 
19.8300000000003 -0.4688913078809143 
19.8400000000003 -0.4275325255260563 
19.8500000000003 -0.3801740448448817 
19.86000000000031 -0.329051481218847 
19.87000000000031 -0.2763411761674938 
19.88000000000031 -0.2243009606302281 
19.89000000000031 -0.1753825626067294 
19.90000000000031 -0.1321671091281477 
19.91000000000031 -0.09710599696992139 
19.92000000000031 -0.07223278306160355 
19.93000000000032 -0.05903528360360077 
19.94000000000032 -0.05849159427410708 
19.95000000000032 -0.0711114644872126 
19.96000000000032 -0.09688566550007954 
19.97000000000032 -0.135206306851851 
19.98000000000032 -0.18483602033426 
19.99000000000033 -0.243633489218883 
20.00000000000033 -0.3084240664063402 
