0.01 -4.808143473006756 
0.02 -3.68579216945678 
0.03 -2.904608810469493 
0.04 -3.02332948661018 
0.05 -3.157306181398406 
0.06000000000000001 -2.29940139375142 
0.07000000000000001 0.1265295013868991 
0.08 3.607757651524719 
0.09 5.171273256765885 
0.09999999999999999 1.407102861462599 
0.11 -5.756037247341653 
0.12 -9.368554595846351 
0.13 -6.779502562708712 
0.14 -2.955741063649839 
0.15 -0.9617094402090864 
0.16 2.712915370455558 
0.17 9.893460875587 
0.18 16.85292752215144 
0.19 21.07096683140011 
0.2 23.44920501371032 
0.2100000000000001 23.80385181123488 
0.2200000000000001 20.3927512929507 
0.2300000000000001 13.79928890540553 
0.2400000000000001 7.435374208353228 
0.2500000000000001 2.832431416144875 
0.2600000000000001 -3.307043485804312 
0.2700000000000001 -14.02617436773257 
0.2800000000000001 -25.81573017778599 
0.2900000000000001 -31.83988408673648 
0.3000000000000001 -30.0213828526261 
0.3100000000000001 -25.3757535011586 
0.3200000000000001 -24.90956310891942 
0.3300000000000001 -28.90002343985081 
0.3400000000000001 -28.87137361243248 
0.3500000000000001 -17.98540189943187 
0.3600000000000002 -0.7074421734720033 
0.3700000000000002 12.37785580200145 
0.3800000000000002 15.3359392043103 
0.3900000000000002 10.48722715828688 
0.4000000000000002 5.812281610354573 
0.4100000000000002 8.962484228318253 
0.4200000000000002 21.00969889907107 
0.4300000000000002 34.92767510465779 
0.4400000000000002 41.56992146604639 
0.4500000000000002 38.53139314173952 
0.4600000000000002 31.80150528403311 
0.4700000000000003 25.82979491855665 
0.4800000000000003 16.56290060390647 
0.4900000000000003 0.8130054332283082 
0.5000000000000002 -13.8495716332063 
0.5100000000000002 -16.29161843040344 
0.5200000000000002 -7.651057100683241 
0.5300000000000003 -3.416827987164957 
0.5400000000000003 -16.29767079952582 
0.5500000000000003 -38.74575108328721 
0.5600000000000003 -49.00486166807539 
0.5700000000000003 -36.37825113366546 
0.5800000000000003 -12.46233938839747 
0.5900000000000003 5.22088818775326 
0.6000000000000003 11.81961199158983 
0.6100000000000003 11.84615838002597 
0.6200000000000003 5.831095385357452 
0.6300000000000003 -8.155690608987928 
0.6400000000000004 -24.57929871574163 
0.6500000000000004 -33.86185574498765 
0.6600000000000004 -34.49133044494685 
0.6700000000000004 -31.82091274963661 
0.6800000000000004 -25.72433176494683 
0.6900000000000004 -12.09452720235073 
0.7000000000000004 3.47926566761572 
0.7100000000000004 8.236708363883302 
0.7200000000000004 4.148255824013066 
0.7300000000000004 15.94307290834885 
0.7400000000000004 63.37589896432311 
0.7500000000000004 127.2785255716468 
0.7600000000000005 157.2807250540333 
0.7700000000000005 122.5349701010605 
0.7800000000000005 46.64430257455907 
0.7900000000000005 -18.04439342835124 
0.8000000000000005 -44.33626115263417 
0.8100000000000005 -47.57471129803175 
0.8200000000000005 -52.58886336605511 
0.8300000000000005 -61.21242314736052 
0.8400000000000005 -58.8344435896074 
0.8500000000000005 -40.13143554260967 
0.8600000000000005 -18.82805831573378 
0.8700000000000006 -15.6485360279226 
0.8800000000000006 -40.11703325032141 
0.8900000000000006 -77.38121719722348 
0.9000000000000006 -92.08314905769623 
0.9100000000000006 -56.38976911055799 
0.9200000000000006 15.45092927704288 
0.9300000000000006 67.86486489370776 
0.9400000000000006 54.40239879118973 
0.9500000000000006 -10.70755503455857 
0.9600000000000006 -62.21969193207947 
0.9700000000000006 -50.61353788606425 
0.9800000000000007 11.2170220819703 
0.9900000000000007 72.47287940845649 
1.000000000000001 102.8690583382518 
1.010000000000001 109.582437300915 
1.020000000000001 103.7591824717935 
1.030000000000001 78.12419749725964 
1.040000000000001 27.57283956134292 
1.050000000000001 -26.14489115549671 
1.060000000000001 -48.30117070991091 
1.070000000000001 -28.75688495653426 
1.080000000000001 3.958739600773806 
1.090000000000001 14.97554140331662 
1.100000000000001 7.626683141302307 
1.110000000000001 -45.44571171797696 
1.120000000000001 -56.11589862946132 
1.130000000000001 -78.23975276464306 
1.140000000000001 -6.295682664025966 
1.150000000000001 41.11690696279725 
1.160000000000001 118.8271613756344 
1.170000000000001 76.03168389685649 
1.180000000000001 22.44042374726251 
1.190000000000001 -91.12813195700512 
1.200000000000001 -132.3797696317044 
1.210000000000001 -170.0180306753184 
1.220000000000001 -154.4811621144548 
1.230000000000001 -163.7650532643459 
1.240000000000001 -121.6840036617268 
1.250000000000001 -68.97600404894217 
1.260000000000001 20.92286149104117 
1.270000000000001 89.69357019165068 
1.280000000000001 119.1548928950382 
1.290000000000001 119.2330222622668 
1.300000000000001 124.044548123033 
1.310000000000001 181.5719745074401 
1.320000000000001 223.3014271393878 
1.330000000000001 252.665391407124 
1.340000000000001 139.8723221256238 
1.350000000000001 19.46064862665753 
1.360000000000001 -89.20470860982597 
1.370000000000001 -106.9537343927051 
1.380000000000001 -64.59539353246339 
1.390000000000001 -61.03489794936571 
1.400000000000001 -86.52608343539338 
1.410000000000001 -126.7875628743899 
1.420000000000001 -119.9997365533879 
1.430000000000001 -76.97069076017964 
1.440000000000001 -33.33660319734362 
1.450000000000001 -18.03150712578873 
1.460000000000001 -44.45198161747977 
1.470000000000001 -50.70126648972385 
1.480000000000001 -29.71330545944264 
1.490000000000001 18.13795172225598 
1.500000000000001 55.67033235472271 
1.510000000000001 16.39066658249351 
1.520000000000001 -13.2920082791368 
1.530000000000001 -33.518216170359 
1.540000000000001 50.72207497251721 
1.550000000000001 116.1416376575086 
1.560000000000001 160.279958462968 
1.570000000000001 103.4323060122963 
1.580000000000001 44.25475619592623 
1.590000000000001 -6.27843569477628 
1.600000000000001 -21.33441815990987 
1.610000000000001 -41.54183811296329 
1.620000000000001 -52.54859268871294 
1.630000000000001 -69.59431177223125 
1.640000000000001 -62.78599522963057 
1.650000000000001 -66.11804498353214 
1.660000000000001 -40.89192857417772 
1.670000000000001 -13.21339159690067 
1.680000000000001 1.820207626939123 
1.690000000000001 -24.67924462990334 
1.700000000000001 -57.65824064760496 
1.710000000000001 -8.444169919997741 
1.720000000000001 83.1833821888015 
1.730000000000001 174.5511906127388 
1.740000000000001 126.2479182842383 
1.750000000000001 16.89489858052864 
1.760000000000001 -108.5071871723766 
1.770000000000001 -125.2197514847681 
1.780000000000001 -89.14782444932214 
1.790000000000001 -7.311016078706653 
1.800000000000001 60.63978631469842 
1.810000000000001 116.4976291702154 
1.820000000000001 132.3796021345136 
1.830000000000001 89.54433422730007 
1.840000000000001 27.12675486651001 
1.850000000000001 -24.05136734093101 
1.860000000000001 -37.50419730766098 
1.870000000000001 -45.16225620117985 
1.880000000000001 -26.43944352629636 
1.890000000000002 13.27338694328659 
1.900000000000002 53.08814137710831 
1.910000000000002 30.58202202397816 
1.920000000000002 -74.10205801391969 
1.930000000000002 -164.1732716053841 
1.940000000000002 -174.5468523262641 
1.950000000000002 -76.14134112061656 
1.960000000000002 33.69619140755466 
1.970000000000002 120.5572894239386 
1.980000000000002 114.3941919690517 
1.990000000000002 53.03158539655032 
2.000000000000001 -72.93813504100282 
2.010000000000001 -175.0447528100096 
2.020000000000001 -203.7662244874299 
2.030000000000001 -113.2187494697882 
2.040000000000001 9.687261772092716 
2.05 99.69947285787141 
2.06 147.8823361044161 
2.07 109.4233055817129 
2.08 111.2573277686074 
2.089999999999999 -10.8624287617529 
2.099999999999999 -27.75374674685295 
2.109999999999999 -82.58964896383513 
2.119999999999999 47.1025110260627 
2.129999999999999 176.4366240550723 
2.139999999999998 275.8441219318522 
2.149999999999998 122.1599163901418 
2.159999999999998 26.97003245278094 
2.169999999999998 -265.182651407112 
2.179999999999998 -169.4350414444243 
2.189999999999997 -266.5019459396315 
2.199999999999997 -42.0009447237135 
2.209999999999997 93.35880675596889 
2.219999999999997 239.8369581614387 
2.229999999999996 272.1899531551286 
2.239999999999996 63.22535525924506 
2.249999999999996 -28.13979919998508 
2.259999999999996 -253.7103447076905 
2.269999999999996 -164.1052742268048 
2.279999999999995 -239.3085917538278 
2.289999999999995 -76.47457991717241 
2.299999999999995 17.3882104289485 
2.309999999999995 162.9209183759372 
2.319999999999995 194.2933019681046 
2.329999999999994 -80.75837164741952 
2.339999999999994 -156.4609304207851 
2.349999999999994 -442.7873963214416 
2.359999999999994 -112.9145078399673 
2.369999999999993 -139.5487556920161 
2.379999999999993 311.1491485161869 
2.389999999999993 235.110535151073 
2.399999999999993 459.2534237730701 
2.409999999999993 140.1607207618521 
2.419999999999992 145.6792852509804 
2.429999999999992 -121.5544959661456 
2.439999999999992 61.36624885715053 
2.449999999999992 13.48772247752402 
2.459999999999992 215.1029820118419 
2.469999999999991 175.5332108423213 
2.479999999999991 227.2489722821408 
2.489999999999991 104.6026555378616 
2.499999999999991 -120.4666476722906 
2.509999999999991 -358.9876079176497 
2.51999999999999 -580.4692344319193 
2.52999999999999 -400.9117566770635 
2.53999999999999 -243.6047269371805 
2.54999999999999 -49.21818364301037 
2.559999999999989 263.5631857870654 
2.569999999999989 -268.439199954887 
2.579999999999989 251.9442128755578 
2.589999999999989 -609.5049639116803 
2.599999999999989 338.0535645091297 
2.609999999999988 -407.6912809024541 
2.619999999999988 738.7095177913919 
2.629999999999988 -23.68725733173109 
2.639999999999988 859.1715492561774 
2.649999999999988 -89.82045281935756 
2.659999999999987 415.0819099804749 
2.669999999999987 -480.1358336651863 
2.679999999999987 16.35271499484777 
2.689999999999987 -491.1935195980901 
2.699999999999986 58.49114797063457 
2.709999999999986 -19.17124935566707 
2.719999999999986 328.5332534673981 
2.729999999999986 209.9423994187191 
2.739999999999986 65.99199149339178 
2.749999999999985 -87.40248882493674 
2.759999999999985 -273.7396746682947 
2.769999999999985 10.16632038023219 
2.779999999999985 -60.62567830696878 
2.789999999999985 318.5739969060201 
2.799999999999984 -5.060090536373109 
2.809999999999984 135.7782356993855 
2.819999999999984 -359.9762643696425 
2.829999999999984 -103.5973024869755 
2.839999999999983 -434.329139512225 
2.849999999999983 -23.63362813280098 
2.859999999999983 -239.9129573734854 
2.869999999999983 139.0743885339161 
2.879999999999983 12.28558572239911 
2.889999999999982 281.731665494326 
2.899999999999982 3.148526746630652 
2.909999999999982 54.58347870421033 
2.919999999999982 -220.2866746122888 
2.929999999999982 -106.6059150017754 
2.939999999999981 -56.76583113163542 
2.949999999999981 131.0744181834372 
2.959999999999981 177.2649727610216 
2.969999999999981 59.18297222905468 
2.97999999999998 -0.7209942188440817 
2.98999999999998 -156.8154023937823 
2.99999999999998 15.48239507898984 
3.00999999999998 7.87172248548852 
3.01999999999998 283.6816536238047 
3.029999999999979 268.9454372510965 
3.039999999999979 394.4314979992121 
3.049999999999979 194.7185445759202 
3.059999999999979 175.0724483701728 
3.069999999999979 -82.57605755345402 
3.079999999999978 -129.6679542427109 
3.089999999999978 -330.3490038339177 
3.099999999999978 -247.4758619778029 
3.109999999999978 -194.7081588104879 
3.119999999999978 41.45412331594664 
3.129999999999977 74.83528356296152 
3.139999999999977 30.19374390764341 
3.149999999999977 -142.2115948039597 
3.159999999999977 -262.9352817005003 
3.169999999999976 -206.8773200962089 
3.179999999999976 -100.6851201146244 
3.189999999999976 106.3652613842068 
3.199999999999976 118.7793289377388 
3.209999999999976 115.4273820417798 
3.219999999999975 -88.82590804731638 
3.229999999999975 -146.0420994155236 
3.239999999999975 -201.275626972071 
3.249999999999975 -92.28369459406152 
3.259999999999975 22.96817905906982 
3.269999999999974 170.8635456762805 
3.279999999999974 299.2267115825506 
3.289999999999974 407.0783157909369 
3.299999999999974 433.1012840457995 
3.309999999999973 341.3312468166234 
3.319999999999973 196.8653286383998 
3.329999999999973 91.52506574926269 
3.339999999999973 -0.4723915910948441 
3.349999999999973 158.2876813743164 
3.359999999999972 166.170534829788 
3.369999999999972 83.7559937240988 
3.379999999999972 -48.03694909336495 
3.389999999999972 -403.7266076323122 
3.399999999999972 -311.6636511231873 
3.409999999999971 -434.2334537904471 
3.419999999999971 -161.3828490263353 
3.429999999999971 -119.5476578157749 
3.439999999999971 -11.5291522392294 
3.44999999999997 20.73690763186251 
3.45999999999997 -113.3604664298106 
3.46999999999997 -36.66398995677677 
3.47999999999997 -314.2630063730844 
3.48999999999997 -223.8993227965897 
3.499999999999969 -414.9931972395501 
3.509999999999969 -153.1151917971206 
3.519999999999969 -32.09060306797189 
3.529999999999969 173.1525097461173 
3.539999999999969 151.3175899130424 
3.549999999999968 127.7360937016079 
3.559999999999968 87.31092470015813 
3.569999999999968 125.5147840484235 
3.579999999999968 225.095184023645 
3.589999999999967 393.7262349837464 
3.599999999999967 472.6624019244885 
3.609999999999967 436.5898273311881 
3.619999999999967 278.4426960781759 
3.629999999999967 96.95235925646286 
3.639999999999966 -32.69583398147885 
3.649999999999966 -204.9082831344283 
3.659999999999966 -254.3688675608567 
3.669999999999966 -255.4432378348413 
3.679999999999966 -174.9616858608011 
3.689999999999965 -133.2712139475649 
3.699999999999965 -191.6005063707171 
3.709999999999965 -287.4386433221264 
3.719999999999965 -608.3249738705071 
3.729999999999965 -633.4927907293929 
3.739999999999964 -830.7369643762836 
3.749999999999964 -602.3593642584347 
3.759999999999964 -647.8689481488344 
3.769999999999964 -480.7765485365947 
3.779999999999963 -434.181948625955 
3.789999999999963 -313.9725285779623 
3.799999999999963 -246.7506946804141 
3.809999999999963 -146.3216671490838 
3.819999999999963 90.40155868365596 
3.829999999999962 231.6883215638331 
3.839999999999962 486.3219938957731 
3.849999999999962 845.3027094977833 
3.859999999999962 1067.584826980093 
3.869999999999962 1168.835232866728 
3.879999999999961 1234.889585830702 
3.889999999999961 976.557717858699 
3.899999999999961 918.8993952632578 
3.909999999999961 613.3824997237308 
3.91999999999996 668.2349550220918 
3.92999999999996 585.8797825437131 
3.93999999999996 597.0738253251495 
3.94999999999996 595.9703531983009 
3.95999999999996 572.2590809235348 
3.969999999999959 596.1613597673337 
3.979999999999959 427.0045019186086 
3.989999999999959 329.4908270998834 
3.999999999999959 -77.41547861002691 
4.009999999999959 -561.8769205041227 
4.019999999999959 -1073.500216608244 
4.029999999999959 -1346.971909548612 
4.039999999999958 -1479.533736305002 
4.049999999999958 -1138.614513021941 
4.059999999999958 -1375.479604789764 
4.069999999999958 -1570.491124333914 
4.079999999999957 -1609.666153612582 
4.089999999999957 -1823.083567895439 
4.099999999999957 -1285.957697795095 
4.109999999999957 -1461.958757340775 
4.119999999999957 -909.7252213455419 
4.129999999999956 -586.1978655755852 
4.139999999999956 71.69213098621569 
4.149999999999956 387.7858428912883 
4.159999999999956 809.4957251547735 
4.169999999999956 1122.281523941721 
4.179999999999955 1547.483247986514 
4.189999999999955 1374.506671598334 
4.199999999999955 1251.20159021698 
4.209999999999955 1008.638542354557 
4.219999999999955 1205.231381598238 
4.229999999999954 1925.826946141937 
4.239999999999954 1788.999397491175 
4.249999999999954 1960.61206559457 
4.259999999999954 1103.376674460056 
4.269999999999953 888.1014286056726 
4.279999999999953 268.2716595972329 
4.289999999999953 349.3348331839301 
4.299999999999953 203.2083616093423 
4.309999999999953 -134.414424102184 
4.319999999999952 -406.0957525641405 
4.329999999999952 -1233.353350191763 
4.339999999999952 -1268.709615533853 
4.349999999999952 -1749.819809067553 
4.359999999999952 -1559.0438253663 
4.369999999999951 -1967.422807238427 
4.379999999999951 -1835.91789680016 
4.389999999999951 -1363.487999765882 
4.399999999999951 -305.517525534579 
4.40999999999995 263.1596639235339 
4.41999999999995 -237.543204726464 
4.42999999999995 -763.4056631016163 
4.43999999999995 -872.7690285406022 
4.44999999999995 10.5012148587937 
4.459999999999949 431.3314982241579 
4.469999999999949 765.1339579556161 
4.479999999999949 225.636872313707 
4.489999999999949 430.6200626628423 
4.499999999999949 597.8973527181026 
4.509999999999948 908.5111397042292 
4.519999999999948 802.7854491568724 
4.529999999999948 610.6460083069703 
4.539999999999948 693.6970647911602 
4.549999999999947 1209.218987204851 
4.559999999999947 1793.952707900433 
4.569999999999947 1728.485415204526 
4.579999999999947 1537.360407995708 
4.589999999999947 336.3346474733484 
4.599999999999946 -79.89481133848305 
4.609999999999946 -581.4653822206393 
4.619999999999946 -482.7859430530353 
4.629999999999946 -646.6378075837882 
4.639999999999946 -912.4722955981604 
4.649999999999945 -1198.360999753644 
4.659999999999945 -1430.774693436956 
4.669999999999945 -950.1885519343759 
4.679999999999945 -1131.593605363951 
4.689999999999944 -1031.825472278244 
4.699999999999944 -1262.22254747829 
4.709999999999944 -853.5142284095404 
4.719999999999944 -267.9984120194817 
4.729999999999944 -72.72878795588252 
4.739999999999943 -239.8577966830834 
4.749999999999943 -495.9542521793848 
4.759999999999943 -524.3925426658155 
4.769999999999943 -205.4212499338867 
4.779999999999943 182.454113065682 
4.789999999999942 585.1688978991227 
4.799999999999942 1089.521004408988 
4.809999999999942 1496.549252252491 
4.819999999999942 1748.862334362583 
4.829999999999942 1602.15433450431 
4.839999999999941 1498.764426831923 
4.849999999999941 1439.404776783673 
4.859999999999941 997.6383152634445 
4.869999999999941 952.8414036579895 
4.87999999999994 981.2519587297802 
4.88999999999994 387.316453700086 
4.89999999999994 342.78924176301 
4.90999999999994 -960.847275146549 
4.91999999999994 -832.5163480651557 
4.929999999999939 -1481.78317761888 
4.939999999999939 -1495.264822646172 
4.949999999999939 -1334.811815449845 
4.959999999999939 -1519.966338021353 
4.969999999999939 -623.9150028138457 
4.979999999999938 -1081.103358579275 
4.989999999999938 -306.4283041398075 
4.999999999999938 -1193.456513179933 
5.009999999999938 -771.6640170617133 
5.019999999999937 -963.8545425206055 
5.029999999999937 -478.2590865674757 
5.039999999999937 24.49489434402312 
5.049999999999937 -31.79948865402652 
5.059999999999937 580.3417275951202 
5.069999999999936 355.301536492961 
5.079999999999936 943.8245306825099 
5.089999999999936 837.7678146201889 
5.099999999999936 1117.485334862949 
5.109999999999936 979.7225215826509 
5.119999999999935 1169.330559770232 
5.129999999999935 1140.746747099873 
5.139999999999935 1356.699290835906 
5.149999999999935 901.5352482924488 
5.159999999999934 605.6189087510317 
5.169999999999934 -61.07281602275242 
5.179999999999934 -152.6387847875611 
5.189999999999934 -296.1609848330346 
5.199999999999934 -234.6447962216938 
5.209999999999933 -154.8526427373285 
5.219999999999933 -553.4284727854789 
5.229999999999933 -394.77939833533 
5.239999999999933 -857.0474772161119 
5.249999999999933 -436.5596884804951 
5.259999999999932 -927.1756160246118 
5.269999999999932 -745.0875893650242 
5.279999999999932 -981.474382797995 
5.289999999999932 -651.4664133348309 
5.299999999999931 -505.4283565107522 
5.309999999999931 -540.5514128429637 
5.319999999999931 -550.8719194630579 
5.329999999999931 -784.4908253790563 
5.339999999999931 -414.8123587999872 
5.34999999999993 -206.7055201979505 
5.35999999999993 357.3227591085451 
5.36999999999993 646.2441473401902 
5.37999999999993 972.9397179178338 
5.38999999999993 1070.31461637146 
5.399999999999929 1164.483376173107 
5.409999999999929 987.043334196325 
5.419999999999929 827.3035387700562 
5.429999999999929 554.440015410204 
5.439999999999928 534.3518753429801 
5.449999999999928 458.7911529701393 
5.459999999999928 562.6768521521668 
5.469999999999928 411.0270077287042 
5.479999999999928 213.4998490941518 
5.489999999999927 40.57022835414553 
5.499999999999927 -174.5910943460108 
5.509999999999927 -179.1646366485248 
5.519999999999927 -342.6430094359864 
5.529999999999927 -378.541737460571 
5.539999999999926 -525.8000874414771 
5.549999999999926 -545.2463831606395 
5.559999999999926 -676.7364834127524 
5.569999999999926 -874.3654351227349 
5.579999999999926 -1107.032116923059 
5.589999999999925 -1263.424257492567 
5.599999999999925 -1135.335732987406 
5.609999999999925 -824.2909565832885 
5.619999999999925 -452.6433454495059 
5.629999999999924 -61.74374631191336 
5.639999999999924 190.890900489402 
5.649999999999924 453.5534338635196 
5.659999999999924 627.2208885613464 
5.669999999999924 828.9474003593148 
5.679999999999923 960.6560774737179 
5.689999999999923 1029.842346774206 
5.699999999999923 1015.817737395183 
5.709999999999923 977.3658588141691 
5.719999999999923 907.8883204608018 
5.729999999999922 682.5360335575055 
5.739999999999922 374.8377101456901 
5.749999999999922 13.97968044237888 
5.759999999999922 -128.9037946248006 
5.769999999999921 -148.1066248940167 
5.779999999999921 -88.88664225352305 
5.789999999999921 -196.58084619143 
5.799999999999921 -373.6830460509522 
5.809999999999921 -595.1364023034715 
5.81999999999992 -702.0183694873974 
5.82999999999992 -818.1615465864237 
5.83999999999992 -856.4119428155354 
5.84999999999992 -868.1992978464364 
5.85999999999992 -803.5049879360787 
5.869999999999919 -656.2401808261107 
5.879999999999919 -490.1924855278288 
5.889999999999919 -289.8174251888054 
5.899999999999919 -176.0718059427204 
5.909999999999918 37.60729755012054 
5.919999999999918 258.8923682244772 
5.929999999999918 620.150837765206 
5.939999999999918 864.6579645421016 
5.949999999999918 1041.791355582704 
5.959999999999917 1013.610625738634 
5.969999999999917 896.0263683119437 
5.979999999999917 739.6993847376356 
5.989999999999917 624.4769416154175 
5.999999999999917 544.6987362930471 
6.009999999999916 432.7854219228407 
6.019999999999916 328.2793253941766 
6.029999999999916 202.8342294443152 
6.039999999999916 90.11962535456624 
6.049999999999915 -136.4212364236065 
6.059999999999915 -364.9435162629965 
6.069999999999915 -562.0089306294449 
6.079999999999915 -614.1830351677443 
6.089999999999915 -627.067603430118 
6.099999999999914 -633.1640702583309 
6.109999999999914 -718.1895323971249 
6.119999999999914 -819.5382481546952 
6.129999999999914 -881.6365234137053 
6.139999999999914 -861.2590202982581 
6.149999999999913 -794.8433690602714 
6.159999999999913 -637.0297568777581 
6.169999999999913 -409.8540723856348 
6.179999999999913 -112.9757587955903 
6.189999999999913 175.4533452437595 
6.199999999999912 353.8310568427237 
6.209999999999912 441.6029974098931 
6.219999999999912 449.6559974220891 
6.229999999999912 493.2371978890763 
6.239999999999911 567.2546810649873 
6.249999999999911 698.2825077449774 
6.259999999999911 791.0939619460462 
6.269999999999911 805.734868061664 
6.279999999999911 743.4973277592111 
6.28999999999991 634.5101951254753 
6.29999999999991 557.4943313470803 
6.30999999999991 505.5662135224386 
6.31999999999991 438.4841420168564 
6.32999999999991 358.9675847939377 
6.339999999999909 269.2910580069711 
6.349999999999909 175.0852421395308 
6.359999999999909 -5.586447252651258 
6.369999999999909 -279.0029624319646 
6.379999999999908 -623.6316263078386 
6.389999999999908 -892.5510051337991 
6.399999999999908 -1008.70881040595 
6.409999999999908 -994.2537723984275 
6.419999999999908 -918.1066777905077 
6.429999999999907 -843.7350964698354 
6.439999999999907 -744.04767005417 
6.449999999999907 -625.499831111274 
6.459999999999907 -487.2803517787502 
6.469999999999907 -348.7458393833745 
6.479999999999906 -196.6819560796392 
6.489999999999906 -11.05893488724182 
6.499999999999906 179.3520742176416 
6.509999999999906 346.8227641779299 
6.519999999999905 455.8212344579114 
6.529999999999905 498.9609997071783 
6.539999999999905 513.0684893674031 
6.549999999999905 529.083830539934 
6.559999999999905 609.7260938127142 
6.569999999999904 708.6111699426041 
6.579999999999904 812.1577496507955 
6.589999999999904 854.8463612331377 
6.599999999999904 834.3951812424424 
6.609999999999904 740.555879591063 
6.619999999999903 573.8946841101148 
6.629999999999903 373.1449760444165 
6.639999999999903 144.4132036593109 
6.649999999999903 -59.27473480622019 
6.659999999999902 -244.0051201660399 
6.669999999999902 -396.0066121473113 
6.679999999999902 -556.1221336389531 
6.689999999999902 -728.5553943982121 
6.699999999999902 -872.1428841607611 
6.709999999999901 -942.8350180725246 
6.719999999999901 -927.3066374621225 
6.729999999999901 -873.1567708473617 
6.739999999999901 -811.0806969601985 
6.749999999999901 -750.2998188742196 
6.7599999999999 -693.240399656946 
6.7699999999999 -627.0814841362853 
6.7799999999999 -543.2649641357101 
6.7899999999999 -415.7458656612982 
6.7999999999999 -224.8659955831258 
6.809999999999899 38.54706882379451 
6.819999999999899 359.9407094369866 
6.829999999999899 690.4795003058429 
6.839999999999899 990.7697587597077 
6.849999999999898 1225.561793177115 
6.859999999999898 1397.98176611236 
6.869999999999898 1498.026906509663 
6.879999999999898 1510.725078074526 
6.889999999999898 1414.198216434237 
6.899999999999897 1185.550101090267 
6.909999999999897 841.8201250770038 
6.919999999999897 418.7425143067295 
6.929999999999897 -20.77902835863675 
6.939999999999897 -437.473471810906 
6.949999999999896 -799.993665797871 
6.959999999999896 -1081.878448122686 
6.969999999999896 -1263.579912696352 
6.979999999999896 -1328.607600258953 
6.989999999999895 -1318.882990603103 
6.999999999999895 -1257.448470551984 
7.009999999999895 -1175.310703473425 
7.019999999999895 -1050.252554712273 
7.029999999999895 -864.0932881188101 
7.039999999999894 -631.4172181708852 
7.049999999999894 -370.3482497192296 
7.059999999999894 -129.4949336082581 
7.069999999999894 102.3760035895403 
7.079999999999894 314.1447980126122 
7.089999999999893 532.3998762412857 
7.099999999999893 747.6137042982982 
7.109999999999893 954.7236097423069 
7.119999999999893 1140.63317570287 
7.129999999999892 1290.810749409523 
7.139999999999892 1388.607493766847 
7.149999999999892 1402.095303496425 
7.159999999999892 1304.208059664087 
7.169999999999892 1084.608666117153 
7.179999999999891 774.6940801263934 
7.189999999999891 422.1227268740311 
7.199999999999891 75.07522698042237 
7.209999999999891 -254.567515681689 
7.219999999999891 -555.360612020289 
7.22999999999989 -813.9723719666355 
7.23999999999989 -1002.657309688089 
7.24999999999989 -1120.424845428988 
7.25999999999989 -1176.693932989298 
7.269999999999889 -1195.965155142528 
7.279999999999889 -1176.287198607872 
7.289999999999889 -1107.750724793303 
7.299999999999889 -980.934035311526 
7.309999999999889 -808.4005356850465 
7.319999999999888 -614.6968718597818 
7.329999999999888 -412.4530953541299 
7.339999999999888 -195.0036399828214 
7.349999999999888 46.1762354945684 
7.359999999999888 300.3640045123761 
7.369999999999887 558.5641334567781 
7.379999999999887 818.5588596977173 
7.389999999999887 1075.860129820648 
7.399999999999887 1300.074753722176 
7.409999999999887 1441.316403285488 
7.419999999999886 1452.530429199257 
7.429999999999886 1328.704298873352 
7.439999999999886 1096.834994286313 
7.449999999999886 807.7250511150725 
7.459999999999885 492.2552705033473 
7.469999999999885 174.8300865271522 
7.479999999999885 -124.5479324881084 
7.489999999999885 -380.0276911777789 
7.499999999999885 -584.1667353596826 
7.509999999999884 -744.3762882934357 
7.519999999999884 -869.4543564333117 
7.529999999999884 -954.9033302323832 
7.539999999999884 -987.7634876664902 
7.549999999999884 -961.4182349609491 
7.559999999999883 -885.1240940920026 
7.569999999999883 -784.9853106554474 
7.579999999999883 -691.4214026143959 
7.589999999999883 -620.221956764506 
7.599999999999882 -554.154738131094 
7.609999999999882 -456.7423968159861 
7.619999999999882 -296.1574817745789 
7.629999999999882 -74.93487582364124 
7.639999999999882 184.6416715522775 
7.649999999999881 457.4157520042203 
7.659999999999881 728.614353947266 
7.669999999999881 970.6343516385617 
7.679999999999881 1139.289858197065 
7.689999999999881 1190.806953529592 
7.69999999999988 1120.566745851964 
7.70999999999988 960.9851091980411 
7.71999999999988 740.4033622011285 
7.72999999999988 464.3550636548551 
7.739999999999879 129.0026563542959 
7.749999999999879 -233.4134119392435 
7.759999999999879 -557.2821785942357 
7.769999999999879 -774.1962988114823 
7.779999999999879 -861.9709684411847 
7.789999999999878 -850.1036983243893 
7.799999999999878 -786.7119154439707 
7.809999999999878 -695.2915915887439 
7.819999999999878 -565.4496766042294 
7.829999999999878 -389.1422889344621 
7.839999999999877 -189.0652772970783 
7.849999999999877 -7.361043544184048 
7.859999999999877 136.7761884228166 
7.869999999999877 259.1876458922731 
7.879999999999876 383.6998447440211 
7.889999999999876 493.9415170172951 
7.899999999999876 550.8251401351256 
7.909999999999876 536.818700242319 
7.919999999999876 497.0489634821293 
7.929999999999875 487.2009752005233 
7.939999999999875 520.4013928216743 
7.949999999999875 547.1285032785628 
7.959999999999875 516.9176858980974 
7.969999999999875 417.0597694762102 
7.979999999999874 264.4737977258872 
7.989999999999874 74.75947750993311 
7.999999999999874 -145.723002027444 
8.009999999999874 -376.5593731033192 
8.019999999999874 -587.0448983408937 
8.029999999999873 -746.3363879536105 
8.039999999999873 -843.2164658312114 
8.049999999999873 -871.0443390101716 
8.059999999999873 -831.5673372088819 
8.069999999999872 -737.5857517368149 
8.079999999999872 -614.294189394221 
8.089999999999872 -475.104078394516 
8.099999999999872 -314.8045482192257 
8.109999999999872 -132.6843447389898 
8.119999999999871 43.23131190841168 
8.129999999999871 176.8172225757706 
8.139999999999871 264.4828311820403 
8.149999999999871 337.5389155748906 
8.159999999999871 420.2384375168276 
8.16999999999987 501.1715769957696 
8.17999999999987 555.9365769677772 
8.18999999999987 580.4315309080811 
8.19999999999987 589.3546502534824 
8.209999999999869 585.1583341712421 
8.219999999999869 555.2539968761179 
8.229999999999869 490.3461385484775 
8.239999999999869 397.3283671549863 
8.249999999999869 279.5070048087054 
8.259999999999868 127.2366886253359 
8.269999999999868 -61.2887731340683 
8.279999999999868 -257.1637296628019 
8.289999999999868 -418.8247284544118 
8.299999999999868 -529.2055058010486 
8.309999999999867 -599.53248854738 
8.319999999999867 -635.4947930168612 
8.329999999999867 -622.3636662368108 
8.339999999999867 -550.1145813191108 
8.349999999999866 -443.7203720359813 
8.359999999999866 -343.3944169202309 
8.369999999999866 -267.9256369750751 
8.379999999999866 -200.5511592360816 
8.389999999999866 -119.7612945610889 
8.399999999999865 -20.87078028153216 
8.409999999999865 84.03030815286418 
8.419999999999865 180.1767444834915 
8.429999999999865 254.0365321755075 
8.439999999999865 299.7457537416534 
8.449999999999864 330.2171773331167 
8.459999999999864 376.6328986865885 
8.469999999999864 460.9464743541208 
8.479999999999864 568.7400203211291 
8.489999999999863 657.7908152723072 
8.499999999999863 695.2670722702167 
8.509999999999863 676.9232044422788 
8.519999999999863 605.0142975124834 
8.529999999999863 468.1865351882388 
8.539999999999862 257.7518940624674 
8.549999999999862 4.760224788374015 
8.559999999999862 -226.9007719722519 
8.569999999999862 -387.0764504841955 
8.579999999999862 -477.9957997237177 
8.589999999999861 -535.5839758436629 
8.599999999999861 -590.6944219954027 
8.609999999999861 -646.2697283619752 
8.619999999999861 -687.7097405775559 
8.62999999999986 -694.7936313974956 
8.63999999999986 -652.8277467601509 
8.64999999999986 -562.1681837633348 
8.65999999999986 -447.6200055276944 
8.66999999999986 -345.0208266535573 
8.679999999999859 -273.3793167617898 
8.689999999999859 -217.4331907778065 
8.699999999999859 -147.6673125972017 
8.709999999999859 -48.4604246174317 
8.719999999999859 77.06304746379257 
8.729999999999858 227.8928840875231 
8.739999999999858 409.8224034542715 
8.749999999999858 611.5525181742563 
8.759999999999858 789.241702546275 
8.769999999999858 890.2461365725922 
8.779999999999857 894.9195507216122 
8.789999999999857 826.5807104150933 
8.799999999999857 725.3022850654672 
8.809999999999857 614.5315898167746 
8.819999999999856 493.3261134798644 
8.829999999999856 345.6171215743415 
8.839999999999856 158.7933391132531 
8.849999999999856 -61.4263423372726 
8.859999999999856 -282.2493614897142 
8.869999999999855 -457.8617608869658 
8.879999999999855 -556.959196437746 
8.889999999999855 -583.88741205191 
8.899999999999855 -568.3972331269907 
8.909999999999855 -537.6959980060901 
8.919999999999854 -503.1747524261265 
8.929999999999854 -472.1447300453694 
8.939999999999854 -458.2589344235336 
8.949999999999854 -465.4596230725929 
8.959999999999853 -469.6730283330063 
8.969999999999853 -429.096988073872 
8.979999999999853 -321.6542521075141 
8.989999999999853 -162.7668002245805 
8.999999999999853 10.0929281563281 
9.009999999999852 167.4626480125156 
9.019999999999852 299.0937932559966 
9.029999999999852 410.8007264401717 
9.039999999999852 512.5032963671865 
9.049999999999852 607.3262897601824 
9.059999999999851 680.2795557771129 
9.069999999999851 703.0363003137769 
9.079999999999851 652.9844370790722 
9.089999999999851 533.898888960787 
9.09999999999985 372.3295356700514 
9.10999999999985 197.5418274492241 
9.11999999999985 27.2836287309641 
9.12999999999985 -125.2109105363476 
9.13999999999985 -243.0342526835426 
9.149999999999849 -315.682946657575 
9.159999999999849 -354.6908392883664 
9.169999999999849 -386.2526783087273 
9.179999999999849 -423.5729416052687 
9.189999999999849 -453.6379168763437 
9.199999999999848 -454.8899611349153 
9.209999999999848 -421.4405172511458 
9.219999999999848 -366.1352120912854 
9.229999999999848 -307.3588143768305 
9.239999999999847 -258.1031089019582 
9.249999999999847 -222.4572170296992 
9.259999999999847 -190.9484670140425 
9.269999999999847 -141.3017283863802 
9.279999999999847 -49.7342760405036 
9.289999999999846 89.49170655649454 
9.299999999999846 257.3962427421869 
9.309999999999846 419.9561833575089 
9.319999999999846 544.900958391513 
9.329999999999846 609.1669665614174 
9.339999999999845 601.6222091707766 
9.349999999999845 527.5868215437997 
9.359999999999845 413.1837814313874 
9.369999999999845 294.7448133207372 
9.379999999999845 195.9734914504466 
9.389999999999844 116.589218694143 
9.399999999999844 43.27564485354139 
9.409999999999844 -31.59675862154125 
9.419999999999844 -106.088564427228 
9.429999999999843 -173.7463688067964 
9.439999999999843 -225.8240537039452 
9.449999999999843 -251.1009974122214 
9.459999999999843 -245.4334508099329 
9.469999999999843 -223.3807514918722 
9.479999999999842 -214.0938557687647 
9.489999999999842 -238.6440679390404 
9.499999999999842 -291.6595183883184 
9.509999999999842 -345.6557744656098 
9.519999999999842 -373.4553997565565 
9.529999999999841 -363.9105245157097 
9.539999999999841 -319.5790157731065 
9.549999999999841 -246.2342670354325 
9.559999999999841 -151.0519350167402 
9.56999999999984 -47.90015674049681 
9.57999999999984 46.02588964444943 
9.58999999999984 124.1553156784493 
9.59999999999984 197.2458504640485 
9.60999999999984 280.8120631429769 
9.619999999999839 375.4000861149678 
9.629999999999839 459.1594354053767 
9.639999999999839 499.3950579287145 
9.649999999999839 473.5834792080766 
9.659999999999839 388.6348410084051 
9.669999999999838 281.4846134382935 
9.679999999999838 196.9087021480001 
9.689999999999838 154.9910080198543 
9.699999999999838 140.3353700117077 
9.709999999999837 120.884096743239 
9.719999999999837 77.80896783496362 
9.729999999999837 13.42098248511372 
9.739999999999837 -63.03591733809952 
9.749999999999837 -150.4692830846415 
9.759999999999836 -248.6714228957197 
9.769999999999836 -343.6217096001458 
9.779999999999836 -409.9002868217378 
9.789999999999836 -434.3678910914176 
9.799999999999836 -428.7424012371874 
9.809999999999835 -411.5758565602814 
9.819999999999835 -384.3106280182939 
9.829999999999835 -332.3463211614997 
9.839999999999835 -247.2513661210115 
9.849999999999834 -136.8707806887514 
9.859999999999834 -17.68035461838809 
9.869999999999834 93.80033857580449 
9.879999999999834 181.5544671104856 
9.889999999999834 234.8118818530223 
9.899999999999833 258.1081194340066 
9.909999999999833 270.2545922960458 
9.919999999999833 286.7485084808336 
9.929999999999833 304.6732242444463 
9.939999999999833 309.7492355514989 
9.949999999999832 295.2228978426658 
9.959999999999832 267.8767568937269 
9.969999999999832 233.8889988597026 
9.979999999999832 189.1469265752437 
9.989999999999832 128.2298315133554 
9.999999999999831 58.48291503705101 
10.00999999999983 -6.33601295728255 
10.01999999999983 -63.321709102527 
10.02999999999983 -122.5621328807602 
10.03999999999983 -190.2021105236018 
10.04999999999983 -258.9679407898399 
10.05999999999983 -317.0071798167637 
10.06999999999983 -357.3158029264862 
10.07999999999983 -372.9462393892208 
10.08999999999983 -351.7610306616703 
10.09999999999983 -286.4244788272703 
10.10999999999983 -187.9109259484719 
10.11999999999983 -80.76132060162315 
10.12999999999983 15.94653831508526 
10.13999999999983 97.28596967591645 
10.14999999999983 160.339340381583 
10.15999999999983 194.6793497318826 
10.16999999999983 192.1651620014133 
10.17999999999983 164.0575301685915 
10.18999999999983 134.6051857825614 
10.19999999999983 117.716595842673 
10.20999999999983 106.237692127486 
10.21999999999983 89.98032461051658 
10.22999999999983 73.5846831012405 
10.23999999999983 69.04456842931099 
10.24999999999983 76.16578488113288 
10.25999999999983 81.01843297682051 
10.26999999999983 73.23391626355854 
10.27999999999983 55.85775288145047 
10.28999999999983 36.62814632839259 
10.29999999999983 17.22820869660754 
10.30999999999983 -4.363277122634092 
10.31999999999982 -26.04231145886061 
10.32999999999982 -42.0809083011571 
10.33999999999982 -50.37618954120756 
10.34999999999982 -54.1845436247806 
10.35999999999982 -55.47782058869942 
10.36999999999982 -51.59775694154654 
10.37999999999982 -41.45994566454543 
10.38999999999982 -32.06789912946 
10.39999999999982 -33.11534389188481 
10.40999999999982 -46.17276987652562 
10.41999999999982 -64.56037057558801 
10.42999999999982 -83.59813025639271 
10.43999999999982 -105.2405443731984 
10.44999999999982 -129.2618800340335 
10.45999999999982 -146.6771508026273 
10.46999999999982 -145.8179127767361 
10.47999999999982 -124.580086253172 
10.48999999999982 -90.82641368893918 
10.49999999999982 -52.22847256766121 
10.50999999999982 -7.292541130434993 
10.51999999999982 50.21807707825586 
10.52999999999982 119.831510095084 
10.53999999999982 188.8060810572768 
10.54999999999982 238.8017516804394 
10.55999999999982 257.0474063156961 
10.56999999999982 240.2754564908441 
10.57999999999982 194.1173967253447 
10.58999999999982 131.0529126709681 
10.59999999999982 68.88972343111477 
10.60999999999982 22.35386453739249 
10.61999999999982 -3.337761539284427 
10.62999999999982 -12.4854521521873 
10.63999999999982 -11.9391784956142 
10.64999999999982 -8.315531162866984 
10.65999999999982 -9.154620912794808 
10.66999999999982 -20.90974335342292 
10.67999999999982 -43.84857648513834 
10.68999999999982 -69.82744573228382 
10.69999999999982 -89.95041048106046 
10.70999999999982 -102.4033373739505 
10.71999999999982 -113.7233198446558 
10.72999999999982 -128.7663612406049 
10.73999999999982 -143.8896146963542 
10.74999999999982 -148.0681658014996 
10.75999999999982 -132.5640443853334 
10.76999999999982 -95.46015780262566 
10.77999999999982 -41.92956183730095 
10.78999999999981 17.63045941748085 
10.79999999999981 67.93890281820166 
10.80999999999981 95.13870094298176 
10.81999999999981 94.95440619625535 
10.82999999999981 74.7697753827533 
10.83999999999981 44.86676503768578 
10.84999999999981 10.38773599243249 
10.85999999999981 -26.95820579218493 
10.86999999999981 -62.58798233379085 
10.87999999999981 -87.90287257411823 
10.88999999999981 -96.98666075084005 
10.89999999999981 -90.13805689956533 
10.90999999999981 -70.59409178131931 
10.91999999999981 -37.04555727491695 
10.92999999999981 15.4050785254559 
10.93999999999981 86.71552954163322 
10.94999999999981 163.8452651567096 
10.95999999999981 224.9513152290601 
10.96999999999981 251.9890086701674 
10.97999999999981 240.4520369176886 
10.98999999999981 198.5893040865033 
10.99999999999981 140.3367403658158 
11.00999999999981 79.82936593817509 
11.01999999999981 29.90755008826864 
11.02999999999981 1.078789729354573 
11.03999999999981 -2.897705770441213 
11.04999999999981 10.29262709268644 
11.05999999999981 23.5671395767912 
11.06999999999981 21.14407969613741 
11.07999999999981 -1.375413631245809 
11.08999999999981 -37.87473855301695 
11.09999999999981 -81.74480483555851 
11.10999999999981 -132.1230913895266 
11.11999999999981 -189.6827217633055 
11.12999999999981 -249.6204522918493 
11.13999999999981 -303.6546112011438 
11.14999999999981 -346.5305153170459 
11.15999999999981 -375.2831845983289 
11.16999999999981 -380.0151737045539 
11.17999999999981 -344.0704415929239 
11.18999999999981 -259.2725666731051 
11.19999999999981 -138.5744230475252 
11.20999999999981 -6.594612940433359 
11.21999999999981 120.0900134702588 
11.22999999999981 237.942447209533 
11.23999999999981 344.2319314019094 
11.24999999999981 429.7875748238863 
11.2599999999998 486.9151999246637 
11.2699999999998 516.4470014956145 
11.2799999999998 521.2986199745573 
11.2899999999998 496.0793390862031 
11.2999999999998 432.3473348200083 
11.3099999999998 332.5987221172624 
11.3199999999998 214.3428684237057 
11.3299999999998 95.76722673014209 
11.3399999999998 -14.80781072194171 
11.3499999999998 -114.8746198574032 
11.3599999999998 -200.1922299955421 
11.3699999999998 -271.5107199272272 
11.3799999999998 -342.1628575375709 
11.3899999999998 -425.7507244581233 
11.3999999999998 -514.5908527724662 
11.4099999999998 -579.3004319128402 
11.4199999999998 -594.3984992879823 
11.4299999999998 -556.7199985447928 
11.4399999999998 -478.7664842413924 
11.4499999999998 -372.1349500040574 
11.4599999999998 -245.1334437213489 
11.4699999999998 -108.6323651001658 
11.4799999999998 25.53830480188995 
11.4899999999998 152.8086377623437 
11.4999999999998 276.0149112888732 
11.5099999999998 393.6161875878854 
11.5199999999998 493.1608431544001 
11.5299999999998 558.4013365794821 
11.5399999999998 581.8645964950202 
11.5499999999998 565.4215519492726 
11.5599999999998 513.8676158659511 
11.5699999999998 433.8193119077066 
11.5799999999998 339.6500427564989 
11.5899999999998 249.6027034511233 
11.5999999999998 171.2586360796593 
11.6099999999998 93.83392766249871 
11.6199999999998 0.7451092280071672 
11.6299999999998 -112.2928940614179 
11.6399999999998 -233.4630546471814 
11.6499999999998 -345.0874175097998 
11.6599999999998 -433.2526992557902 
11.6699999999998 -490.0674931028296 
11.6799999999998 -514.5064493350035 
11.6899999999998 -512.7519659708803 
11.6999999999998 -494.7759320003899 
11.7099999999998 -465.6240294898064 
11.7199999999998 -421.0459618890718 
11.72999999999979 -351.4763860608202 
11.73999999999979 -251.0100910971614 
11.74999999999979 -121.005835313526 
11.75999999999979 30.41942155981112 
11.76999999999979 188.4801870635518 
11.77999999999979 330.2763522247938 
11.78999999999979 431.5626311211235 
11.79999999999979 480.728152787843 
11.80999999999979 487.0276363912727 
11.81999999999979 470.5850070954137 
11.82999999999979 445.5179969488091 
11.83999999999979 413.3929221259538 
11.84999999999979 370.1842095863926 
11.85999999999979 312.6508506990712 
11.86999999999979 238.5270988746324 
11.87999999999979 146.8274654625681 
11.88999999999979 42.58539888336756 
11.89999999999979 -61.82852227025485 
11.90999999999979 -153.9922536384177 
11.91999999999979 -230.3101816692945 
11.92999999999979 -295.3896415450668 
11.93999999999979 -353.456816454931 
11.94999999999979 -402.4931321863966 
11.95999999999979 -436.7583850818465 
11.96999999999979 -450.8437475364102 
11.97999999999979 -439.1663896498422 
11.98999999999979 -394.8181215731619 
11.99999999999979 -314.8003467456247 
12.00999999999979 -207.3897001812042 
12.01999999999979 -90.3390089810534 
12.02999999999979 20.27942320914385 
12.03999999999979 118.680337255443 
12.04999999999979 206.4195424266853 
12.05999999999979 284.8752116973716 
12.06999999999979 351.715239744246 
12.07999999999979 402.3796579007089 
12.08999999999979 431.0503048691525 
12.09999999999979 431.8880385463576 
12.10999999999979 402.2565446745132 
12.11999999999979 346.7460103187057 
12.12999999999979 275.976559937064 
12.13999999999979 200.8152623914785 
12.14999999999979 127.4114742197646 
12.15999999999979 57.04452036447763 
12.16999999999979 -10.51760676743148 
12.17999999999979 -76.56735705251724 
12.18999999999979 -143.4641665271036 
12.19999999999978 -212.891998685459 
12.20999999999978 -280.2313464803462 
12.21999999999978 -334.7459794673172 
12.22999999999978 -366.1211687976297 
12.23999999999978 -372.2481424869594 
12.24999999999978 -357.4529756919243 
12.25999999999978 -326.8093352399055 
12.26999999999978 -282.4579169090122 
12.27999999999978 -225.4488247049451 
12.28999999999978 -156.3800495741985 
12.29999999999978 -76.22416480402885 
12.30999999999978 11.1798318710726 
12.31999999999978 95.45222067167991 
12.32999999999978 162.3686946095993 
12.33999999999978 202.0522164247671 
12.34999999999978 215.1721392470953 
12.35999999999978 210.0070130680597 
12.36999999999978 195.5620934294051 
12.37999999999978 179.4146155208918 
12.38999999999978 170.2277714656514 
12.39999999999978 174.7480895374262 
12.40999999999978 188.0690071186865 
12.41999999999978 190.8572196176871 
12.42999999999978 164.6093062483924 
12.43999999999978 111.083963227122 
12.44999999999978 52.29361874417165 
12.45999999999978 9.784592892252967 
12.46999999999978 -13.46267792365298 
12.47999999999978 -30.07312065817679 
12.48999999999978 -53.66688434517652 
12.49999999999978 -89.0061526025644 
12.50999999999978 -133.3226271165302 
12.51999999999978 -179.3982758515583 
12.52999999999978 -217.7425502327356 
12.53999999999978 -237.5953734095165 
12.54999999999978 -231.079452346952 
12.55999999999978 -196.5572919407878 
12.56999999999978 -140.7064439851834 
12.57999999999978 -77.44984942799199 
12.58999999999978 -24.17879468572457 
12.59999999999978 6.725801311709842 
12.60999999999978 17.11030635689893 
12.61999999999978 23.92193460785729 
12.62999999999978 45.49584604253968 
12.63999999999978 84.38585870907988 
12.64999999999978 124.9743650156098 
12.65999999999978 149.1649708002143 
12.66999999999977 153.0620192502975 
12.67999999999977 146.7936217443198 
12.68999999999977 142.4099910192842 
12.69999999999977 144.3902678316392 
12.70999999999977 150.2008681716953 
12.71999999999977 153.5732816621678 
12.72999999999977 146.4575977061737 
12.73999999999977 121.0970701055091 
12.74999999999977 74.56115808755668 
12.75999999999977 11.51448571831883 
12.76999999999977 -57.2412060763395 
12.77999999999977 -118.3886539982909 
12.78999999999977 -159.59020636524 
12.79999999999977 -173.8852487030581 
12.80999999999977 -165.9071243076923 
12.81999999999977 -152.6625045357 
12.82999999999977 -153.0419525107066 
12.83999999999977 -170.8799333821787 
12.84999999999977 -189.6018079242579 
12.85999999999977 -186.5166206709268 
12.86999999999977 -153.6977290963959 
12.87999999999977 -102.729006660577 
12.88999999999977 -50.99798109129844 
12.89999999999977 -7.848630832754218 
12.90999999999977 25.02431848822569 
12.91999999999977 47.53822493372476 
12.92999999999977 62.18223829071544 
12.93999999999977 79.24285816845078 
12.94999999999977 112.9821637737306 
12.95999999999977 168.9575549386576 
12.96999999999977 235.9665849562425 
12.97999999999977 291.6515297542665 
12.98999999999977 315.0721493255067 
12.99999999999977 296.5683395705333 
13.00999999999977 240.441847223936 
13.01999999999977 163.1431556047535 
13.02999999999977 85.12614691437776 
13.03999999999977 19.71808043431171 
13.04999999999977 -34.90690513322304 
13.05999999999977 -90.17171456681302 
13.06999999999977 -153.1266686246738 
13.07999999999977 -217.5069835584183 
13.08999999999977 -269.4208947868595 
13.09999999999977 -298.3795921852966 
13.10999999999977 -301.3717065711034 
13.11999999999977 -279.7410334785722 
13.12999999999977 -237.9396469825334 
13.13999999999976 -185.7345815490577 
13.14999999999976 -136.2864629699203 
13.15999999999976 -98.10804904811143 
13.16999999999976 -68.90224249056463 
13.17999999999976 -38.08606269801587 
13.18999999999976 4.994452078439635 
13.19999999999976 64.67676911637491 
13.20999999999976 136.1518753745387 
13.21999999999976 206.1315546605404 
13.22999999999976 257.4776155766417 
13.23999999999976 279.4943442901557 
13.24999999999976 275.9576389364074 
13.25999999999976 261.7235215166859 
13.26999999999976 247.8843854700834 
13.27999999999976 231.2494809107622 
13.28999999999976 199.2935975011025 
13.29999999999976 144.3227461840982 
13.30999999999976 69.55713576419009 
13.31999999999976 -15.76533977636124 
13.32999999999976 -102.074727101639 
13.33999999999976 -177.7865802889666 
13.34999999999976 -228.7177703724859 
13.35999999999976 -245.4329702228272 
13.36999999999976 -232.9277103049808 
13.37999999999976 -209.1501142214624 
13.38999999999976 -192.1346188807487 
13.39999999999976 -188.0120181868581 
13.40999999999976 -189.8201375580366 
13.41999999999976 -184.7168760293886 
13.42999999999976 -161.5867103138062 
13.43999999999976 -116.5953227339659 
13.44999999999976 -56.23408956208571 
13.45999999999976 4.728350530739528 
13.46999999999976 53.1490892634011 
13.47999999999976 87.98824384162946 
13.48999999999976 120.3931581859923 
13.49999999999976 161.728772167214 
13.50999999999976 212.7921496938992 
13.51999999999976 264.0474948863066 
13.52999999999976 303.4978879309431 
13.53999999999976 320.6581449453952 
13.54999999999976 306.4042801316508 
13.55999999999976 254.6197810891871 
13.56999999999976 168.7818271523207 
13.57999999999976 64.87205153666294 
13.58999999999976 -34.91371807354741 
13.59999999999976 -114.5486067569893 
13.60999999999975 -171.3136196201138 
13.61999999999975 -212.2099751381685 
13.62999999999975 -243.7765230313928 
13.63999999999975 -265.6018706441498 
13.64999999999975 -272.041678225139 
13.65999999999975 -258.4782077917756 
13.66999999999975 -225.4117068068753 
13.67999999999975 -178.6493494686838 
13.68999999999975 -126.7539329664514 
13.69999999999975 -77.70234905903949 
13.70999999999975 -36.03464603351342 
13.71999999999975 -2.17156291962327 
13.72999999999975 26.11794077320842 
13.73999999999975 52.94847244794899 
13.74999999999975 83.48814913854595 
13.75999999999975 122.3004220207818 
13.76999999999975 168.9503129409879 
13.77999999999975 216.2374005399559 
13.78999999999975 252.8050571556169 
13.79999999999975 270.5253797592223 
13.80999999999975 269.1428038396903 
13.81999999999975 253.9814070061921 
13.82999999999975 228.3443214565614 
13.83999999999975 189.2775023392802 
13.84999999999975 132.2213810492495 
13.85999999999975 57.90866035807886 
13.86999999999975 -25.94321199896249 
13.87999999999975 -109.1403772108222 
13.88999999999975 -181.9804278725922 
13.89999999999975 -236.0506867214105 
13.90999999999975 -265.1440139808047 
13.91999999999975 -268.2990163083682 
13.92999999999975 -249.9919668400142 
13.93999999999975 -218.2237564455431 
13.94999999999975 -181.5088256929374 
13.95999999999975 -147.850284857514 
13.96999999999975 -121.9598503771964 
13.97999999999975 -102.8483233864377 
13.98999999999975 -83.62693524026533 
13.99999999999975 -57.45634359914533 
14.00999999999975 -23.8122484838763 
14.01999999999975 10.74192721320327 
14.02999999999975 39.90544167072365 
14.03999999999975 64.48999648936469 
14.04999999999975 91.08533788244471 
14.05999999999975 124.5006260199081 
14.06999999999974 163.0595692049454 
14.07999999999974 200.5827681297909 
14.08999999999974 229.5859926545435 
14.09999999999974 242.3174621148427 
14.10999999999974 232.1359925448084 
14.11999999999974 196.9411546241392 
14.12999999999974 141.3497671456681 
14.13999999999974 74.77658925003026 
14.14999999999974 7.904014889959016 
14.15999999999974 -49.65661674486358 
14.16999999999974 -91.63236542982614 
14.17999999999974 -117.3046685373559 
14.18999999999974 -131.788357552687 
14.19999999999974 -141.504846424701 
14.20999999999974 -148.674843849845 
14.21999999999974 -149.3869208908213 
14.22999999999974 -138.3245800859823 
14.23999999999974 -115.1684130777135 
14.24999999999974 -86.91296959960707 
14.25999999999974 -63.51869766196263 
14.26999999999974 -51.87281334791999 
14.27999999999974 -52.74445963072529 
14.28999999999974 -61.28740715886042 
14.29999999999974 -68.57062741730134 
14.30999999999974 -64.44203737570453 
14.31999999999974 -41.59921468040204 
14.32999999999974 0.572557094099988 
14.33999999999974 55.46919103760036 
14.34999999999974 111.5003730029787 
14.35999999999974 156.069960182556 
14.36999999999974 180.6062842776272 
14.37999999999974 184.4761010547786 
14.38999999999974 174.6007798870275 
14.39999999999974 159.9029521497823 
14.40999999999974 144.8124997729749 
14.41999999999974 126.7089749572629 
14.42999999999974 99.04989233266427 
14.43999999999974 57.9153357393599 
14.44999999999974 7.041573486333242 
14.45999999999974 -42.78948774147538 
14.46999999999974 -80.08354936167486 
14.47999999999974 -99.09916584938988 
14.48999999999974 -102.1489122387818 
14.49999999999974 -96.70557629603594 
14.50999999999974 -91.14193269848572 
14.51999999999974 -91.85276162152636 
14.52999999999974 -102.1760021263331 
14.53999999999973 -121.2698988606693 
14.54999999999973 -142.4469662317786 
14.55999999999973 -154.4521561184458 
14.56999999999973 -147.5627857308477 
14.57999999999973 -120.497542770945 
14.58999999999973 -80.89937275351674 
14.59999999999973 -39.34875010187211 
14.60999999999973 -2.770887590407978 
14.61999999999973 28.1133924603837 
14.62999999999973 57.9362986424286 
14.63999999999973 93.20623429996886 
14.64999999999973 136.0499367723587 
14.65999999999973 179.0293095230817 
14.66999999999973 207.053515524547 
14.67999999999973 207.6301238105285 
14.68999999999973 180.1393181127434 
14.69999999999973 135.3810484247949 
14.70999999999973 86.31999320304766 
14.71999999999973 41.52093668447886 
14.72999999999973 6.314661159211582 
14.73999999999973 -14.53392692013747 
14.74999999999973 -20.91348888491693 
14.75999999999973 -22.5557223387608 
14.76999999999973 -34.14853562090467 
14.77999999999973 -62.27965223849569 
14.78999999999973 -98.66789734460281 
14.79999999999973 -127.922847134491 
14.80999999999973 -139.943250965075 
14.81999999999973 -135.3053471366575 
14.82999999999973 -122.0138943637324 
14.83999999999973 -109.9650170072922 
14.84999999999973 -105.2471325155604 
14.85999999999973 -105.762628926973 
14.86999999999973 -101.0978986805017 
14.87999999999973 -79.71440847107256 
14.88999999999973 -38.40419906925816 
14.89999999999973 14.73483611668628 
14.90999999999973 66.30017193422739 
14.91999999999973 105.9842776637807 
14.92999999999973 128.8188240801235 
14.93999999999973 132.974572357904 
14.94999999999973 119.3336134230617 
14.95999999999973 94.96590942332981 
14.96999999999973 72.46040924628461 
14.97999999999973 62.45025841719967 
14.98999999999973 65.07236568270551 
14.99999999999973 70.52637232571166 
15.00999999999972 67.23828737407921 
15.01999999999972 51.0543517057117 
15.02999999999972 27.82363138982334 
15.03999999999972 9.221915804846839 
15.04999999999972 3.55496469841528 
15.05999999999972 9.201085132737262 
15.06999999999972 15.72434400096535 
15.07999999999972 12.20100722738414 
15.08999999999972 -5.717794374411583 
15.09999999999972 -34.92824229337648 
15.10999999999972 -68.37037415014964 
15.11999999999972 -98.00704596073183 
15.12999999999972 -116.3318751634668 
15.13999999999972 -117.8633755735903 
15.14999999999972 -101.5402137869959 
15.15999999999972 -72.56308023531982 
15.16999999999972 -41.07046855374168 
15.17999999999972 -17.38049616281107 
15.18999999999972 -5.905354206067357 
15.19999999999972 -3.279776596331311 
15.20999999999972 -1.325592752105055 
15.21999999999972 6.033510289138166 
15.22999999999972 18.09168494565465 
15.23999999999972 27.18379294890632 
15.24999999999972 25.52310410749186 
15.25999999999972 12.69293860486413 
15.26999999999972 -2.275068058383169 
15.27999999999972 -7.940860083675442 
15.28999999999972 1.1874688204321 
15.29999999999972 22.38996571344609 
15.30999999999972 49.05913954092981 
15.31999999999972 74.54327249552181 
15.32999999999972 92.11126186054564 
15.33999999999972 94.95139942517638 
15.34999999999972 79.45922261632646 
15.35999999999972 49.42983905738078 
15.36999999999972 15.04301901896805 
15.37999999999972 -13.36950734120475 
15.38999999999972 -31.64442989467196 
15.39999999999972 -42.60558214811773 
15.40999999999972 -52.29696630134243 
15.41999999999972 -64.97544716675574 
15.42999999999972 -79.73414242213774 
15.43999999999972 -89.66104498021933 
15.44999999999972 -85.16979249535451 
15.45999999999972 -61.32163148334148 
15.46999999999972 -23.66689714418523 
15.47999999999971 13.98016757643584 
15.48999999999971 39.00296545999226 
15.49999999999971 47.13127359610628 
15.50999999999971 41.45431656337903 
15.51999999999971 27.50171617125661 
15.52999999999971 11.648590385898 
15.53999999999971 1.396462532735418 
15.54999999999971 2.455559851109187 
15.55999999999971 13.60827612400849 
15.56999999999971 26.46442336359017 
15.57999999999971 31.96920635005406 
15.58999999999971 27.12770336484988 
15.59999999999971 15.95279699765852 
15.60999999999971 5.357061295743031 
15.61999999999971 0.6546672616110569 
15.62999999999971 2.925876787557393 
15.63999999999971 8.453707838133582 
15.64999999999971 10.73429157152689 
15.65999999999971 4.986843541238072 
15.66999999999971 -7.626507278905589 
15.67999999999971 -20.48154262026953 
15.68999999999971 -26.64528488693453 
15.69999999999971 -23.77598846302905 
15.70999999999971 -14.13058403848158 
15.71999999999971 -1.577580219615325 
15.72999999999971 10.10476816260242 
15.73999999999971 17.11625622073919 
15.74999999999971 16.82111140378163 
15.75999999999971 10.37988693205008 
15.76999999999971 2.976704827056205 
15.77999999999971 -0.05728859901082986 
15.78999999999971 2.600401596430015 
15.79999999999971 7.434088041194571 
15.80999999999971 9.19414950991019 
15.81999999999971 4.357203358390165 
15.82999999999971 -6.176124618661958 
15.83999999999971 -17.35964050537682 
15.84999999999971 -22.51758665921134 
15.85999999999971 -18.47884497289129 
15.86999999999971 -8.307402350113078 
15.87999999999971 0.08174719473763528 
15.88999999999971 0.04316857762033872 
15.89999999999971 -9.156044982820069 
15.90999999999971 -22.46382334516889 
15.91999999999971 -33.4766195167733 
15.92999999999971 -38.09415305926793 
15.93999999999971 -34.87362966721877 
15.9499999999997 -24.28033576116073 
15.9599999999997 -8.991343734163078 
15.9699999999997 5.7833591167921 
15.9799999999997 14.73749111418552 
15.9899999999997 16.22529194816924 
15.9999999999997 13.74920297799448 
16.0099999999997 13.12194263176015 
16.01999999999971 18.21911668556998 
16.02999999999971 28.08417149840772 
16.03999999999971 37.02426895381429 
16.04999999999971 37.61148461173693 
16.05999999999971 26.18840317183551 
16.06999999999971 7.429121053446472 
16.07999999999971 -6.950705845300453 
16.08999999999972 -6.381007156643905 
16.09999999999972 10.39028050812032 
16.10999999999972 34.63743106779971 
16.11999999999972 55.05200684403739 
16.12999999999972 64.65367574766978 
16.13999999999972 61.7515596367352 
16.14999999999973 46.75238888521989 
16.15999999999973 21.56849373235604 
16.16999999999973 -8.722017772378917 
16.17999999999973 -36.1657316505809 
16.18999999999973 -55.08276759816776 
16.19999999999973 -66.30725115988419 
16.20999999999973 -75.76260334093192 
16.21999999999974 -88.36819420790158 
16.22999999999974 -103.1435437967968 
16.23999999999974 -112.9448181024929 
16.24999999999974 -107.9775529808793 
16.25999999999974 -81.97497587856532 
16.26999999999974 -37.53316460564618 
16.27999999999975 13.11459318123349 
16.28999999999975 55.40839587243286 
16.29999999999975 81.40632690868694 
16.30999999999975 92.87513290067098 
16.31999999999975 95.52506171044519 
16.32999999999975 92.82759522834819 
16.33999999999976 85.76794795239509 
16.34999999999976 76.65808660666066 
16.35999999999976 69.43926764737002 
16.36999999999976 64.96413218709526 
16.37999999999976 57.95347555593301 
16.38999999999976 41.01764438394655 
16.39999999999976 12.38777417560022 
16.40999999999977 -21.04705692574219 
16.41999999999977 -48.98381522819037 
16.42999999999977 -65.71268526303872 
16.43999999999977 -73.85500697935517 
16.44999999999977 -80.82619867626346 
16.45999999999977 -92.50916385087798 
16.46999999999978 -108.3612290793581 
16.47999999999978 -121.7166857856606 
16.48999999999978 -123.7195192880879 
16.49999999999978 -109.0802287906625 
16.50999999999978 -78.83803523360326 
16.51999999999978 -38.91048408882566 
16.52999999999978 3.835003974158706 
16.53999999999979 43.71055822295021 
16.54999999999979 75.67526421799703 
16.55999999999979 95.6758844573767 
16.56999999999979 103.320842511488 
16.57999999999979 103.8527004769871 
16.58999999999979 104.4476402752729 
16.5999999999998 107.6031723559861 
16.6099999999998 107.9994800048219 
16.6199999999998 97.74571671384167 
16.6299999999998 74.05303176355413 
16.6399999999998 42.45451306258453 
16.6499999999998 12.3351091996334 
16.65999999999981 -9.159451837149346 
16.66999999999981 -20.43395690853429 
16.67999999999981 -24.6705300574403 
16.68999999999981 -27.69157732813456 
16.69999999999981 -34.82739352465381 
16.70999999999981 -47.85757411925555 
16.71999999999981 -64.2097506747686 
16.72999999999982 -79.39064936273836 
16.73999999999982 -89.83668166035382 
16.74999999999982 -92.94870399282995 
16.75999999999982 -86.04614717912807 
16.76999999999982 -67.85225905906103 
16.77999999999982 -41.80350969999026 
16.78999999999983 -15.40835772565735 
16.79999999999983 5.50367485603386 
16.80999999999983 22.12041417146168 
16.81999999999983 40.1349672469744 
16.82999999999983 62.36643473052245 
16.83999999999983 84.22530887507523 
16.84999999999983 97.50370895851489 
16.85999999999984 96.75854507406935 
16.86999999999984 82.48510306338199 
16.87999999999984 59.00548730883492 
16.88999999999984 31.9443940731984 
16.89999999999984 6.291368048851173 
16.90999999999984 -14.49123899495667 
16.91999999999985 -29.71861195220344 
16.92999999999985 -40.48754985351799 
16.93999999999985 -47.83667334047246 
16.94999999999985 -51.91526831237452 
16.95999999999985 -54.03115221277035 
16.96999999999985 -57.40789893088842 
16.97999999999986 -64.20149836553891 
16.98999999999986 -71.32889264172931 
16.99999999999986 -71.84056636551723 
17.00999999999986 -61.91167474893574 
17.01999999999986 -45.45316242135874 
17.02999999999986 -30.27835421308874 
17.03999999999986 -19.58360727747365 
17.04999999999987 -9.400707973684087 
17.05999999999987 5.998718705952992 
17.06999999999987 27.27752106720417 
17.07999999999987 50.45942505989715 
17.08999999999987 71.65529390672909 
17.09999999999987 89.86836171000255 
17.10999999999988 104.191643625417 
17.11999999999988 111.4964421668389 
17.12999999999988 107.914459854572 
17.13999999999988 92.85646181477377 
17.14999999999988 69.82657297788585 
17.15999999999988 43.94267630985932 
17.16999999999988 19.17439728202278 
17.17999999999989 -2.055038384642541 
17.18999999999989 -18.55751334009727 
17.19999999999989 -30.70290799776084 
17.20999999999989 -40.28342590191691 
17.21999999999989 -48.99671629920484 
17.22999999999989 -56.66698970860315 
17.2399999999999 -62.1703271839325 
17.2499999999999 -65.47716180218318 
17.2599999999999 -68.31305614343755 
17.2699999999999 -71.6265264600155 
17.2799999999999 -74.00890545525155 
17.2899999999999 -72.66202574301509 
17.29999999999991 -66.58295153262577 
17.30999999999991 -56.9264746241217 
17.31999999999991 -45.05239626660278 
17.32999999999991 -30.02792229306154 
17.33999999999991 -9.944181696688464 
17.34999999999991 14.95168116362725 
17.35999999999991 40.58882267141102 
17.36999999999992 61.62336520849407 
17.37999999999992 75.03493132073672 
17.38999999999992 81.14867471079626 
17.39999999999992 81.71858699259775 
17.40999999999992 78.02514299619975 
17.41999999999992 70.37789233133178 
17.42999999999993 58.36567248221083 
17.43999999999993 41.99199694867708 
17.44999999999993 22.94802787737748 
17.45999999999993 4.819796096503932 
17.46999999999993 -9.565681487887563 
17.47999999999993 -20.04674143371191 
17.48999999999993 -28.14725415348301 
17.49999999999994 -33.68165062313219 
17.50999999999994 -34.51541025889732 
17.51999999999994 -29.63286278347633 
17.52999999999994 -22.05142519336825 
17.53999999999994 -16.86533474930487 
17.54999999999994 -16.69447999767914 
17.55999999999995 -19.51891665240856 
17.56999999999995 -21.40297722722332 
17.57999999999995 -20.10931962410988 
17.58999999999995 -15.57803927338496 
17.59999999999995 -8.241294435151156 
17.60999999999995 1.372570427882627 
17.61999999999996 11.90372920289381 
17.62999999999996 21.69661069205586 
17.63999999999996 29.98543703232177 
17.64999999999996 36.21040923367696 
17.65999999999996 38.40225600693864 
17.66999999999996 34.37037236287002 
17.67999999999996 24.71228131412155 
17.68999999999997 13.14579470716485 
17.69999999999997 2.345999928331535 
17.70999999999997 -8.720472580172785 
17.71999999999997 -22.39405048780214 
17.72999999999997 -37.29160633312687 
17.73999999999997 -48.36780955151082 
17.74999999999998 -51.75271502894142 
17.75999999999998 -48.56058596043334 
17.76999999999998 -42.46644037127852 
17.77999999999998 -35.24099800845109 
17.78999999999998 -26.07236001393088 
17.79999999999998 -14.32630187341335 
17.80999999999999 -0.9447222386237996 
17.81999999999999 12.80218309058762 
17.82999999999999 25.51705822214305 
17.83999999999999 34.69914876580398 
17.84999999999999 37.68885034803155 
17.85999999999999 35.0695717334628 
17.86999999999999 31.0456215875641 
17.88 29.00853744767359 
17.89 27.62196359481503 
17.9 23.54589389064556 
17.91 16.97094393123568 
17.92 12.06939761659247 
17.93 11.03645987809597 
17.94000000000001 10.61492406181588 
17.95000000000001 6.317400938414139 
17.96000000000001 -1.320210051816104 
17.97000000000001 -7.478282006216339 
17.98000000000001 -9.571078017773047 
17.99000000000001 -10.24127506364936 
18.00000000000001 -13.39667519467214 
18.01000000000002 -19.60005568865877 
18.02000000000002 -26.58011949177364 
18.03000000000002 -32.53296034881395 
18.04000000000002 -36.74488368825503 
18.05000000000002 -38.50368519282301 
18.06000000000002 -37.0720757646816 
18.07000000000003 -33.1214817332415 
18.08000000000003 -27.84766564334452 
18.09000000000003 -20.9593264579815 
18.10000000000003 -10.89712482620376 
18.11000000000003 2.081597725307629 
18.12000000000003 14.89657392718476 
18.13000000000004 24.98120777438714 
18.14000000000004 33.1960662076219 
18.15000000000004 41.68701091739992 
18.16000000000004 49.53690554642225 
18.17000000000004 53.07847365730318 
18.18000000000004 50.86637063192337 
18.19000000000004 46.04370093281717 
18.20000000000005 42.58345530617714 
18.21000000000005 40.4817653362227 
18.22000000000005 36.50567573835122 
18.23000000000005 28.44025902998171 
18.24000000000005 16.84774389251181 
18.25000000000005 2.796495179518362 
18.26000000000006 -13.32700367930765 
18.27000000000006 -30.2832340764242 
18.28000000000006 -45.26519021847857 
18.29000000000006 -56.68630691994417 
18.30000000000006 -65.97460662487944 
18.31000000000006 -74.85961343083672 
18.32000000000006 -81.38025952965883 
18.33000000000007 -81.10838287691817 
18.34000000000007 -72.11691204359822 
18.35000000000007 -56.87072482853682 
18.36000000000007 -38.69606935589014 
18.37000000000007 -18.30366514725814 
18.38000000000007 4.544392845451696 
18.39000000000008 27.73573531139245 
18.40000000000008 47.09192668517604 
18.41000000000008 60.32118715834387 
18.42000000000008 68.7802829317238 
18.43000000000008 74.91922264349827 
18.44000000000008 79.58844660841213 
18.45000000000009 81.99205829205789 
18.46000000000009 81.06179088571676 
18.47000000000009 74.99029074876334 
18.48000000000009 61.93873619966487 
18.49000000000009 42.66245332566247 
18.50000000000009 22.02199356724666 
18.51000000000009 4.635594602244286 
18.5200000000001 -10.40701998067519 
18.5300000000001 -28.34523102908912 
18.5400000000001 -51.64696457319221 
18.5500000000001 -76.39779776302657 
18.5600000000001 -96.49784785812136 
18.5700000000001 -109.2527935176686 
18.58000000000011 -114.9500062233812 
18.59000000000011 -112.6470605800039 
18.60000000000011 -99.45754746005305 
18.61000000000011 -74.71365804503624 
18.62000000000011 -42.75723012184092 
18.63000000000011 -9.980190272249264 
18.64000000000011 19.89367840096929 
18.65000000000012 46.63014998040922 
18.66000000000012 70.40900240075246 
18.67000000000012 90.0452496805999 
18.68000000000012 103.5879199503576 
18.69000000000012 109.0146757205385 
18.70000000000012 104.0699350022229 
18.71000000000013 87.89770057374201 
18.72000000000013 63.64766839683409 
18.73000000000013 38.01111161847298 
18.74000000000013 16.68964908408371 
18.75000000000013 1.056965963222668 
18.76000000000013 -10.48276046488228 
18.77000000000014 -19.1849677148974 
18.78000000000014 -25.82001741438377 
18.79000000000014 -32.27523327788704 
18.80000000000014 -41.36929105507432 
18.81000000000014 -53.65769884488095 
18.82000000000014 -66.304982274225 
18.83000000000014 -75.59345902885546 
18.84000000000015 -80.35503028729735 
18.85000000000015 -81.75927487435304 
18.86000000000015 -80.67115328359706 
18.87000000000015 -76.40657643609723 
18.88000000000015 -67.52946429744944 
18.89000000000015 -52.39429097742674 
18.90000000000016 -28.81730843552958 
18.91000000000016 4.182031319347829 
18.92000000000016 43.18096212264265 
18.93000000000016 80.136614906359 
18.94000000000016 107.4434589439092 
18.95000000000016 122.8047549567879 
18.96000000000016 128.1786248092639 
18.97000000000017 124.9348210322151 
18.98000000000017 112.529108972936 
18.99000000000017 91.91812136219741 
19.00000000000017 67.60590755026936 
19.01000000000017 44.25767614778223 
19.02000000000017 22.70727514277353 
19.03000000000018 1.208533834206564 
19.04000000000018 -20.01288463341076 
19.05000000000018 -37.83818431822894 
19.06000000000018 -49.98527492217599 
19.07000000000018 -57.60573528284962 
19.08000000000018 -63.3006085158377 
19.09000000000019 -68.35547673464677 
19.10000000000019 -73.24838248166435 
19.11000000000019 -79.13900936629736 
19.12000000000019 -86.61500600138528 
19.13000000000019 -92.87975384934106 
19.14000000000019 -92.62700786454241 
19.15000000000019 -82.27428197488689 
19.1600000000002 -62.74794980755885 
19.1700000000002 -37.34287380014868 
19.1800000000002 -8.521270889666861 
19.1900000000002 22.29626954139513 
19.2000000000002 52.61789250425834 
19.2100000000002 78.83540223593246 
19.22000000000021 98.37701187066182 
19.23000000000021 110.9845932406735 
19.24000000000021 117.0660909095999 
19.25000000000021 116.0968116712836 
19.26000000000021 107.0230391823719 
19.27000000000021 89.94422000936942 
19.28000000000021 66.41980914039419 
19.29000000000022 38.961698255486 
19.30000000000022 10.5869067716116 
19.31000000000022 -15.35549326534587 
19.32000000000022 -36.47417634448622 
19.33000000000022 -52.53852201674439 
19.34000000000022 -65.12369154485168 
19.35000000000023 -75.69366349140255 
19.36000000000023 -84.61051001705633 
19.37000000000023 -91.73542847245906 
19.38000000000023 -97.12945671877441 
19.39000000000023 -100.3078912928419 
19.40000000000023 -99.38207266577659 
19.41000000000024 -91.92570708117144 
19.42000000000024 -76.83121530455199 
19.43000000000024 -55.16542427025706 
19.44000000000024 -29.0394148738516 
19.45000000000024 -0.7462449589611053 
19.46000000000024 27.25002385791052 
19.47000000000024 52.26006255423973 
19.48000000000025 72.89377540468874 
19.49000000000025 89.7953104193039 
19.50000000000025 104.0044884925558 
19.51000000000025 114.049123694865 
19.52000000000025 116.5210266482218 
19.53000000000025 109.6629225795586 
19.54000000000026 95.7404456764867 
19.55000000000026 78.48214804619443 
19.56000000000026 59.50607227695654 
19.57000000000026 38.36724074453616 
19.58000000000026 16.06872767424082 
19.59000000000026 -3.889249846488643 
19.60000000000026 -18.51615409235249 
19.61000000000027 -28.98652740309909 
19.62000000000027 -39.68237722586137 
19.63000000000027 -54.29197530770082 
19.64000000000027 -72.79798270802613 
19.65000000000027 -92.24902828110761 
19.66000000000027 -108.491937039025 
19.67000000000028 -117.6927776781116 
19.68000000000028 -117.3047514322959 
19.69000000000028 -107.4930149593046 
19.70000000000028 -90.76508055271165 
19.71000000000028 -69.57774931914346 
19.72000000000028 -44.3759411842763 
19.73000000000029 -14.98197605485318 
19.74000000000029 16.85442882618666 
19.75000000000029 47.6886672891518 
19.76000000000029 75.16288850462671 
19.77000000000029 99.08151942997213 
19.78000000000029 119.0222833939981 
19.79000000000029 132.1812330246929 
19.8000000000003 134.6831340917673 
19.8100000000003 125.2202186539154 
19.8200000000003 106.4631835831526 
19.8300000000003 83.26947547758154 
19.8400000000003 59.65462734064847 
19.8500000000003 37.40920289378322 
19.86000000000031 16.09028466619086 
19.87000000000031 -6.080115213425563 
19.88000000000031 -30.73363480283678 
19.89000000000031 -57.32531573158433 
19.90000000000031 -82.7335155306708 
19.91000000000031 -103.3813060212916 
19.92000000000031 -118.0198024230839 
19.93000000000032 -127.6076671451437 
19.94000000000032 -132.917268426992 
19.95000000000032 -133.1001777048411 
19.96000000000032 -127.0556081537819 
19.97000000000032 -114.6462195437735 
19.98000000000032 -96.01483798417617 
19.99000000000033 -60.03432057643516 
20.00000000000033 -23.6408529763188 
