0.01 0.382554894052078 
0.02 0.3821022422787092 
0.03 0.3812731329399322 
0.04 0.3801330785599664 
0.05 0.3786910538932722 
0.06000000000000001 0.3769399450159048 
0.07000000000000001 0.374920581569131 
0.08 0.3727689823339931 
0.09 0.3707030742606504 
0.09999999999999999 0.368864560214661 
0.11 0.3671110227440381 
0.12 0.3650873402554489 
0.13 0.3626072557499039 
0.14 0.3598191326695039 
0.15 0.3569035216555008 
0.16 0.3538760102204158 
0.17 0.3508765545987816 
0.18 0.3483944946275709 
0.19 0.3470456160446992 
0.2 0.3473769324277377 
0.2100000000000001 0.3499312288907066 
0.2200000000000001 0.3551461801098118 
0.2300000000000001 0.3630717527782797 
0.2400000000000001 0.3733674373698525 
0.2500000000000001 0.3855291574391581 
0.2600000000000001 0.3989117753182866 
0.2700000000000001 0.4125266496329359 
0.2800000000000001 0.424938267561312 
0.2900000000000001 0.4345040018221512 
0.3000000000000001 0.4399253888679126 
0.3100000000000001 0.44068000258139 
0.3200000000000001 0.436911088529694 
0.3300000000000001 0.4290226380835932 
0.3400000000000001 0.4175772835112203 
0.3500000000000001 0.4035598797753622 
0.3600000000000002 0.3885018577143616 
0.3700000000000002 0.374093955297361 
0.3800000000000002 0.3615214462922405 
0.3900000000000002 0.3511219212235121 
0.4000000000000002 0.3426247903200898 
0.4100000000000002 0.3356642935382856 
0.4200000000000002 0.3301879982360301 
0.4300000000000002 0.3265720078957093 
0.4400000000000002 0.325350172492059 
0.4500000000000002 0.3268063163493997 
0.4600000000000002 0.3309716180175347 
0.4700000000000003 0.3380220686454999 
0.4800000000000003 0.3483452002843498 
0.4900000000000003 0.3619602145110938 
0.5000000000000002 0.3780034772453839 
0.5100000000000002 0.395010835527099 
0.5200000000000002 0.4116738078973937 
0.5300000000000003 0.4271037100218213 
0.5400000000000003 0.4403043803692535 
0.5500000000000003 0.4497055244642419 
0.5600000000000003 0.4537120842462228 
0.5700000000000003 0.4519465451355402 
0.5800000000000003 0.445773407731919 
0.5900000000000003 0.4374380310662476 
0.6000000000000003 0.4288475471633321 
0.6100000000000003 0.4212171578283974 
0.6200000000000003 0.4153190283539346 
0.6300000000000003 0.4114002908187952 
0.6400000000000004 0.408864826466921 
0.6500000000000004 0.4064116273021628 
0.6600000000000004 0.4024971783210795 
0.6700000000000004 0.3955149203569845 
0.6800000000000004 0.3838789155475448 
0.6900000000000004 0.3666433634807601 
0.7000000000000004 0.3443232731617072 
0.7100000000000004 0.3188172351287547 
0.7200000000000004 0.2923904926712521 
0.7300000000000004 0.267180696927974 
0.7400000000000004 0.246096473084861 
0.7500000000000004 0.2337075500112107 
0.7600000000000005 0.2350434382958536 
0.7700000000000005 0.2525743774984576 
0.7800000000000005 0.2842443993189183 
0.7900000000000005 0.324685924916818 
0.8000000000000005 0.3682864062399171 
0.8100000000000005 0.4109567953721416 
0.8200000000000005 0.4495293609831003 
0.8300000000000005 0.4806997464655159 
0.8400000000000005 0.5014095548238289 
0.8500000000000005 0.5102166697166857 
0.8600000000000005 0.5080400994503951 
0.8700000000000006 0.4976137506927942 
0.8800000000000006 0.4821453320644053 
0.8900000000000006 0.4640480435837007 
0.9000000000000006 0.4446123919907272 
0.9100000000000006 0.4249166864315029 
0.9200000000000006 0.4068973218077601 
0.9300000000000006 0.392798989027118 
0.9400000000000006 0.3828560608625207 
0.9500000000000006 0.373662977541445 
0.9600000000000006 0.3597761250259181 
0.9700000000000006 0.3377628068314867 
0.9800000000000007 0.3089232039861977 
0.9900000000000007 0.2782227844574122 
1.000000000000001 0.2511633865481865 
1.010000000000001 0.2320530447924134 
1.020000000000001 0.2243895585013174 
1.030000000000001 0.2310325676494257 
1.040000000000001 0.2527578665502097 
1.050000000000001 0.286726896895213 
1.060000000000001 0.3272527152589537 
1.070000000000001 0.3681333888640799 
1.080000000000001 0.4044771614415672 
1.090000000000001 0.4329573589976746 
1.100000000000001 0.4514275120940376 
1.110000000000001 0.4591450564723684 
1.120000000000001 0.4570473228419227 
1.130000000000001 0.4479590281317821 
1.140000000000001 0.4367016081834384 
1.150000000000001 0.4297047897642691 
1.160000000000001 0.4333744099251279 
1.170000000000001 0.4510448202681912 
1.180000000000001 0.4805675237186901 
1.190000000000001 0.5146946038884847 
1.200000000000001 0.5441893375908055 
1.210000000000001 0.5611593114583182 
1.220000000000001 0.5599709205470573 
1.230000000000001 0.5369340238438574 
1.240000000000001 0.4903817605184183 
1.250000000000001 0.4221494161311568 
1.260000000000001 0.3387834606713178 
1.270000000000001 0.2505947129507337 
1.280000000000001 0.1688022672719288 
1.290000000000001 0.1023618432438292 
1.300000000000001 0.05725782699558997 
1.310000000000001 0.03689608170146778 
1.320000000000001 0.04480472070718294 
1.330000000000001 0.08274926641980847 
1.340000000000001 0.1474275865966278 
1.350000000000001 0.2290511399669662 
1.360000000000001 0.3136264039278707 
1.370000000000001 0.3893356910756126 
1.380000000000001 0.4497760410211834 
1.390000000000001 0.4932143968712567 
1.400000000000001 0.518923374572953 
1.410000000000001 0.5267176049831255 
1.420000000000001 0.5184477177090219 
1.430000000000001 0.4998254729686208 
1.440000000000001 0.4787562780307451 
1.450000000000001 0.4616863214005678 
1.460000000000001 0.4506602564077471 
1.470000000000001 0.4433541347561069 
1.480000000000001 0.4356356597582257 
1.490000000000001 0.424561458928194 
1.500000000000001 0.4089500273319642 
1.510000000000001 0.3880202802184148 
1.520000000000001 0.3601046733474695 
1.530000000000001 0.3246875723001413 
1.540000000000001 0.2856809276136666 
1.550000000000001 0.2518365263322021 
1.560000000000001 0.2329380498617277 
1.570000000000001 0.2341671806556611 
1.580000000000001 0.2545697089487639 
1.590000000000001 0.2890355832446981 
1.600000000000001 0.331601780788012 
1.610000000000001 0.3759452913060459 
1.620000000000001 0.4152638362295186 
1.630000000000001 0.4431872045919165 
1.640000000000001 0.4555265439211655 
1.650000000000001 0.4508009053044554 
1.660000000000001 0.4302672586893805 
1.670000000000001 0.3984759218486249 
1.680000000000001 0.3626819331535632 
1.690000000000001 0.3299408663907656 
1.700000000000001 0.3039945542968705 
1.710000000000001 0.2860621300851831 
1.720000000000001 0.2780129750989484 
1.730000000000001 0.282728003046562 
1.740000000000001 0.3002422117814935 
1.750000000000001 0.3242278779530655 
1.760000000000001 0.3445809211542338 
1.770000000000001 0.3534388577993359 
1.780000000000001 0.349229358984804 
1.790000000000001 0.3353902404233954 
1.800000000000001 0.3171833362622412 
1.810000000000001 0.3004013024942637 
1.820000000000001 0.2907037075269315 
1.830000000000001 0.2923381506330492 
1.840000000000001 0.3063594807895992 
1.850000000000001 0.3314541073215407 
1.860000000000001 0.3656120451207195 
1.870000000000001 0.4061041847483006 
1.880000000000001 0.4484943574589644 
1.890000000000002 0.4875859254557372 
1.900000000000002 0.5200500423818367 
1.910000000000002 0.5442857755214692 
1.920000000000002 0.5579638337397863 
1.930000000000002 0.5574457996444385 
1.940000000000002 0.5413271406718822 
1.950000000000002 0.5140463252082499 
1.960000000000002 0.4845879943453673 
1.970000000000002 0.4619568768664567 
1.980000000000002 0.4512121036349406 
1.990000000000002 0.452436561705009 
2.000000000000001 0.4609030635471919 
2.010000000000001 0.4681673435050104 
2.020000000000001 0.4652751463481652 
2.030000000000001 0.4469462004459366 
2.040000000000001 0.4137724457981837 
2.05 0.3698672728534982 
2.06 0.3197248354220052 
2.07 0.2680655202118236 
2.08 0.2210348538719799 
2.089999999999999 0.1853161272314243 
2.099999999999999 0.1664672791194989 
2.109999999999999 0.1622586582859892 
2.119999999999999 0.1719750364931464 
2.129999999999999 0.1973561592464978 
2.139999999999998 0.2390275288468252 
2.149999999999998 0.293416308675732 
2.159999999999998 0.3478877015534904 
2.169999999999998 0.3890477563248408 
2.179999999999998 0.4083234652473161 
2.189999999999997 0.4057775133017221 
2.199999999999997 0.3867450806151003 
2.209999999999997 0.3621622836624643 
2.219999999999997 0.345083736506871 
2.229999999999996 0.3464508138711552 
2.239999999999996 0.3683996938193072 
2.249999999999996 0.4042263697102492 
2.259999999999996 0.4436985220179033 
2.269999999999996 0.4787530959320188 
2.279999999999995 0.5037936812309132 
2.289999999999995 0.5144686069585539 
2.299999999999995 0.5087692822205128 
2.309999999999995 0.4895372512224538 
2.319999999999995 0.4623503035180497 
2.329999999999994 0.4301732088010405 
2.339999999999994 0.3887987522623213 
2.349999999999994 0.332438772036147 
2.359999999999994 0.2634761263416948 
2.369999999999993 0.191403711772857 
2.379999999999993 0.1288682235398279 
2.389999999999993 0.08517174667216083 
2.399999999999993 0.06625226900167722 
2.409999999999993 0.07105126915200806 
2.419999999999992 0.09205673160285821 
2.429999999999992 0.1207506784670106 
2.439999999999992 0.1528453873051373 
2.449999999999992 0.1912350001970692 
2.459999999999992 0.2404285971219629 
2.469999999999991 0.3041855673458581 
2.479999999999991 0.3838658135425789 
2.489999999999991 0.478702708049542 
2.499999999999991 0.5838630779982079 
2.509999999999991 0.6861755026384067 
2.51999999999999 0.7674199631170442 
2.52999999999999 0.8115460664849807 
2.53999999999999 0.8148651204381547 
2.54999999999999 0.7822715873152115 
2.559999999999989 0.7202661913974294 
2.569999999999989 0.6346810466274621 
2.579999999999989 0.530895973770403 
2.589999999999989 0.4136228993069304 
2.599999999999989 0.293316107605807 
2.609999999999988 0.1856566256277893 
2.619999999999988 0.1059510882962128 
2.629999999999988 0.06558603756340384 
2.639999999999988 0.06798792377864528 
2.649999999999988 0.1084786881048009 
2.659999999999987 0.1724067658206885 
2.669999999999987 0.2425026591444432 
2.679999999999987 0.3024231792534155 
2.689999999999987 0.3420114133069396 
2.699999999999986 0.3573144423109079 
2.709999999999986 0.3528372836380593 
2.719999999999986 0.3404506508760818 
2.729999999999986 0.3328960211305556 
2.739999999999986 0.3378532323198135 
2.749999999999985 0.3541839172319569 
2.759999999999985 0.3788910702183104 
2.769999999999985 0.4097448847714209 
2.779999999999985 0.4497352021998018 
2.789999999999985 0.501424551553545 
2.799999999999984 0.5630812290733137 
2.809999999999984 0.6257063482038627 
2.819999999999984 0.6756891226824963 
2.829999999999984 0.7015776605186976 
2.839999999999983 0.6971619329878713 
2.849999999999983 0.6642876522994318 
2.859999999999983 0.6078835167341871 
2.869999999999983 0.5353831986918605 
2.879999999999983 0.4573557908378724 
2.889999999999982 0.3871234142159832 
2.899999999999982 0.335209172687569 
2.909999999999982 0.304031959683115 
2.919999999999982 0.2883293132887022 
2.929999999999982 0.2794045621560025 
2.939999999999981 0.2693828323352321 
2.949999999999981 0.255001143059849 
2.959999999999981 0.2354596612762915 
2.969999999999981 0.2080357689868396 
2.97999999999998 0.1674580281222196 
2.98999999999998 0.111973202608719 
2.99999999999998 0.04816270447609937 
3.00999999999998 -0.01081653142810927 
3.01999999999998 -0.04901386467502619 
3.029999999999979 -0.0524494508232351 
3.039999999999979 -0.01348341375884593 
3.049999999999979 0.06568404347585075 
3.059999999999979 0.1748897540341058 
3.069999999999979 0.2991179136375671 
3.079999999999978 0.4224413809720614 
3.089999999999978 0.5288369162695598 
3.099999999999978 0.6053513387430346 
3.109999999999978 0.6465739121665286 
3.119999999999978 0.6571198310894917 
3.129999999999977 0.6483567993784197 
3.139999999999977 0.6304182690744864 
3.149999999999977 0.6079138857044238 
3.159999999999977 0.5808355628153838 
3.169999999999976 0.5496042059801531 
3.179999999999976 0.5181779597380646 
3.189999999999976 0.4920400475094161 
3.199999999999976 0.474187318537068 
3.209999999999976 0.461908384017563 
3.219999999999975 0.446556033811935 
3.229999999999975 0.4176533784841184 
3.239999999999975 0.3683717760961411 
3.249999999999975 0.2996573893647636 
3.259999999999975 0.2183574597177304 
3.269999999999974 0.1349131804504128 
3.279999999999974 0.06197020800906723 
3.289999999999974 0.01394575606330081 
3.299999999999974 0.005236587194706277 
3.309999999999973 0.04589534599493712 
3.319999999999973 0.1393722678478052 
3.329999999999973 0.2760735035861633 
3.339999999999973 0.444297029153193 
3.349999999999973 0.6325223353681598 
3.359999999999972 0.8308612358277669 
3.369999999999972 1.030412038698627 
3.379999999999972 1.215668080643835 
3.389999999999972 1.370723141116567 
3.399999999999972 1.48418417328298 
3.409999999999971 1.556072294679981 
3.419999999999971 1.595146698516673 
3.429999999999971 1.615424706653372 
3.439999999999971 1.628804230933953 
3.44999999999997 1.642702328268072 
3.45999999999997 1.658715553863796 
3.46999999999997 1.674143596453678 
3.47999999999997 1.6827831137585 
3.48999999999997 1.675259956671159 
3.499999999999969 1.640147687169905 
3.509999999999969 1.569859589984448 
3.519999999999969 1.467367840285943 
3.529999999999969 1.345011404858918 
3.539999999999969 1.215677780118442 
3.549999999999968 1.089387646249795 
3.559999999999968 0.9760255583412693 
3.569999999999968 0.8862045755856856 
3.579999999999968 0.8308418521764724 
3.589999999999967 0.8194185579257 
3.599999999999967 0.8601063800345427 
3.609999999999967 0.9530654452156334 
3.619999999999967 1.08851717837198 
3.629999999999967 1.250132997608743 
3.639999999999966 1.421697380628232 
3.649999999999966 1.588416757940181 
3.659999999999966 1.736723246423533 
3.669999999999966 1.856314906289601 
3.679999999999966 1.94337858237075 
3.689999999999965 1.999256800245313 
3.699999999999965 2.025735946383683 
3.709999999999965 2.022608940136574 
3.719999999999965 1.984708595867767 
3.729999999999965 1.902032063201616 
3.739999999999964 1.76441158431965 
3.749999999999964 1.566005702353226 
3.759999999999964 1.303850853426395 
3.769999999999964 0.9736786447225929 
3.779999999999963 0.5725825017849562 
3.789999999999963 0.1032000065867508 
3.799999999999963 -0.4245304390286276 
3.809999999999963 -0.9951693122725807 
3.819999999999963 -1.587087781686399 
3.829999999999962 -2.172234953910581 
3.839999999999962 -2.71854496152752 
3.849999999999962 -3.198202157226048 
3.859999999999962 -3.583037558399854 
3.869999999999962 -3.847665652890278 
3.879999999999961 -3.98035495930576 
3.889999999999961 -3.977738472921423 
3.899999999999961 -3.848205758329016 
3.909999999999961 -3.607587464471924 
3.91999999999996 -3.276372849084395 
3.92999999999996 -2.872183314636501 
3.93999999999996 -2.409247818380075 
3.94999999999996 -1.898062192401838 
3.95999999999996 -1.341744859843958 
3.969999999999959 -0.7400413584447653 
3.979999999999959 -0.09232423188849871 
3.989999999999959 0.5979359732542939 
3.999999999999959 1.32065438734352 
4.009999999999959 2.052963683586371 
4.019999999999959 2.756677644695913 
4.029999999999959 3.386110464887478 
4.039999999999958 3.904212959595206 
4.049999999999958 4.289500211231875 
4.059999999999958 4.525040367537935 
4.069999999999958 4.58993788980214 
4.079999999999957 4.458063799404847 
4.089999999999957 4.108096739548866 
4.099999999999957 3.545613258445949 
4.109999999999957 2.794210935234248 
4.119999999999957 1.880186438743864 
4.129999999999956 0.8428663790520512 
4.139999999999956 -0.2492416279007615 
4.149999999999956 -1.324707207262516 
4.159999999999956 -2.336219096298445 
4.169999999999956 -3.238486225359868 
4.179999999999955 -3.987800495810696 
4.189999999999955 -4.562491108859534 
4.199999999999955 -4.971239465040982 
4.209999999999955 -5.232960288199585 
4.219999999999955 -5.364342354989421 
4.229999999999954 -5.362227254576466 
4.239999999999954 -5.203186918225621 
4.249999999999954 -4.877167883897965 
4.259999999999954 -4.392029933250218 
4.269999999999953 -3.770061342233946 
4.279999999999953 -3.034652615738871 
4.289999999999953 -2.207994228020023 
4.299999999999953 -1.309098774282606 
4.309999999999953 -0.3628134263209206 
4.319999999999952 0.5811669059511466 
4.329999999999952 1.458121527117644 
4.339999999999952 2.205169674131525 
4.349999999999952 2.776848069454298 
4.359999999999952 3.148043228588919 
4.369999999999951 3.308037062757863 
4.379999999999951 3.250485163913965 
4.389999999999951 2.979803170116504 
4.399999999999951 2.546372038420345 
4.40999999999995 2.037637912828485 
4.41999999999995 1.519564921823788 
4.42999999999995 0.998371943745903 
4.43999999999995 0.458529453807641 
4.44999999999995 -0.08231467432278879 
4.459999999999949 -0.585205102116178 
4.469999999999949 -1.029129247082773 
4.479999999999949 -1.430967826394547 
4.489999999999949 -1.82384619898042 
4.499999999999949 -2.220025288189122 
4.509999999999948 -2.594391615698666 
4.519999999999948 -2.911976504341413 
4.529999999999948 -3.15505886245231 
4.539999999999948 -3.30915038485138 
4.549999999999947 -3.342352250057498 
4.559999999999947 -3.207974641003167 
4.569999999999947 -2.871479234531221 
4.579999999999947 -2.32936962859697 
4.589999999999947 -1.62296947566494 
4.599999999999946 -0.8295708762723131 
4.609999999999946 -0.02399109022262465 
4.619999999999946 0.7400777616906749 
4.629999999999946 1.423806378069543 
4.639999999999946 1.98988415273032 
4.649999999999945 2.403941374734386 
4.659999999999945 2.64486203362892 
4.669999999999945 2.718709776723248 
4.679999999999945 2.660864809472201 
4.689999999999944 2.504066904246511 
4.699999999999944 2.25669039490744 
4.709999999999944 1.924645235905106 
4.719999999999944 1.534381414116824 
4.729999999999944 1.115627641120473 
4.739999999999943 0.6747810505954501 
4.749999999999943 0.1958017467433991 
4.759999999999943 -0.3382869785109373 
4.769999999999943 -0.9263826451140628 
4.779999999999943 -1.545431646934762 
4.789999999999942 -2.162107408243879 
4.799999999999942 -2.740420363716018 
4.809999999999942 -3.234191969069364 
4.819999999999942 -3.589307899532296 
4.829999999999942 -3.7626875837719 
4.839999999999941 -3.723616474268091 
4.849999999999941 -3.47575567736676 
4.859999999999941 -3.032099095358888 
4.869999999999941 -2.412329597596188 
4.87999999999994 -1.655788708440042 
4.88999999999994 -0.800874657691741 
4.89999999999994 0.09267819855668152 
4.90999999999994 0.9494554991935834 
4.91999999999994 1.700571265786123 
4.929999999999939 2.303364556192799 
4.939999999999939 2.73735330289075 
4.949999999999939 2.999197369592621 
4.959999999999939 3.100658916732953 
4.969999999999939 3.068475646115683 
4.979999999999938 2.936272799582337 
4.989999999999938 2.734314264972786 
4.999999999999938 2.473980355917786 
5.009999999999938 2.14805547366967 
5.019999999999937 1.744153646105858 
5.029999999999937 1.263496175165671 
5.039999999999937 0.7195027703347962 
5.049999999999937 0.1302780066502505 
5.059999999999937 -0.4843631344837555 
5.069999999999936 -1.097928334759772 
5.079999999999936 -1.671789280467621 
5.089999999999936 -2.164161906802916 
5.099999999999936 -2.535002758986778 
5.109999999999936 -2.75865507804719 
5.119999999999935 -2.823854175396045 
5.129999999999935 -2.731839171002633 
5.139999999999935 -2.487936786147972 
5.149999999999935 -2.108371571414809 
5.159999999999934 -1.629927902686525 
5.169999999999934 -1.104232303540476 
5.179999999999934 -0.5789503009253133 
5.189999999999934 -0.08468449350774493 
5.199999999999934 0.3631295067640312 
5.209999999999933 0.7604477954706842 
5.219999999999933 1.105065676769416 
5.229999999999933 1.392068729731219 
5.239999999999933 1.619164600864364 
5.249999999999933 1.792865747376436 
5.259999999999932 1.921351734138241 
5.269999999999932 1.998605429303197 
5.279999999999932 2.008890510824483 
5.289999999999932 1.939128736724806 
5.299999999999931 1.785929792561344 
5.309999999999931 1.546646097201353 
5.319999999999931 1.21533229461319 
5.329999999999931 0.7870606347554185 
5.339999999999931 0.2690052409395809 
5.34999999999993 -0.309019573268832 
5.35999999999993 -0.9010618322349322 
5.36999999999993 -1.456490991533791 
5.37999999999993 -1.930391819716158 
5.38999999999993 -2.288099723590495 
5.399999999999929 -2.50742978573827 
5.409999999999929 -2.582313662683404 
5.419999999999929 -2.523174229566997 
5.429999999999929 -2.356069373140401 
5.439999999999928 -2.112945365820033 
5.449999999999928 -1.819959247457984 
5.459999999999928 -1.494489123723622 
5.469999999999928 -1.146822426015983 
5.479999999999928 -0.7867533718232477 
5.489999999999927 -0.4221373896317037 
5.499999999999927 -0.0582549625447483 
5.509999999999927 0.3055597849319103 
5.519999999999927 0.670172750281295 
5.529999999999927 1.028752003004438 
5.539999999999926 1.366912265246169 
5.549999999999926 1.664552313428381 
5.559999999999926 1.900351504279357 
5.569999999999926 2.05072997783996 
5.579999999999926 2.090309689549237 
5.589999999999925 1.995604965416834 
5.599999999999925 1.755231395673409 
5.609999999999925 1.37935180078402 
5.619999999999925 0.8961564702373552 
5.629999999999924 0.344406088449338 
5.639999999999924 -0.2334137077116937 
5.649999999999924 -0.794203908091108 
5.659999999999924 -1.298305018600661 
5.669999999999924 -1.711066736326256 
5.679999999999923 -2.004334329348112 
5.689999999999923 -2.163118556948272 
5.699999999999923 -2.187478351049258 
5.709999999999923 -2.089865935941065 
5.719999999999923 -1.888647664438744 
5.729999999999922 -1.605607491932638 
5.739999999999922 -1.267533254034968 
5.749999999999922 -0.9048996587755975 
5.759999999999922 -0.5453357389512176 
5.769999999999921 -0.2034936509205126 
5.779999999999921 0.1195270435548329 
5.789999999999921 0.4260292087463696 
5.799999999999921 0.7118203726566399 
5.809999999999921 0.9656560308681732 
5.81999999999992 1.174288959829474 
5.82999999999992 1.324196688554159 
5.83999999999992 1.400673103522088 
5.84999999999992 1.387563869484946 
5.85999999999992 1.271898779284449 
5.869999999999919 1.048986606704335 
5.879999999999919 0.7259277752198042 
5.889999999999919 0.3215635419411012 
5.899999999999919 -0.1366056859407063 
5.909999999999918 -0.616980648573756 
5.919999999999918 -1.085587016614129 
5.929999999999918 -1.505246995760178 
5.939999999999918 -1.840416781862677 
5.949999999999918 -2.064978005133384 
5.959999999999917 -2.166915381181589 
5.969999999999917 -2.148371779174694 
5.979999999999917 -2.022846580659647 
5.989999999999917 -1.809304636593514 
5.999999999999917 -1.526074811501022 
6.009999999999916 -1.190593936396399 
6.019999999999916 -0.8211671518037835 
6.029999999999916 -0.4339734897741144 
6.039999999999916 -0.03983237401674272 
6.049999999999915 0.3527921214602942 
6.059999999999915 0.7328133806425662 
6.069999999999915 1.086373336022528 
6.079999999999915 1.400758536252245 
6.089999999999915 1.666017361238306 
6.099999999999914 1.872753651045654 
6.109999999999914 2.008887465325372 
6.119999999999914 2.058901300894021 
6.129999999999914 2.008428431801073 
6.139999999999914 1.849918189875496 
6.149999999999913 1.58509606233909 
6.159999999999913 1.223850196703952 
6.169999999999913 0.7840299260871844 
6.179999999999913 0.2923007818382046 
6.189999999999913 -0.2181591379580317 
6.199999999999912 -0.7133007979070799 
6.209999999999912 -1.164728701625017 
6.219999999999912 -1.553158648981659 
6.229999999999912 -1.868207957315428 
6.239999999999911 -2.105571770791527 
6.249999999999911 -2.264187935462448 
6.259999999999911 -2.345544590156933 
6.269999999999911 -2.353699901030574 
6.279999999999911 -2.295390172243387 
6.28999999999991 -2.178004908297599 
6.29999999999991 -2.005824713001728 
6.30999999999991 -1.777966770930506 
6.31999999999991 -1.490803229385374 
6.32999999999991 -1.143240816885259 
6.339999999999909 -0.739609971659112 
6.349999999999909 -0.2895459017935614 
6.359999999999909 0.1914817127475519 
6.369999999999909 0.6793950699280892 
6.379999999999908 1.140630412068693 
6.389999999999908 1.53712235292542 
6.399999999999908 1.835381485652939 
6.409999999999908 2.013991564074254 
6.419999999999908 2.064952306662127 
6.429999999999907 1.990508626521618 
6.439999999999907 1.80090053055163 
6.449999999999907 1.514385130812528 
6.459999999999907 1.15580795293455 
6.469999999999907 0.7520490635341584 
6.479999999999906 0.3280658744539952 
6.489999999999906 -0.09481099034062508 
6.499999999999906 -0.4993317585376658 
6.509999999999906 -0.8726569983157172 
6.519999999999905 -1.206633118823746 
6.529999999999905 -1.497527562923394 
6.539999999999905 -1.744662233221813 
6.549999999999905 -1.947485360734364 
6.559999999999905 -2.102122989742751 
6.569999999999904 -2.199397451062657 
6.579999999999904 -2.226005412434808 
6.589999999999904 -2.168242721861826 
6.599999999999904 -2.015609377445331 
6.609999999999904 -1.763241475374948 
6.619999999999903 -1.414193964181198 
6.629999999999903 -0.9810497512842029 
6.639999999999903 -0.4856782802028826 
6.649999999999903 0.04279912270240949 
6.659999999999902 0.5712372007222795 
6.669999999999902 1.066686965072692 
6.679999999999902 1.500181939753459 
6.689999999999902 1.848134204260817 
6.699999999999902 2.093133479762965 
6.709999999999901 2.226453547110858 
6.719999999999901 2.249750639463409 
6.729999999999901 2.172755768157617 
6.739999999999901 2.008294546587849 
6.749999999999901 1.768272898355379 
6.7599999999999 1.461719269981667 
6.7699999999999 1.094220927236682 
6.7799999999999 0.6687568816826259 
6.7899999999999 0.1878568524001782 
6.7999999999999 -0.3432882451589915 
6.809999999999899 -0.9131033687386153 
6.819999999999899 -1.500438678882951 
6.829999999999899 -2.073873282117899 
6.839999999999899 -2.594303231186413 
6.849999999999898 -3.019557368652445 
6.859999999999898 -3.309511187063149 
6.869999999999898 -3.43092208512962 
6.879999999999898 -3.361986722294254 
6.889999999999898 -3.096399326378886 
6.899999999999897 -2.646235518807759 
6.909999999999897 -2.042445545271511 
6.919999999999897 -1.331909052395844 
6.929999999999897 -0.5714121250261477 
6.939999999999897 0.1797768648704686 
6.949999999999896 0.8664747962431089 
6.959999999999896 1.442480276740732 
6.969999999999896 1.874321520158881 
6.979999999999896 2.143963098174942 
6.989999999999895 2.249028509798432 
6.999999999999895 2.199621355580301 
7.009999999999895 2.013324020852595 
7.019999999999895 1.710956161566774 
7.029999999999895 1.314307757054611 
7.039999999999894 0.8450638550064467 
7.049999999999894 0.3237029010658121 
7.059999999999894 -0.2316330963111941 
7.069999999999894 -0.8050938325599231 
7.079999999999894 -1.381173190696962 
7.089999999999893 -1.941879013475857 
7.099999999999893 -2.464719097897824 
7.109999999999893 -2.922549818998784 
7.119999999999893 -3.28532357883294 
7.129999999999892 -3.523110800879763 
7.139999999999892 -3.609715811005904 
7.149999999999892 -3.526648732435715 
7.159999999999892 -3.267520666654786 
7.169999999999892 -2.841604676225315 
7.179999999999891 -2.27474384618655 
7.189999999999891 -1.60656561967336 
7.199999999999891 -0.8848294559770624 
7.209999999999891 -0.1592686491742359 
7.219999999999891 0.5233880244093695 
7.22999999999989 1.12308305820602 
7.23999999999989 1.609731719427634 
7.24999999999989 1.965472243777904 
7.25999999999989 2.184294718777656 
7.269999999999889 2.269170827426434 
7.279999999999889 2.228384878206561 
7.289999999999889 2.07277501876963 
7.299999999999889 1.814274512869635 
7.309999999999889 1.465283202802018 
7.319999999999888 1.03810565555445 
7.329999999999888 0.5446767271962595 
7.339999999999888 -0.002136287222212664 
7.349999999999888 -0.5856800085688463 
7.359999999999888 -1.183246536111742 
7.369999999999887 -1.766001428651825 
7.379999999999887 -2.300478319901028 
7.389999999999887 -2.750518229776759 
7.399999999999887 -3.08015274859686 
7.409999999999887 -3.258188275519894 
7.419999999999886 -3.263729351567382 
7.429999999999886 -3.090743127056052 
7.439999999999886 -2.749769753997703 
7.449999999999886 -2.266235597941672 
7.459999999999885 -1.676602922922144 
7.469999999999885 -1.024201820506412 
7.479999999999885 -0.3550595032425058 
7.489999999999885 0.2869474301090973 
7.499999999999885 0.8650019221549383 
7.509999999999884 1.352539339856492 
7.519999999999884 1.733982800951657 
7.529999999999884 2.00378236312934 
7.539999999999884 2.164617459749691 
7.549999999999884 2.225073481934539 
7.559999999999883 2.196856488636449 
7.569999999999883 2.091774626568286 
7.579999999999883 1.918908513808467 
7.589999999999883 1.682813165740281 
7.599999999999882 1.383876617833372 
7.609999999999882 1.021296386926782 
7.619999999999882 0.5978025562449121 
7.629999999999882 0.1238239881586139 
7.639999999999882 -0.380811262926802 
7.649999999999881 -0.8875781300000757 
7.659999999999881 -1.361196874273227 
7.669999999999881 -1.762526915509253 
7.679999999999881 -2.053430145883923 
7.689999999999881 -2.203649727446257 
7.69999999999988 -2.197486878068528 
7.70999999999988 -2.037117982305994 
7.71999999999988 -1.741614503067509 
7.72999999999988 -1.34372953724509 
7.739999999999879 -0.8864922985520884 
7.749999999999879 -0.4191863197745967 
7.759999999999879 0.00876442679020571 
7.769999999999879 0.3554827277881121 
7.779999999999879 0.5932217039915069 
7.789999999999878 0.7110879868038234 
7.799999999999878 0.713254898509888 
7.809999999999878 0.6147081795563474 
7.819999999999878 0.4374318255554471 
7.829999999999878 0.2079167194563602 
7.839999999999877 -0.04562599785628777 
7.849999999999877 -0.297499713424068 
7.859999999999877 -0.5287946988611828 
7.869999999999877 -0.7289380251211145 
7.879999999999876 -0.8935288499446346 
7.889999999999876 -1.020679322517789 
7.899999999999876 -1.109045487912268 
7.909999999999876 -1.158002206106391 
7.919999999999876 -1.167259835598744 
7.929999999999875 -1.134290925323588 
7.939999999999875 -1.051928194589065 
7.949999999999875 -0.9096538233265566 
7.959999999999875 -0.6986417953489506 
7.969999999999875 -0.4169733942613797 
7.979999999999874 -0.07197548734148324 
7.989999999999874 0.3200446593058304 
7.999999999999874 0.7348506640888296 
8.009999999999874 1.14187107130797 
8.019999999999874 1.507522915400767 
8.029999999999873 1.800202579972856 
8.039999999999873 1.995118007582629 
8.049999999999873 2.077547001281748 
8.059999999999873 2.04442857673582 
8.069999999999872 1.904204644600943 
8.079999999999872 1.674446462764545 
8.089999999999872 1.3778309612254 
8.099999999999872 1.03843625859238 
8.109999999999872 0.6795828242156572 
8.119999999999871 0.3222595301480052 
8.129999999999871 -0.01711762258047831 
8.139999999999871 -0.328547478895398 
8.149999999999871 -0.6076162122310584 
8.159999999999871 -0.8521374178402712 
8.16999999999987 -1.05914847485081 
8.17999999999987 -1.224270414443404 
8.18999999999987 -1.342344106704544 
8.19999999999987 -1.407506496638568 
8.209999999999869 -1.41304783763686 
8.219999999999869 -1.352689429493658 
8.229999999999869 -1.223277373676396 
8.239999999999869 -1.027021929697727 
8.249999999999869 -0.7721886926795701 
8.259999999999868 -0.4731290405632315 
8.269999999999868 -0.1503557533382975 
8.279999999999868 0.1705702648242895 
8.289999999999868 0.4625901326597086 
8.299999999999868 0.7018044663901167 
8.309999999999867 0.8705140986596149 
8.319999999999867 0.9580040636705599 
8.329999999999867 0.9608611550806465 
8.339999999999867 0.8837646076732721 
8.349999999999866 0.7391966451460551 
8.359999999999866 0.5445483260881221 
8.369999999999866 0.3177854765426579 
8.379999999999866 0.07431231925895455 
8.389999999999866 -0.1739753082883299 
8.399999999999865 -0.4185823844734096 
8.409999999999865 -0.6542714111397848 
8.419999999999865 -0.8785824365566733 
8.429999999999865 -1.090585627876346 
8.439999999999865 -1.289276434754171 
8.449999999999864 -1.472038708463687 
8.459999999999864 -1.632969474615992 
8.469999999999864 -1.761296615220618 
8.479999999999864 -1.841397641039636 
8.489999999999863 -1.855727937729088 
8.499999999999863 -1.789660319756392 
8.509999999999863 -1.635453854065919 
8.519999999999863 -1.393771753373963 
8.529999999999863 -1.073801890833296 
8.539999999999862 -0.6934023890715763 
8.549999999999862 -0.2784464085949157 
8.559999999999862 0.140522007313209 
8.569999999999862 0.5338953657236589 
8.579999999999862 0.8778047212449027 
8.589999999999861 1.155784923742916 
8.599999999999861 1.357977457388988 
8.609999999999861 1.47992652625229 
8.619999999999861 1.521850699383938 
8.62999999999986 1.48797202725312 
8.63999999999986 1.385569014260531 
8.64999999999986 1.223896976924208 
8.65999999999986 1.012925227983733 
8.66999999999986 0.7616523043360528 
8.679999999999859 0.476519569394197 
8.689999999999859 0.1612891334592159 
8.699999999999859 -0.1809782920176192 
8.709999999999859 -0.5451576917864029 
8.719999999999859 -0.9224405654672466 
8.729999999999858 -1.300132933937682 
8.739999999999858 -1.661626923078267 
8.749999999999858 -1.986223069613649 
8.759999999999858 -2.25029510298925 
8.769999999999858 -2.430882088711219 
8.779999999999857 -2.510371113719255 
8.789999999999857 -2.479732956098915 
8.799999999999857 -2.339262295684021 
8.809999999999857 -2.09778870502594 
8.819999999999856 -1.771582806196021 
8.829999999999856 -1.383164397085648 
8.839999999999856 -0.9596333741382592 
8.849999999999856 -0.5302845348911005 
8.859999999999856 -0.1234538315618751 
8.869999999999855 0.237188952871994 
8.879999999999855 0.5359525471739123 
8.889999999999855 0.7664914034035617 
8.899999999999855 0.93034546474509 
8.909999999999855 1.033565680071311 
8.919999999999854 1.083438316168948 
8.929999999999854 1.086426592461129 
8.939999999999854 1.046817100411492 
8.949999999999854 0.9655474159587852 
8.959999999999853 0.8401604112967022 
8.969999999999853 0.667079732910678 
8.979999999999853 0.4454474869207903 
8.989999999999853 0.1801234601707981 
8.999999999999853 -0.1176718362541185 
9.009999999999852 -0.4315356652523893 
9.019999999999852 -0.7416274436657137 
9.029999999999852 -1.026437000730355 
9.039999999999852 -1.264626027164878 
9.049999999999852 -1.436968155436889 
9.059999999999851 -1.528393939222926 
9.069999999999851 -1.530196272040458 
9.079999999999851 -1.442031383958578 
9.089999999999851 -1.272692573158575 
9.09999999999985 -1.038813517080878 
9.10999999999985 -0.7619399014404481 
9.11999999999985 -0.4654099790194882 
9.12999999999985 -0.1719316082604823 
9.13999999999985 0.09853024207493656 
9.149999999999849 0.3309908358880595 
9.159999999999849 0.5169827430058593 
9.169999999999849 0.6541386677002956 
9.179999999999849 0.7440358822715514 
9.189999999999849 0.7900037408091338 
9.199999999999848 0.7960183209347285 
9.209999999999848 0.7661348021462172 
9.219999999999848 0.7035749298721248 
9.229999999999848 0.6097294604429967 
9.239999999999847 0.4839826585102449 
9.249999999999847 0.3246530548642985 
9.259999999999847 0.1306841999549682 
9.269999999999847 -0.0962648181023428 
9.279999999999847 -0.3496963976932868 
9.289999999999846 -0.61694752147286 
9.299999999999846 -0.8796443494075213 
9.309999999999846 -1.116150593768813 
9.319999999999846 -1.305150091868592 
9.329999999999846 -1.429189091037859 
9.339999999999845 -1.477504585784212 
9.349999999999845 -1.447835804545341 
9.359999999999845 -1.346712256394123 
9.369999999999845 -1.187754671937518 
9.379999999999845 -0.9885063855739388 
9.389999999999844 -0.7672510864484124 
9.399999999999844 -0.5408395151732752 
9.409999999999844 -0.3233243833736832 
9.419999999999844 -0.1248815720528948 
9.429999999999843 0.04878451223172847 
9.439999999999843 0.1961038269215069 
9.449999999999843 0.3185966323397638 
9.459999999999843 0.4197011451698234 
9.469999999999843 0.5034742315006294 
9.479999999999842 0.5727807451504539 
9.489999999999842 0.6272873777625384 
9.499999999999842 0.662454680390781 
9.509999999999842 0.6704335199573944 
9.519999999999842 0.6424490168713266 
9.529999999999841 0.5713202741591594 
9.539999999999841 0.4531600243927065 
9.549999999999841 0.2883717803159506 
9.559999999999841 0.08241557143221219 
9.56999999999984 -0.1538830917128145 
9.57999999999984 -0.4052263520919043 
9.58999999999984 -0.6540208486605355 
9.59999999999984 -0.8828799505461523 
9.60999999999984 -1.07648370005012 
9.619999999999839 -1.222736075055239 
9.629999999999839 -1.313718532522632 
9.639999999999839 -1.346639110074481 
9.649999999999839 -1.32441866227487 
9.659999999999839 -1.255257040876994 
9.669999999999838 -1.150646496031598 
9.679999999999838 -1.022078985907685 
9.689999999999838 -0.8778561398644214 
9.699999999999838 -0.7217782895491652 
9.709999999999837 -0.5542953331171189 
9.719999999999837 -0.374958941388383 
9.729999999999837 -0.1844856780176378 
9.739999999999837 0.01420321065252639 
9.749999999999837 0.2153791694360576 
9.759999999999836 0.4098648140498061 
9.769999999999836 0.5850473102324417 
9.779999999999836 0.7266160534548255 
9.789999999999836 0.8217084701766001 
9.799999999999836 0.8616010308027911 
9.809999999999835 0.8425977681294992 
9.819999999999835 0.7657421630361142 
9.829999999999835 0.6366600260682989 
9.839999999999835 0.4655428540854477 
9.849999999999834 0.2662849263366726 
9.859999999999834 0.05457176781378054 
9.869999999999834 -0.1542238660680383 
9.879999999999834 -0.3467204304483286 
9.889999999999834 -0.512844796314212 
9.899999999999833 -0.6466585506021999 
9.909999999999833 -0.74612471317197 
9.919999999999833 -0.811787975431691 
9.929999999999833 -0.8453346679159504 
9.939999999999833 -0.8489523550265413 
9.949999999999832 -0.8252707175459128 
9.959999999999832 -0.7770041986134761 
9.969999999999832 -0.7061765401651315 
9.979999999999832 -0.61385323845677 
9.989999999999832 -0.5009832749312538 
9.999999999999831 -0.3696236685774466 
10.00999999999983 -0.2234767676438664 
10.01999999999983 -0.06784725102946526 
10.02999999999983 0.09009926359723362 
10.03999999999983 0.2408015216582937 
10.04999999999983 0.372577565044746 
10.05999999999983 0.4732215895183517 
10.06999999999983 0.5321306436373399 
10.07999999999983 0.5420821570914016 
10.08999999999983 0.5006669646099886 
10.09999999999983 0.4114733802409029 
10.10999999999983 0.2842840485772413 
10.11999999999983 0.1334751659439306 
10.12999999999983 -0.02492829608315657 
10.13999999999983 -0.1760692220082841 
10.14999999999983 -0.3080727400206299 
10.15999999999983 -0.4132410654573037 
10.16999999999983 -0.4890512409666392 
10.17999999999983 -0.5382794166416683 
10.18999999999983 -0.5673470349849727 
10.19999999999983 -0.5834564044147755 
10.20999999999983 -0.5923391265870109 
10.21999999999983 -0.5976053346737636 
10.22999999999983 -0.6008729277648655 
10.23999999999983 -0.6016265651677829 
10.24999999999983 -0.5971547551272046 
10.25999999999983 -0.5835228883148109 
10.26999999999983 -0.5573863996530466 
10.27999999999983 -0.5173596959514797 
10.28999999999983 -0.4642311153799218 
10.29999999999983 -0.4005499463538865 
10.30999999999983 -0.3302735798839401 
10.31999999999982 -0.258395601735201 
10.32999999999982 -0.1901715652428292 
10.33999999999982 -0.1300910287814412 
10.34999999999982 -0.08115941214095115 
10.35999999999982 -0.0446999219510913 
10.36999999999982 -0.0203525973481931 
10.37999999999982 -0.006076735291363594 
10.38999999999982 0.001495130473712717 
10.39999999999982 0.006039088735541285 
10.40999999999982 0.01028540751181432 
10.41999999999982 0.01529243061077824 
10.42999999999982 0.02035545318288479 
10.43999999999982 0.02300057852544089 
10.44999999999982 0.01889505929260949 
10.45999999999982 0.002272111926337458 
10.46999999999982 -0.03268348807515224 
10.47999999999982 -0.08998387833913456 
10.48999999999982 -0.1704694279993183 
10.49999999999982 -0.2713388189513258 
10.50999999999982 -0.3862902452504335 
10.51999999999982 -0.505938699696206 
10.52999999999982 -0.6186596356213538 
10.53999999999982 -0.7122409977457187 
10.54999999999982 -0.7762526481495343 
10.55999999999982 -0.8043227660080558 
10.56999999999982 -0.7954072787868292 
10.57999999999982 -0.753739352364672 
10.58999999999982 -0.687675881703442 
10.59999999999982 -0.6077351991332081 
10.60999999999982 -0.5242054166981075 
10.61999999999982 -0.4450208490457222 
10.62999999999982 -0.3745891513717721 
10.63999999999982 -0.313698915320567 
10.64999999999982 -0.2601844304846831 
10.65999999999982 -0.2101134288091399 
10.66999999999982 -0.1593962781364464 
10.67999999999982 -0.1054362469354335 
10.68999999999982 -0.04816344198554461 
10.69999999999982 0.009929071186753008 
10.70999999999982 0.06449022652127086 
10.71999999999982 0.1101894797963923 
10.72999999999982 0.1414945060049234 
10.73999999999982 0.1535221695536478 
10.74999999999982 0.1431158946668049 
10.75999999999982 0.1098556398993553 
10.76999999999982 0.05649156486048793 
10.77999999999982 -0.01136288623209302 
10.78999999999981 -0.08606130301589281 
10.79999999999981 -0.1591209669274244 
10.80999999999981 -0.2227483000247427 
10.81999999999981 -0.2713688771501852 
10.82999999999981 -0.3025668709273076 
10.83999999999981 -0.3171887614220388 
10.84999999999981 -0.3189703264460562 
10.85999999999981 -0.3140559958903161 
10.86999999999981 -0.3102638357111833 
10.87999999999981 -0.3157705826278563 
10.88999999999981 -0.3373599795053847 
10.89999999999981 -0.3788670582118346 
10.90999999999981 -0.4403432305192189 
10.91999999999981 -0.5179434834995679 
10.92999999999981 -0.6042387931740563 
10.93999999999981 -0.6889053227678234 
10.94999999999981 -0.7601100769331548 
10.95999999999981 -0.8067464802735509 
10.96999999999981 -0.8209631398972019 
10.97999999999981 -0.799947609406258 
10.98999999999981 -0.7462611315190563 
10.99999999999981 -0.6668125507236224 
11.00999999999981 -0.5710487290756378 
11.01999999999981 -0.4688878850047426 
11.02999999999981 -0.3687122414824129 
11.03999999999981 -0.2757355407493843 
11.04999999999981 -0.1912138787229267 
11.05999999999981 -0.1129009994460556 
11.06999999999981 -0.03664076882744204 
11.07999999999981 0.04163324165800425 
11.08999999999981 0.1243211029312177 
11.09999999999981 0.2112731854222414 
11.10999999999981 0.2993275011597976 
11.11999999999981 0.3821164062101394 
11.12999999999981 0.4504755903047636 
11.13999999999981 0.493755249190836 
11.14999999999981 0.5016560647023992 
11.15999999999981 0.4658366690812997 
11.16999999999981 0.3810784905681566 
11.17999999999981 0.2464289564344679 
11.18999999999981 0.06636334049019659 
11.19999999999981 -0.148881822580593 
11.20999999999981 -0.3845055616239108 
11.21999999999981 -0.623314099654574 
11.22999999999981 -0.8476638025037597 
11.23999999999981 -1.040809841168277 
11.24999999999981 -1.188256472428031 
11.2599999999998 -1.279355674432533 
11.2699999999998 -1.308453590654068 
11.2799999999998 -1.274931091521159 
11.2899999999998 -1.182477250076196 
11.2999999999998 -1.038349667084441 
11.3099999999998 -0.8526548257874955 
11.3199999999998 -0.637098312866264 
11.3299999999998 -0.4032755153621203 
11.3399999999998 -0.1614873466950498 
11.3499999999998 0.07927898314240831 
11.3599999999998 0.3107632089549249 
11.3699999999998 0.5250306416984356 
11.3799999999998 0.7140875236712768 
11.3899999999998 0.869070134186237 
11.3999999999998 0.9796859632701227 
11.4099999999998 1.035178960631303 
11.4199999999998 1.026784996534308 
11.4299999999998 0.9500942116661786 
11.4399999999998 0.8060853244594629 
11.4499999999998 0.6011071696159431 
11.4599999999998 0.3465501652309527 
11.4699999999998 0.05814599155614118 
11.4799999999998 -0.245549416263399 
11.4899999999998 -0.5452400789590797 
11.4999999999998 -0.822702796485506 
11.5099999999998 -1.06194305603221 
11.5199999999998 -1.250079250400984 
11.5299999999998 -1.378267960192969 
11.5399999999998 -1.442283359321603 
11.5499999999998 -1.442240460185899 
11.5599999999998 -1.381696787887472 
11.5699999999998 -1.266826419759342 
11.5799999999998 -1.105810879302952 
11.5899999999998 -0.9080077392963044 
11.5999999999998 -0.6829072140348872 
11.6099999999998 -0.4396303406181911 
11.6199999999998 -0.1873862014689212 
11.6299999999998 0.06378036260236678 
11.6399999999998 0.3028969374480774 
11.6499999999998 0.5187340149463637 
11.6599999999998 0.700650302683241 
11.6699999999998 0.8392299469263755 
11.6799999999998 0.9267782722700773 
11.6899999999998 0.9577492703095185 
11.6999999999998 0.9290192723180945 
11.7099999999998 0.8400527648477059 
11.7199999999998 0.6932136978733349 
11.72999999999979 0.4943043487919923 
11.73999999999979 0.2529871303970939 
11.74999999999979 -0.01737347140587969 
11.75999999999979 -0.3005491560315298 
11.76999999999979 -0.5787380110376573 
11.77999999999979 -0.8341917113695576 
11.78999999999979 -1.051209952724936 
11.79999999999979 -1.218142578659775 
11.80999999999979 -1.328527286492412 
11.81999999999979 -1.380807854835555 
11.82999999999979 -1.377106928629542 
11.83999999999979 -1.322016620894608 
11.84999999999979 -1.221803292674284 
11.85999999999979 -1.083776417063477 
11.86999999999979 -0.9157034245002312 
11.87999999999979 -0.7255380350531835 
11.88999999999979 -0.5215465325185336 
11.89999999999979 -0.3124522021857699 
11.90999999999979 -0.1072661590666187 
11.91999999999979 0.08503041686822807 
11.92999999999979 0.2556215247240313 
11.93999999999979 0.3958799963629867 
11.94999999999979 0.4976840444535106 
11.95999999999979 0.5541739886977053 
11.96999999999979 0.560613145317028 
11.97999999999979 0.5149987273766603 
11.98999999999979 0.4184728946879152 
11.99999999999979 0.2757019486384417 
12.00999999999979 0.09499816626563019 
12.01999999999979 -0.1122540236580894 
12.02999999999979 -0.3328422276961962 
12.03999999999979 -0.5530526191904395 
12.04999999999979 -0.7596127110372369 
12.05999999999979 -0.9403588937053772 
12.06999999999979 -1.0849347604062 
12.07999999999979 -1.185520457192278 
12.08999999999979 -1.23737524009088 
12.09999999999979 -1.239096909250848 
12.10999999999979 -1.192613006221857 
12.11999999999979 -1.102825132629469 
12.12999999999979 -0.9768077283062935 
12.13999999999979 -0.8227103168222794 
12.14999999999979 -0.6487545301184796 
12.15999999999979 -0.4626445841821855 
12.16999999999979 -0.2713990305104838 
12.17999999999979 -0.08143280788335686 
12.18999999999979 0.1011823138147602 
12.19999999999978 0.2702826756980818 
12.20999999999978 0.4192193444761166 
12.21999999999978 0.540928044934294 
12.22999999999978 0.6286277382727533 
12.23999999999978 0.6767961664783505 
12.24999999999978 0.681956660948469 
12.25999999999978 0.6431866352266763 
12.26999999999978 0.5624927992256359 
12.27999999999978 0.4450014407565273 
12.28999999999978 0.2987350289971884 
12.29999999999978 0.1339183358850179 
12.30999999999978 -0.03803900113391045 
12.31999999999978 -0.2057849752760655 
12.32999999999978 -0.359425484542285 
12.33999999999978 -0.4917718367401409 
12.34999999999978 -0.5989214400822591 
12.35999999999978 -0.6799354852176585 
12.36999999999978 -0.735960093127265 
12.37999999999978 -0.7693509684835743 
12.38999999999978 -0.7829538734647035 
12.39999999999978 -0.7793131754280588 
12.40999999999978 -0.7598949652213832 
12.41999999999978 -0.7249633990437318 
12.42999999999978 -0.6744611322762268 
12.43999999999978 -0.6091783340306486 
12.44999999999978 -0.5310924542509401 
12.45999999999978 -0.4427460399311132 
12.46999999999978 -0.3466660182183112 
12.47999999999978 -0.2456355196281295 
12.48999999999978 -0.1434900517276256 
12.49999999999978 -0.04554460891429905 
12.50999999999978 0.04175449154709228 
12.51999999999978 0.1116944521111987 
12.52999999999978 0.1582966403803346 
12.53999999999978 0.1772740136355833 
12.54999999999978 0.166844498983398 
12.55999999999978 0.1282261086953281 
12.56999999999978 0.06563319710839459 
12.57999999999978 -0.01431465278981859 
12.58999999999978 -0.1037549690792961 
12.59999999999978 -0.1951319753210628 
12.60999999999978 -0.2826396170545159 
12.61999999999978 -0.3628625973920509 
12.62999999999978 -0.4343027917476878 
12.63999999999978 -0.4963341600586568 
12.64999999999978 -0.5485247324542248 
12.65999999999978 -0.5906273506581903 
12.66999999999977 -0.6226350210425135 
12.67999999999977 -0.6443060507075437 
12.68999999999977 -0.6544192373241599 
12.69999999999977 -0.6505172913957914 
12.70999999999977 -0.6294666990417717 
12.71999999999977 -0.5884972732907545 
12.72999999999977 -0.5262451463879226 
12.73999999999977 -0.4435532790166769 
12.74999999999977 -0.3438893663466461 
12.75999999999977 -0.2332215823944063 
12.76999999999977 -0.1193200224677123 
12.77999999999977 -0.0106691392312688 
12.78999999999977 0.08476485244075899 
12.79999999999977 0.160725202903007 
12.80999999999977 0.2135491142069817 
12.81999999999977 0.2423298806530386 
12.82999999999977 0.2481539592155662 
12.83999999999977 0.2328829992809783 
12.84999999999977 0.1984138566249262 
12.85999999999977 0.1468711570000802 
12.86999999999977 0.08113148386227116 
12.87999999999977 0.004720598406950917 
12.88999999999977 -0.07901777111259846 
12.89999999999977 -0.167617366838887 
12.90999999999977 -0.2593764990986405 
12.91999999999977 -0.3527304853022293 
12.92999999999977 -0.4457500191284754 
12.93999999999977 -0.5358348689641023 
12.94999999999977 -0.6192707422629707 
12.95999999999977 -0.6907395013868571 
12.96999999999977 -0.7433938006167132 
12.97999999999977 -0.7698751987539004 
12.98999999999977 -0.7639492598723595 
12.99999999999977 -0.722071751709868 
13.00999999999977 -0.6443840231595049 
13.01999999999977 -0.5349255080280628 
13.02999999999977 -0.4010250767124724 
13.03999999999977 -0.2520850569103066 
13.04999999999977 -0.09829240726105303 
13.05999999999977 0.0502341289300462 
13.06999999999977 0.1838980996976528 
13.07999999999977 0.2941870821793338 
13.08999999999977 0.3745878100758357 
13.09999999999977 0.4214231286025977 
13.10999999999977 0.434030596872657 
13.11999999999977 0.4142756654381371 
13.12999999999977 0.3658471282441165 
13.13999999999976 0.2935759815896704 
13.14999999999976 0.2026741528181125 
13.15999999999976 0.09793265458507706 
13.16999999999976 -0.01674116934775703 
13.17999999999976 -0.1381520435378658 
13.18999999999976 -0.2631657089967833 
13.19999999999976 -0.387992010901013 
13.20999999999976 -0.5077185548564853 
13.21999999999976 -0.6162702277159908 
13.22999999999976 -0.7069138995555246 
13.23999999999976 -0.7732289280704835 
13.24999999999976 -0.8100980584936254 
13.25999999999976 -0.8142042799501438 
13.26999999999976 -0.7840323420947449 
13.27999999999976 -0.7199361789301422 
13.28999999999976 -0.6246524261438663 
13.29999999999976 -0.5038515658965475 
13.30999999999976 -0.3659751444321716 
13.31999999999976 -0.2212067923208824 
13.32999999999976 -0.08015205250255197 
13.33999999999976 0.04727266556894686 
13.34999999999976 0.1528110852756094 
13.35999999999976 0.2308506184351797 
13.36999999999976 0.2790749012764325 
13.37999999999976 0.2982425917328007 
13.38999999999976 0.2910997965375201 
13.39999999999976 0.2610827771839602 
13.40999999999976 0.2114560278965446 
13.41999999999976 0.1450141619655822 
13.42999999999976 0.06413927105664137 
13.43999999999976 -0.02894893689283626 
13.44999999999976 -0.1318605577374497 
13.45999999999976 -0.2418217119957481 
13.46999999999976 -0.3556955663159691 
13.47999999999976 -0.4699990315418069 
13.48999999999976 -0.5805586894257517 
13.49999999999976 -0.6819201309001769 
13.50999999999976 -0.7671518148604322 
13.51999999999976 -0.8285121964318727 
13.52999999999976 -0.8587405094539389 
13.53999999999976 -0.8523753835560158 
13.54999999999976 -0.8068149442626091 
13.55999999999976 -0.723169163846383 
13.56999999999976 -0.606793337517353 
13.57999999999976 -0.4670740835716625 
13.58999999999976 -0.3161901830692718 
13.59999999999976 -0.1671682104287213 
13.60999999999975 -0.03198957964741542 
13.61999999999975 0.07965276256057582 
13.62999999999975 0.1609046625678519 
13.63999999999975 0.2079450732090561 
13.64999999999975 0.2200593694532126 
13.65999999999975 0.199500047566525 
13.66999999999975 0.1509425269558296 
13.67999999999975 0.08054418073761482 
13.68999999999975 -0.005163804545943611 
13.69999999999975 -0.1002623135843875 
13.70999999999975 -0.2000763952795587 
13.71999999999975 -0.3013418216149715 
13.72999999999975 -0.4019613492100208 
13.73999999999975 -0.5005020871510622 
13.74999999999975 -0.5955422109279152 
13.75999999999975 -0.684941652097177 
13.76999999999975 -0.7652270344247952 
13.77999999999975 -0.8314146243463076 
13.78999999999975 -0.8774957129826476 
13.79999999999975 -0.8974715119206326 
13.80999999999975 -0.8865059648304422 
13.81999999999975 -0.8417700613356965 
13.82999999999975 -0.762898837349889 
13.83999999999975 -0.6522974094720427 
13.84999999999975 -0.5154072523970531 
13.85999999999975 -0.3606432117296933 
13.86999999999975 -0.1986533688783703 
13.87999999999975 -0.04098215219693643 
13.88999999999975 0.1014209807955311 
13.89999999999975 0.2194968644475344 
13.90999999999975 0.3070539684883956 
13.91999999999975 0.3613099702984329 
13.92999999999975 0.3828411092303319 
13.93999999999975 0.3749524910291129 
13.94999999999975 0.3426917256582036 
13.95999999999975 0.2917421331377756 
13.96999999999975 0.2273631388745272 
13.97999999999975 0.1535913551058483 
13.98999999999975 0.07296439255766302 
13.99999999999975 -0.01314897961970615 
14.00999999999975 -0.1038825787087561 
14.01999999999975 -0.1983080869616125 
14.02999999999975 -0.2951557468258123 
14.03999999999975 -0.392597531721203 
14.04999999999975 -0.4878483070321325 
14.05999999999975 -0.5767627401333141 
14.06999999999974 -0.6538770137370602 
14.07999999999974 -0.713064385674242 
14.08999999999974 -0.7485319372713357 
14.09999999999974 -0.7558334159756478 
14.10999999999974 -0.7327697916317788 
14.11999999999974 -0.6800592002204405 
14.12999999999974 -0.6015405327443708 
14.13999999999974 -0.5037723126557637 
14.14999999999974 -0.3951507617421975 
14.15999999999974 -0.2847724912859825 
14.16999999999974 -0.1812144276626226 
14.17999999999974 -0.09142983826019267 
14.18999999999974 -0.02003403470916915 
14.19999999999974 0.03085205734118333 
14.20999999999974 0.06131103554611917 
14.21999999999974 0.07317188192892883 
14.22999999999974 0.06955545567503045 
14.23999999999974 0.05433927119652694 
14.24999999999974 0.03138552746368627 
14.25999999999974 0.003613107422800726 
14.26999999999974 -0.02771739641981873 
14.27999999999974 -0.06315472025938329 
14.28999999999974 -0.1045959889464988 
14.29999999999974 -0.1544050567783566 
14.30999999999974 -0.214342834961341 
14.31999999999974 -0.2845557332314438 
14.32999999999974 -0.3629134284290367 
14.33999999999974 -0.4449188799532985 
14.34999999999974 -0.5242171547062346 
14.35999999999974 -0.5935757271497819 
14.36999999999974 -0.6461227558027387 
14.37999999999974 -0.6765256922863262 
14.38999999999974 -0.6817625739219867 
14.39999999999974 -0.6613254771189727 
14.40999999999974 -0.6169880838307693 
14.41999999999974 -0.5524015016057905 
14.42999999999974 -0.4726854533318198 
14.43999999999974 -0.3839941158310102 
14.44999999999974 -0.2929152584548306 
14.45999999999974 -0.2056213797704699 
14.46999999999974 -0.1269324117991266 
14.47999999999974 -0.05965798387642055 
14.48999999999974 -0.004523621279403601 
14.49999999999974 0.0393108827388235 
14.50999999999974 0.07340287843228406 
14.51999999999974 0.09916645147113272 
14.52999999999974 0.1172020455813398 
14.53999999999973 0.1268964604712642 
14.54999999999973 0.1263743658573465 
14.55999999999973 0.1129265198925983 
14.56999999999973 0.08389741945389272 
14.57999999999973 0.03770105397194598 
14.58999999999973 -0.02548640939043611 
14.59999999999973 -0.1035383905493151 
14.60999999999973 -0.192542739272519 
14.61999999999973 -0.287127982718243 
14.62999999999973 -0.3808939854516608 
14.63999999999973 -0.4669275027194679 
14.64999999999973 -0.538381230007133 
14.65999999999973 -0.5891939716089159 
14.66999999999973 -0.6150455182540934 
14.67999999999973 -0.614349751006483 
14.68999999999973 -0.5887412926626358 
14.69999999999973 -0.5426239941641577 
14.70999999999973 -0.4819660735030606 
14.71999999999973 -0.4130111927789049 
14.72999999999973 -0.3413762820249232 
14.73999999999973 -0.2714541334133683 
14.74999999999973 -0.205935091108859 
14.75999999999973 -0.1456938316259111 
14.76999999999973 -0.09042035379690151 
14.77999999999973 -0.03977535316380441 
14.78999999999973 0.005724379282881618 
14.79999999999973 0.04460233126357687 
14.80999999999973 0.07484219875758227 
14.81999999999973 0.09429460242548837 
14.82999999999973 0.100887337717608 
14.83999999999973 0.09277696241590937 
14.84999999999973 0.06855134749044375 
14.85999999999973 0.02751445034994688 
14.86999999999973 -0.02988555177683303 
14.87999999999973 -0.1015187226979493 
14.88999999999973 -0.1832435672366324 
14.89999999999973 -0.2691958147561666 
14.90999999999973 -0.3527464010088824 
14.91999999999973 -0.4276860214303679 
14.92999999999973 -0.4891238017937733 
14.93999999999973 -0.5339860047462589 
14.94999999999973 -0.5612950482565108 
14.95999999999973 -0.5722256774522053 
14.96999999999973 -0.5696715841706224 
14.97999999999973 -0.5572690515930362 
14.98999999999973 -0.5383212833288887 
14.99999999999973 -0.5151769233522432 
15.00999999999972 -0.4891977125967574 
15.01999999999972 -0.4610241201481589 
15.02999999999972 -0.4307915767899119 
15.03999999999972 -0.398157002928669 
15.04999999999972 -0.3622563166354899 
15.05999999999972 -0.3218897379892854 
15.06999999999972 -0.2761290647550277 
15.07999999999972 -0.2251470099742775 
15.08999999999972 -0.1707721451151428 
15.09999999999972 -0.1164290373932653 
15.10999999999972 -0.06653896483001313 
15.11999999999972 -0.02567883382278382 
15.12999999999972 0.002271791216115537 
15.13999999999972 0.01488111081504745 
15.14999999999972 0.01170157161493741 
15.15999999999972 -0.005571787814717119 
15.16999999999972 -0.03346032595177471 
15.17999999999972 -0.06754374399309873 
15.18999999999972 -0.103499110965957 
15.19999999999972 -0.1379339367052439 
15.20999999999972 -0.1687554007186272 
15.21999999999972 -0.1951002487585024 
15.22999999999972 -0.2170568557131079 
15.23999999999972 -0.2354333493820124 
15.24999999999972 -0.2516569971347576 
15.25999999999972 -0.2676232581148213 
15.26999999999972 -0.2852252964649955 
15.27999999999972 -0.3055821294239903 
15.28999999999972 -0.3283865416492659 
15.29999999999972 -0.351806257628148 
15.30999999999972 -0.3729435407216688 
15.31999999999972 -0.3885039200296324 
15.32999999999972 -0.3954115161955694 
15.33999999999972 -0.3913843575545513 
15.34999999999972 -0.3755072732706126 
15.35999999999972 -0.3486224020006596 
15.36999999999972 -0.313274295706005 
15.37999999999972 -0.273184148129753 
15.38999999999972 -0.232533501155934 
15.39999999999972 -0.1953764822273256 
15.40999999999972 -0.1652751424674674 
15.41999999999972 -0.1450565366188678 
15.42999999999972 -0.1365864777711565 
15.43999999999972 -0.1405271015269759 
15.44999999999972 -0.1560843977688085 
15.45999999999972 -0.18084829223241 
15.46999999999972 -0.2109884965753945 
15.47999999999971 -0.2420138071281072 
15.48999999999971 -0.2698906627578582 
15.49999999999971 -0.2919556032850647 
15.50999999999971 -0.3072287743708018 
15.51999999999971 -0.3162369591698684 
15.52999999999971 -0.3206404906279202 
15.53999999999971 -0.322717945474834 
15.54999999999971 -0.3246430746958828 
15.55999999999971 -0.3277527868282339 
15.56999999999971 -0.3322108092943356 
15.57999999999971 -0.3372216978146047 
15.58999999999971 -0.3415308097862102 
15.59999999999971 -0.3438564958253835 
15.60999999999971 -0.3431387124099828 
15.61999999999971 -0.3386841085584068 
15.62999999999971 -0.3302771072627372 
15.63999999999971 -0.3182623257562529 
15.64999999999971 -0.303598211097187 
15.65999999999971 -0.2878581006950196 
15.66999999999971 -0.273071031912807 
15.67999999999971 -0.2612961355846175 
15.68999999999971 -0.2540256885424738 
15.69999999999971 -0.2517270032695593 
15.70999999999971 -0.2537675483448632 
15.71999999999971 -0.2586671621048042 
15.72999999999971 -0.2644604720931305 
15.73999999999971 -0.2690805783528275 
15.74999999999971 -0.2708002929150915 
15.75999999999971 -0.2686550156773734 
15.76999999999971 -0.2626300200645035 
15.77999999999971 -0.2535095768436737 
15.78999999999971 -0.2425316879709394 
15.79999999999971 -0.2310647462458418 
15.80999999999971 -0.2203935032633357 
15.81999999999971 -0.2115815727177133 
15.82999999999971 -0.2053607377500843 
15.83999999999971 -0.2020158415593471 
15.84999999999971 -0.2012651521423537 
15.85999999999971 -0.202213232398176 
15.86999999999971 -0.2035201413584639 
15.87999999999971 -0.2038551926152541 
15.88999999999971 -0.2024851416355033 
15.89999999999971 -0.1996729718909301 
15.90999999999971 -0.1966450428449784 
15.91999999999971 -0.1951783866817207 
15.92999999999971 -0.1970783502080487 
15.93999999999971 -0.2037561710866346 
15.9499999999997 -0.2159189496795726 
15.9599999999997 -0.2333426218911592 
15.9699999999997 -0.2548171577693564 
15.9799999999997 -0.2783754049648567 
15.9899999999997 -0.3017437599255872 
15.9999999999997 -0.3227993098436877 
16.0099999999997 -0.3398718504886825 
16.01999999999971 -0.3518883402157189 
16.02999999999971 -0.3584312585800564 
16.03999999999971 -0.3597631455684431 
16.04999999999971 -0.3568365945043413 
16.05999999999971 -0.351249216471858 
16.06999999999971 -0.3450039636867945 
16.07999999999971 -0.3399428437327877 
16.08999999999972 -0.336974576133954 
16.09999999999972 -0.3355257411299988 
16.10999999999972 -0.3336237473588204 
16.11999999999972 -0.3285883051559294 
16.12999999999972 -0.317887623518414 
16.13999999999972 -0.2997485243486462 
16.14999999999973 -0.2734861075804528 
16.15999999999973 -0.2397257732317721 
16.16999999999973 -0.2005142857872542 
16.17999999999973 -0.159115207279253 
16.18999999999973 -0.1194325032125836 
16.19999999999973 -0.08533588776329777 
16.20999999999973 -0.06021287291241628 
16.21999999999974 -0.04678668389802013 
16.22999999999974 -0.04699429452534675 
16.23999999999974 -0.06175704553142983 
16.24999999999974 -0.0906500380260698 
16.25999999999974 -0.1316039192591132 
16.26999999999974 -0.1808627426011811 
16.27999999999975 -0.2334330492596226 
16.28999999999975 -0.2840272576856166 
16.29999999999975 -0.3281064894746394 
16.30999999999975 -0.3624994018433302 
16.31999999999975 -0.3854359231882152 
16.32999999999975 -0.3963052336917207 
16.33999999999976 -0.3954809527937602 
16.34999999999976 -0.3841905540906535 
16.35999999999976 -0.3641951124351108 
16.36999999999976 -0.3372855898443023 
16.37999999999976 -0.3049397024823602 
16.38999999999976 -0.268414288562268 
16.39999999999976 -0.2291184928930926 
16.40999999999977 -0.1888422599423313 
16.41999999999977 -0.1496206140149403 
16.42999999999977 -0.1134285065673512 
16.43999999999977 -0.08205051466175205 
16.44999999999977 -0.05724014491669089 
16.45999999999977 -0.04096863477071909 
16.46999999999978 -0.03546371751137151 
16.47999999999978 -0.04288448123324112 
16.48999999999978 -0.06471950221471504 
16.49999999999978 -0.1011761961982073 
16.50999999999978 -0.1508527157509879 
16.51999999999978 -0.210815738917804 
16.52999999999978 -0.2769702404256795 
16.53999999999979 -0.3445192047332036 
16.54999999999979 -0.4084429618968812 
16.55999999999979 -0.4640665492136267 
16.56999999999979 -0.5076899824238627 
16.57999999999979 -0.5370387432532315 
16.58999999999979 -0.5512972937002475 
16.5999999999998 -0.5508034236217898 
16.6099999999998 -0.5367497210683588 
16.6199999999998 -0.5111112298023915 
16.6299999999998 -0.4766372551274166 
16.6399999999998 -0.4365879812522547 
16.6499999999998 -0.3941529313360672 
16.65999999999981 -0.3518362982578389 
16.66999999999981 -0.3111398115466533 
16.67999999999981 -0.2726422634998819 
16.68999999999981 -0.236370823923869 
16.69999999999981 -0.2023066595054374 
16.70999999999981 -0.1708479538852264 
16.71999999999981 -0.143042387341306 
16.72999999999982 -0.1205136948820673 
16.73999999999982 -0.105189854876438 
16.74999999999982 -0.09896937779975983 
16.75999999999982 -0.1033195690032059 
16.76999999999982 -0.1187714133160566 
16.77999999999982 -0.1444854786876338 
16.78999999999983 -0.1782019494600137 
16.79999999999983 -0.2166557327502288 
16.80999999999983 -0.2561490256134208 
16.81999999999983 -0.2929221006006607 
16.82999999999983 -0.3233269607863493 
16.83999999999983 -0.344107440871998 
16.84999999999983 -0.3529343577316182 
16.85999999999984 -0.3489561909319884 
16.86999999999984 -0.3330082527021673 
16.87999999999984 -0.3073777058585674 
16.88999999999984 -0.2752905592845591 
16.89999999999984 -0.2403150710801673 
16.90999999999984 -0.2057938825762212 
16.91999999999985 -0.1744085800234747 
16.92999999999985 -0.1479807156352682 
16.93999999999985 -0.1274992612551951 
16.94999999999985 -0.1132480645695347 
16.95999999999985 -0.1049674817811023 
16.96999999999985 -0.1021267069812347 
16.97999999999986 -0.1043311911214899 
16.98999999999986 -0.1116438843841103 
16.99999999999986 -0.1245286602166651 
17.00999999999986 -0.1434446861444519 
17.01999999999986 -0.1684850373562236 
17.02999999999986 -0.1993656866149416 
17.03999999999986 -0.2356007825583849 
17.04999999999987 -0.2764541759065118 
17.05999999999987 -0.320572705575751 
17.06999999999987 -0.3656709117914356 
17.07999999999987 -0.4086466966069405 
17.08999999999987 -0.4460739793184211 
17.09999999999987 -0.4747168408108672 
17.10999999999988 -0.4918714095557199 
17.11999999999988 -0.4956531655304428 
17.12999999999988 -0.4853503520699637 
17.13999999999988 -0.4617036611372861 
17.14999999999988 -0.4268614353602574 
17.15999999999988 -0.3839637143563455 
17.16999999999988 -0.3365545581496829 
17.17999999999989 -0.2880377638036213 
17.18999999999989 -0.2412599737815867 
17.19999999999989 -0.1982525001451073 
17.20999999999989 -0.1601898252647259 
17.21999999999989 -0.1275709903504722 
17.22999999999989 -0.1005003347831462 
17.2399999999999 -0.07891769255969462 
17.2499999999999 -0.06276014796803647 
17.2599999999999 -0.05213218950419269 
17.2699999999999 -0.04747126986311073 
17.2799999999999 -0.04956245370534892 
17.2899999999999 -0.05930583589600103 
17.29999999999991 -0.07734622703874423 
17.30999999999991 -0.1037856240043925 
17.31999999999991 -0.1380799113447486 
17.32999999999991 -0.1790280147280373 
17.33999999999991 -0.224731240411332 
17.34999999999991 -0.2725661946511235 
17.35999999999991 -0.3193474795816784 
17.36999999999992 -0.3617538616133263 
17.37999999999992 -0.3968566062170889 
17.38999999999992 -0.4225092365665119 
17.39999999999992 -0.4375137593740796 
17.40999999999992 -0.4416416524019604 
17.41999999999992 -0.4355880154887155 
17.42999999999993 -0.4208710198927436 
17.43999999999993 -0.3996698097580753 
17.44999999999993 -0.3745808846434235 
17.45999999999993 -0.3482564568401563 
17.46999999999993 -0.3229689021883148 
17.47999999999993 -0.3002850062044624 
17.48999999999993 -0.2810107023553387 
17.49999999999994 -0.2653461752859714 
17.50999999999994 -0.2530455492505552 
17.51999999999994 -0.2435031316629717 
17.52999999999994 -0.2358983600501642 
17.53999999999994 -0.2295133312989965 
17.54999999999994 -0.2240914855175841 
17.55999999999995 -0.2199574962553682 
17.56999999999995 -0.2177886126302573 
17.57999999999995 -0.2182260345406038 
17.58999999999995 -0.2215811448371109 
17.59999999999995 -0.2276962599843242 
17.60999999999995 -0.2358864248821848 
17.61999999999996 -0.2449644134094444 
17.62999999999996 -0.253407775690673 
17.63999999999996 -0.2596183806021875 
17.64999999999996 -0.2621575051813306 
17.65999999999996 -0.2599545124367547 
17.66999999999996 -0.2525548872712773 
17.67999999999996 -0.2403215210973448 
17.68999999999997 -0.2243856040189107 
17.69999999999997 -0.2063325433657754 
17.70999999999997 -0.1878857072009346 
17.71999999999997 -0.1708041933116924 
17.72999999999997 -0.156880281716148 
17.73999999999997 -0.1477692410131732 
17.74999999999998 -0.1446329860888272 
17.75999999999998 -0.1478783792049732 
17.76999999999998 -0.1571987690461063 
17.77999999999998 -0.1717901490039374 
17.78999999999998 -0.1904911547115636 
17.79999999999998 -0.2118225891745252 
17.80999999999999 -0.2340892479068791 
17.81999999999999 -0.255590184081999 
17.82999999999999 -0.2748174543690168 
17.83999999999999 -0.2905943865266916 
17.84999999999999 -0.3022235944931414 
17.85999999999999 -0.3096067643564488 
17.86999999999999 -0.3131511552412813 
17.88 -0.3134368793741483 
17.89 -0.3109268060118728 
17.9 -0.3059712375137881 
17.91 -0.2989702736245281 
17.92 -0.2903602330649823 
17.93 -0.2803972377070546 
17.94000000000001 -0.2690812972481979 
17.95000000000001 -0.2564242919612553 
17.96000000000001 -0.2427851673080532 
17.97000000000001 -0.2288723489876868 
17.98000000000001 -0.2154407318311949 
17.99000000000001 -0.2030774067262411 
18.00000000000001 -0.19227533329524 
18.01000000000002 -0.1835798579656535 
18.02000000000002 -0.1775604444789733 
18.03000000000002 -0.1746706938412512 
18.04000000000002 -0.1751942674249681 
18.05000000000002 -0.1792915854202971 
18.06000000000002 -0.1870251762002294 
18.07000000000003 -0.19834062563009 
18.08000000000003 -0.2130723844396779 
18.09000000000003 -0.2309443805103328 
18.10000000000003 -0.2514614738050816 
18.11000000000003 -0.2737404108808476 
18.12000000000003 -0.2964920800228768 
18.13000000000004 -0.3182327392684549 
18.14000000000004 -0.3375196965328071 
18.15000000000004 -0.3530093795887819 
18.16000000000004 -0.3634413045425463 
18.17000000000004 -0.3677911077291782 
18.18000000000004 -0.3655660235235779 
18.19000000000004 -0.3569347810254281 
18.20000000000005 -0.3425331626726229 
18.21000000000005 -0.3231659531697278 
18.22000000000005 -0.2996944689841704 
18.23000000000005 -0.2730915418778853 
18.24000000000005 -0.244444835094849 
18.25000000000005 -0.2148595308378441 
18.26000000000006 -0.1854232357312607 
18.27000000000006 -0.1572960751111646 
18.28000000000006 -0.1317721486955857 
18.29000000000006 -0.1102093307606043 
18.30000000000006 -0.09395031032306773 
18.31000000000006 -0.08434738212253164 
18.32000000000006 -0.08274603288515615 
18.33000000000007 -0.09022163013962595 
18.34000000000007 -0.1071643264237948 
18.35000000000007 -0.1330419330692748 
18.36000000000007 -0.1664817936639662 
18.37000000000007 -0.2054711445584243 
18.38000000000007 -0.2474662721908529 
18.39000000000008 -0.2894920369805809 
18.40000000000008 -0.3284318588481767 
18.41000000000008 -0.3614776804136802 
18.42000000000008 -0.3864826721964852 
18.43000000000008 -0.402068733554606 
18.44000000000008 -0.4075926489199432 
18.45000000000009 -0.4031003371714872 
18.46000000000009 -0.3892430610477397 
18.47000000000009 -0.3671160699253696 
18.48000000000009 -0.3381153012359617 
18.49000000000009 -0.3038764719940365 
18.50000000000009 -0.266170624228488 
18.51000000000009 -0.2266608445174914 
18.5200000000001 -0.1867264442656552 
18.5300000000001 -0.1476359878871403 
18.5400000000001 -0.1109640556742449 
18.5500000000001 -0.07880822495930173 
18.5600000000001 -0.05357675395169522 
18.5700000000001 -0.03759224124498622 
18.58000000000011 -0.03283571399851622 
18.59000000000011 -0.04079707048446102 
18.60000000000011 -0.06218253609803646 
18.61000000000011 -0.09647311504186312 
18.62000000000011 -0.1416548483580875 
18.63000000000011 -0.1943703219104426 
18.64000000000011 -0.2503763653126571 
18.65000000000012 -0.3050330645432215 
18.66000000000012 -0.3537423144494193 
18.67000000000012 -0.3924311474253071 
18.68000000000012 -0.4180716302319779 
18.69000000000012 -0.4290769625876347 
18.70000000000012 -0.4254754498793349 
18.71000000000013 -0.4088833726914377 
18.72000000000013 -0.3822469662045935 
18.73000000000013 -0.3492708821312689 
18.74000000000013 -0.3136379416698613 
18.75000000000013 -0.2783530713285327 
18.76000000000013 -0.2454561717966069 
18.77000000000014 -0.2160364881817836 
18.78000000000014 -0.1903649343909793 
18.79000000000014 -0.1681246770225143 
18.80000000000014 -0.1488205030815791 
18.81000000000014 -0.1322864373026819 
18.82000000000014 -0.1190303510353065 
18.83000000000014 -0.1102476367344388 
18.84000000000015 -0.1075939369739027 
18.85000000000015 -0.1128989004862456 
18.86000000000015 -0.1278628812669459 
18.87000000000015 -0.1536791861723783 
18.88000000000015 -0.1906262323645121 
18.89000000000015 -0.2377789740600279 
18.90000000000016 -0.2929070880283658 
18.91000000000016 -0.352515223817619 
18.92000000000016 -0.4120579862384033 
18.93000000000016 -0.4664676891441423 
18.94000000000016 -0.5109690253170641 
18.95000000000016 -0.5418506096593049 
18.96000000000016 -0.5568621836982465 
18.97000000000017 -0.5552631161026549 
18.98000000000017 -0.5377794195367984 
18.99000000000017 -0.5065337284534908 
19.00000000000017 -0.4647470253700887 
19.01000000000017 -0.4161315648283551 
19.02000000000017 -0.3642470562451514 
19.03000000000018 -0.3121415370121454 
19.04000000000018 -0.2622621388716951 
19.05000000000018 -0.2163942246381402 
19.06000000000018 -0.1755706879063903 
19.07000000000018 -0.1401452555232081 
19.08000000000018 -0.110126134420805 
19.09000000000019 -0.08557654677881249 
19.10000000000019 -0.06685305577512006 
19.11000000000019 -0.05468300268335368 
19.12000000000019 -0.05018229548865259 
19.13000000000019 -0.0547542471419298 
19.14000000000019 -0.06972539550979751 
19.15000000000019 -0.09578741245033075 
19.1600000000002 -0.1325461067100346 
19.1700000000002 -0.1783884354560783 
19.1800000000002 -0.2305926941861874 
19.1900000000002 -0.2855191219037855 
19.2000000000002 -0.3388872798805105 
19.2100000000002 -0.3862423886483415 
19.22000000000021 -0.423559358350514 
19.23000000000021 -0.4477657098697678 
19.24000000000021 -0.4570341332161922 
19.25000000000021 -0.4508839613860274 
19.26000000000021 -0.4301736019831852 
19.27000000000021 -0.3969683829085293 
19.28000000000021 -0.3542401820429051 
19.29000000000022 -0.3054457490098097 
19.30000000000022 -0.2540890426217218 
19.31000000000022 -0.2033358662811056 
19.32000000000022 -0.1557223875939984 
19.33000000000022 -0.1130314384293754 
19.34000000000022 -0.07639404178129851 
19.35000000000023 -0.04655422750719263 
19.36000000000023 -0.02413964629770484 
19.37000000000023 -0.009827289073539539 
19.38000000000023 -0.004404383210256413 
19.39000000000023 -0.008746672709209605 
19.40000000000023 -0.0236798139093442 
19.41000000000024 -0.04970089199857649 
19.42000000000024 -0.08664663471472153 
19.43000000000024 -0.133460844050257 
19.44000000000024 -0.188140076013255 
19.45000000000024 -0.2478258653272992 
19.46000000000024 -0.3090062184029968 
19.47000000000024 -0.3678403212386351 
19.48000000000025 -0.4205802564495387 
19.49000000000025 -0.46395515945173 
19.50000000000025 -0.4953987236893219 
19.51000000000025 -0.5131735817212502 
19.52000000000025 -0.5165305115931577 
19.53000000000025 -0.5058756908276132 
19.54000000000026 -0.4827334143920921 
19.55000000000026 -0.4493941240267991 
19.56000000000026 -0.4084330602812977 
19.57000000000026 -0.3623771023863818 
19.58000000000026 -0.3135673184333249 
19.59000000000026 -0.264050153643446 
19.60000000000026 -0.2154213451824739 
19.61000000000027 -0.168776227168617 
19.62000000000027 -0.1249276578863021 
19.63000000000027 -0.08480511172580127 
19.64000000000027 -0.04976552770930175 
19.65000000000027 -0.02163835127190623 
19.66000000000027 -0.002534697627639731 
19.67000000000028 0.005473725108599298 
19.68000000000028 0.0007392514416154518 
19.69000000000028 -0.01758980153839422 
19.70000000000028 -0.0493325241056311 
19.71000000000028 -0.09322809428508647 
19.72000000000028 -0.1469878893584364 
19.73000000000029 -0.2073607150973973 
19.74000000000029 -0.2702891890110387 
19.75000000000029 -0.3312864729969839 
19.76000000000029 -0.385973626864417 
19.77000000000029 -0.4305474361176475 
19.78000000000029 -0.4620479406872571 
19.79000000000029 -0.4785148062769319 
19.8000000000003 -0.4791485907970395 
19.8100000000003 -0.4644172348705019 
19.8200000000003 -0.4359487239055015 
19.8300000000003 -0.3961765898085474 
19.8400000000003 -0.347889169329113 
19.8500000000003 -0.2938656087242496 
19.86000000000031 -0.2366762454199896 
19.87000000000031 -0.1786391930443265 
19.88000000000031 -0.1219041569338306 
19.89000000000031 -0.06859772042662482 
19.90000000000031 -0.02091238846998689 
19.91000000000031 0.01893341318560322 
19.92000000000031 0.04880113966193723 
19.93000000000032 0.06670047724596669 
19.94000000000032 0.07084796690971477 
19.95000000000032 0.0598421887637369 
19.96000000000032 0.03296926779387443 
19.97000000000032 -0.009520433459811441 
19.98000000000032 -0.06630289245152501 
19.99000000000033 -0.1347490625056874 
20.00000000000033 -0.2109193336946466 
