0.01 0.3575993521726574 
0.02 0.3571465956173486 
0.03 0.3563167248358266 
0.04 0.3551738738966161 
0.05 0.3537282568937707 
0.06000000000000001 0.3519916302788765 
0.07000000000000001 0.3500642164927173 
0.08 0.3481758895669891 
0.09 0.3466005268301725 
0.09999999999999999 0.3454091462285885 
0.11 0.3442733198581259 
0.12 0.3426503342199329 
0.13 0.3402452815966404 
0.14 0.3371929949233098 
0.15 0.3337992514491978 
0.16 0.3303513055619855 
0.17 0.3272624800303215 
0.18 0.325157801082172 
0.19 0.3246701882745808 
0.2 0.3262438806536094 
0.2100000000000001 0.3301119000942824 
0.2200000000000001 0.3362659101305639 
0.2300000000000001 0.3443793269873648 
0.2400000000000001 0.3538783028160648 
0.2500000000000001 0.3641650299207468 
0.2600000000000001 0.3746970011248875 
0.2700000000000001 0.3847842936029916 
0.2800000000000001 0.3934428465990133 
0.2900000000000001 0.3996648976641687 
0.3000000000000001 0.4029002941526592 
0.3100000000000001 0.4032055217437875 
0.3200000000000001 0.4008694968205016 
0.3300000000000001 0.395931047869044 
0.3400000000000001 0.3882022513887858 
0.3500000000000001 0.3778566315252554 
0.3600000000000002 0.3658711691597134 
0.3700000000000002 0.3537090396209599 
0.3800000000000002 0.3425303752223892 
0.3900000000000002 0.3326889559509973 
0.4000000000000002 0.323899291856964 
0.4100000000000002 0.3158850853594049 
0.4200000000000002 0.3089883138860021 
0.4300000000000002 0.3042383383620728 
0.4400000000000002 0.3027985290439595 
0.4500000000000002 0.3052732467434562 
0.4600000000000002 0.3115088830903357 
0.4700000000000003 0.3209443008462156 
0.4800000000000003 0.3328811905670221 
0.4900000000000003 0.3463128719012739 
0.5000000000000002 0.3598535411867636 
0.5100000000000002 0.372315957477783 
0.5200000000000002 0.3834286212271572 
0.5300000000000003 0.3936693142995887 
0.5400000000000003 0.4031438644703724 
0.5500000000000003 0.4107520341400607 
0.5600000000000003 0.414791819789409 
0.5700000000000003 0.4145041516242822 
0.5800000000000003 0.410861545610577 
0.5900000000000003 0.4058171176747219 
0.6000000000000003 0.4010173167195656 
0.6100000000000003 0.3972343672466273 
0.6200000000000003 0.3944837332374445 
0.6300000000000003 0.3921148798441719 
0.6400000000000004 0.3888664861233265 
0.6500000000000004 0.383334881491799 
0.6600000000000004 0.3746294711625522 
0.6700000000000004 0.3625540790559065 
0.6800000000000004 0.3473802953650783 
0.6900000000000004 0.3298221191258254 
0.7000000000000004 0.3111035592591984 
0.7100000000000004 0.2924622748694602 
0.7200000000000004 0.274421972701673 
0.7300000000000004 0.2571914904004564 
0.7400000000000004 0.2424448475663378 
0.7500000000000004 0.2344474617066124 
0.7600000000000005 0.2383314887414694 
0.7700000000000005 0.2563264287285657 
0.7800000000000005 0.2855478135754449 
0.7900000000000005 0.3197155622287146 
0.8000000000000005 0.3530416104113225 
0.8100000000000005 0.3825142437299594 
0.8200000000000005 0.4071895073436378 
0.8300000000000005 0.4265205616317499 
0.8400000000000005 0.4400110607208007 
0.8500000000000005 0.4480326799516468 
0.8600000000000005 0.4521124415917117 
0.8700000000000006 0.4538605374336138 
0.8800000000000006 0.4533527586831981 
0.8900000000000006 0.4485087227884478 
0.9000000000000006 0.436482736095373 
0.9100000000000006 0.4165005702300573 
0.9200000000000006 0.3917780507642914 
0.9300000000000006 0.3681124280451884 
0.9400000000000006 0.3495844102317126 
0.9500000000000006 0.335202522112371 
0.9600000000000006 0.3200858238632651 
0.9700000000000006 0.30032048378671 
0.9800000000000007 0.2767443557018032 
0.9900000000000007 0.2542702121081877 
1.000000000000001 0.2382668140006281 
1.010000000000001 0.231954749425822 
1.020000000000001 0.2362865653446942 
1.030000000000001 0.2505002639237588 
1.040000000000001 0.2719040076989924 
1.050000000000001 0.2959850627321123 
1.060000000000001 0.3182452618195736 
1.070000000000001 0.3367272290397251 
1.080000000000001 0.3526736408092504 
1.090000000000001 0.3684999626955011 
1.100000000000001 0.3853742812591583 
1.110000000000001 0.4018669118486342 
1.120000000000001 0.414875458130615 
1.130000000000001 0.4219792249530172 
1.140000000000001 0.4236133281011808 
1.150000000000001 0.4240081175051224 
1.160000000000001 0.4292738248153744 
1.170000000000001 0.4434060654574445 
1.180000000000001 0.4648746441855955 
1.190000000000001 0.4870848892006954 
1.200000000000001 0.5019826557055303 
1.210000000000001 0.5037269461634344 
1.220000000000001 0.489783895495769 
1.230000000000001 0.4597591457079969 
1.240000000000001 0.4146389829755675 
1.250000000000001 0.3576151405173611 
1.260000000000001 0.2946259643167277 
1.270000000000001 0.2332021936483585 
1.280000000000001 0.1797589364672591 
1.290000000000001 0.1374828651011399 
1.300000000000001 0.1072342933166545 
1.310000000000001 0.09069348151469542 
1.320000000000001 0.09191957650939665 
1.330000000000001 0.1151875420788415 
1.340000000000001 0.1601732723164973 
1.350000000000001 0.2189655172959147 
1.360000000000001 0.2800015186864591 
1.370000000000001 0.3343983191961315 
1.380000000000001 0.3796214193048055 
1.390000000000001 0.4174241162285796 
1.400000000000001 0.4484111216438102 
1.410000000000001 0.4703902189185036 
1.420000000000001 0.4808750937450246 
1.430000000000001 0.4802662006117361 
1.440000000000001 0.4719771508099629 
1.450000000000001 0.4596459814335059 
1.460000000000001 0.4444593887908875 
1.470000000000001 0.4253225340939759 
1.480000000000001 0.4017792546670125 
1.490000000000001 0.3759347665213434 
1.500000000000001 0.3516537472597326 
1.510000000000001 0.3310198629001226 
1.520000000000001 0.3122478266461794 
1.530000000000001 0.2923520982977454 
1.540000000000001 0.271689763610988 
1.550000000000001 0.2556140396234136 
1.560000000000001 0.2506193543467432 
1.570000000000001 0.259124286184891 
1.580000000000001 0.2779132865654998 
1.590000000000001 0.3013491906758291 
1.600000000000001 0.3250497068031277 
1.610000000000001 0.3464996030299744 
1.620000000000001 0.3640372837026152 
1.630000000000001 0.3761780754555085 
1.640000000000001 0.3819650183334459 
1.650000000000001 0.3812302936577776 
1.660000000000001 0.3746148145172487 
1.670000000000001 0.3639928875909096 
1.680000000000001 0.3517549763858044 
1.690000000000001 0.3386670296676189 
1.700000000000001 0.3229432232321081 
1.710000000000001 0.3034985095989515 
1.720000000000001 0.2842669928251787 
1.730000000000001 0.2733584521406456 
1.740000000000001 0.2764187101932887 
1.750000000000001 0.2905687734166245 
1.760000000000001 0.3059896713643103 
1.770000000000001 0.3132616885413116 
1.780000000000001 0.3093169102442835 
1.790000000000001 0.2975901952159857 
1.800000000000001 0.2847742387220528 
1.810000000000001 0.2777101417092877 
1.820000000000001 0.2812907811734007 
1.830000000000001 0.2966348001883829 
1.840000000000001 0.3204382319299014 
1.850000000000001 0.3472296281828289 
1.860000000000001 0.3725493352163395 
1.870000000000001 0.3942520546333284 
1.880000000000001 0.4120966481051325 
1.890000000000002 0.4278366922584303 
1.900000000000002 0.4449370350684185 
1.910000000000002 0.4658275940627404 
1.920000000000002 0.4877445486710313 
1.930000000000002 0.5026208255126244 
1.940000000000002 0.5030688621212022 
1.950000000000002 0.4887780529821713 
1.960000000000002 0.4671635767077234 
1.970000000000002 0.448350747844692 
1.980000000000002 0.4392723746833692 
1.990000000000002 0.440256119184486 
2.000000000000001 0.4449300640367074 
2.010000000000001 0.4428986401130246 
2.020000000000001 0.4251766015939017 
2.030000000000001 0.3900374596099769 
2.040000000000001 0.3443742966808571 
2.05 0.2988652414709149 
2.06 0.2622723974721505 
2.07 0.2382815328499998 
2.08 0.2262310453130763 
2.089999999999999 0.2222023717520867 
2.099999999999999 0.2197007765404679 
2.109999999999999 0.2134261402491558 
2.119999999999999 0.2034850365905523 
2.129999999999999 0.1983114868183245 
2.139999999999998 0.2101145370797624 
2.149999999999998 0.2432164901249938 
2.159999999999998 0.2899975848129732 
2.169999999999998 0.3345291862575719 
2.179999999999998 0.3622262490073213 
2.189999999999997 0.3681379781225512 
2.199999999999997 0.3554452925437893 
2.209999999999997 0.3363385337952408 
2.219999999999997 0.3268801838648194 
2.229999999999996 0.3385747569819728 
2.239999999999996 0.3714616044527083 
2.249999999999996 0.4136313917061604 
2.259999999999996 0.4496248449365696 
2.269999999999996 0.4680994002487514 
2.279999999999995 0.46597231782127 
2.289999999999995 0.4458171573338846 
2.299999999999995 0.4163215465942963 
2.309999999999995 0.3899264842893195 
2.319999999999995 0.3770023467773548 
2.329999999999994 0.3757861617837709 
2.339999999999994 0.3713689466071315 
2.349999999999994 0.3459838363897222 
2.359999999999994 0.2917409537542903 
2.369999999999993 0.2173188362801488 
2.379999999999993 0.1408932655927096 
2.389999999999993 0.08242735106679512 
2.399999999999993 0.05499647639476566 
2.409999999999993 0.05993227801262017 
2.419999999999992 0.08701545989441994 
2.429999999999992 0.1218597535944197 
2.439999999999992 0.1557811251449388 
2.449999999999992 0.1900507940174489 
2.459999999999992 0.2319084742334337 
2.469999999999991 0.2892968013543708 
2.479999999999991 0.3665867735244212 
2.489999999999991 0.462279744250665 
2.499999999999991 0.565859743399009 
2.509999999999991 0.6569961671010336 
2.51999999999999 0.7126256365352398 
2.52999999999999 0.7202646338947071 
2.53999999999999 0.6873221951165673 
2.54999999999999 0.6310448879459604 
2.559999999999989 0.572799564631859 
2.569999999999989 0.519741261600587 
2.579999999999989 0.4660624955036726 
2.589999999999989 0.4029057962930723 
2.599999999999989 0.3239684615294163 
2.609999999999988 0.2364612027774831 
2.619999999999988 0.1555001793144808 
2.629999999999988 0.1007010230956889 
2.639999999999988 0.08469500678770127 
2.649999999999988 0.108850212905388 
2.659999999999987 0.1604188852858595 
2.669999999999987 0.218477690007862 
2.679999999999987 0.2632498539107271 
2.689999999999987 0.2844767351516552 
2.699999999999986 0.2830160434700109 
2.709999999999986 0.2718249603578749 
2.719999999999986 0.269471778052805 
2.729999999999986 0.2883786282633757 
2.739999999999986 0.3276202818480477 
2.749999999999985 0.3731896620760431 
2.759999999999985 0.4091878043842679 
2.769999999999985 0.4296031629259071 
2.779999999999985 0.442210168315586 
2.789999999999985 0.460030257911611 
2.799999999999984 0.4921538209107763 
2.809999999999984 0.5353938186639712 
2.819999999999984 0.5762917219154551 
2.829999999999984 0.5999764055748099 
2.839999999999983 0.5985501611729459 
2.849999999999983 0.5721384407295646 
2.859999999999983 0.5276281427988585 
2.869999999999983 0.4740264514281023 
2.879999999999983 0.4217375471813761 
2.889999999999982 0.3806034749109042 
2.899999999999982 0.3538886553894654 
2.909999999999982 0.3356639297667296 
2.919999999999982 0.3146691310621161 
2.929999999999982 0.2813348757884349 
2.939999999999981 0.2357785625161032 
2.949999999999981 0.1880559805583407 
2.959999999999981 0.1499540260995703 
2.969999999999981 0.1254934084155764 
2.97999999999998 0.1084271480027458 
2.98999999999998 0.08887833640931123 
2.99999999999998 0.06183213853648387 
3.00999999999998 0.0318057213287928 
3.01999999999998 0.009668505255083549 
3.029999999999979 0.008704028752797188 
3.039999999999979 0.03822420881457209 
3.049999999999979 0.09911273907042656 
3.059999999999979 0.1840165218682873 
3.069999999999979 0.2804826171565451 
3.079999999999978 0.3739291285292343 
3.089999999999978 0.4505304175770984 
3.099999999999978 0.5011437234684432 
3.109999999999978 0.5262463303006847 
3.119999999999978 0.5364791626634655 
3.129999999999977 0.5458072808853063 
3.139999999999977 0.5606558989341445 
3.149999999999977 0.5752649219599734 
3.159999999999977 0.5768700836002466 
3.169999999999976 0.5565516718073147 
3.179999999999976 0.5167897200643006 
3.189999999999976 0.4695025993230053 
3.199999999999976 0.4279996673906737 
3.209999999999976 0.3979841654486926 
3.219999999999975 0.3744576990444541 
3.229999999999975 0.3456996909332495 
3.239999999999975 0.3023700702157652 
3.249999999999975 0.243008533536566 
3.259999999999975 0.17457549117839 
3.269999999999974 0.109265438962634 
3.279999999999974 0.0606094483120652 
3.289999999999974 0.04144530338897556 
3.299999999999974 0.06100461798090422 
3.309999999999973 0.1209308876992897 
3.319999999999973 0.2136356105722594 
3.329999999999973 0.3269673691418099 
3.339999999999973 0.4497934035110666 
3.349999999999973 0.5789285157072504 
3.359999999999972 0.7202035902401169 
3.369999999999972 0.8758873899916906 
3.379999999999972 1.038708446131126 
3.389999999999972 1.191093651309524 
3.399999999999972 1.314273201044323 
3.409999999999971 1.400869149760337 
3.419999999999971 1.453873906006038 
3.429999999999971 1.48489905639716 
3.439999999999971 1.505598835779099 
3.44999999999997 1.523234021798559 
3.45999999999997 1.538743213243824 
3.46999999999997 1.548089496483444 
3.47999999999997 1.544779321154687 
3.48999999999997 1.519200678523299 
3.499999999999969 1.46419785438265 
3.509999999999969 1.379004716522154 
3.519999999999969 1.274929972881267 
3.529999999999969 1.169803698093885 
3.539999999999969 1.076463695647011 
3.549999999999968 0.9983048970942032 
3.559999999999968 0.9325118810939681 
3.569999999999968 0.8774287426132106 
3.579999999999968 0.8365138122267175 
3.589999999999967 0.8199361847363137 
3.599999999999967 0.8406056350325925 
3.609999999999967 0.9057875762289958 
3.619999999999967 1.011669659767718 
3.629999999999967 1.144804967963392 
3.639999999999966 1.288821602685369 
3.649999999999966 1.428431116876874 
3.659999999999966 1.550649423909416 
3.669999999999966 1.648668278447603 
3.679999999999966 1.723123373772937 
3.689999999999965 1.779045324240591 
3.699999999999965 1.819101093441819 
3.709999999999965 1.839024010670047 
3.719999999999965 1.82453058140112 
3.729999999999965 1.756473700387761 
3.739999999999964 1.620552922402913 
3.749999999999964 1.412057760037346 
3.759999999999964 1.136481798028458 
3.769999999999964 0.8015514548861235 
3.779999999999963 0.4155979076163186 
3.789999999999963 -0.01204481248717651 
3.799999999999963 -0.4725436525263672 
3.809999999999963 -0.9569481653033234 
3.819999999999963 -1.452492947652951 
3.829999999999962 -1.941154636187051 
3.839999999999962 -2.403399552781783 
3.849999999999962 -2.813985195226508 
3.859999999999962 -3.143229120756381 
3.869999999999962 -3.368601749116039 
3.879999999999961 -3.477904668723124 
3.889999999999961 -3.471692216589564 
3.899999999999961 -3.362653101373036 
3.909999999999961 -3.167727354559506 
3.91999999999996 -2.902283763136241 
3.92999999999996 -2.573511356760375 
3.93999999999996 -2.183961905816387 
3.94999999999996 -1.7352478288591 
3.95999999999996 -1.227666898210122 
3.969999999999959 -0.6619628728236396 
3.979999999999959 -0.04197783513987361 
3.989999999999959 0.62213133531192 
3.999999999999959 1.311220154926933 
4.009999999999959 1.990625677876008 
4.019999999999959 2.613039006941205 
4.029999999999959 3.133819885708713 
4.039999999999958 3.523258973721215 
4.049999999999958 3.776322821925249 
4.059999999999958 3.901228656659698 
4.069999999999958 3.889790106867373 
4.079999999999957 3.724033273720833 
4.089999999999957 3.391975289953038 
4.099999999999957 2.89654330839487 
4.109999999999957 2.255071317334676 
4.119999999999957 1.486108847116996 
4.129999999999956 0.6205672727441027 
4.139999999999956 -0.2953094067245309 
4.149999999999956 -1.211884326354222 
4.159999999999956 -2.085977533114703 
4.169999999999956 -2.881422936158217 
4.179999999999955 -3.561242062171989 
4.189999999999955 -4.100455269933227 
4.199999999999955 -4.500816260451543 
4.209999999999955 -4.779411043119595 
4.219999999999955 -4.946413666561383 
4.229999999999954 -4.979624637733632 
4.239999999999954 -4.840941423969416 
4.249999999999954 -4.51491202935881 
4.259999999999954 -4.018699144933725 
4.269999999999953 -3.396546527746906 
4.279999999999953 -2.696233299172629 
4.289999999999953 -1.952232478173903 
4.299999999999953 -1.178871358525086 
4.309999999999953 -0.389348760944994 
4.319999999999952 0.3881554773473999 
4.329999999999952 1.11039579016927 
4.339999999999952 1.728417064060761 
4.349999999999952 2.20762866021718 
4.359999999999952 2.528129414412057 
4.369999999999951 2.677097503626217 
4.379999999999951 2.641983910334172 
4.389999999999951 2.431861910643559 
4.399999999999951 2.100258958362531 
4.40999999999995 1.726237198820666 
4.41999999999995 1.352394950935462 
4.42999999999995 0.9541013049742382 
4.43999999999995 0.4896814120929388 
4.44999999999995 -0.03707455992078209 
4.459999999999949 -0.573506564708653 
4.469999999999949 -1.067914139053918 
4.479999999999949 -1.507090353371231 
4.489999999999949 -1.904849222899889 
4.499999999999949 -2.260542904603531 
4.509999999999948 -2.55265751542233 
4.519999999999948 -2.764155361881501 
4.529999999999948 -2.897857651711765 
4.539999999999948 -2.963748621389251 
4.549999999999947 -2.94913563893539 
4.559999999999947 -2.811350113929811 
4.569999999999947 -2.510098687303058 
4.579999999999947 -2.039241984743736 
4.589999999999947 -1.440463091577877 
4.599999999999946 -0.7891969884258493 
4.609999999999946 -0.1487608419784607 
4.619999999999946 0.4481259139099423 
4.629999999999946 0.9900827402832478 
4.639999999999946 1.464575512355594 
4.649999999999945 1.846800038472993 
4.659999999999945 2.110269683194838 
4.669999999999945 2.24841593238411 
4.679999999999945 2.274722105083229 
4.689999999999944 2.194780543191755 
4.699999999999944 2.003498434732832 
4.709999999999944 1.702365060263231 
4.719999999999944 1.32103866566926 
4.729999999999944 0.9037425559026575 
4.739999999999943 0.4705235419251929 
4.749999999999943 0.01117870827731646 
4.759999999999943 -0.4923759346824043 
4.769999999999943 -1.039790063682305 
4.779999999999943 -1.605661581963916 
4.789999999999942 -2.152392744797527 
4.799999999999942 -2.63776977678812 
4.809999999999942 -3.01657871511298 
4.819999999999942 -3.249522667156704 
4.829999999999942 -3.317316492597339 
4.839999999999941 -3.223769126202325 
4.849999999999941 -2.979519720440383 
4.859999999999941 -2.601240140134947 
4.869999999999941 -2.113556309318895 
4.87999999999994 -1.52867434743794 
4.88999999999994 -0.8609224549867951 
4.89999999999994 -0.1408270890178037 
4.90999999999994 0.5812829321129086 
4.91999999999994 1.242253572952917 
4.929999999999939 1.799916233447596 
4.939999999999939 2.225083047207109 
4.949999999999939 2.505301896986023 
4.959999999999939 2.643638106136136 
4.969999999999939 2.657326227239252 
4.979999999999938 2.575024543225539 
4.989999999999938 2.415616275361741 
4.999999999999938 2.18413703716273 
5.009999999999938 1.866077263963653 
5.019999999999937 1.455392778217246 
5.029999999999937 0.9651551873797208 
5.039999999999937 0.427821457481426 
5.049999999999937 -0.1207208170060418 
5.059999999999937 -0.6553139202232412 
5.069999999999936 -1.152793047996971 
5.079999999999936 -1.594747956768547 
5.089999999999936 -1.959951885535302 
5.099999999999936 -2.231711055576314 
5.109999999999936 -2.401700817246489 
5.119999999999935 -2.465073754403347 
5.129999999999935 -2.416773326573027 
5.139999999999935 -2.2484188199836 
5.149999999999935 -1.96131877907189 
5.159999999999934 -1.580317115575671 
5.169999999999934 -1.148441501280661 
5.179999999999934 -0.7088064816109946 
5.189999999999934 -0.2861219175082204 
5.199999999999934 0.111973658140857 
5.209999999999933 0.4872676195604481 
5.219999999999933 0.8353418179831272 
5.229999999999933 1.141985327318303 
5.239999999999933 1.393427415327358 
5.249999999999933 1.581071101987487 
5.259999999999932 1.702323267823833 
5.269999999999932 1.747919294399796 
5.279999999999932 1.708952333291833 
5.289999999999932 1.586270782875002 
5.299999999999931 1.394007599220861 
5.309999999999931 1.146642404439434 
5.319999999999931 0.8456467041307698 
5.329999999999931 0.4837969853564715 
5.339999999999931 0.05841421495417731 
5.34999999999993 -0.4125324400555859 
5.35999999999993 -0.8950958585883388 
5.36999999999993 -1.348420305283454 
5.37999999999993 -1.735797202770384 
5.38999999999993 -2.031480535344067 
5.399999999999929 -2.220421795228677 
5.409999999999929 -2.299990001100476 
5.419999999999929 -2.280499554402986 
5.429999999999929 -2.181169114281837 
5.439999999999928 -2.020192294577438 
5.449999999999928 -1.80727330761136 
5.459999999999928 -1.544072210608579 
5.469999999999928 -1.231076993282062 
5.479999999999928 -0.8783388425334319 
5.489999999999927 -0.5039173529090698 
5.499999999999927 -0.1266727400078528 
5.509999999999927 0.238413389470775 
5.519999999999927 0.5819474319285463 
5.529999999999927 0.8949057975762974 
5.539999999999926 1.167604755753467 
5.549999999999926 1.391001100581401 
5.559999999999926 1.556946490173155 
5.569999999999926 1.653400392210331 
5.579999999999926 1.661428725792127 
5.589999999999925 1.560667225394806 
5.599999999999925 1.340738541620193 
5.609999999999925 1.011885174409724 
5.619999999999925 0.6022019152338659 
5.629999999999924 0.1478523315436873 
5.639999999999924 -0.3160620446495793 
5.649999999999924 -0.7607013049721123 
5.659999999999924 -1.162441669005159 
5.669999999999924 -1.500903467994038 
5.679999999999923 -1.758117984748698 
5.689999999999923 -1.920582422372137 
5.699999999999923 -1.982026691612189 
5.709999999999923 -1.942707267870914 
5.719999999999923 -1.80683516534971 
5.729999999999922 -1.584450757886632 
5.739999999999922 -1.296067197142143 
5.749999999999922 -0.9715874239057812 
5.759999999999922 -0.640222533178167 
5.769999999999921 -0.3185023777800938 
5.779999999999921 -0.009417480181944013 
5.789999999999921 0.2868561199260706 
5.799999999999921 0.5619552444866386 
5.809999999999921 0.7986692695272551 
5.81999999999992 0.9787139105970686 
5.82999999999992 1.088286246690684 
5.83999999999992 1.118107307235514 
5.84999999999992 1.063215990653433 
5.85999999999992 0.9236086603123992 
5.869999999999919 0.7056834092481851 
5.879999999999919 0.4223755575415874 
5.889999999999919 0.09065693084652166 
5.899999999999919 -0.2723556733433992 
5.909999999999918 -0.6504822583239385 
5.919999999999918 -1.024574995213878 
5.929999999999918 -1.369178451743661 
5.939999999999918 -1.654578988395387 
5.949999999999918 -1.855135608108602 
5.959999999999917 -1.95671131684259 
5.969999999999917 -1.959402736707164 
5.979999999999917 -1.873822733356548 
5.989999999999917 -1.713548917995338 
5.999999999999917 -1.490047511419134 
6.009999999999916 -1.212820592908603 
6.019999999999916 -0.8920361656458409 
6.029999999999916 -0.5389128888596431 
6.039999999999916 -0.1651770185217319 
6.049999999999915 0.2147593476305459 
6.059999999999915 0.5810968115868938 
6.069999999999915 0.911895492892956 
6.079999999999915 1.190343094984717 
6.089999999999915 1.408628450151433 
6.099999999999914 1.564648059515556 
6.109999999999914 1.655575694648366 
6.119999999999914 1.67431655554737 
6.129999999999914 1.611939574557281 
6.139999999999914 1.463211211471794 
6.149999999999913 1.229324493113222 
6.159999999999913 0.9182366121909869 
6.169999999999913 0.5452964744502304 
6.179999999999913 0.1332026697123936 
6.189999999999913 -0.2904286618365193 
6.199999999999912 -0.6993872787575127 
6.209999999999912 -1.075367738642216 
6.219999999999912 -1.409312928209979 
6.229999999999912 -1.69755615553572 
6.239999999999911 -1.935881094603543 
6.249999999999911 -2.116172606198146 
6.259999999999911 -2.227619034778619 
6.269999999999911 -2.261898820948313 
6.279999999999911 -2.217601163265568 
6.28999999999991 -2.100329824994092 
6.29999999999991 -1.919018905381778 
6.30999999999991 -1.681375513876592 
6.31999999999991 -1.393363343531502 
6.32999999999991 -1.061454210708513 
6.339999999999909 -0.693527842115186 
6.349999999999909 -0.2984994794620207 
6.359999999999909 0.1120589645341707 
6.369999999999909 0.5198572576493485 
6.379999999999908 0.8980593775534144 
6.389999999999908 1.215834652197217 
6.399999999999908 1.448167009424984 
6.409999999999908 1.582880448931073 
6.419999999999908 1.619753995982567 
6.429999999999907 1.564847653984121 
6.439999999999907 1.42620516315412 
6.449999999999907 1.213490144930181 
6.459999999999907 0.9384763849223218 
6.469999999999907 0.6145449987451532 
6.479999999999906 0.2560205625555005 
6.489999999999906 -0.1213050587947164 
6.499999999999906 -0.4996346455725848 
6.509999999999906 -0.8607473765587131 
6.519999999999905 -1.188883469751154 
6.529999999999905 -1.473345996564187 
6.539999999999905 -1.708891573327807 
6.549999999999905 -1.893310297875711 
6.559999999999905 -2.023342176196548 
6.569999999999904 -2.09193596618321 
6.579999999999904 -2.089399951164376 
6.589999999999904 -2.00693825342255 
6.599999999999904 -1.840343524386804 
6.609999999999904 -1.591979297371595 
6.619999999999903 -1.271264087293193 
6.629999999999903 -0.8938680159651449 
6.639999999999903 -0.4796251867879197 
6.649999999999903 -0.05001688921071977 
6.659999999999902 0.374405122302812 
6.669999999999902 0.7754139140043818 
6.679999999999902 1.136688884977805 
6.689999999999902 1.442034977515812 
6.699999999999902 1.675181607880621 
6.709999999999901 1.822833155996062 
6.719999999999901 1.878255300776998 
6.729999999999901 1.841871309258027 
6.739999999999901 1.718400739696174 
6.749999999999901 1.513816713272142 
6.7599999999999 1.234026820422532 
6.7699999999999 0.8849054213719543 
6.7799999999999 0.4731914360490337 
6.7899999999999 0.007936399499471499 
6.7999999999999 -0.4975415812984278 
6.809999999999899 -1.023876088530924 
6.819999999999899 -1.545076852299773 
6.829999999999899 -2.030204354105512 
6.839999999999899 -2.447139443105734 
6.849999999999898 -2.766681160300703 
6.859999999999898 -2.965237826394626 
6.869999999999898 -3.025773794901391 
6.879999999999898 -2.938566493007663 
6.889999999999898 -2.702764106862993 
6.899999999999897 -2.328481829352723 
6.909999999999897 -1.838133276332512 
6.919999999999897 -1.265284050238492 
6.929999999999897 -0.6508112975775021 
6.939999999999897 -0.03777949865822525 
6.949999999999896 0.532937519006178 
6.959999999999896 1.02581188491562 
6.969999999999896 1.41317696768683 
6.979999999999896 1.677247270331384 
6.989999999999895 1.8104121377259 
6.999999999999895 1.813018935214287 
7.009999999999895 1.690378345106786 
7.019999999999895 1.451174450835646 
7.029999999999895 1.108265115767023 
7.039999999999894 0.6798382958722454 
7.049999999999894 0.1887260066268997 
7.059999999999894 -0.3401256488577998 
7.069999999999894 -0.8823402534823848 
7.079999999999894 -1.415083555017919 
7.089999999999893 -1.916605346550245 
7.099999999999893 -2.365337340269908 
7.109999999999893 -2.739801142660447 
7.119999999999893 -3.019471541970789 
7.129999999999892 -3.185989415464094 
7.139999999999892 -3.224653180261722 
7.149999999999892 -3.12640278820819 
7.159999999999892 -2.890505461895418 
7.169999999999892 -2.526977985397239 
7.179999999999891 -2.056995757346452 
7.189999999999891 -1.510371359854379 
7.199999999999891 -0.9211509377255692 
7.209999999999891 -0.323705213032042 
7.219999999999891 0.2493296229870753 
7.22999999999989 0.7682060951009089 
7.23999999999989 1.207681619347931 
7.24999999999989 1.548793472860364 
7.25999999999989 1.779437212134429 
7.269999999999889 1.893346681694192 
7.279999999999889 1.8886488643179 
7.289999999999889 1.76754363469241 
7.299999999999889 1.537068722053185 
7.309999999999889 1.209523889536535 
7.319999999999888 0.8014749937414742 
7.329999999999888 0.3318834210149905 
7.339999999999888 -0.1789677547814837 
7.349999999999888 -0.70919485306602 
7.359999999999888 -1.234938101528377 
7.369999999999887 -1.730910249052027 
7.379999999999887 -2.171224524042358 
7.389999999999887 -2.529903171340963 
7.399999999999887 -2.781931174606484 
7.409999999999887 -2.906098275786164 
7.419999999999886 -2.889391937520712 
7.429999999999886 -2.730723617708943 
7.439999999999886 -2.44170511466836 
7.449999999999886 -2.044173269198014 
7.459999999999885 -1.56620567965703 
7.469999999999885 -1.038693390056538 
7.479999999999885 -0.4928595700333134 
7.489999999999885 0.04198043778291798 
7.499999999999885 0.5404012032412432 
7.509999999999884 0.9817323671678676 
7.519999999999884 1.3496985507697 
7.529999999999884 1.63191767902453 
7.539999999999884 1.820182428819296 
7.549999999999884 1.911326143964982 
7.559999999999883 1.907634903168315 
7.569999999999883 1.815946381727187 
7.579999999999883 1.645407521527706 
7.589999999999883 1.404916433388721 
7.599999999999882 1.101975066219905 
7.609999999999882 0.7440507126030997 
7.619999999999882 0.3416441658088436 
7.629999999999882 -0.08925339245573495 
7.639999999999882 -0.527058153493245 
7.649999999999881 -0.9464289877053849 
7.659999999999881 -1.320455648067587 
7.669999999999881 -1.622677675847053 
7.679999999999881 -1.82989951061562 
7.689999999999881 -1.926191160836038 
7.69999999999988 -1.906349585433584 
7.70999999999988 -1.776470886449002 
7.71999999999988 -1.551754658293082 
7.72999999999988 -1.254109580998335 
7.739999999999879 -0.9112261847384413 
7.749999999999879 -0.5558100274416099 
7.759999999999879 -0.2224365565256414 
7.769999999999879 0.05823288610559159 
7.779999999999879 0.2650672988232523 
7.789999999999878 0.3885529437451922 
7.799999999999878 0.4286567697823949 
7.809999999999878 0.3910706877193685 
7.819999999999878 0.2850905560687448 
7.829999999999878 0.1237813826015917 
7.839999999999877 -0.07588712983577275 
7.849999999999877 -0.2950161911419311 
7.859999999999877 -0.5159605348528996 
7.869999999999877 -0.7239797966314118 
7.879999999999876 -0.9063322291409263 
7.889999999999876 -1.051067237671378 
7.899999999999876 -1.148193545637617 
7.909999999999876 -1.192472336113577 
7.919999999999876 -1.184152787543003 
7.929999999999875 -1.125766497900842 
7.939999999999875 -1.017880737400301 
7.949999999999875 -0.8582979798861504 
7.959999999999875 -0.6454980745392499 
7.969999999999875 -0.3827440462369099 
7.979999999999874 -0.07954945473977192 
7.989999999999874 0.2492717274556289 
7.999999999999874 0.5849875818776205 
8.009999999999874 0.9061571957548901 
8.019999999999874 1.190547257477864 
8.029999999999873 1.417919995958769 
8.039999999999873 1.572618655135764 
8.049999999999873 1.645085386333027 
8.059999999999873 1.632450591530802 
8.069999999999872 1.538295644725277 
8.079999999999872 1.371335652731116 
8.089999999999872 1.143511111466807 
8.099999999999872 0.8688292762745785 
8.109999999999872 0.5633006161566944 
8.119999999999871 0.2443763983247058 
8.129999999999871 -0.07136025004270849 
8.139999999999871 -0.370777889681832 
8.149999999999871 -0.6444510584014075 
8.159999999999871 -0.884537294050926 
8.16999999999987 -1.083064005026451 
8.17999999999987 -1.232531676797592 
8.18999999999987 -1.32754724142705 
8.19999999999987 -1.365270147944265 
8.209999999999869 -1.344702160716703 
8.219999999999869 -1.266507741464553 
8.229999999999869 -1.133827568886881 
8.239999999999869 -0.9528964218675424 
8.249999999999869 -0.7328438312775999 
8.259999999999868 -0.4855903709580657 
8.269999999999868 -0.2263025331065431 
8.279999999999868 0.02697049708265235 
8.289999999999868 0.2557143659025292 
8.299999999999868 0.4441828069429981 
8.309999999999867 0.5810396084402354 
8.319999999999867 0.6591105583974756 
8.329999999999867 0.6751873413338939 
8.339999999999867 0.6308449674903697 
8.349999999999866 0.5326597540436082 
8.359999999999866 0.3902035014076686 
8.369999999999866 0.2129555029514411 
8.379999999999866 0.008791454489678979 
8.389999999999866 -0.2151079447580131 
8.399999999999865 -0.4506419203664793 
8.409999999999865 -0.6883057951678552 
8.419999999999865 -0.9180338288497009 
8.429999999999865 -1.13058227993443 
8.439999999999865 -1.318742735796802 
8.449999999999864 -1.477665307055981 
8.459999999999864 -1.603569257643525 
8.469999999999864 -1.691282335147296 
8.479999999999864 -1.732701356970731 
8.489999999999863 -1.718022320521169 
8.499999999999863 -1.639054631094876 
8.509999999999863 -1.492047489727531 
8.519999999999863 -1.278678640496619 
8.529999999999863 -1.006336149887399 
8.539999999999862 -0.6888516338020074 
8.549999999999862 -0.34644500779054 
8.559999999999862 -0.002785799600666978 
8.569999999999862 0.3202459181554803 
8.579999999999862 0.6066180446366347 
8.589999999999861 0.8463812024816663 
8.599999999999861 1.033021608450076 
8.609999999999861 1.160931227689746 
8.619999999999861 1.22486256990608 
8.62999999999986 1.221113929242597 
8.63999999999986 1.149288770023793 
8.64999999999986 1.013522987369164 
8.65999999999986 0.8222003746975527 
8.66999999999986 0.5858018209334234 
8.679999999999859 0.3140251536537553 
8.689999999999859 0.01432933331070736 
8.699999999999859 -0.3070370605534861 
8.709999999999859 -0.6427858155799159 
8.719999999999859 -0.983135192679049 
8.729999999999858 -1.315579015871861 
8.739999999999858 -1.624859946430001 
8.749999999999858 -1.893002971040969 
8.759999999999858 -2.100862083734362 
8.769999999999858 -2.23193010868206 
8.779999999999857 -2.27655193546368 
8.789999999999857 -2.233619415138369 
8.799999999999857 -2.108882615595017 
8.809999999999857 -1.911784474116043 
8.819999999999856 -1.653328142942354 
8.829999999999856 -1.345953289915492 
8.839999999999856 -1.004682233686431 
8.849999999999856 -0.6480105577337094 
8.859999999999856 -0.297122217411381 
8.869999999999855 0.02703450515038308 
8.879999999999855 0.3076484666962028 
8.889999999999855 0.5346665980645928 
8.899999999999855 0.7046289165900415 
8.909999999999855 0.8183853681600437 
8.919999999999854 0.878684396730565 
8.929999999999854 0.8887236104200245 
8.939999999999854 0.8511633115011295 
8.949999999999854 0.7671844151722257 
8.959999999999853 0.6365712033402196 
8.969999999999853 0.4598667656769677 
8.979999999999853 0.2416140535522 
8.989999999999853 -0.007879873525338369 
8.999999999999853 -0.273694173756363 
9.009999999999852 -0.5392878118573504 
9.019999999999852 -0.7891703454428194 
9.029999999999852 -1.01000948915042 
9.039999999999852 -1.190343957792606 
9.049999999999852 -1.319855132936994 
9.059999999999851 -1.38933806194737 
9.069999999999851 -1.392096976527974 
9.079999999999851 -1.326323592814878 
9.089999999999851 -1.196854109935052 
9.09999999999985 -1.014879255798881 
9.10999999999985 -0.7957792765197125 
9.11999999999985 -0.5565443290617346 
9.12999999999985 -0.31382432646364 
9.13999999999985 -0.08240659987486412 
9.149999999999849 0.1262163998701568 
9.159999999999849 0.304500922424777 
9.169999999999849 0.4478758709024958 
9.179999999999849 0.5528074897643658 
9.189999999999849 0.6158105450785946 
9.199999999999848 0.6343226411305052 
9.209999999999848 0.6082759711250487 
9.219999999999848 0.540620808690425 
9.229999999999848 0.4363639766400931 
9.239999999999847 0.3009889029931557 
9.249999999999847 0.1392392222814046 
9.259999999999847 -0.04516313143058514 
9.269999999999847 -0.2485741379443461 
9.279999999999847 -0.4654739886112319 
9.289999999999846 -0.6865762739722153 
9.299999999999846 -0.8984196544576438 
9.309999999999846 -1.085021013165051 
9.319999999999846 -1.23086007564142 
9.329999999999846 -1.323932567621634 
9.339999999999845 -1.358005442226764 
9.349999999999845 -1.333626053591631 
9.359999999999845 -1.257476353480577 
9.369999999999845 -1.14001441576701 
9.379999999999845 -0.9924095937313938 
9.389999999999844 -0.8244672999222596 
9.399999999999844 -0.6443994383354714 
9.409999999999844 -0.4596957112252793 
9.419999999999844 -0.2777847214006177 
9.429999999999843 -0.1059564414363007 
9.439999999999843 0.04923263231360556 
9.449999999999843 0.1828360333245709 
9.459999999999843 0.2923963451644743 
9.469999999999843 0.3780687079317655 
9.479999999999842 0.4412692510805509 
9.489999999999842 0.4823244836817007 
9.499999999999842 0.4988187917996209 
9.509999999999842 0.4860268281580321 
9.519999999999842 0.4391186467501551 
9.529999999999841 0.3555066754507065 
9.539999999999841 0.2360303072546743 
9.549999999999841 0.08495731727809304 
9.559999999999841 -0.09056145539409685 
9.56999999999984 -0.2813507760499931 
9.57999999999984 -0.4775133856435972 
9.58999999999984 -0.6697961027207418 
9.59999999999984 -0.8500762478405459 
9.60999999999984 -1.01059955113697 
9.619999999999839 -1.142921804113597 
9.629999999999839 -1.238041453057064 
9.639999999999839 -1.288302757973436 
9.649999999999839 -1.290152954583098 
9.659999999999839 -1.245925926972631 
9.669999999999838 -1.163140673876185 
9.679999999999838 -1.051356485610862 
9.689999999999838 -0.9184996569293331 
9.699999999999838 -0.7691213886839259 
9.709999999999837 -0.6054717426491617 
9.719999999999837 -0.4299662607489217 
9.729999999999837 -0.2468756598873247 
9.739999999999837 -0.0624488866018568 
9.749999999999837 0.1156375709730732 
9.759999999999836 0.2785733617983202 
9.769999999999836 0.4168059388378628 
9.779999999999836 0.5213890309390368 
9.789999999999836 0.5859405035547303 
9.799999999999836 0.6076450689701723 
9.809999999999835 0.5865303064648557 
9.819999999999835 0.5242081126608429 
9.829999999999835 0.4237104191325627 
9.839999999999835 0.2904080440049583 
9.849999999999834 0.1326124350068677 
9.859999999999834 -0.03901851767557213 
9.869999999999834 -0.2129251329124453 
9.879999999999834 -0.3782972895936589 
9.889999999999834 -0.5265643273644837 
9.899999999999833 -0.6522219558207413 
9.909999999999833 -0.7524052552656702 
9.919999999999833 -0.8254487376690119 
9.929999999999833 -0.8697132328391689 
9.939999999999833 -0.8836972969563164 
9.949999999999832 -0.866990747912631 
9.959999999999832 -0.8208053468543453 
9.969999999999832 -0.7476632717550764 
9.979999999999832 -0.6510344985721335 
9.989999999999832 -0.5355272558833231 
9.999999999999831 -0.4070709034605702 
10.00999999999983 -0.2723292467544372 
10.01999999999983 -0.1377510673370096 
10.02999999999983 -0.009335459197301018 
10.03999999999983 0.1067788768151486 
10.04999999999983 0.2039365981361457 
10.05999999999983 0.2754767527498144 
10.06999999999983 0.3156869897660246 
10.07999999999983 0.3206270377404377 
10.08999999999983 0.2889592375281535 
10.09999999999983 0.2229205298107081 
10.10999999999983 0.1287269496998529 
10.11999999999983 0.01559818860470612 
10.12999999999983 -0.1062249039108314 
10.13999999999983 -0.2271779308593706 
10.14999999999983 -0.3391719376805665 
10.15999999999983 -0.4361201990328713 
10.16999999999983 -0.5147331003021975 
10.17999999999983 -0.5749071294839863 
10.18999999999983 -0.6187671535673762 
10.19999999999983 -0.6488330822839274 
10.20999999999983 -0.6669022125171973 
10.21999999999983 -0.6743159285003365 
10.22999999999983 -0.6725323485449535 
10.23999999999983 -0.6628485709783848 
10.24999999999983 -0.6456880402471948 
10.25999999999983 -0.6206566693597031 
10.26999999999983 -0.5875042740772321 
10.27999999999983 -0.5469213097367921 
10.28999999999983 -0.5004618110506305 
10.29999999999983 -0.4500446154146796 
10.30999999999983 -0.3977244829064766 
10.31999999999982 -0.345689441108312 
10.32999999999982 -0.2960518426527626 
10.33999999999982 -0.2504480993389447 
10.34999999999982 -0.2098664900352497 
10.35999999999982 -0.1748038333288533 
10.36999999999982 -0.1453777211157509 
10.37999999999982 -0.1212161739219965 
10.38999999999982 -0.1015137708923944 
10.39999999999982 -0.08559775459036832 
10.40999999999982 -0.07362395891474517 
10.41999999999982 -0.06672453336211924 
10.42999999999982 -0.06659222652856359 
10.43999999999982 -0.07513110739011469 
10.44999999999982 -0.09444003616775586 
10.45999999999982 -0.1266333784104844 
10.46999999999982 -0.173097161531797 
10.47999999999982 -0.2336277126289939 
10.48999999999982 -0.3062318172787536 
10.49999999999982 -0.3876628901332767 
10.50999999999982 -0.4739685111920102 
10.51999999999982 -0.5604538383736034 
10.52999999999982 -0.6413441224141248 
10.53999999999982 -0.7099717670602248 
10.54999999999982 -0.7598870064475972 
10.55999999999982 -0.7864156561426386 
10.56999999999982 -0.7878367944058122 
10.57999999999982 -0.7657201518829694 
10.58999999999982 -0.7244109411304299 
10.59999999999982 -0.6698210967762278 
10.60999999999982 -0.6078624207138308 
10.61999999999982 -0.5431351517856096 
10.62999999999982 -0.4784000182411005 
10.63999999999982 -0.4148226044234828 
10.64999999999982 -0.3525782158149023 
10.65999999999982 -0.2915373081905092 
10.66999999999982 -0.2319691479657095 
10.67999999999982 -0.1750616547268837 
10.68999999999982 -0.1228952004174405 
10.69999999999982 -0.07782388693988779 
10.70999999999982 -0.0417873092292296 
10.71999999999982 -0.01616484957541969 
10.72999999999982 -0.002177910766643777 
10.73999999999982 -0.001200219757204923 
10.74999999999982 -0.0144169622623516 
10.75999999999982 -0.04196467736012597 
10.76999999999982 -0.08217720973301523 
10.77999999999982 -0.131408852847639 
10.78999999999981 -0.184510507761341 
10.79999999999981 -0.2358630648385824 
10.80999999999981 -0.2807487898675627 
10.81999999999981 -0.3165343104960672 
10.82999999999981 -0.3430470408330237 
10.83999999999981 -0.3620553893391745 
10.84999999999981 -0.3764404215652585 
10.85999999999981 -0.3896384958053007 
10.86999999999981 -0.4053128027866098 
10.87999999999981 -0.4268655574579818 
10.88999999999981 -0.4567420133618196 
10.89999999999981 -0.4959217529623763 
10.90999999999981 -0.5438621084291194 
10.91999999999981 -0.5986327631790553 
10.92999999999981 -0.6568080722185731 
10.93999999999981 -0.7131885835218367 
10.94999999999981 -0.7610029432728058 
10.95999999999981 -0.7931031451776942 
10.96999999999981 -0.8038316591171573 
10.97999999999981 -0.7905824120902819 
10.98999999999981 -0.7542727111479478 
10.99999999999981 -0.6986983255424168 
11.00999999999981 -0.6292820534566279 
11.01999999999981 -0.5517035009337891 
11.02999999999981 -0.4706456315569221 
11.03999999999981 -0.3888550851338973 
11.04999999999981 -0.3068800936593299 
11.05999999999981 -0.2237833185149384 
11.06999999999981 -0.1385817266552301 
11.07999999999981 -0.0515771052945832 
11.08999999999981 0.0351749727169229 
11.09999999999981 0.1182195821255155 
11.10999999999981 0.1932034123411024 
11.11999999999981 0.2550646983023823 
11.12999999999981 0.2981413384187188 
11.13999999999981 0.3166036006165308 
11.14999999999981 0.3051248982220978 
11.15999999999981 0.2594327396888842 
11.16999999999981 0.176841502327437 
11.17999999999981 0.05723980959076862 
11.18999999999981 -0.09562560788393404 
11.19999999999981 -0.27364867375904 
11.20999999999981 -0.4654200603930408 
11.21999999999981 -0.6581921726111808 
11.22999999999981 -0.8394089867234567 
11.23999999999981 -0.9973654756924303 
11.24999999999981 -1.121663286104995 
11.2599999999998 -1.203930495067658 
11.2699999999998 -1.23841361439931 
11.2799999999998 -1.222054152283171 
11.2899999999998 -1.154457674096017 
11.2999999999998 -1.038304790039781 
11.3099999999998 -0.8798494898529161 
11.3199999999998 -0.6885707576810036 
11.3299999999998 -0.4757829219729233 
11.3399999999998 -0.2530841632206842 
11.3499999999998 -0.03142674745780764 
11.3599999999998 0.1793205915740939 
11.3699999999998 0.3706294317729785 
11.3799999999998 0.5350487900163722 
11.3899999999998 0.6651801813203117 
11.3999999999998 0.7528539267279476 
11.4099999999998 0.7899037118914465 
11.4199999999998 0.7704617443602293 
11.4299999999998 0.6930466803289579 
11.4399999999998 0.5610499950654205 
11.4499999999998 0.3819060275162431 
11.4599999999998 0.1659989992543113 
11.4699999999998 -0.07430676345699767 
11.4799999999998 -0.3257078821466553 
11.4899999999998 -0.574936712887212 
11.4999999999998 -0.8092157106142726 
11.5099999999998 -1.016271698875382 
11.5199999999998 -1.184656408357359 
11.5299999999998 -1.304814998218613 
11.5399999999998 -1.370396084468597 
11.5499999999998 -1.378983959575412 
11.5599999999998 -1.332071543996379 
11.5699999999998 -1.23460820742253 
11.5799999999998 -1.094189807705184 
11.5899999999998 -0.9197199983265358 
11.5999999999998 -0.7199528010687096 
11.6099999999998 -0.5029318659441671 
11.6199999999998 -0.2767590907285554 
11.6299999999998 -0.05080385572154156 
11.6399999999998 0.1639607531960844 
11.6499999999998 0.3558810021282666 
11.6599999999998 0.5141476696845166 
11.6699999999998 0.6301304072366142 
11.6799999999998 0.6981474171907025 
11.6899999999998 0.7155631216935261 
11.6999999999998 0.6822594661390204 
11.7099999999998 0.5998590279673592 
11.7199999999998 0.4713300673678446 
11.72999999999979 0.3013122608752877 
11.73999999999979 0.09685082474916136 
11.74999999999979 -0.1320994389027907 
11.75999999999979 -0.3727934335248496 
11.76999999999979 -0.6105016267503913 
11.77999999999979 -0.8300211633686615 
11.78999999999979 -1.01779308717567 
11.79999999999979 -1.163975255498537 
11.80999999999979 -1.26339884409297 
11.81999999999979 -1.314897577907319 
11.82999999999979 -1.319723250452073 
11.83999999999979 -1.280301590976842 
11.84999999999979 -1.199902396621576 
11.85999999999979 -1.082881610644624 
11.86999999999979 -0.9349998361209457 
11.87999999999979 -0.7636416332583218 
11.88999999999979 -0.5777971717219894 
11.89999999999979 -0.3875287634010382 
11.90999999999979 -0.2029200135920467 
11.91999999999979 -0.03306043789857831 
11.92999999999979 0.1143248577544889 
11.93999999999979 0.2326255584137201 
11.94999999999979 0.3160693606245149 
11.95999999999979 0.3598630725561341 
11.96999999999979 0.3606693564721906 
11.97999999999979 0.3171642934414742 
11.98999999999979 0.2306280925336794 
11.99999999999979 0.1055088888322244 
12.00999999999979 -0.05045745611960793 
12.01999999999979 -0.2270267144106619 
12.02999999999979 -0.4129409305899147 
12.03999999999979 -0.5973201831047434 
12.04999999999979 -0.7703149022146276 
12.05999999999979 -0.9231378955378569 
12.06999999999979 -1.048013733126448 
12.07999999999979 -1.138373493809729 
12.08999999999979 -1.189285260970028 
12.09999999999979 -1.198003899724565 
12.10999999999979 -1.164473747366607 
12.11999999999979 -1.091492740459807 
12.12999999999979 -0.9842871259878904 
12.13999999999979 -0.8495997890848998 
12.14999999999979 -0.6947331982326499 
12.15999999999979 -0.5269419381928717 
12.16999999999979 -0.3532224769339285 
12.17999999999979 -0.1803255255096253 
12.18999999999979 -0.01488541514288915 
12.19999999999978 0.1363874399297009 
12.20999999999978 0.2666781965074881 
12.21999999999978 0.3695233013011515 
12.22999999999978 0.4397181878236823 
12.23999999999978 0.4741516152307643 
12.24999999999978 0.4720599789767084 
12.25999999999978 0.4347391944010174 
12.26999999999978 0.3651346778310933 
12.27999999999978 0.267587876178447 
12.28999999999978 0.147721325268787 
12.29999999999978 0.01236246886038494 
12.30999999999978 -0.1306134645526481 
12.31999999999978 -0.2727581467325914 
12.32999999999978 -0.4060205541971872 
12.33999999999978 -0.5239653599476216 
12.34999999999978 -0.6226073154687926 
12.35999999999978 -0.7004194175588303 
12.36999999999978 -0.7576775009368082 
12.37999999999978 -0.7956125021444753 
12.38999999999978 -0.8155887258772046 
12.39999999999978 -0.8183127915062313 
12.40999999999978 -0.8034040604038001 
12.41999999999978 -0.7699569904055014 
12.42999999999978 -0.7180957312466823 
12.43999999999978 -0.6503420582895766 
12.44999999999978 -0.5714441538328832 
12.45999999999978 -0.4866982781291816 
12.46999999999978 -0.4002506566327218 
12.47999999999978 -0.3147273211978467 
12.48999999999978 -0.2321308926178383 
12.49999999999978 -0.1549542098556729 
12.50999999999978 -0.08668712210830104 
12.51999999999978 -0.03161431120540874 
12.52999999999978 0.005853775508017867 
12.53999999999978 0.02210597138293728 
12.54999999999978 0.01530349183816203 
12.55999999999978 -0.01391502869489465 
12.56999999999978 -0.06231983410798551 
12.57999999999978 -0.1247283672299125 
12.58999999999978 -0.19529931808791 
12.59999999999978 -0.2690551927198641 
12.60999999999978 -0.3428859566861491 
12.61999999999978 -0.4153406111734286 
12.62999999999978 -0.4852759142292334 
12.63999999999978 -0.550454554885771 
12.64999999999978 -0.6073526309031249 
12.65999999999978 -0.6523318877358015 
12.66999999999977 -0.6830342575665694 
12.67999999999977 -0.6987765959589644 
12.68999999999977 -0.6998402952729494 
12.69999999999977 -0.6865034690154397 
12.70999999999977 -0.6585799599075393 
12.71999999999977 -0.6155930648021658 
12.72999999999977 -0.5573568918815905 
12.73999999999977 -0.4847332376824755 
12.74999999999977 -0.4002977892391201 
12.75999999999977 -0.3085675965253468 
12.76999999999977 -0.2155736109453645 
12.77999999999977 -0.1278714755666222 
12.78999999999977 -0.05129530304811975 
12.79999999999977 0.01016945786951939 
12.80999999999977 0.05493033051715858 
12.81999999999977 0.08330848269449953 
12.82999999999977 0.09610351604775647 
12.83999999999977 0.09313080402243401 
12.84999999999977 0.07297415735458661 
12.85999999999977 0.03428721730243682 
12.86999999999977 -0.02245935745682895 
12.87999999999977 -0.09430421823169821 
12.88999999999977 -0.1766105979161693 
12.89999999999977 -0.2644569364926677 
12.90999999999977 -0.3535782079623148 
12.91999999999977 -0.4406838456647728 
12.92999999999977 -0.5234412636077245 
12.93999999999977 -0.60009751565593 
12.94999999999977 -0.6685486086016128 
12.95999999999977 -0.7252331200867359 
12.96999999999977 -0.7647809884207545 
12.97999999999977 -0.7809973149036295 
12.98999999999977 -0.7687873796070548 
12.99999999999977 -0.7260062535396765 
13.00999999999977 -0.654358067233241 
13.01999999999977 -0.5590108085308718 
13.02999999999977 -0.4471555936815315 
13.03999999999977 -0.3262418313997152 
13.04999999999977 -0.2028482092751445 
13.05999999999977 -0.08272874893088618 
13.06999999999977 0.02839345594931261 
13.07999999999977 0.1243458944770204 
13.08999999999977 0.1989933481792715 
13.09999999999977 0.2473545939735468 
13.10999999999977 0.2665533724717003 
13.11999999999977 0.2562018981606949 
13.12999999999977 0.2183015554275003 
13.13999999999976 0.1567451903365875 
13.14999999999976 0.07638957520481772 
13.15999999999976 -0.01805972761935807 
13.16999999999976 -0.1227462632089277 
13.17999999999976 -0.2344964497812637 
13.18999999999976 -0.3499662373238535 
13.19999999999976 -0.4647345084878858 
13.20999999999976 -0.5729393926896715 
13.21999999999976 -0.6677421656095042 
13.22999999999976 -0.7425401398583855 
13.23999999999976 -0.7924232776398896 
13.24999999999976 -0.8150442095998977 
13.25999999999976 -0.8103282627920843 
13.26999999999976 -0.7793633131753357 
13.27999999999976 -0.7235586871276508 
13.28999999999976 -0.6448453250017656 
13.29999999999976 -0.5465774222050626 
13.30999999999976 -0.4341508910585021 
13.31999999999976 -0.3148031745252571 
13.32999999999976 -0.1968302379775229 
13.33999999999976 -0.08858611331750227 
13.34999999999976 0.002691276541382063 
13.35999999999976 0.07211560814710626 
13.36999999999976 0.11785429376569 
13.37999999999976 0.1406665264433612 
13.38999999999976 0.1424309337605443 
13.39999999999976 0.1246434718708608 
13.40999999999976 0.08783722454357612 
13.41999999999976 0.03210287123067931 
13.42999999999976 -0.04181277478660139 
13.43999999999976 -0.1315314052723533 
13.44999999999976 -0.2327354376451812 
13.45999999999976 -0.3397667425252237 
13.46999999999976 -0.4468568775893503 
13.47999999999976 -0.5491800441411905 
13.48999999999976 -0.6429553008651435 
13.49999999999976 -0.7246314714609383 
13.50999999999976 -0.7900210177817483 
13.51999999999976 -0.8342154245377664 
13.52999999999976 -0.8523429628925473 
13.53999999999976 -0.8406702546964348 
13.54999999999976 -0.7976566177243604 
13.55999999999976 -0.7248286108090505 
13.56999999999976 -0.6272311075695175 
13.57999999999976 -0.5130106458807011 
13.58999999999976 -0.3919772951690067 
13.59999999999976 -0.2736962308955979 
13.60999999999975 -0.1660642700122131 
13.61999999999975 -0.07494830496043622 
13.62999999999975 -0.004629561748496605 
13.63999999999975 0.04170788916790611 
13.64999999999975 0.06197969925666531 
13.65999999999975 0.0556129163126532 
13.66999999999975 0.02390726543118908 
13.67999999999975 -0.03001941518100671 
13.68999999999975 -0.1017481939296003 
13.69999999999975 -0.1863311023136132 
13.70999999999975 -0.2790158548217067 
13.71999999999975 -0.37568034903479 
13.72999999999975 -0.4729086836340389 
13.73999999999975 -0.5677847081387226 
13.74999999999975 -0.6574994133576725 
13.75999999999975 -0.7388747291299883 
13.76999999999975 -0.8080175628538194 
13.77999999999975 -0.860409459848182 
13.78999999999975 -0.8915644034970738 
13.79999999999975 -0.897982960989138 
13.80999999999975 -0.8778513888054145 
13.81999999999975 -0.8311260597212478 
13.82999999999975 -0.7591924067226276 
13.83999999999975 -0.6646424312998348 
13.84999999999975 -0.5514564242606281 
13.85999999999975 -0.4252891160187551 
13.86999999999975 -0.2933560925749468 
13.87999999999975 -0.1637760338734763 
13.88999999999975 -0.0446263108359838 
13.89999999999975 0.05700699184934458 
13.90999999999975 0.1358478632435063 
13.91999999999975 0.1889763875810225 
13.92999999999975 0.2159222985882448 
13.93999999999975 0.2182681651613242 
13.94999999999975 0.1989279897348895 
13.95999999999975 0.1613246024857364 
13.96999999999975 0.1086612948869744 
13.97999999999975 0.04351242540862482 
13.98999999999975 -0.0320717558797563 
13.99999999999975 -0.1160243160516259 
14.00999999999975 -0.205733963012513 
14.01999999999975 -0.298011746255318 
14.02999999999975 -0.3895632219786228 
14.03999999999975 -0.4774461308749435 
14.04999999999975 -0.5590208677150343 
14.05999999999975 -0.6314792381147852 
14.06999999999974 -0.6914816151452219 
14.07999999999974 -0.7352775754128367 
14.08999999999974 -0.7592480011042385 
14.09999999999974 -0.760632137570584 
14.10999999999974 -0.7382722979509432 
14.11999999999974 -0.6931951229890868 
14.12999999999974 -0.6287691143177735 
14.13999999999974 -0.5502921025107292 
14.14999999999974 -0.4641384862306127 
14.15999999999974 -0.3767491903022437 
14.16999999999974 -0.2937265822837684 
14.17999999999974 -0.2192621957342531 
14.18999999999974 -0.156071947870752 
14.19999999999974 -0.105794549482313 
14.20999999999974 -0.06949523846328772 
14.21999999999974 -0.04783755399413014 
14.22999999999974 -0.04080740532116019 
14.23999999999974 -0.0473384510629949 
14.24999999999974 -0.06533566352325199 
14.25999999999974 -0.09226416746789648 
14.26999999999974 -0.125992391361869 
14.27999999999974 -0.1654026705326041 
14.28999999999974 -0.210479162575914 
14.29999999999974 -0.2618608571883759 
14.30999999999974 -0.3200203323333299 
14.31999999999974 -0.3843509689128408 
14.32999999999974 -0.4525331964657438 
14.33999999999974 -0.5204866665426332 
14.34999999999974 -0.5829755063899035 
14.35999999999974 -0.6346692431584216 
14.36999999999974 -0.6712787065221522 
14.37999999999974 -0.6903175979484456 
14.38999999999974 -0.6911777619426269 
14.39999999999974 -0.6745786331773939 
14.40999999999974 -0.6418405507810733 
14.41999999999974 -0.5945089083948952 
14.42999999999974 -0.5345403533008302 
14.43999999999974 -0.4647942575087825 
14.44999999999974 -0.3892979440605694 
14.45999999999974 -0.3128861257699955 
14.46999999999974 -0.240278641352929 
14.47999999999974 -0.1750909049136232 
14.48999999999974 -0.1193162369354852 
14.49999999999974 -0.07348396583360403 
14.50999999999974 -0.03729932434233137 
14.51999999999974 -0.01040775874536298 
14.52999999999974 0.006993861159756351 
14.53999999999973 0.01385332930201868 
14.54999999999973 0.008391360586322359 
14.55999999999973 -0.01125877201731131 
14.56999999999973 -0.04607556169080804 
14.57999999999973 -0.09534798793587396 
14.58999999999973 -0.1565590841583818 
14.59999999999973 -0.2260013372245316 
14.60999999999973 -0.2996712564092607 
14.61999999999973 -0.3738996375035705 
14.62999999999973 -0.4454463887135314 
14.63999999999973 -0.5111257585742779 
14.64999999999973 -0.5673137694699815 
14.65999999999973 -0.6098673866641693 
14.66999999999973 -0.6348229443243341 
14.67999999999973 -0.6396510179827946 
14.68999999999973 -0.6242754195872554 
14.69999999999973 -0.5911480391390449 
14.70999999999973 -0.544401930419441 
14.71999999999973 -0.4887204517652811 
14.72999999999973 -0.4284523022417882 
14.73999999999973 -0.3670113281972418 
14.74999999999973 -0.3065010172739703 
14.75999999999973 -0.2478315733511158 
14.76999999999973 -0.1915693214083365 
14.77999999999973 -0.1390772944192085 
14.78999999999973 -0.09300257941960149 
14.79999999999973 -0.05663978701937163 
14.80999999999973 -0.03270004368317783 
14.81999999999973 -0.02243460542661102 
14.82999999999973 -0.025610957609102 
14.83999999999973 -0.04117437494374621 
14.84999999999973 -0.06809368664399645 
14.85999999999973 -0.105858452623926 
14.86999999999973 -0.1542637197724368 
14.87999999999973 -0.2125471782728582 
14.88999999999973 -0.2784718376430483 
14.89999999999973 -0.3480808276456326 
14.90999999999973 -0.4163589765620342 
14.91999999999973 -0.4783654630902253 
14.92999999999973 -0.5302115405625886 
14.93999999999973 -0.5696157351449149 
14.94999999999973 -0.5961002277989854 
14.95999999999973 -0.6108173011851836 
14.96999999999973 -0.6158596569441296 
14.97999999999973 -0.6131887364257099 
14.98999999999973 -0.6037855977629402 
14.99999999999973 -0.5876243045346821 
15.00999999999972 -0.5644488463758658 
15.01999999999972 -0.5347010043219043 
15.02999999999972 -0.4998705543340441 
15.03999999999972 -0.4620135354504453 
15.04999999999972 -0.4228132955889503 
15.05999999999972 -0.3829126829000205 
15.06999999999972 -0.3420469634954379 
15.07999999999972 -0.2998771635271789 
15.08999999999972 -0.2569033167199054 
15.09999999999972 -0.2148751128022773 
15.10999999999972 -0.1765674282925852 
15.11999999999972 -0.1451479242655927 
15.12999999999972 -0.1234102351439593 
15.13999999999972 -0.1130597474968255 
15.14999999999972 -0.1142245441502134 
15.15999999999972 -0.1253950691872192 
15.16999999999972 -0.14391143861831 
15.17999999999972 -0.1668590230255942 
15.18999999999972 -0.1919489484673484 
15.19999999999972 -0.2179135909780403 
15.20999999999972 -0.2442457763049406 
15.21999999999972 -0.270556265716508 
15.22999999999972 -0.2960863185117151 
15.23999999999972 -0.3197860189573016 
15.24999999999972 -0.3409123039292403 
15.25999999999972 -0.3596213105013723 
15.26999999999972 -0.3769578522027709 
15.27999999999972 -0.394127687307569 
15.28999999999972 -0.4115620697501435 
15.29999999999972 -0.4284248598593928 
15.30999999999972 -0.4427758886550653 
15.31999999999972 -0.4521349346298682 
15.32999999999972 -0.4541472067499396 
15.33999999999972 -0.4472561036782681 
15.34999999999972 -0.4313016513329631 
15.35999999999972 -0.4077749003496019 
15.36999999999972 -0.3794615408631515 
15.37999999999972 -0.3495768487248486 
15.38999999999972 -0.3208878826828424 
15.39999999999972 -0.2953159525495003 
15.40999999999972 -0.2741240878731354 
15.41999999999972 -0.2583958980288628 
15.42999999999972 -0.2493765039259829 
15.43999999999972 -0.248360627349182 
15.44999999999972 -0.2560850362630593 
15.45999999999972 -0.2719541553910836 
15.46999999999972 -0.2936940013842023 
15.47999999999971 -0.3178532814502252 
15.48999999999971 -0.340949470069339 
15.49999999999971 -0.3605527581459849 
15.50999999999971 -0.3757392327704643 
15.51999999999971 -0.386907003020436 
15.52999999999971 -0.3952651646523161 
15.53999999999971 -0.4021906985719778 
15.54999999999971 -0.4085520347365583 
15.55999999999971 -0.41426689514224 
15.56999999999971 -0.4184305199583142 
15.57999999999971 -0.4199920695636211 
15.58999999999971 -0.4184914116219758 
15.59999999999971 -0.4143334836216676 
15.60999999999971 -0.4084878416962734 
15.61999999999971 -0.4019083588881244 
15.62999999999971 -0.3950670173302175 
15.63999999999971 -0.3878597772204581 
15.64999999999971 -0.3799275555866577 
15.65999999999971 -0.3711925703315023 
15.66999999999971 -0.3622288147258703 
15.67999999999971 -0.3541555279312429 
15.68999999999971 -0.3481017591513451 
15.69999999999971 -0.3446344543580452 
15.70999999999971 -0.3435238017993751 
15.71999999999971 -0.3438939147160487 
15.72999999999971 -0.3445675717154612 
15.73999999999971 -0.3444484048300795 
15.74999999999971 -0.3428735262910888 
15.75999999999971 -0.3398134560537421 
15.76999999999971 -0.3357519859801218 
15.77999999999971 -0.3312658415738142 
15.78999999999971 -0.3265964426675583 
15.79999999999971 -0.3215394396321933 
15.80999999999971 -0.3157199211965323 
15.81999999999971 -0.3090321030398279 
15.82999999999971 -0.3019249643032458 
15.83999999999971 -0.295319258633637 
15.84999999999971 -0.290165739391434 
15.85999999999971 -0.2869062140071541 
15.86999999999971 -0.2852251808884562 
15.87999999999971 -0.284321686907472 
15.88999999999971 -0.2835469314867664 
15.89999999999971 -0.2829509878423664 
15.90999999999971 -0.283357264830037 
15.91999999999971 -0.2859664399171601 
15.92999999999971 -0.2918061794606828 
15.93999999999971 -0.301328765553065 
15.9499999999997 -0.3142468393572728 
15.9599999999997 -0.3295864749953784 
15.9699999999997 -0.3459622533066571 
15.9799999999997 -0.362036919155426 
15.9899999999997 -0.3769576315647881 
15.9999999999997 -0.3904827574455063 
16.0099999999997 -0.4027019973092919 
16.01999999999971 -0.4135612032282124 
16.02999999999971 -0.4225482597237339 
16.03999999999971 -0.4287887874719698 
16.04999999999971 -0.4315434467146566 
16.05999999999971 -0.4308155242489826 
16.06999999999971 -0.4276039368633365 
16.07999999999971 -0.4234686364896289 
16.08999999999972 -0.4195641852001515 
16.09999999999972 -0.4157875804025754 
16.10999999999972 -0.4106699356945321 
16.11999999999972 -0.4020642856170293 
16.12999999999972 -0.3881035795275114 
16.13999999999972 -0.3678747177706104 
16.14999999999973 -0.3416677713260587 
16.15999999999973 -0.3109504369117985 
16.16999999999973 -0.2781349958496471 
16.17999999999973 -0.2460765686423469 
16.18999999999973 -0.2174048220593304 
16.19999999999973 -0.1940604574364067 
16.20999999999973 -0.1773418004690008 
16.21999999999974 -0.1683436491308397 
16.22999999999974 -0.1683253241262496 
16.23999999999974 -0.1786041834734691 
16.24999999999974 -0.1999273792521148 
16.25999999999974 -0.2316461404959909 
16.26999999999974 -0.271222970561216 
16.27999999999975 -0.314511738648412 
16.28999999999975 -0.35679913136533 
16.29999999999975 -0.3940374244267756 
16.30999999999975 -0.42356175921123 
16.31999999999975 -0.4440583881274223 
16.32999999999975 -0.4551494559679033 
16.33999999999976 -0.4570534139846731 
16.34999999999976 -0.4503924014346868 
16.35999999999976 -0.4359546277000235 
16.36999999999976 -0.4144195185365825 
16.37999999999976 -0.386350069216821 
16.38999999999976 -0.3526215084982891 
16.39999999999976 -0.3149673933521133 
16.40999999999977 -0.2760799919990518 
16.41999999999977 -0.2390514451990026 
16.42999999999977 -0.206542878045413 
16.43999999999977 -0.1803067410889097 
16.44999999999977 -0.1613608004354264 
16.45999999999977 -0.1505715255712736 
16.46999999999978 -0.14911921891159 
16.47999999999978 -0.158449728889964 
16.48999999999978 -0.179704489326445 
16.49999999999978 -0.2129773834584704 
16.50999999999978 -0.2568534188409519 
16.51999999999978 -0.3084747143748387 
16.52999999999978 -0.3640324255714584 
16.53999999999979 -0.4193993274147635 
16.54999999999979 -0.4707119788505974 
16.55999999999979 -0.514867073168404 
16.56999999999979 -0.5498609077692434 
16.57999999999979 -0.5747801138318224 
16.58999999999979 -0.589370693283775 
16.5999999999998 -0.5934866660074297 
16.6099999999998 -0.5869201522640942 
16.6199999999998 -0.5698037922654541 
16.6299999999998 -0.5432092932782403 
16.6399999999998 -0.5093464326848958 
16.6499999999998 -0.4711216798106411 
16.65999999999981 -0.4313523677381904 
16.66999999999981 -0.3921359299610234 
16.67999999999981 -0.3546724578704873 
16.68999999999981 -0.3195305343526529 
16.69999999999981 -0.2871513173080116 
16.70999999999981 -0.2583044957495124 
16.71999999999981 -0.2342453630586984 
16.72999999999982 -0.216517515268678 
16.73999999999982 -0.2065737880903761 
16.74999999999982 -0.2054194184281402 
16.75999999999982 -0.2133244380139905 
16.76999999999982 -0.2295913749731526 
16.77999999999982 -0.2525093539854859 
16.78999999999983 -0.2796810735636279 
16.79999999999983 -0.3086291757064963 
16.80999999999983 -0.3372446056024213 
16.81999999999983 -0.3637291904679019 
16.82999999999983 -0.3862097765689812 
16.83999999999983 -0.4025697678452689 
16.84999999999983 -0.4108144973146907 
16.85999999999984 -0.4097339673247775 
16.86999999999984 -0.399369031053617 
16.87999999999984 -0.3810155314305784 
16.88999999999984 -0.356856185547468 
16.89999999999984 -0.3294479275423191 
16.90999999999984 -0.3012467537460039 
16.91999999999985 -0.2742938458813331 
16.92999999999985 -0.2501226351104825 
16.93999999999985 -0.2298225866196555 
16.94999999999985 -0.2141226124206649 
16.95999999999985 -0.2034579694456416 
16.96999999999985 -0.1981208069360317 
16.97999999999986 -0.198508288344473 
16.98999999999986 -0.2052336063599128 
16.99999999999986 -0.2188513520147705 
17.00999999999986 -0.2393367164659957 
17.01999999999986 -0.2658176809177505 
17.02999999999986 -0.2968693248333683 
17.03999999999986 -0.3310805244669017 
17.04999999999987 -0.3673077014349415 
17.05999999999987 -0.4044110849550126 
17.06999999999987 -0.440851369239305 
17.07999999999987 -0.4746125279265994 
17.08999999999987 -0.5034813127995673 
17.09999999999987 -0.5253657642642168 
17.10999999999988 -0.5384644876468726 
17.11999999999988 -0.5414150631837015 
17.12999999999988 -0.5335705185123973 
17.13999999999988 -0.5152867988295971 
17.14999999999988 -0.487962335729924 
17.15999999999988 -0.4537503270586768 
17.16999999999988 -0.4151167441528844 
17.17999999999989 -0.3744545185592924 
17.18999999999989 -0.3338350034279059 
17.19999999999989 -0.2948986364605935 
17.20999999999989 -0.2588893362414896 
17.21999999999989 -0.2267960573909131 
17.22999999999989 -0.1994782091526147 
17.2399999999999 -0.1776715374774743 
17.2499999999999 -0.1619273038063409 
17.2599999999999 -0.1526261989260882 
17.2699999999999 -0.1500874151282321 
17.2799999999999 -0.1546232164558837 
17.2899999999999 -0.1664212281292395 
17.29999999999991 -0.185343360298851 
17.30999999999991 -0.2108338789514798 
17.31999999999991 -0.2419851428770768 
17.32999999999991 -0.2776096619136653 
17.33999999999991 -0.3161778888100185 
17.34999999999991 -0.3557040259535094 
17.35999999999991 -0.3938115061385358 
17.36999999999992 -0.4280760411567751 
17.37999999999992 -0.4564701498346185 
17.38999999999992 -0.4776397833620165 
17.39999999999992 -0.4909200201265662 
17.40999999999992 -0.4962079007386693 
17.41999999999992 -0.4938479250560673 
17.42999999999993 -0.4845960871823916 
17.43999999999993 -0.4696335432460286 
17.44999999999993 -0.4505348963739265 
17.45999999999993 -0.4290942120880434 
17.46999999999993 -0.4070334643665327 
17.47999999999993 -0.3857687793934275 
17.48999999999993 -0.3663712409204939 
17.49999999999994 -0.3496354061164367 
17.50999999999994 -0.3360550511154822 
17.51999999999994 -0.3256863545618525 
17.52999999999994 -0.3181192821024618 
17.53999999999994 -0.3127306979666839 
17.54999999999994 -0.3090799907672909 
17.55999999999995 -0.3071162250989384 
17.56999999999995 -0.3070430306952737 
17.57999999999995 -0.3090141472491383 
17.58999999999995 -0.3129206915828175 
17.59999999999995 -0.3183421679649859 
17.60999999999995 -0.3245787144534289 
17.61999999999996 -0.330720946279167 
17.62999999999996 -0.335771167286981 
17.63999999999996 -0.3387784036187135 
17.64999999999996 -0.3389319485883439 
17.65999999999996 -0.3356580987352754 
17.66999999999996 -0.3287877094665863 
17.67999999999996 -0.3187000903387385 
17.68999999999997 -0.3062550916016376 
17.69999999999997 -0.2925260805664258 
17.70999999999997 -0.2786003295655132 
17.71999999999997 -0.2656236696845522 
17.72999999999997 -0.2549097063051826 
17.73999999999997 -0.2478034987505808 
17.74999999999998 -0.2452983501800694 
17.75999999999998 -0.2477447548268331 
17.76999999999998 -0.2549022572145535 
17.77999999999998 -0.2661962186590381 
17.78999999999998 -0.2808783880876238 
17.79999999999998 -0.2980148540852272 
17.80999999999999 -0.3164576875489883 
17.81999999999999 -0.3349080943457053 
17.82999999999999 -0.3520384088960691 
17.83999999999999 -0.3666557595221166 
17.84999999999999 -0.3779274062377691 
17.85999999999999 -0.3855600900521848 
17.86999999999999 -0.3897307712756911 
17.88 -0.3907760658028845 
17.89 -0.388950373737495 
17.9 -0.3844907459486879 
17.91 -0.3778116201374934 
17.92 -0.3694736415144594 
17.93 -0.35991504866325 
17.94000000000001 -0.349319255219654 
17.95000000000001 -0.3378355137580917 
17.96000000000001 -0.3258717325563513 
17.97000000000001 -0.314059619329975 
17.98000000000001 -0.3029360044633667 
17.99000000000001 -0.2927598847683536 
18.00000000000001 -0.2836787095807644 
18.01000000000002 -0.2760049313773649 
18.02000000000002 -0.2702856714165948 
18.03000000000002 -0.2671584298883203 
18.04000000000002 -0.2671866556624234 
18.05000000000002 -0.2707619229378548 
18.06000000000002 -0.2780330758105325 
18.07000000000003 -0.2888691898642675 
18.08000000000003 -0.3029048741436225 
18.09000000000003 -0.3196093228989059 
18.10000000000003 -0.3382623539759556 
18.11000000000003 -0.3578754616964247 
18.12000000000003 -0.3772424681968165 
18.13000000000004 -0.3951633547513784 
18.14000000000004 -0.4106267504751131 
18.15000000000004 -0.4227759703094225 
18.16000000000004 -0.430801989148786 
18.17000000000004 -0.4340265771639591 
18.18000000000004 -0.4321441717604745 
18.19000000000004 -0.4253066988957715 
18.20000000000005 -0.4139026898995264 
18.21000000000005 -0.3982798717466711 
18.22000000000005 -0.3787270716556263 
18.23000000000005 -0.3556919537192732 
18.24000000000005 -0.3299591635535387 
18.25000000000005 -0.3026511837755441 
18.26000000000006 -0.2751512244101341 
18.27000000000006 -0.2490263379138419 
18.28000000000006 -0.2258862030106293 
18.29000000000006 -0.2071731589844283 
18.30000000000006 -0.1940494997079332 
18.31000000000006 -0.1874732432790186 
18.32000000000006 -0.188271780607849 
18.33000000000007 -0.1969768454882091 
18.34000000000007 -0.2135065356358531 
18.35000000000007 -0.2370204671856037 
18.36000000000007 -0.2660782527269305 
18.37000000000007 -0.2988850376917518 
18.38000000000007 -0.3334038225699177 
18.39000000000008 -0.3674136900605065 
18.40000000000008 -0.3987135251620781 
18.41000000000008 -0.4254405147957012 
18.42000000000008 -0.4462543816222853 
18.43000000000008 -0.4602642779941017 
18.44000000000008 -0.4668497296414516 
18.45000000000009 -0.4655758381957713 
18.46000000000009 -0.4562382645962821 
18.47000000000009 -0.4389818355394548 
18.48000000000009 -0.4144635736342888 
18.49000000000009 -0.3839706256835987 
18.50000000000009 -0.3493066711022261 
18.51000000000009 -0.3124147480885397 
18.5200000000001 -0.2750482659839691 
18.5300000000001 -0.2388327578812963 
18.5400000000001 -0.2056126485062128 
18.5500000000001 -0.1776078668092386 
18.5600000000001 -0.1571276009664455 
18.5700000000001 -0.1461007622004871 
18.58000000000011 -0.1457968331621802 
18.59000000000011 -0.1567500608896107 
18.60000000000011 -0.1786478630595393 
18.61000000000011 -0.2101467022888172 
18.62000000000011 -0.2488757075571217 
18.63000000000011 -0.2917976252110627 
18.64000000000011 -0.3357305489213239 
18.65000000000012 -0.377699550655169 
18.66000000000012 -0.4150360213224509 
18.67000000000012 -0.4454029006100231 
18.68000000000012 -0.4668972745130168 
18.69000000000012 -0.4782277217946744 
18.70000000000012 -0.478920399163295 
18.71000000000013 -0.4695032922679515 
18.72000000000013 -0.4515258651163757 
18.73000000000013 -0.4272550218083606 
18.74000000000013 -0.3991190154106729 
18.75000000000013 -0.3692207210754273 
18.76000000000013 -0.3391661484470514 
18.77000000000014 -0.3101409818155539 
18.78000000000014 -0.2830323824150872 
18.79000000000014 -0.2585462961526078 
18.80000000000014 -0.2373919863689353 
18.81000000000014 -0.220484482208687 
18.82000000000014 -0.2089722582046265 
18.83000000000014 -0.2040166092730731 
18.84000000000015 -0.2065058912798173 
18.85000000000015 -0.2169338668503956 
18.86000000000015 -0.2354514162268405 
18.87000000000015 -0.2619228943925009 
18.88000000000015 -0.2958783784697791 
18.89000000000015 -0.3363838736488652 
18.90000000000016 -0.381868482507676 
18.91000000000016 -0.429949582702702 
18.92000000000016 -0.4774150139936175 
18.93000000000016 -0.5205709585285485 
18.94000000000016 -0.5559195515099881 
18.95000000000016 -0.5807969567298255 
18.96000000000016 -0.5936285443376088 
18.97000000000017 -0.593853410512269 
18.98000000000017 -0.5818199140898822 
18.99000000000017 -0.5587541793091359 
19.00000000000017 -0.5266128171151229 
19.01000000000017 -0.4877168592499147 
19.02000000000017 -0.4443849189136529 
19.03000000000018 -0.3988186549976114 
19.04000000000018 -0.3531639292631844 
19.05000000000018 -0.3094654216680767 
19.06000000000018 -0.2694477713105147 
19.07000000000018 -0.2343517468189182 
19.08000000000018 -0.2049994503724299 
19.09000000000019 -0.1819855214799883 
19.10000000000019 -0.1658190530197841 
19.11000000000019 -0.1570092862818981 
19.12000000000019 -0.1561506476941416 
19.13000000000019 -0.1639115139075916 
19.14000000000019 -0.1807769161887449 
19.15000000000019 -0.206624484320858 
19.1600000000002 -0.2404364858605115 
19.1700000000002 -0.2803392373991517 
19.1800000000002 -0.3238524976313141 
19.1900000000002 -0.3681303051606152 
19.2000000000002 -0.4101557546840747 
19.2100000000002 -0.4469912089479213 
19.22000000000021 -0.4760850895973579 
19.23000000000021 -0.49549671643697 
19.24000000000021 -0.5039627017001476 
19.25000000000021 -0.5008955087364234 
19.26000000000021 -0.4864255151694186 
19.27000000000021 -0.4614643627556131 
19.28000000000021 -0.4276873557157393 
19.29000000000022 -0.3873898290358339 
19.30000000000022 -0.3432465023857655 
19.31000000000022 -0.2980136998708131 
19.32000000000022 -0.2542267900899916 
19.33000000000022 -0.2139914931814117 
19.34000000000022 -0.1789521470542679 
19.35000000000023 -0.1504012134839646 
19.36000000000023 -0.1294007924780865 
19.37000000000023 -0.1168339907726084 
19.38000000000023 -0.1134089179730228 
19.39000000000023 -0.1196464810442658 
19.40000000000023 -0.1358106361813766 
19.41000000000024 -0.1617413435900585 
19.42000000000024 -0.196658680101472 
19.43000000000024 -0.2390740016062527 
19.44000000000024 -0.2868689827859006 
19.45000000000024 -0.3374856882018789 
19.46000000000024 -0.38815581359039 
19.47000000000024 -0.4361482190621649 
19.48000000000025 -0.4789992464506705 
19.49000000000025 -0.5146329363535813 
19.50000000000025 -0.5413373926768795 
19.51000000000025 -0.5577333286498395 
19.52000000000025 -0.562906532819892 
19.53000000000025 -0.5566585980137063 
19.54000000000026 -0.5396231523770118 
19.55000000000026 -0.5131033854254228 
19.56000000000026 -0.478788694682023 
19.57000000000026 -0.4385917009130558 
19.58000000000026 -0.3946047393270584 
19.59000000000026 -0.3489729360774307 
19.60000000000026 -0.3036189757162432 
19.61000000000027 -0.2600352349615119 
19.62000000000027 -0.2193773483121271 
19.63000000000027 -0.1828050624238811 
19.64000000000027 -0.1517758939716286 
19.65000000000027 -0.1280627208043215 
19.66000000000027 -0.1135020787133842 
19.67000000000028 -0.1096172738085601 
19.68000000000028 -0.1172597642075491 
19.69000000000028 -0.1363905071162175 
19.70000000000028 -0.1660872723802694 
19.71000000000028 -0.2047354518521476 
19.72000000000028 -0.2502248165827946 
19.73000000000029 -0.3000291215732694 
19.74000000000029 -0.3512523992766534 
19.75000000000029 -0.4007980453716012 
19.76000000000029 -0.4456433470988504 
19.77000000000029 -0.4830479919068192 
19.78000000000029 -0.5106331764160488 
19.79000000000029 -0.5264777072787983 
19.8000000000003 -0.5293656298863771 
19.8100000000003 -0.5190826346928347 
19.8200000000003 -0.4965112778643738 
19.8300000000003 -0.4634084521420798 
19.8400000000003 -0.4219953161821853 
19.8500000000003 -0.3745904829924556 
19.86000000000031 -0.3234313307606115 
19.87000000000031 -0.2706957650718121 
19.88000000000031 -0.2186427183731262 
19.89000000000031 -0.1697243337889039 
19.90000000000031 -0.1265214550822024 
19.91000000000031 -0.09148461494901507 
19.92000000000031 -0.0666459476346624 
19.93000000000032 -0.05349115288605552 
19.94000000000032 -0.05299545821598031 
19.95000000000032 -0.0656652880252341 
19.96000000000032 -0.09148822932028831 
19.97000000000032 -0.129853880261721 
19.98000000000032 -0.1795232062511338 
19.99000000000033 -0.238353926011156 
20.00000000000033 -0.3031709036004929 
