0.01 -4.8075700012492 
0.02 -3.67869402757949 
0.03 -2.869274508314414 
0.04 -2.948095231120656 
0.05 -3.198529047421383 
0.06000000000000001 -2.980205054635869 
0.07000000000000001 -1.784735506350798 
0.08 0.8263396369812841 
0.09 3.233785878180422 
0.09999999999999999 1.821518453822985 
0.11 -3.281438012940904 
0.12 -5.884937523457062 
0.13 -2.839437589723824 
0.14 -0.07598171601253909 
0.15 -1.640420967465105 
0.16 -1.433720619980707 
0.17 4.855243107579899 
0.18 11.76135149976359 
0.19 16.25923040749067 
0.2 22.17722235133702 
0.2100000000000001 28.25255906385261 
0.2200000000000001 28.54019262710567 
0.2300000000000001 23.96784214714199 
0.2400000000000001 19.18307665483584 
0.2500000000000001 13.53216717834566 
0.2600000000000001 3.825109584504836 
0.2700000000000001 -11.1578436505033 
0.2800000000000001 -29.5102991114041 
0.2900000000000001 -44.37704751126449 
0.3000000000000001 -49.12225350787147 
0.3100000000000001 -45.87737214342286 
0.3200000000000001 -41.45221970906145 
0.3300000000000001 -36.84685835842738 
0.3400000000000001 -27.50449987276961 
0.3500000000000001 -10.95204648704187 
0.3600000000000002 8.233286447453445 
0.3700000000000002 21.18226691169139 
0.3800000000000002 23.5760274808202 
0.3900000000000002 19.34087640639136 
0.4000000000000002 14.6682930421358 
0.4100000000000002 13.54414481835664 
0.4200000000000002 17.9413484162909 
0.4300000000000002 24.79783922540032 
0.4400000000000002 27.47903122697442 
0.4500000000000002 25.83084141620868 
0.4600000000000002 27.3125393891307 
0.4700000000000003 33.9581241963535 
0.4800000000000003 36.60394838076535 
0.4900000000000003 27.0193853597172 
0.5000000000000002 9.315761990552513 
0.5100000000000002 -5.082759013593893 
0.5200000000000002 -12.23649644495322 
0.5300000000000003 -20.34553882317504 
0.5400000000000003 -37.68348357254332 
0.5500000000000003 -58.04719723152761 
0.5600000000000003 -63.7740484457456 
0.5700000000000003 -46.75706065140247 
0.5800000000000003 -19.80853075227484 
0.5900000000000003 -0.3606286783721858 
0.6000000000000003 9.861271378055392 
0.6100000000000003 18.24559223447109 
0.6200000000000003 22.91621539185993 
0.6300000000000003 16.75308650232856 
0.6400000000000004 1.95172743056827 
0.6500000000000004 -13.85133732671183 
0.6600000000000004 -29.87089264664757 
0.6700000000000004 -48.39720315597341 
0.6800000000000004 -61.77798547158287 
0.6900000000000004 -56.65398250446598 
0.7000000000000004 -33.1247660994765 
0.7100000000000004 -7.540400570744078 
0.7200000000000004 10.68418703383507 
0.7300000000000004 35.4888904688066 
0.7400000000000004 84.24359318620424 
0.7500000000000004 144.8401569067958 
0.7600000000000005 176.6993630467159 
0.7700000000000005 151.9586953945455 
0.7800000000000005 87.69189622763517 
0.7900000000000005 26.46425335875725 
0.8000000000000005 -10.55837529912164 
0.8100000000000005 -38.0492423610268 
0.8200000000000005 -73.90044313414101 
0.8300000000000005 -110.9806030234043 
0.8400000000000005 -128.6911875066684 
0.8500000000000005 -117.750498232236 
0.8600000000000005 -85.63783934759952 
0.8700000000000006 -47.94145141116405 
0.8800000000000006 -20.68137355156174 
0.8900000000000006 -9.892266990456731 
0.9000000000000006 -3.710781024443533 
0.9100000000000006 15.71568699485282 
0.9200000000000006 44.92256510220477 
0.9300000000000006 52.72318150924325 
0.9400000000000006 13.50093955943322 
0.9500000000000006 -54.60519311136267 
0.9600000000000006 -97.5815109801258 
0.9700000000000006 -79.51508257958352 
0.9800000000000007 -18.27046635775616 
0.9900000000000007 41.32907412712076 
1.000000000000001 80.32075335676325 
1.010000000000001 113.4487282269751 
1.020000000000001 148.5732350344923 
1.030000000000001 163.7442484100334 
1.040000000000001 134.4652061256828 
1.050000000000001 69.057020509087 
1.060000000000001 -0.1889051092396261 
1.070000000000001 -50.14059858764723 
1.080000000000001 -83.38941859710215 
1.090000000000001 -109.4122389349539 
1.100000000000001 -107.5417926297284 
1.110000000000001 -116.043283475763 
1.120000000000001 -59.62651498487811 
1.130000000000001 -43.42238338150249 
1.140000000000001 62.30687582182229 
1.150000000000001 95.76180059755909 
1.160000000000001 177.6886586297299 
1.170000000000001 113.8261634680551 
1.180000000000001 72.24247921279682 
1.190000000000001 -71.28866848491573 
1.200000000000001 -111.32826538838 
1.210000000000001 -203.8099013062795 
1.220000000000001 -205.0299160374179 
1.230000000000001 -262.9368618150394 
1.240000000000001 -219.8879979051704 
1.250000000000001 -177.0717522325662 
1.260000000000001 -46.04632332903623 
1.270000000000001 66.94032525731852 
1.280000000000001 166.762979518459 
1.290000000000001 220.2003777380053 
1.300000000000001 247.8792801590689 
1.310000000000001 295.2872893776738 
1.320000000000001 304.495390636037 
1.330000000000001 303.6843326667016 
1.340000000000001 167.4950383561294 
1.350000000000001 37.41143219720761 
1.360000000000001 -123.3313569908619 
1.370000000000001 -155.202632617068 
1.380000000000001 -181.9267212726449 
1.390000000000001 -173.0585134365157 
1.400000000000001 -186.5004578447673 
1.410000000000001 -178.6367609073442 
1.420000000000001 -104.3936341508984 
1.430000000000001 -25.20976342306749 
1.440000000000001 62.49629501330239 
1.450000000000001 72.44416445611392 
1.460000000000001 45.4498487198296 
1.470000000000001 -7.891723500979885 
1.480000000000001 -44.41708968857314 
1.490000000000001 -44.04829648741459 
1.500000000000001 -53.01174256194317 
1.510000000000001 -71.45230145161554 
1.520000000000001 -88.28364003149972 
1.530000000000001 -58.89196525796704 
1.540000000000001 58.06310839397176 
1.550000000000001 150.4405586426688 
1.560000000000001 241.1691549714957 
1.570000000000001 181.9530601336401 
1.580000000000001 164.917352009043 
1.590000000000001 61.06496981439008 
1.600000000000001 41.19391365179888 
1.610000000000001 -63.73635983202934 
1.620000000000001 -113.3338062640066 
1.630000000000001 -168.4550172543364 
1.640000000000001 -180.5539800893827 
1.650000000000001 -167.7241694288675 
1.660000000000001 -128.8807782044103 
1.670000000000001 -37.66181537859745 
1.680000000000001 43.92560624629905 
1.690000000000001 78.90095386780916 
1.700000000000001 82.17266937569167 
1.710000000000001 90.05845774786512 
1.720000000000001 139.9240760976252 
1.730000000000001 146.7478375236162 
1.740000000000001 76.0792465369526 
1.750000000000001 -43.00810414721918 
1.760000000000001 -142.0548933149435 
1.770000000000001 -136.3613931580622 
1.780000000000001 -108.1867890077043 
1.790000000000001 -33.78187511713389 
1.800000000000001 -0.3950394013257106 
1.810000000000001 82.74774737287032 
1.820000000000001 112.4351415841529 
1.830000000000001 140.2768777198817 
1.840000000000001 106.5134433545859 
1.850000000000001 100.6097057299317 
1.860000000000001 71.92600932765092 
1.870000000000001 26.02994230963196 
1.880000000000001 -41.99625231912957 
1.890000000000002 -78.62889319918665 
1.900000000000002 -83.68607606147515 
1.910000000000002 -98.00771766830962 
1.920000000000002 -155.3522557049431 
1.930000000000002 -166.000984014629 
1.940000000000002 -132.3616998955006 
1.950000000000002 -8.36937385139079 
1.960000000000002 71.69846077538453 
1.970000000000002 141.4793321443905 
1.980000000000002 121.5090808083621 
1.990000000000002 92.6474006675877 
2.000000000000001 -16.96219565708042 
2.010000000000001 -101.3909780105895 
2.020000000000001 -178.4765269844889 
2.030000000000001 -151.7896351116195 
2.040000000000001 -113.7900305048858 
2.05 -67.78299538945976 
2.06 -13.33913831382252 
2.07 13.98561859904961 
2.08 157.0952104921715 
2.089999999999999 129.8865118366336 
2.099999999999999 210.4242019543865 
2.109999999999999 105.7633611589459 
2.119999999999999 184.7533180640816 
2.129999999999999 144.0865778143819 
2.139999999999998 191.4305718362348 
2.149999999999998 -48.47458478026466 
2.159999999999998 -95.65435267887754 
2.169999999999998 -314.1401060995497 
2.179999999999998 -145.3441507788234 
2.189999999999997 -263.3412607945545 
2.199999999999997 22.98659678326391 
2.209999999999997 -3.649519191051492 
2.219999999999997 276.0466801298925 
2.229999999999996 178.4387149665692 
2.239999999999996 178.9570060253953 
2.249999999999996 21.44519594634229 
2.259999999999996 -61.56112520966736 
2.269999999999996 -52.54521331135262 
2.279999999999995 -203.1707114900431 
2.289999999999995 -113.2466197429351 
2.299999999999995 -246.6415033761118 
2.309999999999995 -15.16310416138229 
2.319999999999995 -7.776297653754557 
2.329999999999994 -190.782646711271 
2.339999999999994 3.40634640888643 
2.349999999999994 -382.8812337603124 
2.359999999999994 260.0569601540868 
2.369999999999993 -203.5156544909625 
2.379999999999993 519.4559915565779 
2.389999999999993 -66.73632564241385 
2.399999999999993 575.0108810451925 
2.409999999999993 -147.4984140870193 
2.419999999999992 353.5875356032036 
2.429999999999992 -256.7183613841611 
2.439999999999992 314.5714440707233 
2.449999999999992 -113.081233284548 
2.459999999999992 363.1058201703571 
2.469999999999991 -39.56562971411469 
2.479999999999991 342.0450918638421 
2.489999999999991 -46.11255434225083 
2.499999999999991 152.3687908135703 
2.509999999999991 -344.9459588199105 
2.51999999999999 -298.0978491127204 
2.52999999999999 -509.90447668591 
2.53999999999999 -326.357279640397 
2.54999999999999 -407.8974979068647 
2.559999999999989 1.269360437365519 
2.569999999999989 -501.4331905136892 
2.579999999999989 221.3592914985892 
2.589999999999989 -452.2090414411142 
2.599999999999989 560.2107245724151 
2.609999999999988 -124.3278160906429 
2.619999999999988 836.285354502317 
2.629999999999988 26.35836830772127 
2.639999999999988 825.260798897418 
2.649999999999988 -176.3526862215962 
2.659999999999987 464.2111661068552 
2.669999999999987 -505.5074704541273 
2.679999999999987 159.8255796928595 
2.689999999999987 -620.5887064720437 
2.699999999999986 114.0218676851428 
2.709999999999986 -406.9788485165323 
2.719999999999986 345.137947384108 
2.729999999999986 -103.4066071795524 
2.739999999999986 330.618372113829 
2.749999999999985 -80.80720863890515 
2.759999999999985 172.910696390636 
2.769999999999985 23.91490008153389 
2.779999999999985 170.5006673020328 
2.789999999999985 116.6136578720615 
2.799999999999984 -11.92865902969084 
2.809999999999984 -79.28613414760038 
2.819999999999984 -342.4821911382441 
2.829999999999984 -225.3057529764602 
2.839999999999983 -410.663847109966 
2.849999999999983 -104.2132278990961 
2.859999999999983 -310.006329624788 
2.869999999999983 70.82683051749103 
2.879999999999983 -55.21067925170136 
2.889999999999982 339.5830766865219 
2.899999999999982 109.5486415716801 
2.909999999999982 290.9385136950636 
2.919999999999982 -52.03530874316441 
2.929999999999982 106.6057787549733 
2.939999999999981 -195.5947240432779 
2.949999999999981 103.1880685597856 
2.959999999999981 -233.4677500194897 
2.969999999999981 18.56957420141898 
2.97999999999998 -346.1655850308457 
2.98999999999998 61.31659113974381 
2.99999999999998 -101.4074677124921 
3.00999999999998 343.9147513322084 
3.01999999999998 261.1964327154626 
3.029999999999979 541.6823159925401 
3.039999999999979 353.506028112361 
3.049999999999979 361.7830355917298 
3.059999999999979 116.2741869441088 
3.069999999999979 12.27253854665894 
3.079999999999978 -168.0879331512603 
3.089999999999978 -333.9818620094001 
3.099999999999978 -355.9920858824259 
3.109999999999978 -379.0124166452119 
3.119999999999978 -136.2654736416068 
3.129999999999977 -148.8101272766338 
3.139999999999977 46.96759568627444 
3.149999999999977 -135.5715590387019 
3.159999999999977 49.77256650464062 
3.169999999999976 -103.9890859959731 
3.179999999999976 172.95175012408 
3.189999999999976 -3.366977856906846 
3.199999999999976 170.5940888222246 
3.209999999999976 -120.0689200548609 
3.219999999999975 -73.03850579185438 
3.229999999999975 -293.4362370885492 
3.239999999999975 -161.7649301818306 
3.249999999999975 -164.2585578410932 
3.259999999999975 -8.509635302114338 
3.269999999999974 87.98971080884924 
3.279999999999974 247.0785970539107 
3.289999999999974 401.3790588190381 
3.299999999999974 521.8228666941301 
3.309999999999973 546.6694560840948 
3.319999999999973 460.9123387900024 
3.329999999999973 337.6376132941979 
3.339999999999973 158.0452062385789 
3.349999999999973 138.2626513555581 
3.359999999999972 -10.74160765748747 
3.369999999999972 -111.5762786529676 
3.379999999999972 -343.1488454203968 
3.389999999999972 -446.8421821997623 
3.399999999999972 -425.1759976463032 
3.409999999999971 -370.6487611526613 
3.419999999999971 -134.9326623223702 
3.429999999999971 -102.27177170499 
3.439999999999971 63.20480438647587 
3.44999999999997 -1.377563735169759 
3.45999999999997 15.36093295180965 
3.46999999999997 -45.24385305681263 
3.47999999999997 -188.2771878044907 
3.48999999999997 -215.435255073889 
3.499999999999969 -471.6464587041857 
3.509999999999969 -254.0830311476572 
3.519999999999969 -303.8682694479651 
3.529999999999969 29.74791869056523 
3.539999999999969 -56.6707733758875 
3.549999999999968 184.6171362295748 
3.559999999999968 204.4946158717596 
3.569999999999968 363.918112365575 
3.579999999999968 459.5436195301865 
3.589999999999967 512.16156079948 
3.599999999999967 604.8484238509763 
3.609999999999967 385.4402110322731 
3.619999999999967 312.4739780700161 
3.629999999999967 40.42942988996799 
3.639999999999966 -2.460085210839033 
3.649999999999966 -226.267027191751 
3.659999999999966 -280.3789502272151 
3.669999999999966 -370.7941189142346 
3.679999999999966 -278.6501524714533 
3.689999999999965 -336.6988801282353 
3.699999999999965 -247.8159484920357 
3.709999999999965 -366.413205117118 
3.719999999999965 -399.1442707313847 
3.729999999999965 -603.4530887792581 
3.739999999999964 -574.6118027500156 
3.749999999999964 -647.740851774273 
3.759999999999964 -684.6718073058177 
3.769999999999964 -711.3662937190644 
3.779999999999963 -752.8190101114277 
3.789999999999963 -545.6672011224655 
3.799999999999963 -521.6947539092714 
3.809999999999963 -153.9595767956415 
3.819999999999963 -14.93792224326356 
3.829999999999962 464.5612718129542 
3.839999999999962 538.2438512566899 
3.849999999999962 1074.057799066313 
3.859999999999962 1137.584598391829 
3.869999999999962 1423.065846586377 
3.879999999999961 1348.782201838452 
3.889999999999961 1348.751119174381 
3.899999999999961 1140.582172719252 
3.909999999999961 844.1986133040805 
3.91999999999996 821.2805253997557 
3.92999999999996 454.43814251808 
3.93999999999996 574.9366044495599 
3.94999999999996 338.5393890050131 
3.95999999999996 533.3664603134175 
3.969999999999959 422.163389038594 
3.979999999999959 425.7139702603115 
3.989999999999959 383.4846317630184 
3.999999999999959 115.0851324556073 
4.009999999999959 -191.0342698219774 
4.019999999999959 -813.9993842880665 
4.029999999999959 -1136.379659324289 
4.039999999999958 -1423.341504921961 
4.049999999999958 -1759.877962495821 
4.059999999999958 -1137.540319643914 
4.069999999999958 -2528.432517596857 
4.079999999999957 -1577.575303417617 
4.089999999999957 -2917.07042835921 
4.099999999999957 -1194.679501796468 
4.109999999999957 -2260.102920485722 
4.119999999999957 -767.7187135131261 
4.129999999999956 -1125.753829314627 
4.139999999999956 780.608144421099 
4.149999999999956 189.7082634625465 
4.159999999999956 1448.957910092564 
4.169999999999956 1249.085776407281 
4.179999999999955 2135.984579361538 
4.189999999999955 1446.987590098361 
4.199999999999955 1776.16388426681 
4.209999999999955 922.6013458910154 
4.219999999999955 1586.663122682457 
4.229999999999954 1354.356334398937 
4.239999999999954 1923.21276509045 
4.249999999999954 1471.139765612698 
4.259999999999954 1377.396824953809 
4.269999999999953 1234.020320733789 
4.279999999999953 765.9602184583109 
4.289999999999953 982.2098415823984 
4.299999999999953 259.9330949717113 
4.309999999999953 337.3965863795481 
4.319999999999952 -1018.544833881297 
4.329999999999952 -1033.08234392053 
4.339999999999952 -2060.876285784867 
4.349999999999952 -1881.905309857436 
4.359999999999952 -2273.345196614117 
4.369999999999951 -2074.839023403059 
4.379999999999951 -2308.297232908944 
4.389999999999951 -1786.219584543981 
4.399999999999951 -706.2584985781966 
4.40999999999995 182.4631290074991 
4.41999999999995 -69.73351851992358 
4.42999999999995 -226.2501520353009 
4.43999999999995 -99.37952513049149 
4.44999999999995 528.0925882459353 
4.459999999999949 616.6355470508627 
4.469999999999949 526.0918953909624 
4.479999999999949 5.212457959029764 
4.489999999999949 -192.9395885013603 
4.499999999999949 187.8159352882481 
4.509999999999948 640.9573361777658 
4.519999999999948 750.3165248278157 
4.529999999999948 846.8725080735638 
4.539999999999948 1131.407489633234 
4.549999999999947 1796.836355408409 
4.559999999999947 2037.339058335585 
4.569999999999947 2233.986868824973 
4.579999999999947 1694.551107777368 
4.589999999999947 939.0082468680753 
4.599999999999946 4.635092419741942 
4.609999999999946 -407.4970834079001 
4.619999999999946 -834.9637362239213 
4.629999999999946 -1208.006799821794 
4.639999999999946 -1501.983495426219 
4.649999999999945 -1900.988831974583 
4.659999999999945 -1671.040000529934 
4.669999999999945 -1468.826604482707 
4.679999999999945 -730.4201127433946 
4.689999999999944 -1036.509289361088 
4.699999999999944 -773.1605840292517 
4.709999999999944 -706.1658065469183 
4.719999999999944 -111.6595442972708 
4.729999999999944 -225.3976912158345 
4.739999999999943 -366.1351581708726 
4.749999999999943 -571.5666427394161 
4.759999999999943 -647.3513162647172 
4.769999999999943 -306.4986048593717 
4.779999999999943 -6.673737081412209 
4.789999999999942 367.6531157596137 
4.799999999999942 763.2855217101104 
4.809999999999942 1458.056913511562 
4.819999999999942 1875.899185212909 
4.829999999999942 2090.229173138591 
4.839999999999941 2053.166328271791 
4.849999999999941 2283.332188194779 
4.859999999999941 1651.825318908216 
4.869999999999941 1474.79640051301 
4.87999999999994 989.7250764610606 
4.88999999999994 407.7615082564211 
4.89999999999994 -300.446335871813 
4.90999999999994 -1321.821342167246 
4.91999999999994 -1325.308534971438 
4.929999999999939 -1939.004333244897 
4.939999999999939 -1607.841870566282 
4.949999999999939 -1761.842443194306 
4.959999999999939 -1291.634342821393 
4.969999999999939 -984.3247887163212 
4.979999999999938 -724.496815248148 
4.989999999999938 -376.3065894895273 
4.999999999999938 -858.6424749838964 
5.009999999999938 -543.7408690613996 
5.019999999999937 -1080.401426242555 
5.029999999999937 -375.9771457366299 
5.039999999999937 -673.7334366928084 
5.049999999999937 -147.6112053841918 
5.059999999999937 -110.1537627240097 
5.069999999999936 397.3820570406052 
5.079999999999936 859.4518966626038 
5.089999999999936 1163.874926353603 
5.099999999999936 1659.180531956532 
5.109999999999936 1478.398276716303 
5.119999999999935 1738.073824050152 
5.129999999999935 1408.144658222216 
5.139999999999935 1559.038092136035 
5.149999999999935 916.4062482144818 
5.159999999999934 550.1949641914472 
5.169999999999934 -154.5844252563499 
5.179999999999934 -234.7362758311042 
5.189999999999934 -628.443019173956 
5.199999999999934 -386.6709432296814 
5.209999999999933 -676.951300752012 
5.219999999999933 -415.6105014642704 
5.229999999999933 -785.2207578315436 
5.239999999999933 -415.6559085908535 
5.249999999999933 -477.6780848418021 
5.259999999999932 -440.5135092058048 
5.269999999999932 -637.5090542595722 
5.279999999999932 -930.7119650453957 
5.289999999999932 -688.592987341805 
5.299999999999931 -1050.414846103653 
5.309999999999931 -708.9206075219665 
5.319999999999931 -1248.389056737671 
5.329999999999931 -737.0378059643356 
5.339999999999931 -858.0187425368887 
5.34999999999993 47.64066612170004 
5.35999999999993 216.3780729637547 
5.36999999999993 979.3442656611873 
5.37999999999993 1087.987580449078 
5.38999999999993 1519.899565521811 
5.399999999999929 1431.831918392047 
5.409999999999929 1428.36273129321 
5.419999999999929 1087.497120274362 
5.429999999999929 731.0947136216333 
5.439999999999928 520.6542525817654 
5.449999999999928 240.421227170156 
5.459999999999928 289.2976384787469 
5.469999999999928 7.260500639726383 
5.479999999999928 151.1909675754959 
5.489999999999927 -151.0976819521858 
5.499999999999927 126.3018311406051 
5.509999999999927 -87.9832017461077 
5.519999999999927 96.41986750444038 
5.529999999999927 -303.7977442908474 
5.539999999999926 -298.3602811716294 
5.549999999999926 -693.3271216739169 
5.559999999999926 -782.8906161502249 
5.569999999999926 -1166.613373821698 
5.579999999999926 -1345.456375864448 
5.589999999999925 -1550.126802255123 
5.599999999999925 -1388.184166996603 
5.609999999999925 -1108.086859458947 
5.619999999999925 -711.0359477035137 
5.629999999999924 -258.7022359821543 
5.639999999999924 165.3544679491722 
5.649999999999924 603.1455552315942 
5.659999999999924 918.9231619934176 
5.669999999999924 1255.763827427273 
5.679999999999923 1377.374652320711 
5.689999999999923 1411.192546062038 
5.699999999999923 1205.630640578818 
5.709999999999923 1079.489253911466 
5.719999999999923 780.0528070742156 
5.729999999999922 610.1371339917224 
5.739999999999922 180.1383735056902 
5.749999999999922 -9.247417773849517 
5.759999999999922 -282.9602006433304 
5.769999999999921 -134.7258956445405 
5.779999999999921 -196.3219787346722 
5.789999999999921 -145.764280573196 
5.799999999999921 -345.9168242899841 
5.809999999999921 -430.9677327890995 
5.81999999999992 -583.112846333285 
5.82999999999992 -726.6092981123229 
5.83999999999992 -902.7927133848701 
5.84999999999992 -1055.485758144649 
5.85999999999992 -1097.992800827038 
5.869999999999919 -1052.855099658662 
5.879999999999919 -836.4947891565651 
5.889999999999919 -566.1108184482707 
5.899999999999919 -211.7841645946611 
5.909999999999918 94.88525983070268 
5.919999999999918 511.2006279793772 
5.929999999999918 858.7067286561271 
5.939999999999918 1170.192210969394 
5.949999999999918 1242.742427388673 
5.959999999999917 1264.311793480895 
5.969999999999917 1070.053461413814 
5.979999999999917 898.9403384146103 
5.989999999999917 671.4673682065769 
5.999999999999917 545.6357826481177 
6.009999999999916 316.4811115350315 
6.019999999999916 164.4935475670812 
6.029999999999916 52.83247523872128 
6.039999999999916 -11.02822538628707 
6.049999999999915 -111.1879489835725 
6.059999999999915 -275.6619490790376 
6.069999999999915 -380.4524246931606 
6.079999999999915 -497.2634752037859 
6.089999999999915 -565.9801988574311 
6.099999999999914 -704.2150545971369 
6.109999999999914 -862.8903128472641 
6.119999999999914 -1028.765263153149 
6.129999999999914 -1114.461236187978 
6.139999999999914 -1082.788979009215 
6.149999999999913 -991.6424780957198 
6.159999999999913 -808.7578679566312 
6.169999999999913 -547.8706720948943 
6.179999999999913 -182.5595074165461 
6.189999999999913 162.4388072852557 
6.199999999999912 471.1625609004503 
6.209999999999912 652.3997469575958 
6.219999999999912 757.920568279238 
6.229999999999912 793.2349398243666 
6.239999999999911 798.7850961646154 
6.249999999999911 782.7712616052398 
6.259999999999911 727.7704255114963 
6.269999999999911 669.1715220960097 
6.279999999999911 572.9222657405054 
6.28999999999991 533.7918674894446 
6.29999999999991 541.4017922680457 
6.30999999999991 606.9625651702904 
6.31999999999991 622.4335508247169 
6.32999999999991 581.5665147153458 
6.339999999999909 479.1404071501619 
6.349999999999909 338.3393188469653 
6.359999999999909 92.89053215551499 
6.369999999999909 -245.7908244525097 
6.379999999999908 -664.711660193616 
6.389999999999908 -1010.388632272225 
6.399999999999908 -1244.995335541967 
6.409999999999908 -1300.225940245482 
6.419999999999908 -1286.041501074946 
6.429999999999907 -1180.125515743935 
6.439999999999907 -996.0089724848774 
6.449999999999907 -725.8460816788522 
6.459999999999907 -441.3055032944086 
6.469999999999907 -193.0548780684188 
6.479999999999906 32.60378905239853 
6.489999999999906 198.6551711425675 
6.499999999999906 333.4625153420023 
6.509999999999906 403.1685223549218 
6.519999999999905 437.6593074946483 
6.529999999999905 434.2444114590707 
6.539999999999905 431.2207232065662 
6.549999999999905 464.8715651323922 
6.559999999999905 560.014716563122 
6.569999999999904 702.0409525666684 
6.579999999999904 854.3995951157664 
6.589999999999904 961.2469843909842 
6.599999999999904 1026.383168677239 
6.609999999999904 994.9593391736704 
6.619999999999903 876.3596178992807 
6.629999999999903 642.8939222762737 
6.639999999999903 349.5846441545825 
6.649999999999903 -0.1502143293141007 
6.659999999999902 -343.3156503164387 
6.669999999999902 -640.7548319604406 
6.679999999999902 -878.512146187376 
6.689999999999902 -1059.244307178808 
6.699999999999902 -1151.567886029334 
6.709999999999901 -1124.019790795536 
6.719999999999901 -1008.896100356566 
6.729999999999901 -870.7208252030345 
6.739999999999901 -745.7845079906105 
6.749999999999901 -652.1401524665001 
6.7599999999999 -597.5639658137087 
6.7699999999999 -576.4779070668468 
6.7799999999999 -560.6201641557282 
6.7899999999999 -520.9095364624508 
6.7999999999999 -417.218399144713 
6.809999999999899 -208.6368625889718 
6.819999999999899 111.9142407575221 
6.829999999999899 517.2230065722199 
6.839999999999899 952.3442799806243 
6.849999999999898 1372.095014622093 
6.859999999999898 1720.609527160168 
6.869999999999898 1954.974338303961 
6.879999999999898 2024.855796477728 
6.889999999999898 1905.924659626551 
6.899999999999897 1585.841726162077 
6.909999999999897 1101.243965200229 
6.919999999999897 507.0233750062614 
6.929999999999897 -105.7962023098842 
6.939999999999897 -675.7416287737706 
6.949999999999896 -1146.508137939464 
6.959999999999896 -1492.862253146894 
6.969999999999896 -1671.825682130968 
6.979999999999896 -1687.353360821721 
6.989999999999895 -1567.325038934838 
6.999999999999895 -1378.0493475961 
7.009999999999895 -1158.932463731117 
7.019999999999895 -936.7490475568602 
7.029999999999895 -716.8203019689049 
7.039999999999894 -510.1250687820015 
7.049999999999894 -331.6814897870177 
7.059999999999894 -181.5726420609924 
7.069999999999894 -37.90512711424484 
7.079999999999894 136.0510985389855 
7.089999999999893 360.6921712837785 
7.099999999999893 637.709166557519 
7.109999999999893 948.6418355720314 
7.119999999999893 1261.81190333563 
7.129999999999892 1537.239750618458 
7.139999999999892 1734.431325272659 
7.149999999999892 1809.312612721894 
7.159999999999892 1719.624005783644 
7.169999999999892 1454.202835161007 
7.179999999999891 1040.171195019243 
7.189999999999891 542.1019924092135 
7.199999999999891 28.36803355090839 
7.209999999999891 -450.9788606905707 
7.219999999999891 -861.1099458188875 
7.22999999999989 -1171.967492158881 
7.23999999999989 -1347.243728392844 
7.24999999999989 -1399.526123772938 
7.25999999999989 -1355.171316726411 
7.269999999999889 -1263.309315381159 
7.279999999999889 -1147.148675749714 
7.289999999999889 -1025.767593114992 
7.299999999999889 -900.4968406813588 
7.309999999999889 -778.3815743401477 
7.319999999999888 -663.1382443368337 
7.329999999999888 -547.6264773855489 
7.339999999999888 -387.7197405037978 
7.349999999999888 -162.790240140845 
7.359999999999888 132.6672960730736 
7.369999999999887 470.5664435190267 
7.379999999999887 843.1755222604456 
7.389999999999887 1217.545465616187 
7.399999999999887 1547.578652360046 
7.409999999999887 1770.512056185284 
7.419999999999886 1836.712344218876 
7.429999999999886 1727.805013500351 
7.439999999999886 1461.355348396847 
7.449999999999886 1085.886147695983 
7.459999999999885 638.1332505554429 
7.469999999999885 162.175231644529 
7.479999999999885 -297.1831348909719 
7.489999999999885 -674.1088076465684 
7.499999999999885 -944.1285157312916 
7.509999999999884 -1093.7585259067 
7.519999999999884 -1144.793890170048 
7.529999999999884 -1106.344107885168 
7.539999999999884 -1010.889565486566 
7.549999999999884 -881.1393535014654 
7.559999999999883 -756.4131838233244 
7.569999999999883 -660.4607018350362 
7.579999999999883 -618.4425489431649 
7.589999999999883 -623.5620272724227 
7.599999999999882 -647.9437461036989 
7.609999999999882 -634.2797577094026 
7.619999999999882 -535.9709029687712 
7.629999999999882 -335.1745215570256 
7.639999999999882 -44.48294091023854 
7.649999999999881 316.5224941152595 
7.659999999999881 722.9857098100871 
7.669999999999881 1126.381155909606 
7.679999999999881 1452.235278207397 
7.689999999999881 1620.728487980391 
7.69999999999988 1597.097789291445 
7.70999999999988 1394.502331858114 
7.71999999999988 1058.204809598593 
7.72999999999988 613.8591515829445 
7.739999999999879 102.7824707723302 
7.749999999999879 -418.2488607955693 
7.759999999999879 -856.7409842503927 
7.769999999999879 -1144.958232134461 
7.779999999999879 -1247.841090730037 
7.789999999999878 -1192.640991409267 
7.799999999999878 -1028.960743119857 
7.809999999999878 -800.9967557264134 
7.819999999999878 -526.2676212790667 
7.829999999999878 -229.2606358705839 
7.839999999999877 43.29980991992035 
7.849999999999877 237.3713965736028 
7.859999999999877 334.1334143979408 
7.869999999999877 362.0930123838913 
7.879999999999876 372.0025897753315 
7.889999999999876 385.5546507551123 
7.899999999999876 391.9711743476662 
7.909999999999876 386.7448770593433 
7.919999999999876 404.8016399620988 
7.929999999999875 482.2530522330578 
7.939999999999875 605.502719973176 
7.949999999999875 711.5244145309474 
7.959999999999875 736.6753075752246 
7.969999999999875 661.8333217450942 
7.979999999999874 495.0171857754755 
7.989999999999874 249.1169279274557 
7.999999999999874 -67.47038684609414 
8.009999999999874 -419.339064442664 
8.019999999999874 -751.2065747725783 
8.029999999999873 -1008.677144604099 
8.039999999999873 -1162.25614786693 
8.049999999999873 -1193.477146628386 
8.059999999999873 -1102.026622222748 
8.069999999999872 -911.1799136587688 
8.079999999999872 -671.3202789306394 
8.089999999999872 -423.7572997367874 
8.099999999999872 -186.7747108649396 
8.109999999999872 30.92481384857717 
8.119999999999871 202.581687782037 
8.129999999999871 299.8601137862491 
8.139999999999871 330.8533450950894 
8.149999999999871 340.9210016065113 
8.159999999999871 368.3603343132564 
8.16999999999987 414.6853839809505 
8.17999999999987 466.0305912135201 
8.18999999999987 523.1903336113028 
8.19999999999987 594.9534772723414 
8.209999999999869 668.0894546176403 
8.219999999999869 708.8075613425739 
8.229999999999869 688.9890631989897 
8.239999999999869 606.4033961313046 
8.249999999999869 463.2253879594874 
8.259999999999868 255.2978404558322 
8.269999999999868 -12.82709375734672 
8.279999999999868 -299.6271223588379 
8.289999999999868 -548.894636115127 
8.299999999999868 -727.0107217227054 
8.309999999999867 -835.2158128805621 
8.319999999999867 -873.0523269832974 
8.329999999999867 -826.4810460700738 
8.339999999999867 -691.1470403509651 
8.349999999999866 -501.6431954992302 
8.359999999999866 -310.7991061092773 
8.369999999999866 -154.0783798396168 
8.379999999999866 -35.09761374485949 
8.389999999999866 49.71826421423177 
8.399999999999865 100.1139412366664 
8.409999999999865 118.2347475300626 
8.419999999999865 120.1817047059768 
8.429999999999865 124.9924418588204 
8.439999999999865 146.972697271062 
8.449999999999864 202.0082162305708 
8.459999999999864 309.9609009066454 
8.469999999999864 476.1886334682055 
8.479999999999864 668.0085436606034 
8.489999999999863 827.1661058485115 
8.499999999999863 907.3930505923574 
8.509999999999863 899.205259081738 
8.519999999999863 808.0318370565778 
8.529999999999863 630.2511725960457 
8.539999999999862 362.6848478180136 
8.549999999999862 39.40079704392872 
8.559999999999862 -273.1421475392751 
8.569999999999862 -517.6190982993367 
8.579999999999862 -681.003513861779 
8.589999999999861 -777.2693752268298 
8.599999999999861 -820.5801810071512 
8.609999999999861 -814.9702266991361 
8.619999999999861 -767.3959240536067 
8.62999999999986 -688.9707839665142 
8.63999999999986 -591.7756485316818 
8.64999999999986 -486.8189546028994 
8.65999999999986 -392.3014868316653 
8.66999999999986 -328.5309278723842 
8.679999999999859 -299.2882471456894 
8.689999999999859 -279.0575350393547 
8.699999999999859 -232.3900984579317 
8.709999999999859 -142.9241397022088 
8.719999999999859 -15.37806721390209 
8.729999999999858 148.389853018694 
8.739999999999858 357.1080799786563 
8.749999999999858 604.6211204598465 
8.759999999999858 850.5151254165545 
8.769999999999858 1037.93123208489 
8.779999999999857 1131.24374622237 
8.789999999999857 1126.533696857627 
8.799999999999857 1035.757927712355 
8.809999999999857 868.8776030761137 
8.819999999999856 636.7829027008197 
8.829999999999856 356.2782402427151 
8.839999999999856 52.58830381098449 
8.849999999999856 -242.1930120935882 
8.859999999999856 -488.2188080607151 
8.869999999999855 -648.1256378529566 
8.879999999999855 -705.6389922711853 
8.889999999999855 -678.8429777795199 
8.899999999999855 -608.5604660774654 
8.909999999999855 -530.8802333331886 
8.919999999999854 -463.2038490503733 
8.929999999999854 -415.6529980814043 
8.939999999999854 -404.1672067185502 
8.949999999999854 -434.8445756691419 
8.959999999999853 -483.3204225296639 
8.969999999999853 -502.1030086156483 
8.979999999999853 -456.5017968356081 
8.989999999999853 -342.1206918521229 
8.999999999999853 -174.5984061261741 
9.009999999999852 28.76068775091934 
9.019999999999852 250.7147122474795 
9.029999999999852 472.153854017081 
9.039999999999852 672.1927717938896 
9.049999999999852 830.5388772138714 
9.059999999999851 924.096222213857 
9.069999999999851 929.9177132026995 
9.079999999999851 837.0953650689382 
9.089999999999851 660.368554311849 
9.09999999999985 434.3920994824006 
9.10999999999985 193.9105986103795 
9.11999999999985 -39.14341445365908 
9.12999999999985 -246.3148441287629 
9.13999999999985 -402.3607221906062 
9.149999999999849 -486.1044887081795 
9.159999999999849 -501.7451314370284 
9.169999999999849 -477.3985621831554 
9.179999999999849 -439.6400537993306 
9.189999999999849 -397.3943570205225 
9.199999999999848 -353.2719093039263 
9.209999999999848 -318.1445523620133 
9.219999999999848 -305.3177064573039 
9.229999999999848 -316.4852785924874 
9.239999999999847 -339.5759939200115 
9.249999999999847 -356.6351055345315 
9.259999999999847 -346.033666550788 
9.269999999999847 -284.5368730080066 
9.279999999999847 -155.705736337395 
9.289999999999846 36.0239677994455 
9.299999999999846 263.1620690324929 
9.309999999999846 486.0902855941558 
9.319999999999846 668.4314200570544 
9.329999999999846 782.0944060698823 
9.339999999999845 807.4891031842579 
9.349999999999845 738.6338195072364 
9.359999999999845 592.9554848598881 
9.369999999999845 407.1115906416375 
9.379999999999845 216.7267392853091 
9.389999999999844 42.71919234356276 
9.399999999999844 -103.162538066574 
9.409999999999844 -208.1242593079207 
9.419999999999844 -263.6894352645821 
9.429999999999843 -274.2473855133329 
9.439999999999843 -253.7085768830906 
9.449999999999843 -214.3946064488167 
9.459999999999843 -167.8499531151017 
9.469999999999843 -132.7717495700788 
9.479999999999842 -133.1327629275832 
9.489999999999842 -181.8412981992978 
9.499999999999842 -268.4571577004089 
9.509999999999842 -364.4561689631446 
9.519999999999842 -441.6137948846939 
9.529999999999841 -483.8591329841206 
9.539999999999841 -483.2783456614592 
9.549999999999841 -431.0253885506756 
9.559999999999841 -320.2135617123935 
9.56999999999984 -158.9909506788156 
9.57999999999984 26.83994967816761 
9.58999999999984 208.0303975596869 
9.59999999999984 365.5039610331904 
9.60999999999984 489.1823932569536 
9.619999999999839 569.9992855599855 
9.629999999999839 597.7585261214801 
9.639999999999839 565.9149924941007 
9.649999999999839 477.5759768508325 
9.659999999999839 352.975450186233 
9.669999999999838 228.6471578335936 
9.679999999999838 142.2520460329215 
9.689999999999838 108.4949613608799 
9.699999999999838 111.9557460473554 
9.709999999999837 122.2426629626746 
9.719999999999837 117.3144349252534 
9.729999999999837 89.52608083261909 
9.739999999999837 35.44877150989436 
9.749999999999837 -54.35819774659606 
9.759999999999836 -184.9015130655336 
9.769999999999836 -338.8349355327005 
9.779999999999836 -477.3598247261486 
9.789999999999836 -567.8400662169222 
9.799999999999836 -604.0052045940604 
9.809999999999835 -593.8464414362361 
9.819999999999835 -538.3996861341528 
9.829999999999835 -433.2734036915085 
9.839999999999835 -287.1163957594476 
9.849999999999834 -123.1178417967428 
9.859999999999834 35.66076100652174 
9.869999999999834 173.867336006857 
9.879999999999834 277.993423678376 
9.889999999999834 336.9490461476179 
9.899999999999833 352.567269866946 
9.909999999999833 341.7163833713148 
9.919999999999833 322.3318408101091 
9.929999999999833 299.8380178497973 
9.939999999999833 271.5857615922359 
9.949999999999832 240.8920045006842 
9.959999999999832 219.748825000383 
9.969999999999832 213.301056890508 
9.979999999999832 209.8768127059586 
9.989999999999832 191.9868447894382 
9.999999999999831 154.6444119408437 
10.00999999999983 102.2514718506316 
10.01999999999983 32.41563482014666 
10.02999999999983 -64.77850656398893 
10.03999999999983 -188.1911827665511 
10.04999999999983 -317.9229813507693 
10.05999999999983 -429.0884634494962 
10.06999999999983 -504.8838207815679 
10.07999999999983 -532.3643299132973 
10.08999999999983 -497.1591962639847 
10.09999999999983 -394.0650699566296 
10.10999999999983 -240.6405678926426 
10.11999999999983 -71.64558071554694 
10.12999999999983 81.75436025965401 
10.13999999999983 203.6260158125144 
10.14999999999983 284.1150105857913 
10.15999999999983 310.8548439989492 
10.16999999999983 278.1889652068876 
10.17999999999983 204.3103657554911 
10.18999999999983 124.598300972662 
10.19999999999983 65.59765993551497 
10.20999999999983 30.10787524407516 
10.21999999999983 12.59789434364317 
10.22999999999983 16.42403963786099 
10.23999999999983 46.72651636919107 
10.24999999999983 93.01368757874735 
10.25999999999983 131.6935961363134 
10.26999999999983 146.4053690314996 
10.27999999999983 137.4471366807595 
10.28999999999983 111.4996689967213 
10.29999999999983 71.12178334413429 
10.30999999999983 18.15181369260645 
10.31999999999982 -38.89087246397807 
10.32999999999982 -87.07689017286153 
10.33999999999982 -118.1058589500344 
10.34999999999982 -131.4021170570627 
10.35999999999982 -127.9459172827623 
10.36999999999982 -106.3565269251986 
10.37999999999982 -68.58035403904408 
10.38999999999982 -26.53041619274829 
10.39999999999982 3.745106295784931 
10.40999999999982 14.4341171798601 
10.41999999999982 7.154573832081764 
10.42999999999982 -17.14444813741013 
10.43999999999982 -62.00220086956394 
10.44999999999982 -124.9317212206942 
10.45999999999982 -190.063220699095 
10.46999999999982 -234.9601341698042 
10.47999999999982 -244.6317555702831 
10.48999999999982 -215.5252146797418 
10.49999999999982 -150.5998470160003 
10.50999999999982 -53.65068709129461 
10.51999999999982 68.09889050632651 
10.52999999999982 197.8987099428195 
10.53999999999982 309.2516310017249 
10.54999999999982 376.26742410996 
10.55999999999982 385.9271475554477 
10.56999999999982 339.9076746018292 
10.57999999999982 250.6850902424342 
10.58999999999982 138.2129866332802 
10.59999999999982 28.76527481486162 
10.60999999999982 -54.26231086842537 
10.61999999999982 -98.7864907814393 
10.62999999999982 -105.3331550272097 
10.63999999999982 -80.73501146715591 
10.64999999999982 -36.36616976657776 
10.65999999999982 10.51431676187321 
10.66999999999982 40.83654735145663 
10.67999999999982 42.35759631721862 
10.68999999999982 15.57883362216755 
10.69999999999982 -30.77643788284499 
10.70999999999982 -86.72069282666703 
10.71999999999982 -145.3412108905404 
10.72999999999982 -198.3627013273912 
10.73999999999982 -233.9706451615318 
10.74999999999982 -239.7274648565635 
10.75999999999982 -211.0755368868378 
10.76999999999982 -152.144284919609 
10.77999999999982 -72.01942739987025 
10.78999999999981 17.88618526078767 
10.79999999999981 101.320450438205 
10.80999999999981 160.7368935849017 
10.81999999999981 185.5074753592103 
10.82999999999981 176.0035703227814 
10.83999999999981 137.2325276622025 
10.84999999999981 73.2002030174973 
10.85999999999981 -9.920456935464003 
10.86999999999981 -98.28326161564539 
10.87999999999981 -171.6663216088764 
10.88999999999981 -212.6489629117063 
10.89999999999981 -212.7656500385201 
10.90999999999981 -172.4377440938232 
10.91999999999981 -95.31299299951522 
10.92999999999981 12.46269772143552 
10.93999999999981 137.8387801887754 
10.94999999999981 256.6711153041107 
10.95999999999981 340.2965822017907 
10.96999999999981 368.8052385088195 
10.97999999999981 339.673308118253 
10.98999999999981 265.2336339937404 
10.99999999999981 164.9219629055484 
11.00999999999981 59.89039538098863 
11.01999999999981 -29.16223203474308 
11.02999999999981 -84.4466532122902 
11.03999999999981 -96.46480172863096 
11.04999999999981 -69.56570345339604 
11.05999999999981 -21.75192475832771 
11.06999999999981 24.20722702830296 
11.07999999999981 51.54717288399125 
11.08999999999981 52.39694846277382 
11.09999999999981 22.47671391946453 
11.10999999999981 -41.79757827071168 
11.11999999999981 -137.9224083780113 
11.12999999999981 -251.2181750268476 
11.13999999999981 -360.0316273484245 
11.14999999999981 -447.1376808603025 
11.15999999999981 -502.9680529905327 
11.16999999999981 -516.6837818625785 
11.17999999999981 -473.4493116480123 
11.18999999999981 -366.8722957452641 
11.19999999999981 -211.1407284523777 
11.20999999999981 -32.75399928213582 
11.21999999999981 147.6921713983347 
11.22999999999981 319.5684121025458 
11.23999999999981 470.3706689739584 
11.24999999999981 580.8218134182079 
11.2599999999998 636.6071293406934 
11.2699999999998 638.9003814128591 
11.2799999999998 598.7333628373696 
11.2899999999998 523.7832832918288 
11.2999999999998 418.941100303582 
11.3099999999998 296.4586856890727 
11.3199999999998 177.4887807332358 
11.3299999999998 75.99860115131739 
11.3399999999998 -10.75769327110516 
11.3499999999998 -92.52280619142047 
11.3599999999998 -171.8958599066113 
11.3699999999998 -249.6234512480635 
11.3799999999998 -335.9142221077861 
11.3899999999998 -441.5827017267149 
11.3999999999998 -557.1619277652048 
11.4099999999998 -652.000094793274 
11.4199999999998 -698.6044321617778 
11.4299999999998 -688.5821704101876 
11.4399999999998 -625.1391841144438 
11.4499999999998 -510.3235723373477 
11.4599999999998 -348.6617878642658 
11.4699999999998 -156.063482083361 
11.4799999999998 43.28934875892693 
11.4899999999998 229.5102005134115 
11.4999999999998 392.4907963730361 
11.5099999999998 524.431205746146 
11.5199999999998 614.6673500870938 
11.5299999999998 655.2627361207202 
11.5399999999998 650.3286033317141 
11.5499999999998 611.9286789675974 
11.5599999999998 548.9726803117144 
11.5699999999998 464.9909278336487 
11.5799999999998 367.8346028031812 
11.5899999999998 270.8865939897106 
11.5999999999998 181.2133734455432 
11.6099999999998 91.80042071560456 
11.6199999999998 -8.180630318093463 
11.6299999999998 -119.6756310412675 
11.6399999999998 -233.7893550411581 
11.6499999999998 -341.2480057420287 
11.6599999999998 -436.6923676933644 
11.6699999999998 -515.5735634651798 
11.6799999999998 -573.039993886104 
11.6899999999998 -605.800500419764 
11.6999999999998 -612.6556285083475 
11.7099999999998 -590.5641251699524 
11.7199999999998 -533.2850682429651 
11.72999999999979 -435.1907828474573 
11.73999999999979 -298.0357405772885 
11.74999999999979 -131.5365853696281 
11.75999999999979 50.6549370790364 
11.76999999999979 233.2112096807443 
11.77999999999979 395.9417923679652 
11.78999999999979 516.1534717122663 
11.79999999999979 580.0220073463275 
11.80999999999979 591.9513268519642 
11.81999999999979 567.5554724033457 
11.82999999999979 519.8513604753788 
11.83999999999979 455.0561323437452 
11.84999999999979 379.156663038726 
11.85999999999979 299.8121855498323 
11.86999999999979 220.692680167511 
11.87999999999979 138.9896627175161 
11.88999999999979 51.69737589633078 
11.89999999999979 -39.04685835053771 
11.90999999999979 -128.8170035650582 
11.91999999999979 -216.6240406338409 
11.92999999999979 -303.8502021672861 
11.93999999999979 -387.8710336660429 
11.94999999999979 -459.523267988684 
11.95999999999979 -508.6408982039847 
11.96999999999979 -529.5805008327292 
11.97999999999979 -519.4958975081767 
11.98999999999979 -473.9203556638515 
11.99999999999979 -389.5405032745396 
12.00999999999979 -271.8460744431972 
12.01999999999979 -135.4579269503923 
12.02999999999979 4.646974621903102 
12.03999999999979 139.7925286324478 
12.04999999999979 264.3122429997614 
12.05999999999979 370.677431609802 
12.06999999999979 450.3499146529675 
12.07999999999979 497.88738418829 
12.08999999999979 511.2076134044664 
12.09999999999979 490.4040423307048 
12.10999999999979 438.6480540876169 
12.11999999999979 364.5375556978138 
12.12999999999979 280.3145148904611 
12.13999999999979 196.8337705054714 
12.14999999999979 119.7485187723442 
12.15999999999979 49.84016938883867 
12.16999999999979 -13.70989186837753 
12.17999999999979 -73.22800192075698 
12.18999999999979 -133.3423930513248 
12.19999999999978 -199.7648457424059 
12.20999999999978 -272.5199375185463 
12.21999999999978 -343.5511128959442 
12.22999999999978 -401.2056481984595 
12.23999999999978 -437.6639887560788 
12.24999999999978 -448.4056229381262 
12.25999999999978 -429.4016277975479 
12.26999999999978 -377.4453104168502 
12.27999999999978 -294.7796013948075 
12.28999999999978 -189.1469685711557 
12.29999999999978 -71.26997387791374 
12.30999999999978 46.5194606239771 
12.31999999999978 149.3246227093256 
12.32999999999978 223.0370546850556 
12.33999999999978 261.0107591560349 
12.34999999999978 267.7807652216966 
12.35999999999978 254.0930419935034 
12.36999999999978 228.9436048613415 
12.37999999999978 197.9852388954792 
12.38999999999978 169.0208127197433 
12.39999999999978 152.5652713792314 
12.40999999999978 152.1687826507309 
12.41999999999978 156.9070996649663 
12.42999999999978 150.7910242908071 
12.43999999999978 129.6655268543713 
12.44999999999978 103.2529440939288 
12.45999999999978 79.90255354101481 
12.46999999999978 54.92322206178775 
12.47999999999978 17.11580052637605 
12.48999999999978 -38.57207215003474 
12.49999999999978 -106.7199630506177 
12.50999999999978 -177.1982508647806 
12.51999999999978 -239.5005080946587 
12.52999999999978 -284.2600708000572 
12.53999999999978 -302.9937226615714 
12.54999999999978 -290.5751549021546 
12.55999999999978 -246.8233925550967 
12.56999999999978 -177.5901569703397 
12.57999999999978 -94.48869578989635 
12.58999999999978 -14.15886542945929 
12.59999999999978 46.6037543572417 
12.60999999999978 79.67073000785909 
12.61999999999978 91.24499025361985 
12.62999999999978 95.09247309938547 
12.63999999999978 99.17810670703683 
12.64999999999978 101.4358235583185 
12.65999999999978 99.27380399244005 
12.66999999999977 98.92186884095656 
12.67999999999977 110.6942034512632 
12.68999999999977 137.9382915107442 
12.69999999999977 173.1260102606332 
12.70999999999977 204.0937183485012 
12.71999999999977 219.8826626685205 
12.72999999999977 212.4637171190875 
12.73999999999977 177.2823618117889 
12.74999999999977 115.5854140225374 
12.75999999999977 34.95073949512372 
12.76999999999977 -53.21649960568941 
12.77999999999977 -136.459102129842 
12.78999999999977 -202.4259009866053 
12.79999999999977 -240.6813184324151 
12.80999999999977 -248.2318675844801 
12.81999999999977 -233.5032094500696 
12.82999999999977 -211.8447503042845 
12.83999999999977 -192.6591226701596 
12.84999999999977 -172.3613185921216 
12.85999999999977 -142.4466038330941 
12.86999999999977 -103.9696089423861 
12.87999999999977 -68.76758951827594 
12.88999999999977 -46.03876751770305 
12.89999999999977 -32.51168767663165 
12.90999999999977 -18.77726189726451 
12.91999999999977 0.2846818073603544 
12.92999999999977 25.71680887524007 
12.93999999999977 61.75900241919273 
12.94999999999977 115.3035412005514 
12.95999999999977 186.8678908469049 
12.96999999999977 265.1015136857276 
12.97999999999977 331.732651356475 
12.98999999999977 370.0136436895769 
12.99999999999977 369.7674949062225 
13.00999999999977 328.3192316862093 
13.01999999999977 251.8481077887293 
13.02999999999977 153.7298624046006 
13.03999999999977 48.8157529476345 
13.04999999999977 -54.28848712756741 
13.05999999999977 -152.5707466822607 
13.06999999999977 -241.161959091073 
13.07999999999977 -308.9545162494571 
13.08999999999977 -345.454014254938 
13.09999999999977 -349.429417703217 
13.10999999999977 -328.0932392559118 
13.11999999999977 -289.3991191123341 
13.12999999999977 -239.2149414257934 
13.13999999999976 -184.8601821650926 
13.14999999999976 -135.5915956330229 
13.15999999999976 -97.02503618842393 
13.16999999999976 -66.89475482934911 
13.17999999999976 -37.5064984959557 
13.18999999999976 -1.143961094168875 
13.19999999999976 47.24626188009276 
13.20999999999976 108.7197422141791 
13.21999999999976 178.6525593361849 
13.22999999999976 246.1552266054423 
13.23999999999976 299.481794238475 
13.24999999999976 333.1965911855316 
13.25999999999976 349.0419571244424 
13.26999999999976 347.561278500871 
13.27999999999976 322.0758796031957 
13.28999999999976 264.2653760216501 
13.29999999999976 175.6598856916709 
13.30999999999976 69.22299557951789 
13.31999999999976 -39.7851407272796 
13.32999999999976 -141.1757021829078 
13.33999999999976 -226.5026510521398 
13.34999999999976 -285.0010669403066 
13.35999999999976 -307.9128176921313 
13.36999999999976 -297.20658796551 
13.37999999999976 -265.8303085021008 
13.38999999999976 -228.7095328012531 
13.39999999999976 -194.6175771859131 
13.40999999999976 -165.9084902009193 
13.41999999999976 -142.1322550093207 
13.42999999999976 -121.0397485713559 
13.43999999999976 -98.65549678006353 
13.44999999999976 -71.82060623673942 
13.45999999999976 -41.06442969393027 
13.46999999999976 -7.651999580072546 
13.47999999999976 32.14832872398235 
13.48999999999976 86.49661364352156 
13.49999999999976 158.7257786846524 
13.50999999999976 240.8301100999593 
13.51999999999976 317.3920598645581 
13.52999999999976 374.6340364096778 
13.53999999999976 402.8169742099015 
13.54999999999976 393.562325333766 
13.55999999999976 339.8903494342794 
13.56999999999976 242.6812663052263 
13.57999999999976 115.0214131325923 
13.58999999999976 -21.24665469012129 
13.59999999999976 -145.2595507216083 
13.60999999999975 -244.3430465079303 
13.61999999999975 -313.9987672053649 
13.62999999999975 -352.7846403115773 
13.63999999999975 -359.3940056809479 
13.64999999999975 -334.5541503028156 
13.65999999999975 -284.1149476583779 
13.66999999999975 -218.5876803044088 
13.67999999999975 -150.088819910305 
13.68999999999975 -89.10315065965155 
13.69999999999975 -42.2021375687012 
13.70999999999975 -10.72343947227726 
13.71999999999975 8.495258742857503 
13.72999999999975 20.74536465593035 
13.73999999999975 32.6480099640816 
13.74999999999975 51.84276677100255 
13.75999999999975 85.70267383957237 
13.76999999999975 136.8168662156536 
13.77999999999975 200.2640298398398 
13.78999999999975 264.2292647257454 
13.79999999999975 315.6569481520173 
13.80999999999975 345.6284107562095 
13.81999999999975 350.420223429582 
13.82999999999975 327.4538513153945 
13.83999999999975 272.8404780342087 
13.84999999999975 185.958544739738 
13.85999999999975 74.71905664134168 
13.86999999999975 -45.53017766027779 
13.87999999999975 -158.875274383433 
13.88999999999975 -252.2979168492244 
13.89999999999975 -315.8639925801409 
13.90999999999975 -343.4384624765073 
13.91999999999975 -335.7115117904248 
13.92999999999975 -299.689105317912 
13.93999999999975 -245.950422947118 
13.94999999999975 -185.6681596663943 
13.95999999999975 -130.1844214324743 
13.96999999999975 -88.4652328727513 
13.97999999999975 -63.97246572492325 
13.98999999999975 -52.56093594906388 
13.99999999999975 -46.10325499115938 
14.00999999999975 -38.06189255689501 
14.01999999999975 -26.3915195741807 
14.02999999999975 -9.742050938781338 
14.03999999999975 16.63139942084015 
14.04999999999975 58.46974831489921 
14.05999999999975 115.7451859853643 
14.06999999999974 180.4926938817455 
14.07999999999974 241.5600280876037 
14.08999999999974 288.71600271073 
14.09999999999974 312.7962074822472 
14.10999999999974 306.2850752676182 
14.11999999999974 266.691968597214 
14.12999999999974 198.5446370930191 
14.13999999999974 111.2654397085695 
14.14999999999974 16.43004857683143 
14.15999999999974 -73.18868565605416 
14.16999999999974 -145.4946749363265 
14.17999999999974 -192.4851202618563 
14.18999999999974 -212.8486312980364 
14.19999999999974 -210.280814362876 
14.20999999999974 -190.0711309044233 
14.21999999999974 -156.6722311230713 
14.22999999999974 -115.1286067983359 
14.23999999999974 -73.44998552619218 
14.24999999999974 -42.23155208711582 
14.25999999999974 -29.68157677048867 
14.26999999999974 -37.12852538452184 
14.27999999999974 -58.98176438615315 
14.28999999999974 -85.76351736820594 
14.29999999999974 -106.2582211547294 
14.30999999999974 -109.6611391492673 
14.31999999999974 -88.7085133463877 
14.32999999999974 -42.50637003960635 
14.33999999999974 23.63289662064465 
14.34999999999974 99.61290482801415 
14.35999999999974 172.2507529840477 
14.36999999999974 228.5488312042583 
14.37999999999974 260.0305658474087 
14.38999999999974 264.8578602396763 
14.39999999999974 245.9336655397657 
14.40999999999974 207.7413068531605 
14.41999999999974 154.5405125976589 
14.42999999999974 90.54552599229891 
14.43999999999974 21.66524687275375 
14.44999999999974 -43.05980081571996 
14.45999999999974 -92.99556539607637 
14.46999999999974 -120.7795863985974 
14.47999999999974 -125.9627557684184 
14.48999999999974 -114.8193237406703 
14.49999999999974 -96.73787810840511 
14.50999999999974 -80.72679730471266 
14.51999999999974 -73.49583804241691 
14.52999999999974 -79.16442090460271 
14.53999999999973 -98.81762520106268 
14.54999999999973 -128.5023134476642 
14.55999999999973 -158.4915109729409 
14.56999999999973 -177.010576094622 
14.57999999999973 -176.4064416457453 
14.58999999999973 -155.1707007979801 
14.59999999999973 -115.3219207170597 
14.60999999999973 -59.97588272042056 
14.61999999999973 6.408910553155233 
14.62999999999973 78.08347023316426 
14.63999999999973 149.1183167666693 
14.64999999999973 212.6132492027742 
14.65999999999973 258.6411915033444 
14.66999999999973 275.6069809800243 
14.67999999999973 257.3615951186645 
14.68999999999973 209.1967625447417 
14.69999999999973 145.6640818357018 
14.70999999999973 81.07070932929889 
14.71999999999973 23.57425938835441 
14.72999999999973 -22.10074611772207 
14.73999999999973 -50.15341327546827 
14.74999999999973 -57.42384156652099 
14.75999999999973 -50.54238258032065 
14.76999999999973 -43.89625787602089 
14.77999999999973 -48.30041446853652 
14.78999999999973 -63.83880712605478 
14.79999999999973 -84.71394903105669 
14.80999999999973 -106.7299255456191 
14.81999999999973 -128.531747304741 
14.82999999999973 -148.5104734555132 
14.83999999999973 -164.1677921122027 
14.84999999999973 -172.6021394105437 
14.85999999999973 -169.6239756259105 
14.86999999999973 -149.0108136214323 
14.87999999999973 -106.2522039981551 
14.88999999999973 -44.24247475387006 
14.89999999999973 25.79842332209497 
14.90999999999973 90.27926433215646 
14.91999999999973 140.27116284353 
14.92999999999973 171.8667936401504 
14.93999999999973 182.3998274372069 
14.94999999999973 169.861994947982 
14.95999999999973 137.9896782375189 
14.96999999999973 97.89537698554462 
14.97999999999973 62.40737367864139 
14.98999999999973 38.23167895550348 
14.99999999999973 25.03380893080796 
15.00999999999972 19.27078127694069 
15.01999999999972 18.46494681437128 
15.02999999999972 22.38301127285289 
15.03999999999972 32.20407488918718 
15.04999999999972 46.50496199173583 
15.05999999999972 58.43823970390592 
15.06999999999972 57.97660653691744 
15.07999999999972 38.80250453828218 
15.08999999999972 2.234519262338317 
15.09999999999972 -44.57375935977925 
15.10999999999972 -92.67583644980546 
15.11999999999972 -133.4346819026695 
15.12999999999972 -159.2367714727817 
15.13999999999972 -164.3690448122388 
15.14999999999972 -146.7119661744922 
15.15999999999972 -109.6494460292954 
15.16999999999972 -62.19986480445998 
15.17999999999972 -16.11304667974772 
15.18999999999972 19.40493508624201 
15.19999999999972 40.49643725647975 
15.20999999999972 48.48691733943561 
15.21999999999972 46.71384129151734 
15.22999999999972 37.99185173175248 
15.23999999999972 22.86962375330128 
15.24999999999972 2.179649857409611 
15.25999999999972 -19.36548120664471 
15.26999999999972 -32.51294448371725 
15.27999999999972 -29.39120291269608 
15.28999999999972 -9.243568042064451 
15.29999999999972 21.85919089486543 
15.30999999999972 56.38163165253022 
15.31999999999972 88.56889369524231 
15.32999999999972 113.1300166560357 
15.33999999999972 123.8702994026807 
15.34999999999972 115.7721533378345 
15.35999999999972 89.00759762082987 
15.36999999999972 49.56387866310504 
15.37999999999972 5.702061795151096 
15.38999999999972 -36.39834802172229 
15.39999999999972 -73.34102666068411 
15.40999999999972 -102.7558482841716 
15.41999999999972 -122.0865563558185 
15.42999999999972 -128.9309785084872 
15.43999999999972 -120.9235216100917 
15.44999999999972 -95.9525901195247 
15.45999999999972 -55.21872439713989 
15.46999999999972 -6.851107465237656 
15.47999999999971 35.99911187544291 
15.48999999999971 63.03582559206785 
15.49999999999971 71.9758757054626 
15.50999999999971 65.89805875753243 
15.51999999999971 48.30411019517474 
15.52999999999971 23.51056205854426 
15.53999999999971 -0.7714036939370111 
15.54999999999971 -15.6028780004206 
15.55999999999971 -16.89857710766864 
15.56999999999971 -7.620815946490878 
15.57999999999971 6.206018800795017 
15.58999999999971 20.05034002250889 
15.59999999999971 31.65630424942292 
15.60999999999971 39.47589777395631 
15.61999999999971 42.09748404289712 
15.62999999999971 38.64697818922284 
15.63999999999971 28.71833279077883 
15.64999999999971 12.18066345179543 
15.65999999999971 -9.681177001609003 
15.66999999999971 -32.2964157109847 
15.67999999999971 -48.62975282230118 
15.68999999999971 -53.30181429319625 
15.69999999999971 -46.00487592917857 
15.70999999999971 -30.16332284522492 
15.71999999999971 -9.526825542068991 
15.72999999999971 12.53646635574324 
15.73999999999971 31.43279075831534 
15.74999999999971 42.00262789455636 
15.75999999999971 41.86473648688286 
15.76999999999971 32.96943151750115 
15.77999999999971 19.37795942567962 
15.78999999999971 4.623982625191084 
15.79999999999971 -9.130943515965862 
15.80999999999971 -20.34709350915572 
15.81999999999971 -27.98940003094792 
15.82999999999971 -30.90625633878001 
15.83999999999971 -27.89204369803418 
15.84999999999971 -18.08299243010794 
15.85999999999971 -3.17036533082783 
15.86999999999971 11.9376898465309 
15.87999999999971 20.36412545949507 
15.88999999999971 17.48812903587949 
15.89999999999971 3.827154449729794 
15.90999999999971 -15.51909430039144 
15.91999999999971 -34.68759065887562 
15.92999999999971 -49.67961649474903 
15.93999999999971 -57.69898270070124 
15.9499999999997 -56.07838251830233 
15.9599999999997 -43.54126962529816 
15.9699999999997 -22.40352942782515 
15.9799999999997 2.087050356385034 
15.9899999999997 24.67182124231676 
15.9999999999997 42.22966239170369 
16.0099999999997 53.34961834572555 
16.01999999999971 57.47620576287534 
16.02999999999971 54.45466497483003 
16.03999999999971 44.35928361541856 
16.04999999999971 27.46610336322239 
16.05999999999971 5.77416929158323 
16.06999999999971 -14.8819075649579 
16.07999999999971 -25.54345468323815 
16.08999999999972 -19.45004376323625 
16.09999999999972 2.502928000511151 
16.10999999999972 31.80529211894044 
16.11999999999972 58.61535182900565 
16.12999999999972 77.04219235447043 
16.13999999999972 84.81605610407475 
16.14999999999973 79.58660996189383 
16.15999999999973 59.08903916537325 
16.16999999999973 24.72864964425948 
16.17999999999973 -16.71183529367815 
16.18999999999973 -57.22689195514481 
16.19999999999973 -92.10543996533026 
16.20999999999973 -120.0984474679019 
16.21999999999974 -140.2533456151843 
16.22999999999974 -150.104199614177 
16.23999999999974 -146.2500499804619 
16.24999999999974 -125.3572412668593 
16.25999999999974 -86.38875364974459 
16.26999999999974 -33.58322512257709 
16.27999999999975 22.34025310757182 
16.28999999999975 69.32456949502293 
16.29999999999975 100.7586545144444 
16.30999999999975 117.6718399974746 
16.31999999999975 123.6249801391292 
16.32999999999975 119.9821027073946 
16.33999999999976 106.8320308918422 
16.34999999999976 87.27775402417248 
16.35999999999976 67.76793372508809 
16.36999999999976 52.9917547486193 
16.37999999999976 41.6505783539582 
16.38999999999976 28.52311406385947 
16.39999999999976 10.47900836345657 
16.40999999999977 -10.52582599149055 
16.41999999999977 -30.44215698478575 
16.42999999999977 -47.68990077195582 
16.43999999999977 -64.60187075064351 
16.44999999999977 -84.44431520953238 
16.45999999999977 -107.9668590557498 
16.46999999999978 -131.4583946836142 
16.47999999999978 -148.1399980402952 
16.48999999999978 -151.0428320525363 
16.49999999999978 -136.69102680612 
16.50999999999978 -106.3095313409292 
16.51999999999978 -64.25488489811772 
16.52999999999978 -15.17979931989715 
16.53999999999979 36.65413391716656 
16.54999999999979 85.663319906371 
16.55999999999979 124.6553081710459 
16.56999999999979 147.9261559905062 
16.57999999999979 155.1608578780103 
16.58999999999979 150.5484743461082 
16.5999999999998 138.0907652481418 
16.6099999999998 118.0191050405846 
16.6199999999998 89.4378766265995 
16.6299999999998 54.81846735936766 
16.6399999999998 21.15721302782263 
16.6499999999998 -4.444512924466135 
16.65999999999981 -18.80893403952916 
16.66999999999981 -23.37036459618261 
16.67999999999981 -22.19252249914142 
16.68999999999981 -20.6732677382393 
16.69999999999981 -23.98709391533403 
16.70999999999981 -34.72759542130977 
16.71999999999981 -51.7257542401778 
16.72999999999982 -71.77065290099007 
16.73999999999982 -91.79205756469494 
16.74999999999982 -108.1961025279069 
16.75999999999982 -115.3630014567907 
16.76999999999982 -107.5486611265783 
16.77999999999982 -83.73135947726142 
16.78999999999983 -49.08510837402207 
16.79999999999983 -10.7800757549295 
16.80999999999983 27.48562391126282 
16.81999999999983 64.99753712684348 
16.82999999999983 99.47958801200382 
16.83999999999983 124.5388807424847 
16.84999999999983 133.5018916365208 
16.85999999999984 124.0957076609384 
16.86999999999984 99.53057296262223 
16.87999999999984 65.46773883672384 
16.88999999999984 28.1121042616096 
16.89999999999984 -6.689314955911242 
16.90999999999984 -34.11543226292091 
16.91999999999985 -52.26217554679246 
16.92999999999985 -61.81812063877372 
16.93999999999985 -64.30478051741693 
16.94999999999985 -60.85830707075445 
16.95999999999985 -54.00341520736208 
16.96999999999985 -48.60013169883909 
16.97999999999986 -49.14076357944531 
16.98999999999986 -55.14432781732659 
16.99999999999986 -61.15007711126003 
17.00999999999986 -62.32686153604085 
17.01999999999986 -59.02896647842135 
17.02999999999986 -54.52989810419271 
17.03999999999986 -48.60042274789272 
17.04999999999987 -36.18944361455772 
17.05999999999987 -12.67381138731853 
17.06999999999987 20.33913863171916 
17.07999999999987 56.46399869958531 
17.08999999999987 89.75116830939494 
17.09999999999987 117.4905826615379 
17.10999999999988 137.3691354465241 
17.11999999999988 145.4112193474351 
17.12999999999988 137.8121419529805 
17.13999999999988 114.9393002931088 
17.14999999999988 81.70052386169107 
17.15999999999988 44.67851218042862 
17.16999999999988 9.391090805764319 
17.17999999999989 -19.9761725688738 
17.18999999999989 -40.54004255499697 
17.19999999999989 -51.74093241264548 
17.20999999999989 -55.77704959065183 
17.21999999999989 -56.06958916858947 
17.22999999999989 -54.91892411488606 
17.2399999999999 -53.64912094797359 
17.2499999999999 -53.95430675657002 
17.2599999999999 -58.17646145504806 
17.2699999999999 -66.80920852576021 
17.2799999999999 -77.18722111724453 
17.2899999999999 -84.6711542920975 
17.29999999999991 -86.08236911586596 
17.30999999999991 -80.66048068191648 
17.31999999999991 -68.86037969967454 
17.32999999999991 -50.06851554369646 
17.33999999999991 -23.38244816337246 
17.34999999999991 9.92576776954072 
17.35999999999991 44.95907972611418 
17.36999999999992 75.55594300260243 
17.37999999999992 97.56381060406937 
17.38999999999992 109.6743804187985 
17.39999999999992 111.8749451640648 
17.40999999999992 104.5416156659424 
17.41999999999992 88.71891606230938 
17.42999999999993 66.04974022040277 
17.43999999999993 38.87775896899466 
17.44999999999993 10.85285598298408 
17.45999999999993 -12.92686873491867 
17.46999999999993 -28.62110196786037 
17.47999999999993 -35.88246986971078 
17.48999999999993 -37.20662123074909 
17.49999999999994 -34.48507163097994 
17.50999999999994 -28.10197072299361 
17.51999999999994 -18.94296599660491 
17.52999999999994 -10.62076478047096 
17.53999999999994 -7.706760407136565 
17.54999999999994 -11.81694843805606 
17.55999999999995 -19.89447332553343 
17.56999999999995 -27.12149491712808 
17.57999999999995 -30.51905586377862 
17.58999999999995 -29.15932528674197 
17.59999999999995 -22.38996169527916 
17.60999999999995 -10.05506529435272 
17.61999999999996 6.005317311442732 
17.62999999999996 22.66172376202142 
17.63999999999996 37.61062234383783 
17.64999999999996 49.20417976747044 
17.65999999999996 54.63631508399808 
17.66999999999996 50.99182150710072 
17.67999999999996 38.57096258367559 
17.68999999999997 21.59486359196803 
17.69999999999997 4.052774116328653 
17.70999999999997 -13.42572647011221 
17.71999999999997 -31.9380747795734 
17.72999999999997 -49.80267381663607 
17.73999999999997 -62.38477807493591 
17.74999999999998 -66.20056198843994 
17.75999999999998 -62.2526233081981 
17.76999999999998 -53.72366366920691 
17.77999999999998 -42.04616655639483 
17.78999999999998 -26.88115358513231 
17.79999999999998 -9.110980996249783 
17.80999999999999 8.498722368007432 
17.81999999999999 23.79111758831554 
17.82999999999999 35.85860302782022 
17.83999999999999 43.26014493893457 
17.84999999999999 43.9842519949528 
17.85999999999999 38.75013857495915 
17.86999999999999 31.9407303391199 
17.88 27.50618052053657 
17.89 24.80086333114601 
17.9 20.81656036121769 
17.91 15.51493402196179 
17.92 12.52109801169319 
17.93 13.48842306439495 
17.94000000000001 14.67379216460629 
17.95000000000001 11.08185172230081 
17.96000000000001 2.80490491785532 
17.97000000000001 -5.509611230236825 
17.98000000000001 -10.98308733131244 
17.99000000000001 -15.32635451480863 
18.00000000000001 -20.98208390174893 
18.01000000000002 -27.2716474182188 
18.02000000000002 -31.90143572746094 
18.03000000000002 -34.42527875699663 
18.04000000000002 -35.8997122193725 
18.05000000000002 -36.68317293117111 
18.06000000000002 -36.12260212050855 
18.07000000000003 -34.39355475720117 
18.08000000000003 -31.98580932951056 
18.09000000000003 -27.7288379362796 
18.10000000000003 -19.03921464006128 
18.11000000000003 -5.358832996122428 
18.12000000000003 10.35697777296977 
18.13000000000004 24.88114992133168 
18.14000000000004 38.05237082326645 
18.15000000000004 51.12238853109653 
18.16000000000004 62.52469286664171 
18.17000000000004 68.0272027117372 
18.18000000000004 65.64192389817626 
18.19000000000004 58.17626577774504 
18.20000000000005 49.78415488893796 
18.21000000000005 41.42490248279277 
18.22000000000005 31.62508373618726 
18.23000000000005 20.20613295050667 
18.24000000000005 8.990292696150336 
18.25000000000005 -1.388588392893979 
18.26000000000006 -12.56787968203968 
18.27000000000006 -25.73123472159301 
18.28000000000006 -39.60822881538081 
18.29000000000006 -52.84907161455189 
18.30000000000006 -66.24607609684425 
18.31000000000006 -80.57712302116299 
18.32000000000006 -92.85913317221653 
18.33000000000007 -97.61824833374323 
18.34000000000007 -91.94137394960802 
18.35000000000007 -77.51993901294981 
18.36000000000007 -57.23820175787015 
18.37000000000007 -31.73013082342299 
18.38000000000007 -1.081846371238315 
18.39000000000008 31.75023592227423 
18.40000000000008 61.15678447185942 
18.41000000000008 82.99986153961206 
18.42000000000008 96.69642508481667 
18.43000000000008 103.051753630316 
18.44000000000008 102.2877529480168 
18.45000000000009 94.9334683971113 
18.46000000000009 83.23593859190579 
18.47000000000009 69.0730859833027 
18.48000000000009 52.57071973042704 
18.49000000000009 34.10134733738331 
18.50000000000009 16.84692006136796 
18.51000000000009 3.739476376042368 
18.5200000000001 -7.293120646314224 
18.5300000000001 -22.19105262204435 
18.5400000000001 -43.96386664716137 
18.5500000000001 -69.40900362581432 
18.5600000000001 -93.2811737081291 
18.5700000000001 -113.3170221066865 
18.58000000000011 -129.1622578489894 
18.59000000000011 -137.967706494481 
18.60000000000011 -133.999460279555 
18.61000000000011 -113.5029572908609 
18.62000000000011 -78.44256217712486 
18.63000000000011 -34.44159418901518 
18.64000000000011 13.37099633546426 
18.65000000000012 61.09557595951577 
18.66000000000012 103.749036417909 
18.67000000000012 135.3568504309258 
18.68000000000012 151.5953664262453 
18.69000000000012 151.0769241242234 
18.70000000000012 134.0785710029275 
18.71000000000013 102.7700942070794 
18.72000000000013 63.12366852951394 
18.73000000000013 24.17888161837157 
18.74000000000013 -6.667642835973409 
18.75000000000013 -26.93075631974934 
18.76000000000013 -37.52093858084496 
18.77000000000014 -39.65148794639985 
18.78000000000014 -35.1684079312859 
18.79000000000014 -28.32493695006678 
18.80000000000014 -25.26993978947472 
18.81000000000014 -30.13125330887431 
18.82000000000014 -42.8036814539438 
18.83000000000014 -60.3071426427278 
18.84000000000015 -79.66549523565375 
18.85000000000015 -98.10664241070275 
18.86000000000015 -111.6294916240795 
18.87000000000015 -115.4500905134691 
18.88000000000015 -106.3784174768639 
18.89000000000015 -83.79708660745808 
18.90000000000016 -48.17444820212025 
18.91000000000016 -1.10560942342927 
18.92000000000016 52.24799052896974 
18.93000000000016 102.5659406726542 
18.94000000000016 140.8736446543871 
18.95000000000016 163.3633498225128 
18.96000000000016 170.6677766082901 
18.97000000000017 163.4261097514948 
18.98000000000017 141.3674010605774 
18.99000000000017 107.0001575204642 
19.00000000000017 67.50522076395608 
19.01000000000017 30.67424218662173 
19.02000000000017 0.03855568141384679 
19.03000000000018 -24.55137742088491 
19.04000000000018 -42.71769399118547 
19.05000000000018 -52.71591692693667 
19.06000000000018 -54.89370131675123 
19.07000000000018 -53.47230282647288 
19.08000000000018 -53.41611927410966 
19.09000000000019 -56.93522558726529 
19.10000000000019 -64.1972219731783 
19.11000000000019 -75.55628151567694 
19.12000000000019 -90.73697164625789 
19.13000000000019 -105.9148989121835 
19.14000000000019 -114.382168673071 
19.15000000000019 -110.8231466701949 
19.1600000000002 -94.33809466156228 
19.1700000000002 -66.67028503363324 
19.1800000000002 -29.58191155593018 
19.1900000000002 14.73486135779267 
19.2000000000002 61.41397922499221 
19.2100000000002 103.5184944576758 
19.22000000000021 135.2081574695621 
19.23000000000021 153.7947322272781 
19.24000000000021 158.5557058315026 
19.25000000000021 149.4770078515385 
19.26000000000021 127.6844870445011 
19.27000000000021 96.47114011252093 
19.28000000000021 60.47594924117347 
19.29000000000022 24.29301421828303 
19.30000000000022 -8.213680360387762 
19.31000000000022 -33.88946032592951 
19.32000000000022 -51.29469551210465 
19.33000000000022 -61.64137985904125 
19.34000000000022 -68.16891141066678 
19.35000000000023 -73.93743172095894 
19.36000000000023 -80.53008680921793 
19.37000000000023 -88.40329884829538 
19.38000000000023 -97.50777925698141 
19.39000000000023 -106.6413677446317 
19.40000000000023 -112.7569147119674 
19.41000000000024 -111.9917596856641 
19.42000000000024 -101.6997018242584 
19.43000000000024 -81.50893446308089 
19.44000000000024 -52.43344803884315 
19.45000000000024 -16.35776261455344 
19.46000000000024 23.53142470816197 
19.47000000000024 62.46517295233963 
19.48000000000025 96.05482341968666 
19.49000000000025 122.1016107966556 
19.50000000000025 139.9756862230447 
19.51000000000025 148.0164421802568 
19.52000000000025 143.7760693326783 
19.53000000000025 127.1520862736826 
19.54000000000026 102.4635485428263 
19.55000000000026 75.62876582323681 
19.56000000000026 50.15355163860927 
19.57000000000026 26.59318158638022 
19.58000000000026 5.670019871818485 
19.59000000000026 -10.50679584390647 
19.60000000000026 -20.72661953755586 
19.61000000000027 -27.51885937468735 
19.62000000000027 -35.81475109679167 
19.63000000000027 -49.314265115145 
19.64000000000027 -68.15168980948113 
19.65000000000027 -90.10316060290921 
19.66000000000027 -111.8948127088832 
19.67000000000028 -129.6280819665921 
19.68000000000028 -139.0551466017061 
19.69000000000028 -137.5183756945823 
19.70000000000028 -124.8488973933687 
19.71000000000028 -101.935441638578 
19.72000000000028 -69.04192158802664 
19.73000000000029 -27.13970659584477 
19.74000000000029 19.73933018964034 
19.75000000000029 65.20887643329456 
19.76000000000029 104.0391259995142 
19.77000000000029 133.9828383988983 
19.78000000000029 153.983810231665 
19.79000000000029 162.2540431667364 
19.8000000000003 157.1333437015179 
19.8100000000003 139.6462620532372 
19.8200000000003 113.8802585221181 
19.8300000000003 84.94490959071227 
19.8400000000003 56.58453982030779 
19.8500000000003 30.7203409177815 
19.86000000000031 7.761586048239782 
19.87000000000031 -13.20332668268908 
19.88000000000031 -34.04974186048832 
19.89000000000031 -55.98885335491287 
19.90000000000031 -78.43756113503295 
19.91000000000031 -99.92647928927836 
19.92000000000031 -119.9441680598852 
19.93000000000032 -138.426743259266 
19.94000000000032 -153.6570687059561 
19.95000000000032 -161.8338531846865 
19.96000000000032 -159.6530056271421 
19.97000000000032 -146.2028891283834 
19.98000000000032 -122.215633196827 
19.99000000000033 -78.01334539860396 
20.00000000000033 -32.17686167693937 
